<?xml version="1.0" encoding="UTF-8" standalone="no"?>
<!DOCTYPE svg PUBLIC "-//W3C//DTD SVG 1.1//EN"
 "http://www.w3.org/Graphics/SVG/1.1/DTD/svg11.dtd">
<!-- Generated by graphviz version 2.46.1 (20210213.1702)
 -->
<!-- Title: D Pages: 1 -->
<svg width="3632pt" height="335pt"
 viewBox="0.00 0.00 3632.50 335.00" xmlns="http://www.w3.org/2000/svg" xmlns:xlink="http://www.w3.org/1999/xlink">
<g id="graph0" class="graph" transform="scale(1 1) rotate(0) translate(4 331)">
<title>D</title>
<polygon fill="white" stroke="transparent" points="-4,4 -4,-331 3628.5,-331 3628.5,4 -4,4"/>
<!-- OPCONTRQ -->
<g id="node1" class="node">
<title>OPCONTRQ</title>
<ellipse fill="none" stroke="black" cx="2095" cy="-309" rx="18" ry="18"/>
</g>
<!-- DCWCFPYP -->
<g id="node2" class="node">
<title>DCWCFPYP</title>
<ellipse fill="none" stroke="black" cx="1569" cy="-237" rx="18" ry="18"/>
</g>
<!-- OPCONTRQ&#45;&gt;DCWCFPYP -->
<g id="edge1" class="edge">
<title>OPCONTRQ&#45;&gt;DCWCFPYP</title>
<path fill="none" stroke="black" d="M2077.2,-305.63C1999.7,-295.31 1691.38,-254.28 1596.76,-241.69"/>
<polygon fill="black" stroke="black" points="1597.17,-238.21 1586.8,-240.37 1596.25,-245.15 1597.17,-238.21"/>
</g>
<!-- UZMFQSBW -->
<g id="node66" class="node">
<title>UZMFQSBW</title>
<ellipse fill="none" stroke="black" cx="2758" cy="-237" rx="18" ry="18"/>
</g>
<!-- OPCONTRQ&#45;&gt;UZMFQSBW -->
<g id="edge65" class="edge">
<title>OPCONTRQ&#45;&gt;UZMFQSBW</title>
<path fill="none" stroke="black" d="M2113.08,-306.09C2204.67,-296.42 2617.49,-252.83 2729.75,-240.98"/>
<polygon fill="black" stroke="black" points="2730.36,-244.43 2739.94,-239.9 2729.63,-237.47 2730.36,-244.43"/>
</g>
<!-- IUFTWPIS -->
<g id="node3" class="node">
<title>IUFTWPIS</title>
<ellipse fill="none" stroke="black" cx="428" cy="-165" rx="18" ry="18"/>
</g>
<!-- DCWCFPYP&#45;&gt;IUFTWPIS -->
<g id="edge2" class="edge">
<title>DCWCFPYP&#45;&gt;IUFTWPIS</title>
<path fill="none" stroke="black" d="M1551.08,-234.9C1420.54,-226.89 616.58,-177.57 455.92,-167.71"/>
<polygon fill="black" stroke="black" points="456.08,-164.21 445.88,-167.09 455.65,-171.2 456.08,-164.21"/>
</g>
<!-- HKAJQSEX -->
<g id="node21" class="node">
<title>HKAJQSEX</title>
<ellipse fill="none" stroke="black" cx="1014" cy="-165" rx="18" ry="18"/>
</g>
<!-- DCWCFPYP&#45;&gt;HKAJQSEX -->
<g id="edge20" class="edge">
<title>DCWCFPYP&#45;&gt;HKAJQSEX</title>
<path fill="none" stroke="black" d="M1551.16,-233.75C1470.6,-223.59 1140.33,-181.93 1041.84,-169.51"/>
<polygon fill="black" stroke="black" points="1042.13,-166.02 1031.77,-168.24 1041.25,-172.96 1042.13,-166.02"/>
</g>
<!-- RLALWVUU -->
<g id="node34" class="node">
<title>RLALWVUU</title>
<ellipse fill="none" stroke="black" cx="1569" cy="-165" rx="18" ry="18"/>
</g>
<!-- DCWCFPYP&#45;&gt;RLALWVUU -->
<g id="edge33" class="edge">
<title>DCWCFPYP&#45;&gt;RLALWVUU</title>
<path fill="none" stroke="black" d="M1569,-218.69C1569,-210.98 1569,-201.71 1569,-193.11"/>
<polygon fill="black" stroke="black" points="1572.5,-193.1 1569,-183.1 1565.5,-193.1 1572.5,-193.1"/>
</g>
<!-- SOBQCTZO -->
<g id="node52" class="node">
<title>SOBQCTZO</title>
<ellipse fill="none" stroke="black" cx="2071" cy="-165" rx="18" ry="18"/>
</g>
<!-- DCWCFPYP&#45;&gt;SOBQCTZO -->
<g id="edge51" class="edge">
<title>DCWCFPYP&#45;&gt;SOBQCTZO</title>
<path fill="none" stroke="black" d="M1586.87,-233.51C1661.88,-223.04 1951.72,-182.63 2043.18,-169.88"/>
<polygon fill="black" stroke="black" points="2043.67,-173.34 2053.09,-168.49 2042.7,-166.41 2043.67,-173.34"/>
</g>
<!-- QWVXQWLF -->
<g id="node4" class="node">
<title>QWVXQWLF</title>
<ellipse fill="none" stroke="black" cx="99" cy="-93" rx="18" ry="18"/>
</g>
<!-- IUFTWPIS&#45;&gt;QWVXQWLF -->
<g id="edge3" class="edge">
<title>IUFTWPIS&#45;&gt;QWVXQWLF</title>
<path fill="none" stroke="black" d="M410.31,-160.23C356.07,-148.69 191.82,-113.74 126.35,-99.82"/>
<polygon fill="black" stroke="black" points="126.89,-96.35 116.38,-97.69 125.43,-103.2 126.89,-96.35"/>
</g>
<!-- NYLTWPLL -->
<g id="node8" class="node">
<title>NYLTWPLL</title>
<ellipse fill="none" stroke="black" cx="262" cy="-93" rx="18" ry="18"/>
</g>
<!-- IUFTWPIS&#45;&gt;NYLTWPLL -->
<g id="edge7" class="edge">
<title>IUFTWPIS&#45;&gt;NYLTWPLL</title>
<path fill="none" stroke="black" d="M411.78,-157.16C382.97,-145.01 322.65,-119.57 287.99,-104.96"/>
<polygon fill="black" stroke="black" points="289.1,-101.63 278.53,-100.97 286.39,-108.08 289.1,-101.63"/>
</g>
<!-- DYNDOWNW -->
<g id="node12" class="node">
<title>DYNDOWNW</title>
<ellipse fill="none" stroke="black" cx="428" cy="-93" rx="18" ry="18"/>
</g>
<!-- IUFTWPIS&#45;&gt;DYNDOWNW -->
<g id="edge11" class="edge">
<title>IUFTWPIS&#45;&gt;DYNDOWNW</title>
<path fill="none" stroke="black" d="M428,-146.69C428,-138.98 428,-129.71 428,-121.11"/>
<polygon fill="black" stroke="black" points="431.5,-121.1 428,-111.1 424.5,-121.1 431.5,-121.1"/>
</g>
<!-- NSXQPMRF -->
<g id="node17" class="node">
<title>NSXQPMRF</title>
<ellipse fill="none" stroke="black" cx="591" cy="-93" rx="18" ry="18"/>
</g>
<!-- IUFTWPIS&#45;&gt;NSXQPMRF -->
<g id="edge16" class="edge">
<title>IUFTWPIS&#45;&gt;NSXQPMRF</title>
<path fill="none" stroke="black" d="M444.22,-157.03C472.66,-144.82 531.7,-119.46 565.59,-104.91"/>
<polygon fill="black" stroke="black" points="567.03,-108.1 574.84,-100.94 564.27,-101.67 567.03,-108.1"/>
</g>
<!-- GEKZLYCK -->
<g id="node5" class="node">
<title>GEKZLYCK</title>
<ellipse fill="none" stroke="black" cx="18" cy="-19.5" rx="18" ry="18"/>
<text text-anchor="middle" x="18" y="-15.8" font-family="Times,serif" font-size="14.00">6</text>
</g>
<!-- QWVXQWLF&#45;&gt;GEKZLYCK -->
<g id="edge4" class="edge">
<title>QWVXQWLF&#45;&gt;GEKZLYCK</title>
<path fill="none" stroke="black" d="M85.99,-80.51C73.31,-69.32 53.83,-52.12 38.96,-39"/>
<polygon fill="black" stroke="black" points="41.06,-36.19 31.25,-32.19 36.43,-41.44 41.06,-36.19"/>
</g>
<!-- PGRNAPQI -->
<g id="node6" class="node">
<title>PGRNAPQI</title>
<ellipse fill="none" stroke="black" cx="72" cy="-19.5" rx="18" ry="18"/>
<text text-anchor="middle" x="72" y="-15.8" font-family="Times,serif" font-size="14.00">9</text>
</g>
<!-- QWVXQWLF&#45;&gt;PGRNAPQI -->
<g id="edge5" class="edge">
<title>QWVXQWLF&#45;&gt;PGRNAPQI</title>
<path fill="none" stroke="black" d="M92.87,-75.77C89.56,-67 85.39,-55.96 81.65,-46.05"/>
<polygon fill="black" stroke="black" points="84.91,-44.78 78.1,-36.66 78.36,-47.25 84.91,-44.78"/>
</g>
<!-- WGHSEGQP -->
<g id="node7" class="node">
<title>WGHSEGQP</title>
<ellipse fill="none" stroke="black" cx="126" cy="-19.5" rx="18" ry="18"/>
<text text-anchor="middle" x="126" y="-15.8" font-family="Times,serif" font-size="14.00">7</text>
</g>
<!-- QWVXQWLF&#45;&gt;WGHSEGQP -->
<g id="edge6" class="edge">
<title>QWVXQWLF&#45;&gt;WGHSEGQP</title>
<path fill="none" stroke="black" d="M105.13,-75.77C108.44,-67 112.61,-55.96 116.35,-46.05"/>
<polygon fill="black" stroke="black" points="119.64,-47.25 119.9,-36.66 113.09,-44.78 119.64,-47.25"/>
</g>
<!-- HKRMABID -->
<g id="node9" class="node">
<title>HKRMABID</title>
<ellipse fill="none" stroke="black" cx="180" cy="-19.5" rx="18" ry="18"/>
<text text-anchor="middle" x="180" y="-15.8" font-family="Times,serif" font-size="14.00">5</text>
</g>
<!-- NYLTWPLL&#45;&gt;HKRMABID -->
<g id="edge8" class="edge">
<title>NYLTWPLL&#45;&gt;HKRMABID</title>
<path fill="none" stroke="black" d="M248.83,-80.51C235.91,-69.25 216.03,-51.92 200.95,-38.77"/>
<polygon fill="black" stroke="black" points="202.98,-35.89 193.14,-31.96 198.38,-41.17 202.98,-35.89"/>
</g>
<!-- HXWUATTV -->
<g id="node10" class="node">
<title>HXWUATTV</title>
<ellipse fill="none" stroke="black" cx="235" cy="-19.5" rx="19.5" ry="19.5"/>
<text text-anchor="middle" x="235" y="-15.8" font-family="Times,serif" font-size="14.00">12</text>
</g>
<!-- NYLTWPLL&#45;&gt;HXWUATTV -->
<g id="edge9" class="edge">
<title>NYLTWPLL&#45;&gt;HXWUATTV</title>
<path fill="none" stroke="black" d="M255.87,-75.77C252.71,-67.39 248.77,-56.95 245.16,-47.41"/>
<polygon fill="black" stroke="black" points="248.38,-46.03 241.57,-37.91 241.83,-48.5 248.38,-46.03"/>
</g>
<!-- JGTCXTMY -->
<g id="node11" class="node">
<title>JGTCXTMY</title>
<ellipse fill="none" stroke="black" cx="290" cy="-19.5" rx="18" ry="18"/>
<text text-anchor="middle" x="290" y="-15.8" font-family="Times,serif" font-size="14.00">7</text>
</g>
<!-- NYLTWPLL&#45;&gt;JGTCXTMY -->
<g id="edge10" class="edge">
<title>NYLTWPLL&#45;&gt;JGTCXTMY</title>
<path fill="none" stroke="black" d="M268.35,-75.77C271.79,-67 276.11,-55.96 279.99,-46.05"/>
<polygon fill="black" stroke="black" points="283.28,-47.25 283.67,-36.66 276.77,-44.69 283.28,-47.25"/>
</g>
<!-- DTOKYLRA -->
<g id="node13" class="node">
<title>DTOKYLRA</title>
<ellipse fill="none" stroke="black" cx="345" cy="-19.5" rx="19.5" ry="19.5"/>
<text text-anchor="middle" x="345" y="-15.8" font-family="Times,serif" font-size="14.00">13</text>
</g>
<!-- DYNDOWNW&#45;&gt;DTOKYLRA -->
<g id="edge12" class="edge">
<title>DYNDOWNW&#45;&gt;DTOKYLRA</title>
<path fill="none" stroke="black" d="M414.66,-80.51C401.91,-69.52 382.42,-52.73 367.3,-39.71"/>
<polygon fill="black" stroke="black" points="369.28,-36.79 359.42,-32.92 364.71,-42.1 369.28,-36.79"/>
</g>
<!-- UCJNWKME -->
<g id="node14" class="node">
<title>UCJNWKME</title>
<ellipse fill="none" stroke="black" cx="400" cy="-19.5" rx="18" ry="18"/>
<text text-anchor="middle" x="400" y="-15.8" font-family="Times,serif" font-size="14.00">8</text>
</g>
<!-- DYNDOWNW&#45;&gt;UCJNWKME -->
<g id="edge13" class="edge">
<title>DYNDOWNW&#45;&gt;UCJNWKME</title>
<path fill="none" stroke="black" d="M421.65,-75.77C418.21,-67 413.89,-55.96 410.01,-46.05"/>
<polygon fill="black" stroke="black" points="413.23,-44.69 406.33,-36.66 406.72,-47.25 413.23,-44.69"/>
</g>
<!-- EHGRJLYL -->
<g id="node15" class="node">
<title>EHGRJLYL</title>
<ellipse fill="none" stroke="black" cx="455" cy="-19.5" rx="19.5" ry="19.5"/>
<text text-anchor="middle" x="455" y="-15.8" font-family="Times,serif" font-size="14.00">10</text>
</g>
<!-- DYNDOWNW&#45;&gt;EHGRJLYL -->
<g id="edge14" class="edge">
<title>DYNDOWNW&#45;&gt;EHGRJLYL</title>
<path fill="none" stroke="black" d="M434.13,-75.77C437.29,-67.39 441.23,-56.95 444.84,-47.41"/>
<polygon fill="black" stroke="black" points="448.17,-48.5 448.43,-37.91 441.62,-46.03 448.17,-48.5"/>
</g>
<!-- HBRNGSER -->
<g id="node16" class="node">
<title>HBRNGSER</title>
<ellipse fill="none" stroke="black" cx="510" cy="-19.5" rx="18" ry="18"/>
<text text-anchor="middle" x="510" y="-15.8" font-family="Times,serif" font-size="14.00">2</text>
</g>
<!-- DYNDOWNW&#45;&gt;HBRNGSER -->
<g id="edge15" class="edge">
<title>DYNDOWNW&#45;&gt;HBRNGSER</title>
<path fill="none" stroke="black" d="M441.17,-80.51C454.09,-69.25 473.97,-51.92 489.05,-38.77"/>
<polygon fill="black" stroke="black" points="491.62,-41.17 496.86,-31.96 487.02,-35.89 491.62,-41.17"/>
</g>
<!-- KCGBOLLH -->
<g id="node18" class="node">
<title>KCGBOLLH</title>
<ellipse fill="none" stroke="black" cx="564" cy="-19.5" rx="18" ry="18"/>
<text text-anchor="middle" x="564" y="-15.8" font-family="Times,serif" font-size="14.00">3</text>
</g>
<!-- NSXQPMRF&#45;&gt;KCGBOLLH -->
<g id="edge17" class="edge">
<title>NSXQPMRF&#45;&gt;KCGBOLLH</title>
<path fill="none" stroke="black" d="M584.87,-75.77C581.56,-67 577.39,-55.96 573.65,-46.05"/>
<polygon fill="black" stroke="black" points="576.91,-44.78 570.1,-36.66 570.36,-47.25 576.91,-44.78"/>
</g>
<!-- RASSNPQL -->
<g id="node19" class="node">
<title>RASSNPQL</title>
<ellipse fill="none" stroke="black" cx="618" cy="-19.5" rx="18" ry="18"/>
<text text-anchor="middle" x="618" y="-15.8" font-family="Times,serif" font-size="14.00">1</text>
</g>
<!-- NSXQPMRF&#45;&gt;RASSNPQL -->
<g id="edge18" class="edge">
<title>NSXQPMRF&#45;&gt;RASSNPQL</title>
<path fill="none" stroke="black" d="M597.13,-75.77C600.44,-67 604.61,-55.96 608.35,-46.05"/>
<polygon fill="black" stroke="black" points="611.64,-47.25 611.9,-36.66 605.09,-44.78 611.64,-47.25"/>
</g>
<!-- KZIAMGWZ -->
<g id="node20" class="node">
<title>KZIAMGWZ</title>
<ellipse fill="none" stroke="black" cx="673" cy="-19.5" rx="19.5" ry="19.5"/>
<text text-anchor="middle" x="673" y="-15.8" font-family="Times,serif" font-size="14.00">13</text>
</g>
<!-- NSXQPMRF&#45;&gt;KZIAMGWZ -->
<g id="edge19" class="edge">
<title>NSXQPMRF&#45;&gt;KZIAMGWZ</title>
<path fill="none" stroke="black" d="M604.17,-80.51C616.78,-69.52 636.03,-52.73 650.97,-39.71"/>
<polygon fill="black" stroke="black" points="653.52,-42.13 658.76,-32.92 648.92,-36.85 653.52,-42.13"/>
</g>
<!-- OUZLSLIJ -->
<g id="node22" class="node">
<title>OUZLSLIJ</title>
<ellipse fill="none" stroke="black" cx="787" cy="-93" rx="18" ry="18"/>
</g>
<!-- HKAJQSEX&#45;&gt;OUZLSLIJ -->
<g id="edge21" class="edge">
<title>HKAJQSEX&#45;&gt;OUZLSLIJ</title>
<path fill="none" stroke="black" d="M996.94,-158.74C957.73,-146.65 860.97,-116.81 813.76,-102.25"/>
<polygon fill="black" stroke="black" points="814.54,-98.83 803.95,-99.22 812.47,-105.51 814.54,-98.83"/>
</g>
<!-- UNWXDYCA -->
<g id="node25" class="node">
<title>UNWXDYCA</title>
<ellipse fill="none" stroke="black" cx="958" cy="-93" rx="18" ry="18"/>
</g>
<!-- HKAJQSEX&#45;&gt;UNWXDYCA -->
<g id="edge24" class="edge">
<title>HKAJQSEX&#45;&gt;UNWXDYCA</title>
<path fill="none" stroke="black" d="M1003.2,-150.5C995.22,-140.53 984.2,-126.75 975.04,-115.29"/>
<polygon fill="black" stroke="black" points="977.74,-113.07 968.76,-107.45 972.28,-117.45 977.74,-113.07"/>
</g>
<!-- ITMZASLJ -->
<g id="node30" class="node">
<title>ITMZASLJ</title>
<ellipse fill="none" stroke="black" cx="1097" cy="-93" rx="18" ry="18"/>
</g>
<!-- HKAJQSEX&#45;&gt;ITMZASLJ -->
<g id="edge29" class="edge">
<title>HKAJQSEX&#45;&gt;ITMZASLJ</title>
<path fill="none" stroke="black" d="M1027.34,-152.75C1040.4,-141.73 1060.53,-124.76 1075.79,-111.88"/>
<polygon fill="black" stroke="black" points="1078.31,-114.34 1083.7,-105.22 1073.8,-108.99 1078.31,-114.34"/>
</g>
<!-- QPVJCIQQ -->
<g id="node23" class="node">
<title>QPVJCIQQ</title>
<ellipse fill="none" stroke="black" cx="730" cy="-19.5" rx="19.5" ry="19.5"/>
<text text-anchor="middle" x="730" y="-15.8" font-family="Times,serif" font-size="14.00">12</text>
</g>
<!-- OUZLSLIJ&#45;&gt;QPVJCIQQ -->
<g id="edge22" class="edge">
<title>OUZLSLIJ&#45;&gt;QPVJCIQQ</title>
<path fill="none" stroke="black" d="M776.01,-78.21C768.1,-68.28 757.24,-54.67 748.06,-43.16"/>
<polygon fill="black" stroke="black" points="750.71,-40.86 741.74,-35.23 745.24,-45.23 750.71,-40.86"/>
</g>
<!-- RULQYOYY -->
<g id="node24" class="node">
<title>RULQYOYY</title>
<ellipse fill="none" stroke="black" cx="787" cy="-19.5" rx="19.5" ry="19.5"/>
<text text-anchor="middle" x="787" y="-15.8" font-family="Times,serif" font-size="14.00">10</text>
</g>
<!-- OUZLSLIJ&#45;&gt;RULQYOYY -->
<g id="edge23" class="edge">
<title>OUZLSLIJ&#45;&gt;RULQYOYY</title>
<path fill="none" stroke="black" d="M787,-74.69C787,-67.05 787,-57.86 787,-49.24"/>
<polygon fill="black" stroke="black" points="790.5,-49.15 787,-39.15 783.5,-49.15 790.5,-49.15"/>
</g>
<!-- GAZWLFAT -->
<g id="node26" class="node">
<title>GAZWLFAT</title>
<ellipse fill="none" stroke="black" cx="844" cy="-19.5" rx="19.5" ry="19.5"/>
<text text-anchor="middle" x="844" y="-15.8" font-family="Times,serif" font-size="14.00">13</text>
</g>
<!-- UNWXDYCA&#45;&gt;GAZWLFAT -->
<g id="edge25" class="edge">
<title>UNWXDYCA&#45;&gt;GAZWLFAT</title>
<path fill="none" stroke="black" d="M942.92,-82.66C925.91,-72.11 897.42,-54.4 873,-39 871.71,-38.18 870.38,-37.34 869.04,-36.49"/>
<polygon fill="black" stroke="black" points="870.56,-33.31 860.24,-30.9 866.8,-39.22 870.56,-33.31"/>
</g>
<!-- FYOYHSPI -->
<g id="node27" class="node">
<title>FYOYHSPI</title>
<ellipse fill="none" stroke="black" cx="901" cy="-19.5" rx="19.5" ry="19.5"/>
<text text-anchor="middle" x="901" y="-15.8" font-family="Times,serif" font-size="14.00">14</text>
</g>
<!-- UNWXDYCA&#45;&gt;FYOYHSPI -->
<g id="edge26" class="edge">
<title>UNWXDYCA&#45;&gt;FYOYHSPI</title>
<path fill="none" stroke="black" d="M947.01,-78.21C939.1,-68.28 928.24,-54.67 919.06,-43.16"/>
<polygon fill="black" stroke="black" points="921.71,-40.86 912.74,-35.23 916.24,-45.23 921.71,-40.86"/>
</g>
<!-- PFVOBXPJ -->
<g id="node28" class="node">
<title>PFVOBXPJ</title>
<ellipse fill="none" stroke="black" cx="958" cy="-19.5" rx="19.5" ry="19.5"/>
<text text-anchor="middle" x="958" y="-15.8" font-family="Times,serif" font-size="14.00">12</text>
</g>
<!-- UNWXDYCA&#45;&gt;PFVOBXPJ -->
<g id="edge27" class="edge">
<title>UNWXDYCA&#45;&gt;PFVOBXPJ</title>
<path fill="none" stroke="black" d="M958,-74.69C958,-67.05 958,-57.86 958,-49.24"/>
<polygon fill="black" stroke="black" points="961.5,-49.15 958,-39.15 954.5,-49.15 961.5,-49.15"/>
</g>
<!-- YVGHOWRM -->
<g id="node29" class="node">
<title>YVGHOWRM</title>
<ellipse fill="none" stroke="black" cx="1015" cy="-19.5" rx="19.5" ry="19.5"/>
<text text-anchor="middle" x="1015" y="-15.8" font-family="Times,serif" font-size="14.00">12</text>
</g>
<!-- UNWXDYCA&#45;&gt;YVGHOWRM -->
<g id="edge28" class="edge">
<title>UNWXDYCA&#45;&gt;YVGHOWRM</title>
<path fill="none" stroke="black" d="M968.99,-78.21C976.9,-68.28 987.76,-54.67 996.94,-43.16"/>
<polygon fill="black" stroke="black" points="999.76,-45.23 1003.26,-35.23 994.29,-40.86 999.76,-45.23"/>
</g>
<!-- CFWQRWPU -->
<g id="node31" class="node">
<title>CFWQRWPU</title>
<ellipse fill="none" stroke="black" cx="1070" cy="-19.5" rx="18" ry="18"/>
<text text-anchor="middle" x="1070" y="-15.8" font-family="Times,serif" font-size="14.00">5</text>
</g>
<!-- ITMZASLJ&#45;&gt;CFWQRWPU -->
<g id="edge30" class="edge">
<title>ITMZASLJ&#45;&gt;CFWQRWPU</title>
<path fill="none" stroke="black" d="M1090.87,-75.77C1087.56,-67 1083.39,-55.96 1079.65,-46.05"/>
<polygon fill="black" stroke="black" points="1082.91,-44.78 1076.1,-36.66 1076.36,-47.25 1082.91,-44.78"/>
</g>
<!-- RXNTWJYY -->
<g id="node32" class="node">
<title>RXNTWJYY</title>
<ellipse fill="none" stroke="black" cx="1124" cy="-19.5" rx="18" ry="18"/>
<text text-anchor="middle" x="1124" y="-15.8" font-family="Times,serif" font-size="14.00">8</text>
</g>
<!-- ITMZASLJ&#45;&gt;RXNTWJYY -->
<g id="edge31" class="edge">
<title>ITMZASLJ&#45;&gt;RXNTWJYY</title>
<path fill="none" stroke="black" d="M1103.13,-75.77C1106.44,-67 1110.61,-55.96 1114.35,-46.05"/>
<polygon fill="black" stroke="black" points="1117.64,-47.25 1117.9,-36.66 1111.09,-44.78 1117.64,-47.25"/>
</g>
<!-- RVLCYYPS -->
<g id="node33" class="node">
<title>RVLCYYPS</title>
<ellipse fill="none" stroke="black" cx="1179" cy="-19.5" rx="19.5" ry="19.5"/>
<text text-anchor="middle" x="1179" y="-15.8" font-family="Times,serif" font-size="14.00">14</text>
</g>
<!-- ITMZASLJ&#45;&gt;RVLCYYPS -->
<g id="edge32" class="edge">
<title>ITMZASLJ&#45;&gt;RVLCYYPS</title>
<path fill="none" stroke="black" d="M1110.17,-80.51C1122.78,-69.52 1142.03,-52.73 1156.97,-39.71"/>
<polygon fill="black" stroke="black" points="1159.52,-42.13 1164.76,-32.92 1154.92,-36.85 1159.52,-42.13"/>
</g>
<!-- QWGERYHG -->
<g id="node35" class="node">
<title>QWGERYHG</title>
<ellipse fill="none" stroke="black" cx="1345" cy="-93" rx="18" ry="18"/>
</g>
<!-- RLALWVUU&#45;&gt;QWGERYHG -->
<g id="edge34" class="edge">
<title>RLALWVUU&#45;&gt;QWGERYHG</title>
<path fill="none" stroke="black" d="M1551.8,-158.62C1512.94,-146.48 1418.15,-116.86 1371.64,-102.32"/>
<polygon fill="black" stroke="black" points="1372.55,-98.94 1361.96,-99.3 1370.46,-105.62 1372.55,-98.94"/>
</g>
<!-- ACCBJABO -->
<g id="node40" class="node">
<title>ACCBJABO</title>
<ellipse fill="none" stroke="black" cx="1514" cy="-93" rx="18" ry="18"/>
</g>
<!-- RLALWVUU&#45;&gt;ACCBJABO -->
<g id="edge39" class="edge">
<title>RLALWVUU&#45;&gt;ACCBJABO</title>
<path fill="none" stroke="black" d="M1558.13,-150.17C1550.45,-140.39 1539.99,-127.08 1531.18,-115.87"/>
<polygon fill="black" stroke="black" points="1533.77,-113.5 1524.84,-107.8 1528.27,-117.82 1533.77,-113.5"/>
</g>
<!-- XRNEEHZG -->
<g id="node43" class="node">
<title>XRNEEHZG</title>
<ellipse fill="none" stroke="black" cx="1624" cy="-93" rx="18" ry="18"/>
</g>
<!-- RLALWVUU&#45;&gt;XRNEEHZG -->
<g id="edge42" class="edge">
<title>RLALWVUU&#45;&gt;XRNEEHZG</title>
<path fill="none" stroke="black" d="M1579.87,-150.17C1587.55,-140.39 1598.01,-127.08 1606.82,-115.87"/>
<polygon fill="black" stroke="black" points="1609.73,-117.82 1613.16,-107.8 1604.23,-113.5 1609.73,-117.82"/>
</g>
<!-- REIISNAK -->
<g id="node48" class="node">
<title>REIISNAK</title>
<ellipse fill="none" stroke="black" cx="1820" cy="-93" rx="18" ry="18"/>
</g>
<!-- RLALWVUU&#45;&gt;REIISNAK -->
<g id="edge47" class="edge">
<title>RLALWVUU&#45;&gt;REIISNAK</title>
<path fill="none" stroke="black" d="M1586.25,-159.19C1629.15,-147.22 1740.91,-116.05 1792.8,-101.58"/>
<polygon fill="black" stroke="black" points="1793.93,-104.9 1802.63,-98.84 1792.05,-98.16 1793.93,-104.9"/>
</g>
<!-- CPXAAQUH -->
<g id="node36" class="node">
<title>CPXAAQUH</title>
<ellipse fill="none" stroke="black" cx="1236" cy="-19.5" rx="19.5" ry="19.5"/>
<text text-anchor="middle" x="1236" y="-15.8" font-family="Times,serif" font-size="14.00">12</text>
</g>
<!-- QWGERYHG&#45;&gt;CPXAAQUH -->
<g id="edge35" class="edge">
<title>QWGERYHG&#45;&gt;CPXAAQUH</title>
<path fill="none" stroke="black" d="M1330.35,-82.44C1314.12,-71.84 1287.17,-54.23 1264,-39 1262.9,-38.28 1261.79,-37.54 1260.66,-36.8"/>
<polygon fill="black" stroke="black" points="1262.26,-33.66 1251.98,-31.08 1258.4,-39.5 1262.26,-33.66"/>
</g>
<!-- LQAYOEJB -->
<g id="node37" class="node">
<title>LQAYOEJB</title>
<ellipse fill="none" stroke="black" cx="1291" cy="-19.5" rx="18" ry="18"/>
<text text-anchor="middle" x="1291" y="-15.8" font-family="Times,serif" font-size="14.00">2</text>
</g>
<!-- QWGERYHG&#45;&gt;LQAYOEJB -->
<g id="edge36" class="edge">
<title>QWGERYHG&#45;&gt;LQAYOEJB</title>
<path fill="none" stroke="black" d="M1334.59,-78.21C1326.89,-68.02 1316.26,-53.95 1307.43,-42.25"/>
<polygon fill="black" stroke="black" points="1310.2,-40.11 1301.38,-34.24 1304.61,-44.33 1310.2,-40.11"/>
</g>
<!-- DSFCNADR -->
<g id="node38" class="node">
<title>DSFCNADR</title>
<ellipse fill="none" stroke="black" cx="1345" cy="-19.5" rx="18" ry="18"/>
<text text-anchor="middle" x="1345" y="-15.8" font-family="Times,serif" font-size="14.00">9</text>
</g>
<!-- QWGERYHG&#45;&gt;DSFCNADR -->
<g id="edge37" class="edge">
<title>QWGERYHG&#45;&gt;DSFCNADR</title>
<path fill="none" stroke="black" d="M1345,-74.69C1345,-66.61 1345,-56.8 1345,-47.76"/>
<polygon fill="black" stroke="black" points="1348.5,-47.65 1345,-37.65 1341.5,-47.65 1348.5,-47.65"/>
</g>
<!-- CQTUJPYY -->
<g id="node39" class="node">
<title>CQTUJPYY</title>
<ellipse fill="none" stroke="black" cx="1400" cy="-19.5" rx="19.5" ry="19.5"/>
<text text-anchor="middle" x="1400" y="-15.8" font-family="Times,serif" font-size="14.00">15</text>
</g>
<!-- QWGERYHG&#45;&gt;CQTUJPYY -->
<g id="edge38" class="edge">
<title>QWGERYHG&#45;&gt;CQTUJPYY</title>
<path fill="none" stroke="black" d="M1355.6,-78.21C1363.12,-68.45 1373.38,-55.11 1382.14,-43.72"/>
<polygon fill="black" stroke="black" points="1385.16,-45.54 1388.48,-35.48 1379.61,-41.27 1385.16,-45.54"/>
</g>
<!-- MGESAQZL -->
<g id="node41" class="node">
<title>MGESAQZL</title>
<ellipse fill="none" stroke="black" cx="1457" cy="-19.5" rx="19.5" ry="19.5"/>
<text text-anchor="middle" x="1457" y="-15.8" font-family="Times,serif" font-size="14.00">11</text>
</g>
<!-- ACCBJABO&#45;&gt;MGESAQZL -->
<g id="edge40" class="edge">
<title>ACCBJABO&#45;&gt;MGESAQZL</title>
<path fill="none" stroke="black" d="M1503.01,-78.21C1495.1,-68.28 1484.24,-54.67 1475.06,-43.16"/>
<polygon fill="black" stroke="black" points="1477.71,-40.86 1468.74,-35.23 1472.24,-45.23 1477.71,-40.86"/>
</g>
<!-- NNDTBLEX -->
<g id="node42" class="node">
<title>NNDTBLEX</title>
<ellipse fill="none" stroke="black" cx="1514" cy="-19.5" rx="19.5" ry="19.5"/>
<text text-anchor="middle" x="1514" y="-15.8" font-family="Times,serif" font-size="14.00">10</text>
</g>
<!-- ACCBJABO&#45;&gt;NNDTBLEX -->
<g id="edge41" class="edge">
<title>ACCBJABO&#45;&gt;NNDTBLEX</title>
<path fill="none" stroke="black" d="M1514,-74.69C1514,-67.05 1514,-57.86 1514,-49.24"/>
<polygon fill="black" stroke="black" points="1517.5,-49.15 1514,-39.15 1510.5,-49.15 1517.5,-49.15"/>
</g>
<!-- TTXZMXZM -->
<g id="node44" class="node">
<title>TTXZMXZM</title>
<ellipse fill="none" stroke="black" cx="1569" cy="-19.5" rx="18" ry="18"/>
<text text-anchor="middle" x="1569" y="-15.8" font-family="Times,serif" font-size="14.00">3</text>
</g>
<!-- XRNEEHZG&#45;&gt;TTXZMXZM -->
<g id="edge43" class="edge">
<title>XRNEEHZG&#45;&gt;TTXZMXZM</title>
<path fill="none" stroke="black" d="M1613.4,-78.21C1605.56,-68.02 1594.73,-53.95 1585.73,-42.25"/>
<polygon fill="black" stroke="black" points="1588.44,-40.03 1579.57,-34.24 1582.9,-44.3 1588.44,-40.03"/>
</g>
<!-- IBBHPVLB -->
<g id="node45" class="node">
<title>IBBHPVLB</title>
<ellipse fill="none" stroke="black" cx="1624" cy="-19.5" rx="19.5" ry="19.5"/>
<text text-anchor="middle" x="1624" y="-15.8" font-family="Times,serif" font-size="14.00">12</text>
</g>
<!-- XRNEEHZG&#45;&gt;IBBHPVLB -->
<g id="edge44" class="edge">
<title>XRNEEHZG&#45;&gt;IBBHPVLB</title>
<path fill="none" stroke="black" d="M1624,-74.69C1624,-67.05 1624,-57.86 1624,-49.24"/>
<polygon fill="black" stroke="black" points="1627.5,-49.15 1624,-39.15 1620.5,-49.15 1627.5,-49.15"/>
</g>
<!-- CKCFYFMA -->
<g id="node46" class="node">
<title>CKCFYFMA</title>
<ellipse fill="none" stroke="black" cx="1679" cy="-19.5" rx="18" ry="18"/>
<text text-anchor="middle" x="1679" y="-15.8" font-family="Times,serif" font-size="14.00">6</text>
</g>
<!-- XRNEEHZG&#45;&gt;CKCFYFMA -->
<g id="edge45" class="edge">
<title>XRNEEHZG&#45;&gt;CKCFYFMA</title>
<path fill="none" stroke="black" d="M1634.6,-78.21C1642.44,-68.02 1653.27,-53.95 1662.27,-42.25"/>
<polygon fill="black" stroke="black" points="1665.1,-44.3 1668.43,-34.24 1659.56,-40.03 1665.1,-44.3"/>
</g>
<!-- HHCZOZZK -->
<g id="node47" class="node">
<title>HHCZOZZK</title>
<ellipse fill="none" stroke="black" cx="1734" cy="-19.5" rx="19.5" ry="19.5"/>
<text text-anchor="middle" x="1734" y="-15.8" font-family="Times,serif" font-size="14.00">13</text>
</g>
<!-- XRNEEHZG&#45;&gt;HHCZOZZK -->
<g id="edge46" class="edge">
<title>XRNEEHZG&#45;&gt;HHCZOZZK</title>
<path fill="none" stroke="black" d="M1638.84,-82.47C1655.29,-71.89 1682.59,-54.3 1706,-39 1707.1,-38.28 1708.22,-37.55 1709.35,-36.8"/>
<polygon fill="black" stroke="black" points="1711.6,-39.51 1718.03,-31.09 1707.75,-33.67 1711.6,-39.51"/>
</g>
<!-- GGZZXDEB -->
<g id="node49" class="node">
<title>GGZZXDEB</title>
<ellipse fill="none" stroke="black" cx="1791" cy="-19.5" rx="19.5" ry="19.5"/>
<text text-anchor="middle" x="1791" y="-15.8" font-family="Times,serif" font-size="14.00">10</text>
</g>
<!-- REIISNAK&#45;&gt;GGZZXDEB -->
<g id="edge48" class="edge">
<title>REIISNAK&#45;&gt;GGZZXDEB</title>
<path fill="none" stroke="black" d="M1813.56,-76.13C1810.11,-67.61 1805.76,-56.89 1801.8,-47.14"/>
<polygon fill="black" stroke="black" points="1805.03,-45.77 1798.03,-37.82 1798.54,-48.41 1805.03,-45.77"/>
</g>
<!-- IHFZCIKX -->
<g id="node50" class="node">
<title>IHFZCIKX</title>
<ellipse fill="none" stroke="black" cx="1848" cy="-19.5" rx="19.5" ry="19.5"/>
<text text-anchor="middle" x="1848" y="-15.8" font-family="Times,serif" font-size="14.00">10</text>
</g>
<!-- REIISNAK&#45;&gt;IHFZCIKX -->
<g id="edge49" class="edge">
<title>REIISNAK&#45;&gt;IHFZCIKX</title>
<path fill="none" stroke="black" d="M1826.35,-75.77C1829.63,-67.39 1833.72,-56.95 1837.46,-47.41"/>
<polygon fill="black" stroke="black" points="1840.79,-48.5 1841.18,-37.91 1834.28,-45.94 1840.79,-48.5"/>
</g>
<!-- FNWZVRDN -->
<g id="node51" class="node">
<title>FNWZVRDN</title>
<ellipse fill="none" stroke="black" cx="1905" cy="-19.5" rx="19.5" ry="19.5"/>
<text text-anchor="middle" x="1905" y="-15.8" font-family="Times,serif" font-size="14.00">14</text>
</g>
<!-- REIISNAK&#45;&gt;FNWZVRDN -->
<g id="edge50" class="edge">
<title>REIISNAK&#45;&gt;FNWZVRDN</title>
<path fill="none" stroke="black" d="M1833.28,-80.82C1846.48,-69.72 1866.97,-52.49 1882.68,-39.28"/>
<polygon fill="black" stroke="black" points="1884.99,-41.9 1890.39,-32.79 1880.48,-36.55 1884.99,-41.9"/>
</g>
<!-- YOSSPWFQ -->
<g id="node53" class="node">
<title>YOSSPWFQ</title>
<ellipse fill="none" stroke="black" cx="2044" cy="-93" rx="18" ry="18"/>
</g>
<!-- SOBQCTZO&#45;&gt;YOSSPWFQ -->
<g id="edge52" class="edge">
<title>SOBQCTZO&#45;&gt;YOSSPWFQ</title>
<path fill="none" stroke="black" d="M2064.74,-147.76C2061.5,-139.37 2057.47,-128.93 2053.83,-119.49"/>
<polygon fill="black" stroke="black" points="2057.09,-118.21 2050.23,-110.14 2050.56,-120.73 2057.09,-118.21"/>
</g>
<!-- YFAVBXAM -->
<g id="node57" class="node">
<title>YFAVBXAM</title>
<ellipse fill="none" stroke="black" cx="2152" cy="-93" rx="18" ry="18"/>
</g>
<!-- SOBQCTZO&#45;&gt;YFAVBXAM -->
<g id="edge56" class="edge">
<title>SOBQCTZO&#45;&gt;YFAVBXAM</title>
<path fill="none" stroke="black" d="M2084.38,-152.44C2097.11,-141.43 2116.48,-124.69 2131.23,-111.95"/>
<polygon fill="black" stroke="black" points="2133.6,-114.53 2138.87,-105.34 2129.02,-109.23 2133.6,-114.53"/>
</g>
<!-- FBRUPFZU -->
<g id="node61" class="node">
<title>FBRUPFZU</title>
<ellipse fill="none" stroke="black" cx="2341" cy="-93" rx="18" ry="18"/>
</g>
<!-- SOBQCTZO&#45;&gt;FBRUPFZU -->
<g id="edge60" class="edge">
<title>SOBQCTZO&#45;&gt;FBRUPFZU</title>
<path fill="none" stroke="black" d="M2088.3,-159.51C2134.12,-147.63 2258.85,-115.3 2314.07,-100.98"/>
<polygon fill="black" stroke="black" points="2315.04,-104.34 2323.84,-98.44 2313.29,-97.57 2315.04,-104.34"/>
</g>
<!-- LYTWJOVD -->
<g id="node54" class="node">
<title>LYTWJOVD</title>
<ellipse fill="none" stroke="black" cx="1962" cy="-19.5" rx="19.5" ry="19.5"/>
<text text-anchor="middle" x="1962" y="-15.8" font-family="Times,serif" font-size="14.00">12</text>
</g>
<!-- YOSSPWFQ&#45;&gt;LYTWJOVD -->
<g id="edge53" class="edge">
<title>YOSSPWFQ&#45;&gt;LYTWJOVD</title>
<path fill="none" stroke="black" d="M2030.83,-80.51C2018.22,-69.52 1998.97,-52.73 1984.03,-39.71"/>
<polygon fill="black" stroke="black" points="1986.08,-36.85 1976.24,-32.92 1981.48,-42.13 1986.08,-36.85"/>
</g>
<!-- CZAPCUNV -->
<g id="node55" class="node">
<title>CZAPCUNV</title>
<ellipse fill="none" stroke="black" cx="2017" cy="-19.5" rx="18" ry="18"/>
<text text-anchor="middle" x="2017" y="-15.8" font-family="Times,serif" font-size="14.00">5</text>
</g>
<!-- YOSSPWFQ&#45;&gt;CZAPCUNV -->
<g id="edge54" class="edge">
<title>YOSSPWFQ&#45;&gt;CZAPCUNV</title>
<path fill="none" stroke="black" d="M2037.87,-75.77C2034.56,-67 2030.39,-55.96 2026.65,-46.05"/>
<polygon fill="black" stroke="black" points="2029.91,-44.78 2023.1,-36.66 2023.36,-47.25 2029.91,-44.78"/>
</g>
<!-- MCZLWQRM -->
<g id="node56" class="node">
<title>MCZLWQRM</title>
<ellipse fill="none" stroke="black" cx="2071" cy="-19.5" rx="18" ry="18"/>
<text text-anchor="middle" x="2071" y="-15.8" font-family="Times,serif" font-size="14.00">4</text>
</g>
<!-- YOSSPWFQ&#45;&gt;MCZLWQRM -->
<g id="edge55" class="edge">
<title>YOSSPWFQ&#45;&gt;MCZLWQRM</title>
<path fill="none" stroke="black" d="M2050.13,-75.77C2053.44,-67 2057.61,-55.96 2061.35,-46.05"/>
<polygon fill="black" stroke="black" points="2064.64,-47.25 2064.9,-36.66 2058.09,-44.78 2064.64,-47.25"/>
</g>
<!-- LISHBJKN -->
<g id="node58" class="node">
<title>LISHBJKN</title>
<ellipse fill="none" stroke="black" cx="2125" cy="-19.5" rx="18" ry="18"/>
<text text-anchor="middle" x="2125" y="-15.8" font-family="Times,serif" font-size="14.00">9</text>
</g>
<!-- YFAVBXAM&#45;&gt;LISHBJKN -->
<g id="edge57" class="edge">
<title>YFAVBXAM&#45;&gt;LISHBJKN</title>
<path fill="none" stroke="black" d="M2145.87,-75.77C2142.56,-67 2138.39,-55.96 2134.65,-46.05"/>
<polygon fill="black" stroke="black" points="2137.91,-44.78 2131.1,-36.66 2131.36,-47.25 2137.91,-44.78"/>
</g>
<!-- KODQKCHQ -->
<g id="node59" class="node">
<title>KODQKCHQ</title>
<ellipse fill="none" stroke="black" cx="2179" cy="-19.5" rx="18" ry="18"/>
<text text-anchor="middle" x="2179" y="-15.8" font-family="Times,serif" font-size="14.00">4</text>
</g>
<!-- YFAVBXAM&#45;&gt;KODQKCHQ -->
<g id="edge58" class="edge">
<title>YFAVBXAM&#45;&gt;KODQKCHQ</title>
<path fill="none" stroke="black" d="M2158.13,-75.77C2161.44,-67 2165.61,-55.96 2169.35,-46.05"/>
<polygon fill="black" stroke="black" points="2172.64,-47.25 2172.9,-36.66 2166.09,-44.78 2172.64,-47.25"/>
</g>
<!-- JFSZULIF -->
<g id="node60" class="node">
<title>JFSZULIF</title>
<ellipse fill="none" stroke="black" cx="2233" cy="-19.5" rx="18" ry="18"/>
<text text-anchor="middle" x="2233" y="-15.8" font-family="Times,serif" font-size="14.00">8</text>
</g>
<!-- YFAVBXAM&#45;&gt;JFSZULIF -->
<g id="edge59" class="edge">
<title>YFAVBXAM&#45;&gt;JFSZULIF</title>
<path fill="none" stroke="black" d="M2165.01,-80.51C2177.69,-69.32 2197.17,-52.12 2212.04,-39"/>
<polygon fill="black" stroke="black" points="2214.57,-41.44 2219.75,-32.19 2209.94,-36.19 2214.57,-41.44"/>
</g>
<!-- TNLOWWEZ -->
<g id="node62" class="node">
<title>TNLOWWEZ</title>
<ellipse fill="none" stroke="black" cx="2287" cy="-19.5" rx="18" ry="18"/>
<text text-anchor="middle" x="2287" y="-15.8" font-family="Times,serif" font-size="14.00">7</text>
</g>
<!-- FBRUPFZU&#45;&gt;TNLOWWEZ -->
<g id="edge61" class="edge">
<title>FBRUPFZU&#45;&gt;TNLOWWEZ</title>
<path fill="none" stroke="black" d="M2330.59,-78.21C2322.89,-68.02 2312.26,-53.95 2303.43,-42.25"/>
<polygon fill="black" stroke="black" points="2306.2,-40.11 2297.38,-34.24 2300.61,-44.33 2306.2,-40.11"/>
</g>
<!-- VVTWLLGO -->
<g id="node63" class="node">
<title>VVTWLLGO</title>
<ellipse fill="none" stroke="black" cx="2341" cy="-19.5" rx="18" ry="18"/>
<text text-anchor="middle" x="2341" y="-15.8" font-family="Times,serif" font-size="14.00">5</text>
</g>
<!-- FBRUPFZU&#45;&gt;VVTWLLGO -->
<g id="edge62" class="edge">
<title>FBRUPFZU&#45;&gt;VVTWLLGO</title>
<path fill="none" stroke="black" d="M2341,-74.69C2341,-66.61 2341,-56.8 2341,-47.76"/>
<polygon fill="black" stroke="black" points="2344.5,-47.65 2341,-37.65 2337.5,-47.65 2344.5,-47.65"/>
</g>
<!-- YQQPHOPO -->
<g id="node64" class="node">
<title>YQQPHOPO</title>
<ellipse fill="none" stroke="black" cx="2395" cy="-19.5" rx="18" ry="18"/>
<text text-anchor="middle" x="2395" y="-15.8" font-family="Times,serif" font-size="14.00">2</text>
</g>
<!-- FBRUPFZU&#45;&gt;YQQPHOPO -->
<g id="edge63" class="edge">
<title>FBRUPFZU&#45;&gt;YQQPHOPO</title>
<path fill="none" stroke="black" d="M2351.41,-78.21C2359.11,-68.02 2369.74,-53.95 2378.57,-42.25"/>
<polygon fill="black" stroke="black" points="2381.39,-44.33 2384.62,-34.24 2375.8,-40.11 2381.39,-44.33"/>
</g>
<!-- SOSXPXBU -->
<g id="node65" class="node">
<title>SOSXPXBU</title>
<ellipse fill="none" stroke="black" cx="2450" cy="-19.5" rx="19.5" ry="19.5"/>
<text text-anchor="middle" x="2450" y="-15.8" font-family="Times,serif" font-size="14.00">13</text>
</g>
<!-- FBRUPFZU&#45;&gt;SOSXPXBU -->
<g id="edge64" class="edge">
<title>FBRUPFZU&#45;&gt;SOSXPXBU</title>
<path fill="none" stroke="black" d="M2355.65,-82.44C2371.88,-71.84 2398.83,-54.23 2422,-39 2423.1,-38.28 2424.21,-37.54 2425.34,-36.8"/>
<polygon fill="black" stroke="black" points="2427.6,-39.5 2434.02,-31.08 2423.74,-33.66 2427.6,-39.5"/>
</g>
<!-- FCNJWKVH -->
<g id="node67" class="node">
<title>FCNJWKVH</title>
<ellipse fill="none" stroke="black" cx="2758" cy="-165" rx="18" ry="18"/>
</g>
<!-- UZMFQSBW&#45;&gt;FCNJWKVH -->
<g id="edge66" class="edge">
<title>UZMFQSBW&#45;&gt;FCNJWKVH</title>
<path fill="none" stroke="black" d="M2758,-218.69C2758,-210.98 2758,-201.71 2758,-193.11"/>
<polygon fill="black" stroke="black" points="2761.5,-193.1 2758,-183.1 2754.5,-193.1 2761.5,-193.1"/>
</g>
<!-- CJDXPUJO -->
<g id="node81" class="node">
<title>CJDXPUJO</title>
<ellipse fill="none" stroke="black" cx="3252" cy="-165" rx="18" ry="18"/>
</g>
<!-- UZMFQSBW&#45;&gt;CJDXPUJO -->
<g id="edge80" class="edge">
<title>UZMFQSBW&#45;&gt;CJDXPUJO</title>
<path fill="none" stroke="black" d="M2775.87,-233.46C2850.01,-222.96 3133.64,-182.77 3224.1,-169.95"/>
<polygon fill="black" stroke="black" points="3224.74,-173.39 3234.15,-168.53 3223.76,-166.46 3224.74,-173.39"/>
</g>
<!-- AIICTMQF -->
<g id="node68" class="node">
<title>AIICTMQF</title>
<ellipse fill="none" stroke="black" cx="2564" cy="-93" rx="18" ry="18"/>
</g>
<!-- FCNJWKVH&#45;&gt;AIICTMQF -->
<g id="edge67" class="edge">
<title>FCNJWKVH&#45;&gt;AIICTMQF</title>
<path fill="none" stroke="black" d="M2741.12,-157.91C2707.21,-145.67 2630.61,-118.03 2590.16,-103.43"/>
<polygon fill="black" stroke="black" points="2591.29,-100.12 2580.7,-100.02 2588.92,-106.71 2591.29,-100.12"/>
</g>
<!-- QCIESNDE -->
<g id="node71" class="node">
<title>QCIESNDE</title>
<ellipse fill="none" stroke="black" cx="2703" cy="-93" rx="18" ry="18"/>
</g>
<!-- FCNJWKVH&#45;&gt;QCIESNDE -->
<g id="edge70" class="edge">
<title>FCNJWKVH&#45;&gt;QCIESNDE</title>
<path fill="none" stroke="black" d="M2747.13,-150.17C2739.45,-140.39 2728.99,-127.08 2720.18,-115.87"/>
<polygon fill="black" stroke="black" points="2722.77,-113.5 2713.84,-107.8 2717.27,-117.82 2722.77,-113.5"/>
</g>
<!-- FLWUYKMI -->
<g id="node75" class="node">
<title>FLWUYKMI</title>
<ellipse fill="none" stroke="black" cx="2786" cy="-93" rx="18" ry="18"/>
</g>
<!-- FCNJWKVH&#45;&gt;FLWUYKMI -->
<g id="edge74" class="edge">
<title>FCNJWKVH&#45;&gt;FLWUYKMI</title>
<path fill="none" stroke="black" d="M2764.35,-148.11C2767.71,-139.73 2771.9,-129.24 2775.71,-119.73"/>
<polygon fill="black" stroke="black" points="2779.01,-120.89 2779.48,-110.3 2772.51,-118.29 2779.01,-120.89"/>
</g>
<!-- KETPGIIQ -->
<g id="node78" class="node">
<title>KETPGIIQ</title>
<ellipse fill="none" stroke="black" cx="2894" cy="-93" rx="18" ry="18"/>
</g>
<!-- FCNJWKVH&#45;&gt;KETPGIIQ -->
<g id="edge77" class="edge">
<title>FCNJWKVH&#45;&gt;KETPGIIQ</title>
<path fill="none" stroke="black" d="M2773.6,-155.97C2796.94,-143.95 2841.19,-121.18 2869.05,-106.84"/>
<polygon fill="black" stroke="black" points="2870.87,-109.84 2878.16,-102.15 2867.67,-103.61 2870.87,-109.84"/>
</g>
<!-- AOSVWBLC -->
<g id="node69" class="node">
<title>AOSVWBLC</title>
<ellipse fill="none" stroke="black" cx="2507" cy="-19.5" rx="19.5" ry="19.5"/>
<text text-anchor="middle" x="2507" y="-15.8" font-family="Times,serif" font-size="14.00">13</text>
</g>
<!-- AIICTMQF&#45;&gt;AOSVWBLC -->
<g id="edge68" class="edge">
<title>AIICTMQF&#45;&gt;AOSVWBLC</title>
<path fill="none" stroke="black" d="M2553.01,-78.21C2545.1,-68.28 2534.24,-54.67 2525.06,-43.16"/>
<polygon fill="black" stroke="black" points="2527.71,-40.86 2518.74,-35.23 2522.24,-45.23 2527.71,-40.86"/>
</g>
<!-- COCVHJXG -->
<g id="node70" class="node">
<title>COCVHJXG</title>
<ellipse fill="none" stroke="black" cx="2564" cy="-19.5" rx="19.5" ry="19.5"/>
<text text-anchor="middle" x="2564" y="-15.8" font-family="Times,serif" font-size="14.00">14</text>
</g>
<!-- AIICTMQF&#45;&gt;COCVHJXG -->
<g id="edge69" class="edge">
<title>AIICTMQF&#45;&gt;COCVHJXG</title>
<path fill="none" stroke="black" d="M2564,-74.69C2564,-67.05 2564,-57.86 2564,-49.24"/>
<polygon fill="black" stroke="black" points="2567.5,-49.15 2564,-39.15 2560.5,-49.15 2567.5,-49.15"/>
</g>
<!-- KXWWTBXC -->
<g id="node72" class="node">
<title>KXWWTBXC</title>
<ellipse fill="none" stroke="black" cx="2621" cy="-19.5" rx="19.5" ry="19.5"/>
<text text-anchor="middle" x="2621" y="-15.8" font-family="Times,serif" font-size="14.00">13</text>
</g>
<!-- QCIESNDE&#45;&gt;KXWWTBXC -->
<g id="edge71" class="edge">
<title>QCIESNDE&#45;&gt;KXWWTBXC</title>
<path fill="none" stroke="black" d="M2689.83,-80.51C2677.22,-69.52 2657.97,-52.73 2643.03,-39.71"/>
<polygon fill="black" stroke="black" points="2645.08,-36.85 2635.24,-32.92 2640.48,-42.13 2645.08,-36.85"/>
</g>
<!-- ZLFBYOAY -->
<g id="node73" class="node">
<title>ZLFBYOAY</title>
<ellipse fill="none" stroke="black" cx="2676" cy="-19.5" rx="18" ry="18"/>
<text text-anchor="middle" x="2676" y="-15.8" font-family="Times,serif" font-size="14.00">4</text>
</g>
<!-- QCIESNDE&#45;&gt;ZLFBYOAY -->
<g id="edge72" class="edge">
<title>QCIESNDE&#45;&gt;ZLFBYOAY</title>
<path fill="none" stroke="black" d="M2696.87,-75.77C2693.56,-67 2689.39,-55.96 2685.65,-46.05"/>
<polygon fill="black" stroke="black" points="2688.91,-44.78 2682.1,-36.66 2682.36,-47.25 2688.91,-44.78"/>
</g>
<!-- YGOMMOSP -->
<g id="node74" class="node">
<title>YGOMMOSP</title>
<ellipse fill="none" stroke="black" cx="2731" cy="-19.5" rx="19.5" ry="19.5"/>
<text text-anchor="middle" x="2731" y="-15.8" font-family="Times,serif" font-size="14.00">12</text>
</g>
<!-- QCIESNDE&#45;&gt;YGOMMOSP -->
<g id="edge73" class="edge">
<title>QCIESNDE&#45;&gt;YGOMMOSP</title>
<path fill="none" stroke="black" d="M2709.35,-75.77C2712.63,-67.39 2716.72,-56.95 2720.46,-47.41"/>
<polygon fill="black" stroke="black" points="2723.79,-48.5 2724.18,-37.91 2717.28,-45.94 2723.79,-48.5"/>
</g>
<!-- KEKVQTXL -->
<g id="node76" class="node">
<title>KEKVQTXL</title>
<ellipse fill="none" stroke="black" cx="2786" cy="-19.5" rx="18" ry="18"/>
<text text-anchor="middle" x="2786" y="-15.8" font-family="Times,serif" font-size="14.00">8</text>
</g>
<!-- FLWUYKMI&#45;&gt;KEKVQTXL -->
<g id="edge75" class="edge">
<title>FLWUYKMI&#45;&gt;KEKVQTXL</title>
<path fill="none" stroke="black" d="M2786,-74.69C2786,-66.61 2786,-56.8 2786,-47.76"/>
<polygon fill="black" stroke="black" points="2789.5,-47.65 2786,-37.65 2782.5,-47.65 2789.5,-47.65"/>
</g>
<!-- ZWOVLOIQ -->
<g id="node77" class="node">
<title>ZWOVLOIQ</title>
<ellipse fill="none" stroke="black" cx="2840" cy="-19.5" rx="18" ry="18"/>
<text text-anchor="middle" x="2840" y="-15.8" font-family="Times,serif" font-size="14.00">8</text>
</g>
<!-- FLWUYKMI&#45;&gt;ZWOVLOIQ -->
<g id="edge76" class="edge">
<title>FLWUYKMI&#45;&gt;ZWOVLOIQ</title>
<path fill="none" stroke="black" d="M2796.41,-78.21C2804.11,-68.02 2814.74,-53.95 2823.57,-42.25"/>
<polygon fill="black" stroke="black" points="2826.39,-44.33 2829.62,-34.24 2820.8,-40.11 2826.39,-44.33"/>
</g>
<!-- JWGRJHXF -->
<g id="node79" class="node">
<title>JWGRJHXF</title>
<ellipse fill="none" stroke="black" cx="2894" cy="-19.5" rx="18" ry="18"/>
<text text-anchor="middle" x="2894" y="-15.8" font-family="Times,serif" font-size="14.00">1</text>
</g>
<!-- KETPGIIQ&#45;&gt;JWGRJHXF -->
<g id="edge78" class="edge">
<title>KETPGIIQ&#45;&gt;JWGRJHXF</title>
<path fill="none" stroke="black" d="M2894,-74.69C2894,-66.61 2894,-56.8 2894,-47.76"/>
<polygon fill="black" stroke="black" points="2897.5,-47.65 2894,-37.65 2890.5,-47.65 2897.5,-47.65"/>
</g>
<!-- ANDUZMZO -->
<g id="node80" class="node">
<title>ANDUZMZO</title>
<ellipse fill="none" stroke="black" cx="2948" cy="-19.5" rx="18" ry="18"/>
<text text-anchor="middle" x="2948" y="-15.8" font-family="Times,serif" font-size="14.00">8</text>
</g>
<!-- KETPGIIQ&#45;&gt;ANDUZMZO -->
<g id="edge79" class="edge">
<title>KETPGIIQ&#45;&gt;ANDUZMZO</title>
<path fill="none" stroke="black" d="M2904.41,-78.21C2912.11,-68.02 2922.74,-53.95 2931.57,-42.25"/>
<polygon fill="black" stroke="black" points="2934.39,-44.33 2937.62,-34.24 2928.8,-40.11 2934.39,-44.33"/>
</g>
<!-- QNCBTHKR -->
<g id="node82" class="node">
<title>QNCBTHKR</title>
<ellipse fill="none" stroke="black" cx="3111" cy="-93" rx="18" ry="18"/>
</g>
<!-- CJDXPUJO&#45;&gt;QNCBTHKR -->
<g id="edge81" class="edge">
<title>CJDXPUJO&#45;&gt;QNCBTHKR</title>
<path fill="none" stroke="black" d="M3236.1,-156.1C3211.77,-144.02 3165.09,-120.85 3136.14,-106.48"/>
<polygon fill="black" stroke="black" points="3137.57,-103.28 3127.06,-101.97 3134.46,-109.55 3137.57,-103.28"/>
</g>
<!-- KZZSNOYX -->
<g id="node87" class="node">
<title>KZZSNOYX</title>
<ellipse fill="none" stroke="black" cx="3252" cy="-93" rx="18" ry="18"/>
</g>
<!-- CJDXPUJO&#45;&gt;KZZSNOYX -->
<g id="edge86" class="edge">
<title>CJDXPUJO&#45;&gt;KZZSNOYX</title>
<path fill="none" stroke="black" d="M3252,-146.69C3252,-138.98 3252,-129.71 3252,-121.11"/>
<polygon fill="black" stroke="black" points="3255.5,-121.1 3252,-111.1 3248.5,-121.1 3255.5,-121.1"/>
</g>
<!-- ZIAYNUQO -->
<g id="node90" class="node">
<title>ZIAYNUQO</title>
<ellipse fill="none" stroke="black" cx="3334" cy="-93" rx="18" ry="18"/>
</g>
<!-- CJDXPUJO&#45;&gt;ZIAYNUQO -->
<g id="edge89" class="edge">
<title>CJDXPUJO&#45;&gt;ZIAYNUQO</title>
<path fill="none" stroke="black" d="M3265.54,-152.44C3278.44,-141.43 3298.04,-124.69 3312.97,-111.95"/>
<polygon fill="black" stroke="black" points="3315.38,-114.5 3320.71,-105.34 3310.83,-109.17 3315.38,-114.5"/>
</g>
<!-- QMBHCHDZ -->
<g id="node93" class="node">
<title>QMBHCHDZ</title>
<ellipse fill="none" stroke="black" cx="3496" cy="-93" rx="18" ry="18"/>
</g>
<!-- CJDXPUJO&#45;&gt;QMBHCHDZ -->
<g id="edge92" class="edge">
<title>CJDXPUJO&#45;&gt;QMBHCHDZ</title>
<path fill="none" stroke="black" d="M3269.16,-159.07C3310.98,-147.08 3418.46,-116.24 3468.99,-101.75"/>
<polygon fill="black" stroke="black" points="3470.21,-105.04 3478.86,-98.91 3468.28,-98.31 3470.21,-105.04"/>
</g>
<!-- RNLDXCUJ -->
<g id="node83" class="node">
<title>RNLDXCUJ</title>
<ellipse fill="none" stroke="black" cx="3002" cy="-19.5" rx="18" ry="18"/>
<text text-anchor="middle" x="3002" y="-15.8" font-family="Times,serif" font-size="14.00">3</text>
</g>
<!-- QNCBTHKR&#45;&gt;RNLDXCUJ -->
<g id="edge82" class="edge">
<title>QNCBTHKR&#45;&gt;RNLDXCUJ</title>
<path fill="none" stroke="black" d="M3096.11,-82.54C3079.62,-72.03 3052.28,-54.49 3029,-39 3027.73,-38.15 3026.43,-37.28 3025.11,-36.39"/>
<polygon fill="black" stroke="black" points="3026.76,-33.28 3016.52,-30.55 3022.83,-39.07 3026.76,-33.28"/>
</g>
<!-- NMSNDXXP -->
<g id="node84" class="node">
<title>NMSNDXXP</title>
<ellipse fill="none" stroke="black" cx="3056" cy="-19.5" rx="18" ry="18"/>
<text text-anchor="middle" x="3056" y="-15.8" font-family="Times,serif" font-size="14.00">0</text>
</g>
<!-- QNCBTHKR&#45;&gt;NMSNDXXP -->
<g id="edge83" class="edge">
<title>QNCBTHKR&#45;&gt;NMSNDXXP</title>
<path fill="none" stroke="black" d="M3100.4,-78.21C3092.56,-68.02 3081.73,-53.95 3072.73,-42.25"/>
<polygon fill="black" stroke="black" points="3075.44,-40.03 3066.57,-34.24 3069.9,-44.3 3075.44,-40.03"/>
</g>
<!-- SRQMQEZJ -->
<g id="node85" class="node">
<title>SRQMQEZJ</title>
<ellipse fill="none" stroke="black" cx="3111" cy="-19.5" rx="19.5" ry="19.5"/>
<text text-anchor="middle" x="3111" y="-15.8" font-family="Times,serif" font-size="14.00">13</text>
</g>
<!-- QNCBTHKR&#45;&gt;SRQMQEZJ -->
<g id="edge84" class="edge">
<title>QNCBTHKR&#45;&gt;SRQMQEZJ</title>
<path fill="none" stroke="black" d="M3111,-74.69C3111,-67.05 3111,-57.86 3111,-49.24"/>
<polygon fill="black" stroke="black" points="3114.5,-49.15 3111,-39.15 3107.5,-49.15 3114.5,-49.15"/>
</g>
<!-- RUCMCRLH -->
<g id="node86" class="node">
<title>RUCMCRLH</title>
<ellipse fill="none" stroke="black" cx="3168" cy="-19.5" rx="19.5" ry="19.5"/>
<text text-anchor="middle" x="3168" y="-15.8" font-family="Times,serif" font-size="14.00">12</text>
</g>
<!-- QNCBTHKR&#45;&gt;RUCMCRLH -->
<g id="edge85" class="edge">
<title>QNCBTHKR&#45;&gt;RUCMCRLH</title>
<path fill="none" stroke="black" d="M3121.99,-78.21C3129.9,-68.28 3140.76,-54.67 3149.94,-43.16"/>
<polygon fill="black" stroke="black" points="3152.76,-45.23 3156.26,-35.23 3147.29,-40.86 3152.76,-45.23"/>
</g>
<!-- LEQUIOIS -->
<g id="node88" class="node">
<title>LEQUIOIS</title>
<ellipse fill="none" stroke="black" cx="3225" cy="-19.5" rx="19.5" ry="19.5"/>
<text text-anchor="middle" x="3225" y="-15.8" font-family="Times,serif" font-size="14.00">12</text>
</g>
<!-- KZZSNOYX&#45;&gt;LEQUIOIS -->
<g id="edge87" class="edge">
<title>KZZSNOYX&#45;&gt;LEQUIOIS</title>
<path fill="none" stroke="black" d="M3245.87,-75.77C3242.71,-67.39 3238.77,-56.95 3235.16,-47.41"/>
<polygon fill="black" stroke="black" points="3238.38,-46.03 3231.57,-37.91 3231.83,-48.5 3238.38,-46.03"/>
</g>
<!-- EBXXSZVY -->
<g id="node89" class="node">
<title>EBXXSZVY</title>
<ellipse fill="none" stroke="black" cx="3280" cy="-19.5" rx="18" ry="18"/>
<text text-anchor="middle" x="3280" y="-15.8" font-family="Times,serif" font-size="14.00">7</text>
</g>
<!-- KZZSNOYX&#45;&gt;EBXXSZVY -->
<g id="edge88" class="edge">
<title>KZZSNOYX&#45;&gt;EBXXSZVY</title>
<path fill="none" stroke="black" d="M3258.35,-75.77C3261.79,-67 3266.11,-55.96 3269.99,-46.05"/>
<polygon fill="black" stroke="black" points="3273.28,-47.25 3273.67,-36.66 3266.77,-44.69 3273.28,-47.25"/>
</g>
<!-- JIZZANLU -->
<g id="node91" class="node">
<title>JIZZANLU</title>
<ellipse fill="none" stroke="black" cx="3334" cy="-19.5" rx="18" ry="18"/>
<text text-anchor="middle" x="3334" y="-15.8" font-family="Times,serif" font-size="14.00">3</text>
</g>
<!-- ZIAYNUQO&#45;&gt;JIZZANLU -->
<g id="edge90" class="edge">
<title>ZIAYNUQO&#45;&gt;JIZZANLU</title>
<path fill="none" stroke="black" d="M3334,-74.69C3334,-66.61 3334,-56.8 3334,-47.76"/>
<polygon fill="black" stroke="black" points="3337.5,-47.65 3334,-37.65 3330.5,-47.65 3337.5,-47.65"/>
</g>
<!-- WCFZSPQC -->
<g id="node92" class="node">
<title>WCFZSPQC</title>
<ellipse fill="none" stroke="black" cx="3388" cy="-19.5" rx="18" ry="18"/>
<text text-anchor="middle" x="3388" y="-15.8" font-family="Times,serif" font-size="14.00">3</text>
</g>
<!-- ZIAYNUQO&#45;&gt;WCFZSPQC -->
<g id="edge91" class="edge">
<title>ZIAYNUQO&#45;&gt;WCFZSPQC</title>
<path fill="none" stroke="black" d="M3344.41,-78.21C3352.11,-68.02 3362.74,-53.95 3371.57,-42.25"/>
<polygon fill="black" stroke="black" points="3374.39,-44.33 3377.62,-34.24 3368.8,-40.11 3374.39,-44.33"/>
</g>
<!-- TAIKTCDW -->
<g id="node94" class="node">
<title>TAIKTCDW</title>
<ellipse fill="none" stroke="black" cx="3442" cy="-19.5" rx="18" ry="18"/>
<text text-anchor="middle" x="3442" y="-15.8" font-family="Times,serif" font-size="14.00">8</text>
</g>
<!-- QMBHCHDZ&#45;&gt;TAIKTCDW -->
<g id="edge93" class="edge">
<title>QMBHCHDZ&#45;&gt;TAIKTCDW</title>
<path fill="none" stroke="black" d="M3485.59,-78.21C3477.89,-68.02 3467.26,-53.95 3458.43,-42.25"/>
<polygon fill="black" stroke="black" points="3461.2,-40.11 3452.38,-34.24 3455.61,-44.33 3461.2,-40.11"/>
</g>
<!-- SZDRMZSX -->
<g id="node95" class="node">
<title>SZDRMZSX</title>
<ellipse fill="none" stroke="black" cx="3496" cy="-19.5" rx="18" ry="18"/>
<text text-anchor="middle" x="3496" y="-15.8" font-family="Times,serif" font-size="14.00">5</text>
</g>
<!-- QMBHCHDZ&#45;&gt;SZDRMZSX -->
<g id="edge94" class="edge">
<title>QMBHCHDZ&#45;&gt;SZDRMZSX</title>
<path fill="none" stroke="black" d="M3496,-74.69C3496,-66.61 3496,-56.8 3496,-47.76"/>
<polygon fill="black" stroke="black" points="3499.5,-47.65 3496,-37.65 3492.5,-47.65 3499.5,-47.65"/>
</g>
<!-- LMBDYVMM -->
<g id="node96" class="node">
<title>LMBDYVMM</title>
<ellipse fill="none" stroke="black" cx="3550" cy="-19.5" rx="18" ry="18"/>
<text text-anchor="middle" x="3550" y="-15.8" font-family="Times,serif" font-size="14.00">1</text>
</g>
<!-- QMBHCHDZ&#45;&gt;LMBDYVMM -->
<g id="edge95" class="edge">
<title>QMBHCHDZ&#45;&gt;LMBDYVMM</title>
<path fill="none" stroke="black" d="M3506.41,-78.21C3514.11,-68.02 3524.74,-53.95 3533.57,-42.25"/>
<polygon fill="black" stroke="black" points="3536.39,-44.33 3539.62,-34.24 3530.8,-40.11 3536.39,-44.33"/>
</g>
<!-- HMVIETCC -->
<g id="node97" class="node">
<title>HMVIETCC</title>
<ellipse fill="none" stroke="black" cx="3605" cy="-19.5" rx="19.5" ry="19.5"/>
<text text-anchor="middle" x="3605" y="-15.8" font-family="Times,serif" font-size="14.00">11</text>
</g>
<!-- QMBHCHDZ&#45;&gt;HMVIETCC -->
<g id="edge96" class="edge">
<title>QMBHCHDZ&#45;&gt;HMVIETCC</title>
<path fill="none" stroke="black" d="M3510.65,-82.44C3526.88,-71.84 3553.83,-54.23 3577,-39 3578.1,-38.28 3579.21,-37.54 3580.34,-36.8"/>
<polygon fill="black" stroke="black" points="3582.6,-39.5 3589.02,-31.08 3578.74,-33.66 3582.6,-39.5"/>
</g>
</g>
</svg>
