digraph D {
OPCONTRQ [shape=circle, label=""]
DCWCFPYP [shape=circle, label=""]
IUFTWPIS [shape=circle, label=""]
QWVXQWLF [shape=circle, label=""]
GEKZLYCK [shape=circle, label="6"]
PGRNAPQI [shape=circle, label="9"]
WGHSEGQP [shape=circle, label="7"]
NYLTWPLL [shape=circle, label=""]
HKRMABID [shape=circle, label="5"]
HXWUATTV [shape=circle, label="12"]
JGTCXTMY [shape=circle, label="7"]
DYNDOWNW [shape=circle, label=""]
DTOKYLRA [shape=circle, label="13"]
UCJNWKME [shape=circle, label="8"]
EHGRJLYL [shape=circle, label="10"]
HBRNGSER [shape=circle, label="2"]
NSXQPMRF [shape=circle, label=""]
KCGBOLLH [shape=circle, label="3"]
RASSNPQL [shape=circle, label="1"]
KZIAMGWZ [shape=circle, label="13"]
HKAJQSEX [shape=circle, label=""]
OUZLSLIJ [shape=circle, label=""]
QPVJCIQQ [shape=circle, label="12"]
RULQYOYY [shape=circle, label="10"]
UNWXDYCA [shape=circle, label=""]
GAZWLFAT [shape=circle, label="13"]
FYOYHSPI [shape=circle, label="14"]
PFVOBXPJ [shape=circle, label="12"]
YVGHOWRM [shape=circle, label="12"]
ITMZASLJ [shape=circle, label=""]
CFWQRWPU [shape=circle, label="5"]
RXNTWJYY [shape=circle, label="8"]
RVLCYYPS [shape=circle, label="14"]
RLALWVUU [shape=circle, label=""]
QWGERYHG [shape=circle, label=""]
CPXAAQUH [shape=circle, label="12"]
LQAYOEJB [shape=circle, label="2"]
DSFCNADR [shape=circle, label="9"]
CQTUJPYY [shape=circle, label="15"]
ACCBJABO [shape=circle, label=""]
MGESAQZL [shape=circle, label="11"]
NNDTBLEX [shape=circle, label="10"]
XRNEEHZG [shape=circle, label=""]
TTXZMXZM [shape=circle, label="3"]
IBBHPVLB [shape=circle, label="12"]
CKCFYFMA [shape=circle, label="6"]
HHCZOZZK [shape=circle, label="13"]
REIISNAK [shape=circle, label=""]
GGZZXDEB [shape=circle, label="10"]
IHFZCIKX [shape=circle, label="10"]
FNWZVRDN [shape=circle, label="14"]
SOBQCTZO [shape=circle, label=""]
YOSSPWFQ [shape=circle, label=""]
LYTWJOVD [shape=circle, label="12"]
CZAPCUNV [shape=circle, label="5"]
MCZLWQRM [shape=circle, label="4"]
YFAVBXAM [shape=circle, label=""]
LISHBJKN [shape=circle, label="9"]
KODQKCHQ [shape=circle, label="4"]
JFSZULIF [shape=circle, label="8"]
FBRUPFZU [shape=circle, label=""]
TNLOWWEZ [shape=circle, label="7"]
VVTWLLGO [shape=circle, label="5"]
YQQPHOPO [shape=circle, label="2"]
SOSXPXBU [shape=circle, label="13"]
UZMFQSBW [shape=circle, label=""]
FCNJWKVH [shape=circle, label=""]
AIICTMQF [shape=circle, label=""]
AOSVWBLC [shape=circle, label="13"]
COCVHJXG [shape=circle, label="14"]
QCIESNDE [shape=circle, label=""]
KXWWTBXC [shape=circle, label="13"]
ZLFBYOAY [shape=circle, label="4"]
YGOMMOSP [shape=circle, label="12"]
FLWUYKMI [shape=circle, label=""]
KEKVQTXL [shape=circle, label="8"]
ZWOVLOIQ [shape=circle, label="8"]
KETPGIIQ [shape=circle, label=""]
JWGRJHXF [shape=circle, label="1"]
ANDUZMZO [shape=circle, label="8"]
CJDXPUJO [shape=circle, label=""]
QNCBTHKR [shape=circle, label=""]
RNLDXCUJ [shape=circle, label="3"]
NMSNDXXP [shape=circle, label="0"]
SRQMQEZJ [shape=circle, label="13"]
RUCMCRLH [shape=circle, label="12"]
KZZSNOYX [shape=circle, label=""]
LEQUIOIS [shape=circle, label="12"]
EBXXSZVY [shape=circle, label="7"]
ZIAYNUQO [shape=circle, label=""]
JIZZANLU [shape=circle, label="3"]
WCFZSPQC [shape=circle, label="3"]
QMBHCHDZ [shape=circle, label=""]
TAIKTCDW [shape=circle, label="8"]
SZDRMZSX [shape=circle, label="5"]
LMBDYVMM [shape=circle, label="1"]
HMVIETCC [shape=circle, label="11"]

OPCONTRQ -> DCWCFPYP
DCWCFPYP -> IUFTWPIS
IUFTWPIS -> QWVXQWLF
QWVXQWLF -> GEKZLYCK
QWVXQWLF -> PGRNAPQI
QWVXQWLF -> WGHSEGQP
IUFTWPIS -> NYLTWPLL
NYLTWPLL -> HKRMABID
NYLTWPLL -> HXWUATTV
NYLTWPLL -> JGTCXTMY
IUFTWPIS -> DYNDOWNW
DYNDOWNW -> DTOKYLRA
DYNDOWNW -> UCJNWKME
DYNDOWNW -> EHGRJLYL
DYNDOWNW -> HBRNGSER
IUFTWPIS -> NSXQPMRF
NSXQPMRF -> KCGBOLLH
NSXQPMRF -> RASSNPQL
NSXQPMRF -> KZIAMGWZ
DCWCFPYP -> HKAJQSEX
HKAJQSEX -> OUZLSLIJ
OUZLSLIJ -> QPVJCIQQ
OUZLSLIJ -> RULQYOYY
HKAJQSEX -> UNWXDYCA
UNWXDYCA -> GAZWLFAT
UNWXDYCA -> FYOYHSPI
UNWXDYCA -> PFVOBXPJ
UNWXDYCA -> YVGHOWRM
HKAJQSEX -> ITMZASLJ
ITMZASLJ -> CFWQRWPU
ITMZASLJ -> RXNTWJYY
ITMZASLJ -> RVLCYYPS
DCWCFPYP -> RLALWVUU
RLALWVUU -> QWGERYHG
QWGERYHG -> CPXAAQUH
QWGERYHG -> LQAYOEJB
QWGERYHG -> DSFCNADR
QWGERYHG -> CQTUJPYY
RLALWVUU -> ACCBJABO
ACCBJABO -> MGESAQZL
ACCBJABO -> NNDTBLEX
RLALWVUU -> XRNEEHZG
XRNEEHZG -> TTXZMXZM
XRNEEHZG -> IBBHPVLB
XRNEEHZG -> CKCFYFMA
XRNEEHZG -> HHCZOZZK
RLALWVUU -> REIISNAK
REIISNAK -> GGZZXDEB
REIISNAK -> IHFZCIKX
REIISNAK -> FNWZVRDN
DCWCFPYP -> SOBQCTZO
SOBQCTZO -> YOSSPWFQ
YOSSPWFQ -> LYTWJOVD
YOSSPWFQ -> CZAPCUNV
YOSSPWFQ -> MCZLWQRM
SOBQCTZO -> YFAVBXAM
YFAVBXAM -> LISHBJKN
YFAVBXAM -> KODQKCHQ
YFAVBXAM -> JFSZULIF
SOBQCTZO -> FBRUPFZU
FBRUPFZU -> TNLOWWEZ
FBRUPFZU -> VVTWLLGO
FBRUPFZU -> YQQPHOPO
FBRUPFZU -> SOSXPXBU
OPCONTRQ -> UZMFQSBW
UZMFQSBW -> FCNJWKVH
FCNJWKVH -> AIICTMQF
AIICTMQF -> AOSVWBLC
AIICTMQF -> COCVHJXG
FCNJWKVH -> QCIESNDE
QCIESNDE -> KXWWTBXC
QCIESNDE -> ZLFBYOAY
QCIESNDE -> YGOMMOSP
FCNJWKVH -> FLWUYKMI
FLWUYKMI -> KEKVQTXL
FLWUYKMI -> ZWOVLOIQ
FCNJWKVH -> KETPGIIQ
KETPGIIQ -> JWGRJHXF
KETPGIIQ -> ANDUZMZO
UZMFQSBW -> CJDXPUJO
CJDXPUJO -> QNCBTHKR
QNCBTHKR -> RNLDXCUJ
QNCBTHKR -> NMSNDXXP
QNCBTHKR -> SRQMQEZJ
QNCBTHKR -> RUCMCRLH
CJDXPUJO -> KZZSNOYX
KZZSNOYX -> LEQUIOIS
KZZSNOYX -> EBXXSZVY
CJDXPUJO -> ZIAYNUQO
ZIAYNUQO -> JIZZANLU
ZIAYNUQO -> WCFZSPQC
CJDXPUJO -> QMBHCHDZ
QMBHCHDZ -> TAIKTCDW
QMBHCHDZ -> SZDRMZSX
QMBHCHDZ -> LMBDYVMM
QMBHCHDZ -> HMVIETCC

}