digraph D {
NUFJPKLZ [shape=circle, label=""]
LUAHMZSM [shape=circle, label=""]
FKCYLTFJ [shape=circle, label=""]
UPXBSTHK [shape=circle, label=""]
ECPQHIHA [shape=circle, label="5"]
STYNUYOK [shape=circle, label="12"]
XOZKTGCD [shape=circle, label=""]
FGKTTYRM [shape=circle, label="14"]
OZNAAMLT [shape=circle, label="2"]
BVCIOLGD [shape=circle, label="3"]
IJBRGPOK [shape=circle, label="3"]
KMJNDFIQ [shape=circle, label=""]
SLLGHUMM [shape=circle, label=""]
LPZHHROP [shape=circle, label="8"]
HDYPRZHY [shape=circle, label="6"]
FFIAIXHE [shape=circle, label=""]
KYMBKFDX [shape=circle, label="5"]
FYKVDIXH [shape=circle, label="10"]
CTWLSNIB [shape=circle, label=""]
SLXUNTPM [shape=circle, label="11"]
BNSQWMUI [shape=circle, label="10"]
FFSXJBRO [shape=circle, label="11"]
RWGCJZLS [shape=circle, label=""]
OQUWUDAF [shape=circle, label=""]
ECVOZITF [shape=circle, label="0"]
MBKSNHXE [shape=circle, label="15"]
JMDYJESN [shape=circle, label="7"]
MSFDXXQK [shape=circle, label=""]
ZRJEEYSW [shape=circle, label="5"]
UGKZHXMM [shape=circle, label="10"]
GCHZMJJY [shape=circle, label=""]
XEKNEYWV [shape=circle, label="11"]
SZHRCSBD [shape=circle, label="12"]
NMNBODRV [shape=circle, label="4"]
FMPURPFB [shape=circle, label=""]
VTKIROBJ [shape=circle, label="15"]
DOCGZUVO [shape=circle, label="11"]
JCWZLAYY [shape=circle, label=""]
RXVWLHKT [shape=circle, label=""]
SYTMKGOO [shape=circle, label="11"]
FBHVKEJB [shape=circle, label="3"]
OLZQROPF [shape=circle, label="11"]
UCQUIIMI [shape=circle, label="14"]
SWWPMSQL [shape=circle, label=""]
TQPIJHXM [shape=circle, label="13"]
DGOYIXZO [shape=circle, label="3"]
ZOTVOXIY [shape=circle, label="6"]
VWGAOBJC [shape=circle, label="3"]
EFRYZZNK [shape=circle, label=""]
TZMXXEYO [shape=circle, label="1"]
JSRDTBBU [shape=circle, label="12"]
IXBTJJEY [shape=circle, label="8"]
ACQTWCVB [shape=circle, label=""]
CJCOTRSD [shape=circle, label="11"]
DBQYPBWI [shape=circle, label="13"]
GFLQLVIT [shape=circle, label=""]
GDPVAUNB [shape=circle, label=""]
SDOKBYAN [shape=circle, label=""]
XFJGMISX [shape=circle, label="13"]
XDOFOCLQ [shape=circle, label="6"]
OEUUQZMO [shape=circle, label="9"]
INNZAXAF [shape=circle, label="8"]
SQHOFSEF [shape=circle, label=""]
NOLGOJNY [shape=circle, label="10"]
HCAUMHZL [shape=circle, label="0"]
QJBXZTFT [shape=circle, label="2"]
RZRKMXVA [shape=circle, label=""]
LLJJOUZS [shape=circle, label="9"]
AOVJLTNL [shape=circle, label="5"]
WHIYJWDD [shape=circle, label="4"]
QIUVGPGS [shape=circle, label="0"]
KSSJBZVH [shape=circle, label=""]
CIUCXYZH [shape=circle, label=""]
YCBIVRAA [shape=circle, label="13"]
CQSKABVE [shape=circle, label="0"]
OASFNTBC [shape=circle, label=""]
AVWLOHED [shape=circle, label="9"]
NETETNEK [shape=circle, label="2"]
LLEYZSCL [shape=circle, label="6"]
OOVMRBDB [shape=circle, label="13"]
HZWFOAYM [shape=circle, label=""]
EIGRIMMI [shape=circle, label="1"]
KUQAGJSN [shape=circle, label="2"]
SEYHECBP [shape=circle, label="0"]
ZSOPBSJG [shape=circle, label="11"]
GJUVIOAF [shape=circle, label=""]
BFYJXSBT [shape=circle, label="4"]
LFXOTKLC [shape=circle, label="9"]
WIJOSYXA [shape=circle, label="5"]
DUUSXRVL [shape=circle, label="6"]
MDNOFTGY [shape=circle, label=""]
VQCIZTRD [shape=circle, label=""]
YSDIWTXC [shape=circle, label="8"]
BVYORRIM [shape=circle, label="1"]
QAUIIPJZ [shape=circle, label="0"]
ZKNHPOOJ [shape=circle, label="7"]
PLVIMKFM [shape=circle, label=""]
ETBIJDAJ [shape=circle, label="6"]
BAYGXZMA [shape=circle, label="6"]
TRPJRUMZ [shape=circle, label="8"]
ACJXRMWH [shape=circle, label="7"]
WVGHKUHX [shape=circle, label=""]
OQHABHPV [shape=circle, label="13"]
ZKXLKWBC [shape=circle, label="15"]
WTXMUJTE [shape=circle, label=""]
CPCBMCWF [shape=circle, label=""]
TWWJFSFK [shape=circle, label="0"]
NPRACKMY [shape=circle, label="0"]
KIRDBBXE [shape=circle, label="15"]
SXAAWNXS [shape=circle, label="9"]
BXDHIIWI [shape=circle, label=""]
ZWXHUWZE [shape=circle, label="9"]
BIYTORQC [shape=circle, label="9"]
SSVSQJSR [shape=circle, label="15"]
AKJHLWCY [shape=circle, label="3"]
SVXWYNMC [shape=circle, label=""]
UXMJVXAN [shape=circle, label="4"]
SCPJQHDV [shape=circle, label="9"]
INOOTCMU [shape=circle, label=""]
QEEDLSUV [shape=circle, label="9"]
SHLVXXLK [shape=circle, label="9"]

NUFJPKLZ -> LUAHMZSM
LUAHMZSM -> FKCYLTFJ
FKCYLTFJ -> UPXBSTHK
UPXBSTHK -> ECPQHIHA
UPXBSTHK -> STYNUYOK
FKCYLTFJ -> XOZKTGCD
XOZKTGCD -> FGKTTYRM
XOZKTGCD -> OZNAAMLT
XOZKTGCD -> BVCIOLGD
XOZKTGCD -> IJBRGPOK
LUAHMZSM -> KMJNDFIQ
KMJNDFIQ -> SLLGHUMM
SLLGHUMM -> LPZHHROP
SLLGHUMM -> HDYPRZHY
KMJNDFIQ -> FFIAIXHE
FFIAIXHE -> KYMBKFDX
FFIAIXHE -> FYKVDIXH
KMJNDFIQ -> CTWLSNIB
CTWLSNIB -> SLXUNTPM
CTWLSNIB -> BNSQWMUI
CTWLSNIB -> FFSXJBRO
LUAHMZSM -> RWGCJZLS
RWGCJZLS -> OQUWUDAF
OQUWUDAF -> ECVOZITF
OQUWUDAF -> MBKSNHXE
OQUWUDAF -> JMDYJESN
RWGCJZLS -> MSFDXXQK
MSFDXXQK -> ZRJEEYSW
MSFDXXQK -> UGKZHXMM
RWGCJZLS -> GCHZMJJY
GCHZMJJY -> XEKNEYWV
GCHZMJJY -> SZHRCSBD
GCHZMJJY -> NMNBODRV
RWGCJZLS -> FMPURPFB
FMPURPFB -> VTKIROBJ
FMPURPFB -> DOCGZUVO
LUAHMZSM -> JCWZLAYY
JCWZLAYY -> RXVWLHKT
RXVWLHKT -> SYTMKGOO
RXVWLHKT -> FBHVKEJB
RXVWLHKT -> OLZQROPF
RXVWLHKT -> UCQUIIMI
JCWZLAYY -> SWWPMSQL
SWWPMSQL -> TQPIJHXM
SWWPMSQL -> DGOYIXZO
SWWPMSQL -> ZOTVOXIY
SWWPMSQL -> VWGAOBJC
JCWZLAYY -> EFRYZZNK
EFRYZZNK -> TZMXXEYO
EFRYZZNK -> JSRDTBBU
EFRYZZNK -> IXBTJJEY
JCWZLAYY -> ACQTWCVB
ACQTWCVB -> CJCOTRSD
ACQTWCVB -> DBQYPBWI
NUFJPKLZ -> GFLQLVIT
GFLQLVIT -> GDPVAUNB
GDPVAUNB -> SDOKBYAN
SDOKBYAN -> XFJGMISX
SDOKBYAN -> XDOFOCLQ
SDOKBYAN -> OEUUQZMO
SDOKBYAN -> INNZAXAF
GDPVAUNB -> SQHOFSEF
SQHOFSEF -> NOLGOJNY
SQHOFSEF -> HCAUMHZL
SQHOFSEF -> QJBXZTFT
GDPVAUNB -> RZRKMXVA
RZRKMXVA -> LLJJOUZS
RZRKMXVA -> AOVJLTNL
RZRKMXVA -> WHIYJWDD
RZRKMXVA -> QIUVGPGS
GFLQLVIT -> KSSJBZVH
KSSJBZVH -> CIUCXYZH
CIUCXYZH -> YCBIVRAA
CIUCXYZH -> CQSKABVE
KSSJBZVH -> OASFNTBC
OASFNTBC -> AVWLOHED
OASFNTBC -> NETETNEK
OASFNTBC -> LLEYZSCL
OASFNTBC -> OOVMRBDB
KSSJBZVH -> HZWFOAYM
HZWFOAYM -> EIGRIMMI
HZWFOAYM -> KUQAGJSN
HZWFOAYM -> SEYHECBP
HZWFOAYM -> ZSOPBSJG
KSSJBZVH -> GJUVIOAF
GJUVIOAF -> BFYJXSBT
GJUVIOAF -> LFXOTKLC
GJUVIOAF -> WIJOSYXA
GJUVIOAF -> DUUSXRVL
GFLQLVIT -> MDNOFTGY
MDNOFTGY -> VQCIZTRD
VQCIZTRD -> YSDIWTXC
VQCIZTRD -> BVYORRIM
VQCIZTRD -> QAUIIPJZ
VQCIZTRD -> ZKNHPOOJ
MDNOFTGY -> PLVIMKFM
PLVIMKFM -> ETBIJDAJ
PLVIMKFM -> BAYGXZMA
PLVIMKFM -> TRPJRUMZ
PLVIMKFM -> ACJXRMWH
MDNOFTGY -> WVGHKUHX
WVGHKUHX -> OQHABHPV
WVGHKUHX -> ZKXLKWBC
GFLQLVIT -> WTXMUJTE
WTXMUJTE -> CPCBMCWF
CPCBMCWF -> TWWJFSFK
CPCBMCWF -> NPRACKMY
CPCBMCWF -> KIRDBBXE
CPCBMCWF -> SXAAWNXS
WTXMUJTE -> BXDHIIWI
BXDHIIWI -> ZWXHUWZE
BXDHIIWI -> BIYTORQC
BXDHIIWI -> SSVSQJSR
BXDHIIWI -> AKJHLWCY
WTXMUJTE -> SVXWYNMC
SVXWYNMC -> UXMJVXAN
SVXWYNMC -> SCPJQHDV
WTXMUJTE -> INOOTCMU
INOOTCMU -> QEEDLSUV
INOOTCMU -> SHLVXXLK

}