<?xml version="1.0" encoding="UTF-8" standalone="no"?>
<!DOCTYPE svg PUBLIC "-//W3C//DTD SVG 1.1//EN"
 "http://www.w3.org/Graphics/SVG/1.1/DTD/svg11.dtd">
<!-- Generated by graphviz version 2.46.1 (20210213.1702)
 -->
<!-- Title: D Pages: 1 -->
<svg width="2508pt" height="335pt"
 viewBox="0.00 0.00 2508.50 335.00" xmlns="http://www.w3.org/2000/svg" xmlns:xlink="http://www.w3.org/1999/xlink">
<g id="graph0" class="graph" transform="scale(1 1) rotate(0) translate(4 331)">
<title>D</title>
<polygon fill="white" stroke="transparent" points="-4,4 -4,-331 2504.5,-331 2504.5,4 -4,4"/>
<!-- OMRBDDDV -->
<g id="node1" class="node">
<title>OMRBDDDV</title>
<ellipse fill="none" stroke="black" cx="1359" cy="-309" rx="18" ry="18"/>
</g>
<!-- XDRSHLBM -->
<g id="node2" class="node">
<title>XDRSHLBM</title>
<ellipse fill="none" stroke="black" cx="1169" cy="-237" rx="18" ry="18"/>
</g>
<!-- OMRBDDDV&#45;&gt;XDRSHLBM -->
<g id="edge1" class="edge">
<title>OMRBDDDV&#45;&gt;XDRSHLBM</title>
<path fill="none" stroke="black" d="M1342.14,-301.78C1308.89,-289.53 1234.65,-262.19 1195.06,-247.6"/>
<polygon fill="black" stroke="black" points="1196.15,-244.27 1185.55,-244.09 1193.73,-250.84 1196.15,-244.27"/>
</g>
<!-- CLTMWKXH -->
<g id="node46" class="node">
<title>CLTMWKXH</title>
<ellipse fill="none" stroke="black" cx="1743" cy="-237" rx="18" ry="18"/>
</g>
<!-- OMRBDDDV&#45;&gt;CLTMWKXH -->
<g id="edge45" class="edge">
<title>OMRBDDDV&#45;&gt;CLTMWKXH</title>
<path fill="none" stroke="black" d="M1376.75,-304.76C1438.05,-293.59 1641.12,-256.57 1715.44,-243.02"/>
<polygon fill="black" stroke="black" points="1716.23,-246.43 1725.44,-241.2 1714.97,-239.55 1716.23,-246.43"/>
</g>
<!-- JXSHSFXH -->
<g id="node3" class="node">
<title>JXSHSFXH</title>
<ellipse fill="none" stroke="black" cx="320" cy="-165" rx="18" ry="18"/>
</g>
<!-- XDRSHLBM&#45;&gt;JXSHSFXH -->
<g id="edge2" class="edge">
<title>XDRSHLBM&#45;&gt;JXSHSFXH</title>
<path fill="none" stroke="black" d="M1150.87,-234.5C1042.53,-225.57 480.8,-179.25 348.11,-168.31"/>
<polygon fill="black" stroke="black" points="348.21,-164.81 337.96,-167.48 347.63,-171.79 348.21,-164.81"/>
</g>
<!-- EGCYZTVF -->
<g id="node15" class="node">
<title>EGCYZTVF</title>
<ellipse fill="none" stroke="black" cx="948" cy="-165" rx="18" ry="18"/>
</g>
<!-- XDRSHLBM&#45;&gt;EGCYZTVF -->
<g id="edge14" class="edge">
<title>XDRSHLBM&#45;&gt;EGCYZTVF</title>
<path fill="none" stroke="black" d="M1152.03,-230.62C1113.78,-218.51 1020.63,-189 974.62,-174.43"/>
<polygon fill="black" stroke="black" points="975.62,-171.07 965.03,-171.39 973.51,-177.75 975.62,-171.07"/>
</g>
<!-- EDOWDPVB -->
<g id="node35" class="node">
<title>EDOWDPVB</title>
<ellipse fill="none" stroke="black" cx="1363" cy="-165" rx="18" ry="18"/>
</g>
<!-- XDRSHLBM&#45;&gt;EDOWDPVB -->
<g id="edge34" class="edge">
<title>XDRSHLBM&#45;&gt;EDOWDPVB</title>
<path fill="none" stroke="black" d="M1185.88,-229.91C1219.79,-217.67 1296.39,-190.03 1336.84,-175.43"/>
<polygon fill="black" stroke="black" points="1338.08,-178.71 1346.3,-172.02 1335.71,-172.12 1338.08,-178.71"/>
</g>
<!-- CHRKIACW -->
<g id="node4" class="node">
<title>CHRKIACW</title>
<ellipse fill="none" stroke="black" cx="126" cy="-93" rx="18" ry="18"/>
</g>
<!-- JXSHSFXH&#45;&gt;CHRKIACW -->
<g id="edge3" class="edge">
<title>JXSHSFXH&#45;&gt;CHRKIACW</title>
<path fill="none" stroke="black" d="M303.12,-157.91C269.21,-145.67 192.61,-118.03 152.16,-103.43"/>
<polygon fill="black" stroke="black" points="153.29,-100.12 142.7,-100.02 150.92,-106.71 153.29,-100.12"/>
</g>
<!-- YPPDKLRI -->
<g id="node9" class="node">
<title>YPPDKLRI</title>
<ellipse fill="none" stroke="black" cx="292" cy="-93" rx="18" ry="18"/>
</g>
<!-- JXSHSFXH&#45;&gt;YPPDKLRI -->
<g id="edge8" class="edge">
<title>JXSHSFXH&#45;&gt;YPPDKLRI</title>
<path fill="none" stroke="black" d="M313.65,-148.11C310.29,-139.73 306.1,-129.24 302.29,-119.73"/>
<polygon fill="black" stroke="black" points="305.49,-118.29 298.52,-110.3 298.99,-120.89 305.49,-118.29"/>
</g>
<!-- WGVLAHMT -->
<g id="node12" class="node">
<title>WGVLAHMT</title>
<ellipse fill="none" stroke="black" cx="347" cy="-93" rx="18" ry="18"/>
</g>
<!-- JXSHSFXH&#45;&gt;WGVLAHMT -->
<g id="edge11" class="edge">
<title>JXSHSFXH&#45;&gt;WGVLAHMT</title>
<path fill="none" stroke="black" d="M326.26,-147.76C329.5,-139.37 333.53,-128.93 337.17,-119.49"/>
<polygon fill="black" stroke="black" points="340.44,-120.73 340.77,-110.14 333.91,-118.21 340.44,-120.73"/>
</g>
<!-- RFAGLSUV -->
<g id="node5" class="node">
<title>RFAGLSUV</title>
<ellipse fill="none" stroke="black" cx="18" cy="-19.5" rx="18" ry="18"/>
<text text-anchor="middle" x="18" y="-15.8" font-family="Times,serif" font-size="14.00">4</text>
</g>
<!-- CHRKIACW&#45;&gt;RFAGLSUV -->
<g id="edge4" class="edge">
<title>CHRKIACW&#45;&gt;RFAGLSUV</title>
<path fill="none" stroke="black" d="M111.31,-82.52C95.03,-71.98 68.04,-54.42 45,-39 43.73,-38.15 42.43,-37.27 41.12,-36.39"/>
<polygon fill="black" stroke="black" points="42.77,-33.27 32.53,-30.54 38.83,-39.06 42.77,-33.27"/>
</g>
<!-- OZVDZZRS -->
<g id="node6" class="node">
<title>OZVDZZRS</title>
<ellipse fill="none" stroke="black" cx="72" cy="-19.5" rx="18" ry="18"/>
<text text-anchor="middle" x="72" y="-15.8" font-family="Times,serif" font-size="14.00">2</text>
</g>
<!-- CHRKIACW&#45;&gt;OZVDZZRS -->
<g id="edge5" class="edge">
<title>CHRKIACW&#45;&gt;OZVDZZRS</title>
<path fill="none" stroke="black" d="M115.59,-78.21C107.89,-68.02 97.26,-53.95 88.43,-42.25"/>
<polygon fill="black" stroke="black" points="91.2,-40.11 82.38,-34.24 85.61,-44.33 91.2,-40.11"/>
</g>
<!-- WQTFZHEJ -->
<g id="node7" class="node">
<title>WQTFZHEJ</title>
<ellipse fill="none" stroke="black" cx="126" cy="-19.5" rx="18" ry="18"/>
<text text-anchor="middle" x="126" y="-15.8" font-family="Times,serif" font-size="14.00">4</text>
</g>
<!-- CHRKIACW&#45;&gt;WQTFZHEJ -->
<g id="edge6" class="edge">
<title>CHRKIACW&#45;&gt;WQTFZHEJ</title>
<path fill="none" stroke="black" d="M126,-74.69C126,-66.61 126,-56.8 126,-47.76"/>
<polygon fill="black" stroke="black" points="129.5,-47.65 126,-37.65 122.5,-47.65 129.5,-47.65"/>
</g>
<!-- MMXRXEYF -->
<g id="node8" class="node">
<title>MMXRXEYF</title>
<ellipse fill="none" stroke="black" cx="180" cy="-19.5" rx="18" ry="18"/>
<text text-anchor="middle" x="180" y="-15.8" font-family="Times,serif" font-size="14.00">9</text>
</g>
<!-- CHRKIACW&#45;&gt;MMXRXEYF -->
<g id="edge7" class="edge">
<title>CHRKIACW&#45;&gt;MMXRXEYF</title>
<path fill="none" stroke="black" d="M136.41,-78.21C144.11,-68.02 154.74,-53.95 163.57,-42.25"/>
<polygon fill="black" stroke="black" points="166.39,-44.33 169.62,-34.24 160.8,-40.11 166.39,-44.33"/>
</g>
<!-- ETAMRVQJ -->
<g id="node10" class="node">
<title>ETAMRVQJ</title>
<ellipse fill="none" stroke="black" cx="235" cy="-19.5" rx="19.5" ry="19.5"/>
<text text-anchor="middle" x="235" y="-15.8" font-family="Times,serif" font-size="14.00">14</text>
</g>
<!-- YPPDKLRI&#45;&gt;ETAMRVQJ -->
<g id="edge9" class="edge">
<title>YPPDKLRI&#45;&gt;ETAMRVQJ</title>
<path fill="none" stroke="black" d="M281.01,-78.21C273.1,-68.28 262.24,-54.67 253.06,-43.16"/>
<polygon fill="black" stroke="black" points="255.71,-40.86 246.74,-35.23 250.24,-45.23 255.71,-40.86"/>
</g>
<!-- FCUJJZVA -->
<g id="node11" class="node">
<title>FCUJJZVA</title>
<ellipse fill="none" stroke="black" cx="292" cy="-19.5" rx="19.5" ry="19.5"/>
<text text-anchor="middle" x="292" y="-15.8" font-family="Times,serif" font-size="14.00">10</text>
</g>
<!-- YPPDKLRI&#45;&gt;FCUJJZVA -->
<g id="edge10" class="edge">
<title>YPPDKLRI&#45;&gt;FCUJJZVA</title>
<path fill="none" stroke="black" d="M292,-74.69C292,-67.05 292,-57.86 292,-49.24"/>
<polygon fill="black" stroke="black" points="295.5,-49.15 292,-39.15 288.5,-49.15 295.5,-49.15"/>
</g>
<!-- DVEIQZUZ -->
<g id="node13" class="node">
<title>DVEIQZUZ</title>
<ellipse fill="none" stroke="black" cx="347" cy="-19.5" rx="18" ry="18"/>
<text text-anchor="middle" x="347" y="-15.8" font-family="Times,serif" font-size="14.00">9</text>
</g>
<!-- WGVLAHMT&#45;&gt;DVEIQZUZ -->
<g id="edge12" class="edge">
<title>WGVLAHMT&#45;&gt;DVEIQZUZ</title>
<path fill="none" stroke="black" d="M347,-74.69C347,-66.61 347,-56.8 347,-47.76"/>
<polygon fill="black" stroke="black" points="350.5,-47.65 347,-37.65 343.5,-47.65 350.5,-47.65"/>
</g>
<!-- YSBTMDPW -->
<g id="node14" class="node">
<title>YSBTMDPW</title>
<ellipse fill="none" stroke="black" cx="401" cy="-19.5" rx="18" ry="18"/>
<text text-anchor="middle" x="401" y="-15.8" font-family="Times,serif" font-size="14.00">7</text>
</g>
<!-- WGVLAHMT&#45;&gt;YSBTMDPW -->
<g id="edge13" class="edge">
<title>WGVLAHMT&#45;&gt;YSBTMDPW</title>
<path fill="none" stroke="black" d="M357.41,-78.21C365.11,-68.02 375.74,-53.95 384.57,-42.25"/>
<polygon fill="black" stroke="black" points="387.39,-44.33 390.62,-34.24 381.8,-40.11 387.39,-44.33"/>
</g>
<!-- FTSXDGYN -->
<g id="node16" class="node">
<title>FTSXDGYN</title>
<ellipse fill="none" stroke="black" cx="565" cy="-93" rx="18" ry="18"/>
</g>
<!-- EGCYZTVF&#45;&gt;FTSXDGYN -->
<g id="edge15" class="edge">
<title>EGCYZTVF&#45;&gt;FTSXDGYN</title>
<path fill="none" stroke="black" d="M930.3,-160.76C869.16,-149.59 666.62,-112.57 592.49,-99.02"/>
<polygon fill="black" stroke="black" points="592.98,-95.55 582.52,-97.2 591.72,-102.44 592.98,-95.55"/>
</g>
<!-- KVYJIBPB -->
<g id="node21" class="node">
<title>KVYJIBPB</title>
<ellipse fill="none" stroke="black" cx="782" cy="-93" rx="18" ry="18"/>
</g>
<!-- EGCYZTVF&#45;&gt;KVYJIBPB -->
<g id="edge20" class="edge">
<title>EGCYZTVF&#45;&gt;KVYJIBPB</title>
<path fill="none" stroke="black" d="M931.78,-157.16C902.97,-145.01 842.65,-119.57 807.99,-104.96"/>
<polygon fill="black" stroke="black" points="809.1,-101.63 798.53,-100.97 806.39,-108.08 809.1,-101.63"/>
</g>
<!-- XLYUKCAU -->
<g id="node26" class="node">
<title>XLYUKCAU</title>
<ellipse fill="none" stroke="black" cx="948" cy="-93" rx="18" ry="18"/>
</g>
<!-- EGCYZTVF&#45;&gt;XLYUKCAU -->
<g id="edge25" class="edge">
<title>EGCYZTVF&#45;&gt;XLYUKCAU</title>
<path fill="none" stroke="black" d="M948,-146.69C948,-138.98 948,-129.71 948,-121.11"/>
<polygon fill="black" stroke="black" points="951.5,-121.1 948,-111.1 944.5,-121.1 951.5,-121.1"/>
</g>
<!-- YESOXVSJ -->
<g id="node30" class="node">
<title>YESOXVSJ</title>
<ellipse fill="none" stroke="black" cx="1113" cy="-93" rx="18" ry="18"/>
</g>
<!-- EGCYZTVF&#45;&gt;YESOXVSJ -->
<g id="edge29" class="edge">
<title>EGCYZTVF&#45;&gt;YESOXVSJ</title>
<path fill="none" stroke="black" d="M964.42,-157.03C993.21,-144.82 1052.97,-119.46 1087.28,-104.91"/>
<polygon fill="black" stroke="black" points="1088.8,-108.06 1096.64,-100.94 1086.07,-101.62 1088.8,-108.06"/>
</g>
<!-- PNEUDUJQ -->
<g id="node17" class="node">
<title>PNEUDUJQ</title>
<ellipse fill="none" stroke="black" cx="456" cy="-19.5" rx="19.5" ry="19.5"/>
<text text-anchor="middle" x="456" y="-15.8" font-family="Times,serif" font-size="14.00">12</text>
</g>
<!-- FTSXDGYN&#45;&gt;PNEUDUJQ -->
<g id="edge16" class="edge">
<title>FTSXDGYN&#45;&gt;PNEUDUJQ</title>
<path fill="none" stroke="black" d="M550.35,-82.44C534.12,-71.84 507.17,-54.23 484,-39 482.9,-38.28 481.79,-37.54 480.66,-36.8"/>
<polygon fill="black" stroke="black" points="482.26,-33.66 471.98,-31.08 478.4,-39.5 482.26,-33.66"/>
</g>
<!-- SCKIFXJG -->
<g id="node18" class="node">
<title>SCKIFXJG</title>
<ellipse fill="none" stroke="black" cx="511" cy="-19.5" rx="18" ry="18"/>
<text text-anchor="middle" x="511" y="-15.8" font-family="Times,serif" font-size="14.00">1</text>
</g>
<!-- FTSXDGYN&#45;&gt;SCKIFXJG -->
<g id="edge17" class="edge">
<title>FTSXDGYN&#45;&gt;SCKIFXJG</title>
<path fill="none" stroke="black" d="M554.59,-78.21C546.89,-68.02 536.26,-53.95 527.43,-42.25"/>
<polygon fill="black" stroke="black" points="530.2,-40.11 521.38,-34.24 524.61,-44.33 530.2,-40.11"/>
</g>
<!-- ZWOYARAC -->
<g id="node19" class="node">
<title>ZWOYARAC</title>
<ellipse fill="none" stroke="black" cx="565" cy="-19.5" rx="18" ry="18"/>
<text text-anchor="middle" x="565" y="-15.8" font-family="Times,serif" font-size="14.00">7</text>
</g>
<!-- FTSXDGYN&#45;&gt;ZWOYARAC -->
<g id="edge18" class="edge">
<title>FTSXDGYN&#45;&gt;ZWOYARAC</title>
<path fill="none" stroke="black" d="M565,-74.69C565,-66.61 565,-56.8 565,-47.76"/>
<polygon fill="black" stroke="black" points="568.5,-47.65 565,-37.65 561.5,-47.65 568.5,-47.65"/>
</g>
<!-- PBRFXIAI -->
<g id="node20" class="node">
<title>PBRFXIAI</title>
<ellipse fill="none" stroke="black" cx="619" cy="-19.5" rx="18" ry="18"/>
<text text-anchor="middle" x="619" y="-15.8" font-family="Times,serif" font-size="14.00">3</text>
</g>
<!-- FTSXDGYN&#45;&gt;PBRFXIAI -->
<g id="edge19" class="edge">
<title>FTSXDGYN&#45;&gt;PBRFXIAI</title>
<path fill="none" stroke="black" d="M575.41,-78.21C583.11,-68.02 593.74,-53.95 602.57,-42.25"/>
<polygon fill="black" stroke="black" points="605.39,-44.33 608.62,-34.24 599.8,-40.11 605.39,-44.33"/>
</g>
<!-- EKNRRHUY -->
<g id="node22" class="node">
<title>EKNRRHUY</title>
<ellipse fill="none" stroke="black" cx="673" cy="-19.5" rx="18" ry="18"/>
<text text-anchor="middle" x="673" y="-15.8" font-family="Times,serif" font-size="14.00">5</text>
</g>
<!-- KVYJIBPB&#45;&gt;EKNRRHUY -->
<g id="edge21" class="edge">
<title>KVYJIBPB&#45;&gt;EKNRRHUY</title>
<path fill="none" stroke="black" d="M767.11,-82.54C750.62,-72.03 723.28,-54.49 700,-39 698.73,-38.15 697.43,-37.28 696.11,-36.39"/>
<polygon fill="black" stroke="black" points="697.76,-33.28 687.52,-30.55 693.83,-39.07 697.76,-33.28"/>
</g>
<!-- NJDTKLTP -->
<g id="node23" class="node">
<title>NJDTKLTP</title>
<ellipse fill="none" stroke="black" cx="727" cy="-19.5" rx="18" ry="18"/>
<text text-anchor="middle" x="727" y="-15.8" font-family="Times,serif" font-size="14.00">7</text>
</g>
<!-- KVYJIBPB&#45;&gt;NJDTKLTP -->
<g id="edge22" class="edge">
<title>KVYJIBPB&#45;&gt;NJDTKLTP</title>
<path fill="none" stroke="black" d="M771.4,-78.21C763.56,-68.02 752.73,-53.95 743.73,-42.25"/>
<polygon fill="black" stroke="black" points="746.44,-40.03 737.57,-34.24 740.9,-44.3 746.44,-40.03"/>
</g>
<!-- UQJATJTL -->
<g id="node24" class="node">
<title>UQJATJTL</title>
<ellipse fill="none" stroke="black" cx="782" cy="-19.5" rx="19.5" ry="19.5"/>
<text text-anchor="middle" x="782" y="-15.8" font-family="Times,serif" font-size="14.00">12</text>
</g>
<!-- KVYJIBPB&#45;&gt;UQJATJTL -->
<g id="edge23" class="edge">
<title>KVYJIBPB&#45;&gt;UQJATJTL</title>
<path fill="none" stroke="black" d="M782,-74.69C782,-67.05 782,-57.86 782,-49.24"/>
<polygon fill="black" stroke="black" points="785.5,-49.15 782,-39.15 778.5,-49.15 785.5,-49.15"/>
</g>
<!-- ZVHFSBIK -->
<g id="node25" class="node">
<title>ZVHFSBIK</title>
<ellipse fill="none" stroke="black" cx="839" cy="-19.5" rx="19.5" ry="19.5"/>
<text text-anchor="middle" x="839" y="-15.8" font-family="Times,serif" font-size="14.00">15</text>
</g>
<!-- KVYJIBPB&#45;&gt;ZVHFSBIK -->
<g id="edge24" class="edge">
<title>KVYJIBPB&#45;&gt;ZVHFSBIK</title>
<path fill="none" stroke="black" d="M792.99,-78.21C800.9,-68.28 811.76,-54.67 820.94,-43.16"/>
<polygon fill="black" stroke="black" points="823.76,-45.23 827.26,-35.23 818.29,-40.86 823.76,-45.23"/>
</g>
<!-- TYHGBBIJ -->
<g id="node27" class="node">
<title>TYHGBBIJ</title>
<ellipse fill="none" stroke="black" cx="894" cy="-19.5" rx="18" ry="18"/>
<text text-anchor="middle" x="894" y="-15.8" font-family="Times,serif" font-size="14.00">3</text>
</g>
<!-- XLYUKCAU&#45;&gt;TYHGBBIJ -->
<g id="edge26" class="edge">
<title>XLYUKCAU&#45;&gt;TYHGBBIJ</title>
<path fill="none" stroke="black" d="M937.59,-78.21C929.89,-68.02 919.26,-53.95 910.43,-42.25"/>
<polygon fill="black" stroke="black" points="913.2,-40.11 904.38,-34.24 907.61,-44.33 913.2,-40.11"/>
</g>
<!-- NQDKTZOI -->
<g id="node28" class="node">
<title>NQDKTZOI</title>
<ellipse fill="none" stroke="black" cx="948" cy="-19.5" rx="18" ry="18"/>
<text text-anchor="middle" x="948" y="-15.8" font-family="Times,serif" font-size="14.00">1</text>
</g>
<!-- XLYUKCAU&#45;&gt;NQDKTZOI -->
<g id="edge27" class="edge">
<title>XLYUKCAU&#45;&gt;NQDKTZOI</title>
<path fill="none" stroke="black" d="M948,-74.69C948,-66.61 948,-56.8 948,-47.76"/>
<polygon fill="black" stroke="black" points="951.5,-47.65 948,-37.65 944.5,-47.65 951.5,-47.65"/>
</g>
<!-- DBPSRGRB -->
<g id="node29" class="node">
<title>DBPSRGRB</title>
<ellipse fill="none" stroke="black" cx="1003" cy="-19.5" rx="19.5" ry="19.5"/>
<text text-anchor="middle" x="1003" y="-15.8" font-family="Times,serif" font-size="14.00">10</text>
</g>
<!-- XLYUKCAU&#45;&gt;DBPSRGRB -->
<g id="edge28" class="edge">
<title>XLYUKCAU&#45;&gt;DBPSRGRB</title>
<path fill="none" stroke="black" d="M958.6,-78.21C966.12,-68.45 976.38,-55.11 985.14,-43.72"/>
<polygon fill="black" stroke="black" points="988.16,-45.54 991.48,-35.48 982.61,-41.27 988.16,-45.54"/>
</g>
<!-- RQLBZOFO -->
<g id="node31" class="node">
<title>RQLBZOFO</title>
<ellipse fill="none" stroke="black" cx="1058" cy="-19.5" rx="18" ry="18"/>
<text text-anchor="middle" x="1058" y="-15.8" font-family="Times,serif" font-size="14.00">9</text>
</g>
<!-- YESOXVSJ&#45;&gt;RQLBZOFO -->
<g id="edge30" class="edge">
<title>YESOXVSJ&#45;&gt;RQLBZOFO</title>
<path fill="none" stroke="black" d="M1102.4,-78.21C1094.56,-68.02 1083.73,-53.95 1074.73,-42.25"/>
<polygon fill="black" stroke="black" points="1077.44,-40.03 1068.57,-34.24 1071.9,-44.3 1077.44,-40.03"/>
</g>
<!-- CAMFENPD -->
<g id="node32" class="node">
<title>CAMFENPD</title>
<ellipse fill="none" stroke="black" cx="1113" cy="-19.5" rx="19.5" ry="19.5"/>
<text text-anchor="middle" x="1113" y="-15.8" font-family="Times,serif" font-size="14.00">12</text>
</g>
<!-- YESOXVSJ&#45;&gt;CAMFENPD -->
<g id="edge31" class="edge">
<title>YESOXVSJ&#45;&gt;CAMFENPD</title>
<path fill="none" stroke="black" d="M1113,-74.69C1113,-67.05 1113,-57.86 1113,-49.24"/>
<polygon fill="black" stroke="black" points="1116.5,-49.15 1113,-39.15 1109.5,-49.15 1116.5,-49.15"/>
</g>
<!-- IFLRPKXL -->
<g id="node33" class="node">
<title>IFLRPKXL</title>
<ellipse fill="none" stroke="black" cx="1170" cy="-19.5" rx="19.5" ry="19.5"/>
<text text-anchor="middle" x="1170" y="-15.8" font-family="Times,serif" font-size="14.00">13</text>
</g>
<!-- YESOXVSJ&#45;&gt;IFLRPKXL -->
<g id="edge32" class="edge">
<title>YESOXVSJ&#45;&gt;IFLRPKXL</title>
<path fill="none" stroke="black" d="M1123.99,-78.21C1131.9,-68.28 1142.76,-54.67 1151.94,-43.16"/>
<polygon fill="black" stroke="black" points="1154.76,-45.23 1158.26,-35.23 1149.29,-40.86 1154.76,-45.23"/>
</g>
<!-- DEKIVMXW -->
<g id="node34" class="node">
<title>DEKIVMXW</title>
<ellipse fill="none" stroke="black" cx="1227" cy="-19.5" rx="19.5" ry="19.5"/>
<text text-anchor="middle" x="1227" y="-15.8" font-family="Times,serif" font-size="14.00">11</text>
</g>
<!-- YESOXVSJ&#45;&gt;DEKIVMXW -->
<g id="edge33" class="edge">
<title>YESOXVSJ&#45;&gt;DEKIVMXW</title>
<path fill="none" stroke="black" d="M1128.08,-82.66C1145.09,-72.11 1173.58,-54.4 1198,-39 1199.29,-38.18 1200.62,-37.34 1201.96,-36.49"/>
<polygon fill="black" stroke="black" points="1204.2,-39.22 1210.76,-30.9 1200.44,-33.31 1204.2,-39.22"/>
</g>
<!-- IQCZIZGL -->
<g id="node36" class="node">
<title>IQCZIZGL</title>
<ellipse fill="none" stroke="black" cx="1336" cy="-93" rx="18" ry="18"/>
</g>
<!-- EDOWDPVB&#45;&gt;IQCZIZGL -->
<g id="edge35" class="edge">
<title>EDOWDPVB&#45;&gt;IQCZIZGL</title>
<path fill="none" stroke="black" d="M1356.74,-147.76C1353.5,-139.37 1349.47,-128.93 1345.83,-119.49"/>
<polygon fill="black" stroke="black" points="1349.09,-118.21 1342.23,-110.14 1342.56,-120.73 1349.09,-118.21"/>
</g>
<!-- IFPKBMAP -->
<g id="node39" class="node">
<title>IFPKBMAP</title>
<ellipse fill="none" stroke="black" cx="1390" cy="-93" rx="18" ry="18"/>
</g>
<!-- EDOWDPVB&#45;&gt;IFPKBMAP -->
<g id="edge38" class="edge">
<title>EDOWDPVB&#45;&gt;IFPKBMAP</title>
<path fill="none" stroke="black" d="M1369.26,-147.76C1372.5,-139.37 1376.53,-128.93 1380.17,-119.49"/>
<polygon fill="black" stroke="black" points="1383.44,-120.73 1383.77,-110.14 1376.91,-118.21 1383.44,-120.73"/>
</g>
<!-- NSGQDYPC -->
<g id="node42" class="node">
<title>NSGQDYPC</title>
<ellipse fill="none" stroke="black" cx="1525" cy="-93" rx="18" ry="18"/>
</g>
<!-- EDOWDPVB&#45;&gt;NSGQDYPC -->
<g id="edge41" class="edge">
<title>EDOWDPVB&#45;&gt;NSGQDYPC</title>
<path fill="none" stroke="black" d="M1379.42,-156.9C1407.69,-144.69 1465.7,-119.62 1499.34,-105.09"/>
<polygon fill="black" stroke="black" points="1500.74,-108.29 1508.53,-101.11 1497.96,-101.87 1500.74,-108.29"/>
</g>
<!-- LYRQZCXI -->
<g id="node37" class="node">
<title>LYRQZCXI</title>
<ellipse fill="none" stroke="black" cx="1282" cy="-19.5" rx="18" ry="18"/>
<text text-anchor="middle" x="1282" y="-15.8" font-family="Times,serif" font-size="14.00">6</text>
</g>
<!-- IQCZIZGL&#45;&gt;LYRQZCXI -->
<g id="edge36" class="edge">
<title>IQCZIZGL&#45;&gt;LYRQZCXI</title>
<path fill="none" stroke="black" d="M1325.59,-78.21C1317.89,-68.02 1307.26,-53.95 1298.43,-42.25"/>
<polygon fill="black" stroke="black" points="1301.2,-40.11 1292.38,-34.24 1295.61,-44.33 1301.2,-40.11"/>
</g>
<!-- AVDJTCKC -->
<g id="node38" class="node">
<title>AVDJTCKC</title>
<ellipse fill="none" stroke="black" cx="1336" cy="-19.5" rx="18" ry="18"/>
<text text-anchor="middle" x="1336" y="-15.8" font-family="Times,serif" font-size="14.00">0</text>
</g>
<!-- IQCZIZGL&#45;&gt;AVDJTCKC -->
<g id="edge37" class="edge">
<title>IQCZIZGL&#45;&gt;AVDJTCKC</title>
<path fill="none" stroke="black" d="M1336,-74.69C1336,-66.61 1336,-56.8 1336,-47.76"/>
<polygon fill="black" stroke="black" points="1339.5,-47.65 1336,-37.65 1332.5,-47.65 1339.5,-47.65"/>
</g>
<!-- LBEBDHGQ -->
<g id="node40" class="node">
<title>LBEBDHGQ</title>
<ellipse fill="none" stroke="black" cx="1390" cy="-19.5" rx="18" ry="18"/>
<text text-anchor="middle" x="1390" y="-15.8" font-family="Times,serif" font-size="14.00">5</text>
</g>
<!-- IFPKBMAP&#45;&gt;LBEBDHGQ -->
<g id="edge39" class="edge">
<title>IFPKBMAP&#45;&gt;LBEBDHGQ</title>
<path fill="none" stroke="black" d="M1390,-74.69C1390,-66.61 1390,-56.8 1390,-47.76"/>
<polygon fill="black" stroke="black" points="1393.5,-47.65 1390,-37.65 1386.5,-47.65 1393.5,-47.65"/>
</g>
<!-- JPOMNRIY -->
<g id="node41" class="node">
<title>JPOMNRIY</title>
<ellipse fill="none" stroke="black" cx="1444" cy="-19.5" rx="18" ry="18"/>
<text text-anchor="middle" x="1444" y="-15.8" font-family="Times,serif" font-size="14.00">4</text>
</g>
<!-- IFPKBMAP&#45;&gt;JPOMNRIY -->
<g id="edge40" class="edge">
<title>IFPKBMAP&#45;&gt;JPOMNRIY</title>
<path fill="none" stroke="black" d="M1400.41,-78.21C1408.11,-68.02 1418.74,-53.95 1427.57,-42.25"/>
<polygon fill="black" stroke="black" points="1430.39,-44.33 1433.62,-34.24 1424.8,-40.11 1430.39,-44.33"/>
</g>
<!-- SNYUGHSM -->
<g id="node43" class="node">
<title>SNYUGHSM</title>
<ellipse fill="none" stroke="black" cx="1498" cy="-19.5" rx="18" ry="18"/>
<text text-anchor="middle" x="1498" y="-15.8" font-family="Times,serif" font-size="14.00">5</text>
</g>
<!-- NSGQDYPC&#45;&gt;SNYUGHSM -->
<g id="edge42" class="edge">
<title>NSGQDYPC&#45;&gt;SNYUGHSM</title>
<path fill="none" stroke="black" d="M1518.87,-75.77C1515.56,-67 1511.39,-55.96 1507.65,-46.05"/>
<polygon fill="black" stroke="black" points="1510.91,-44.78 1504.1,-36.66 1504.36,-47.25 1510.91,-44.78"/>
</g>
<!-- HRPATXRC -->
<g id="node44" class="node">
<title>HRPATXRC</title>
<ellipse fill="none" stroke="black" cx="1553" cy="-19.5" rx="19.5" ry="19.5"/>
<text text-anchor="middle" x="1553" y="-15.8" font-family="Times,serif" font-size="14.00">15</text>
</g>
<!-- NSGQDYPC&#45;&gt;HRPATXRC -->
<g id="edge43" class="edge">
<title>NSGQDYPC&#45;&gt;HRPATXRC</title>
<path fill="none" stroke="black" d="M1531.35,-75.77C1534.63,-67.39 1538.72,-56.95 1542.46,-47.41"/>
<polygon fill="black" stroke="black" points="1545.79,-48.5 1546.18,-37.91 1539.28,-45.94 1545.79,-48.5"/>
</g>
<!-- ZRJUYDTY -->
<g id="node45" class="node">
<title>ZRJUYDTY</title>
<ellipse fill="none" stroke="black" cx="1608" cy="-19.5" rx="18" ry="18"/>
<text text-anchor="middle" x="1608" y="-15.8" font-family="Times,serif" font-size="14.00">7</text>
</g>
<!-- NSGQDYPC&#45;&gt;ZRJUYDTY -->
<g id="edge44" class="edge">
<title>NSGQDYPC&#45;&gt;ZRJUYDTY</title>
<path fill="none" stroke="black" d="M1538.34,-80.51C1551.4,-69.25 1571.53,-51.92 1586.79,-38.77"/>
<polygon fill="black" stroke="black" points="1589.41,-41.14 1594.7,-31.96 1584.84,-35.83 1589.41,-41.14"/>
</g>
<!-- DSDNVKWO -->
<g id="node47" class="node">
<title>DSDNVKWO</title>
<ellipse fill="none" stroke="black" cx="1743" cy="-165" rx="18" ry="18"/>
</g>
<!-- CLTMWKXH&#45;&gt;DSDNVKWO -->
<g id="edge46" class="edge">
<title>CLTMWKXH&#45;&gt;DSDNVKWO</title>
<path fill="none" stroke="black" d="M1743,-218.69C1743,-210.98 1743,-201.71 1743,-193.11"/>
<polygon fill="black" stroke="black" points="1746.5,-193.1 1743,-183.1 1739.5,-193.1 1746.5,-193.1"/>
</g>
<!-- FSQSVHOG -->
<g id="node55" class="node">
<title>FSQSVHOG</title>
<ellipse fill="none" stroke="black" cx="2127" cy="-165" rx="18" ry="18"/>
</g>
<!-- CLTMWKXH&#45;&gt;FSQSVHOG -->
<g id="edge54" class="edge">
<title>CLTMWKXH&#45;&gt;FSQSVHOG</title>
<path fill="none" stroke="black" d="M1760.75,-232.76C1822.05,-221.59 2025.12,-184.57 2099.44,-171.02"/>
<polygon fill="black" stroke="black" points="2100.23,-174.43 2109.44,-169.2 2098.97,-167.55 2100.23,-174.43"/>
</g>
<!-- IXZUHLRC -->
<g id="node48" class="node">
<title>IXZUHLRC</title>
<ellipse fill="none" stroke="black" cx="1716" cy="-93" rx="18" ry="18"/>
</g>
<!-- DSDNVKWO&#45;&gt;IXZUHLRC -->
<g id="edge47" class="edge">
<title>DSDNVKWO&#45;&gt;IXZUHLRC</title>
<path fill="none" stroke="black" d="M1736.74,-147.76C1733.5,-139.37 1729.47,-128.93 1725.83,-119.49"/>
<polygon fill="black" stroke="black" points="1729.09,-118.21 1722.23,-110.14 1722.56,-120.73 1729.09,-118.21"/>
</g>
<!-- EZVKTQUP -->
<g id="node51" class="node">
<title>EZVKTQUP</title>
<ellipse fill="none" stroke="black" cx="1798" cy="-93" rx="18" ry="18"/>
</g>
<!-- DSDNVKWO&#45;&gt;EZVKTQUP -->
<g id="edge50" class="edge">
<title>DSDNVKWO&#45;&gt;EZVKTQUP</title>
<path fill="none" stroke="black" d="M1753.87,-150.17C1761.55,-140.39 1772.01,-127.08 1780.82,-115.87"/>
<polygon fill="black" stroke="black" points="1783.73,-117.82 1787.16,-107.8 1778.23,-113.5 1783.73,-117.82"/>
</g>
<!-- RBGFXDNK -->
<g id="node49" class="node">
<title>RBGFXDNK</title>
<ellipse fill="none" stroke="black" cx="1662" cy="-19.5" rx="18" ry="18"/>
<text text-anchor="middle" x="1662" y="-15.8" font-family="Times,serif" font-size="14.00">3</text>
</g>
<!-- IXZUHLRC&#45;&gt;RBGFXDNK -->
<g id="edge48" class="edge">
<title>IXZUHLRC&#45;&gt;RBGFXDNK</title>
<path fill="none" stroke="black" d="M1705.59,-78.21C1697.89,-68.02 1687.26,-53.95 1678.43,-42.25"/>
<polygon fill="black" stroke="black" points="1681.2,-40.11 1672.38,-34.24 1675.61,-44.33 1681.2,-40.11"/>
</g>
<!-- IMURTDDS -->
<g id="node50" class="node">
<title>IMURTDDS</title>
<ellipse fill="none" stroke="black" cx="1716" cy="-19.5" rx="18" ry="18"/>
<text text-anchor="middle" x="1716" y="-15.8" font-family="Times,serif" font-size="14.00">9</text>
</g>
<!-- IXZUHLRC&#45;&gt;IMURTDDS -->
<g id="edge49" class="edge">
<title>IXZUHLRC&#45;&gt;IMURTDDS</title>
<path fill="none" stroke="black" d="M1716,-74.69C1716,-66.61 1716,-56.8 1716,-47.76"/>
<polygon fill="black" stroke="black" points="1719.5,-47.65 1716,-37.65 1712.5,-47.65 1719.5,-47.65"/>
</g>
<!-- ADMJKLCM -->
<g id="node52" class="node">
<title>ADMJKLCM</title>
<ellipse fill="none" stroke="black" cx="1771" cy="-19.5" rx="19.5" ry="19.5"/>
<text text-anchor="middle" x="1771" y="-15.8" font-family="Times,serif" font-size="14.00">15</text>
</g>
<!-- EZVKTQUP&#45;&gt;ADMJKLCM -->
<g id="edge51" class="edge">
<title>EZVKTQUP&#45;&gt;ADMJKLCM</title>
<path fill="none" stroke="black" d="M1791.87,-75.77C1788.71,-67.39 1784.77,-56.95 1781.16,-47.41"/>
<polygon fill="black" stroke="black" points="1784.38,-46.03 1777.57,-37.91 1777.83,-48.5 1784.38,-46.03"/>
</g>
<!-- ZURJSRLP -->
<g id="node53" class="node">
<title>ZURJSRLP</title>
<ellipse fill="none" stroke="black" cx="1826" cy="-19.5" rx="18" ry="18"/>
<text text-anchor="middle" x="1826" y="-15.8" font-family="Times,serif" font-size="14.00">4</text>
</g>
<!-- EZVKTQUP&#45;&gt;ZURJSRLP -->
<g id="edge52" class="edge">
<title>EZVKTQUP&#45;&gt;ZURJSRLP</title>
<path fill="none" stroke="black" d="M1804.35,-75.77C1807.79,-67 1812.11,-55.96 1815.99,-46.05"/>
<polygon fill="black" stroke="black" points="1819.28,-47.25 1819.67,-36.66 1812.77,-44.69 1819.28,-47.25"/>
</g>
<!-- KMSFWGXF -->
<g id="node54" class="node">
<title>KMSFWGXF</title>
<ellipse fill="none" stroke="black" cx="1881" cy="-19.5" rx="19.5" ry="19.5"/>
<text text-anchor="middle" x="1881" y="-15.8" font-family="Times,serif" font-size="14.00">15</text>
</g>
<!-- EZVKTQUP&#45;&gt;KMSFWGXF -->
<g id="edge53" class="edge">
<title>EZVKTQUP&#45;&gt;KMSFWGXF</title>
<path fill="none" stroke="black" d="M1811.34,-80.51C1824.09,-69.52 1843.58,-52.73 1858.7,-39.71"/>
<polygon fill="black" stroke="black" points="1861.29,-42.1 1866.58,-32.92 1856.72,-36.79 1861.29,-42.1"/>
</g>
<!-- LAEBRMWU -->
<g id="node56" class="node">
<title>LAEBRMWU</title>
<ellipse fill="none" stroke="black" cx="1991" cy="-93" rx="18" ry="18"/>
</g>
<!-- FSQSVHOG&#45;&gt;LAEBRMWU -->
<g id="edge55" class="edge">
<title>FSQSVHOG&#45;&gt;LAEBRMWU</title>
<path fill="none" stroke="black" d="M2111.4,-155.97C2088.06,-143.95 2043.81,-121.18 2015.95,-106.84"/>
<polygon fill="black" stroke="black" points="2017.33,-103.61 2006.84,-102.15 2014.13,-109.84 2017.33,-103.61"/>
</g>
<!-- GBVIHRBP -->
<g id="node59" class="node">
<title>GBVIHRBP</title>
<ellipse fill="none" stroke="black" cx="2127" cy="-93" rx="18" ry="18"/>
</g>
<!-- FSQSVHOG&#45;&gt;GBVIHRBP -->
<g id="edge58" class="edge">
<title>FSQSVHOG&#45;&gt;GBVIHRBP</title>
<path fill="none" stroke="black" d="M2127,-146.69C2127,-138.98 2127,-129.71 2127,-121.11"/>
<polygon fill="black" stroke="black" points="2130.5,-121.1 2127,-111.1 2123.5,-121.1 2130.5,-121.1"/>
</g>
<!-- ZPUFDZIV -->
<g id="node64" class="node">
<title>ZPUFDZIV</title>
<ellipse fill="none" stroke="black" cx="2264" cy="-93" rx="18" ry="18"/>
</g>
<!-- FSQSVHOG&#45;&gt;ZPUFDZIV -->
<g id="edge63" class="edge">
<title>FSQSVHOG&#45;&gt;ZPUFDZIV</title>
<path fill="none" stroke="black" d="M2142.72,-155.97C2166.23,-143.95 2210.8,-121.18 2238.87,-106.84"/>
<polygon fill="black" stroke="black" points="2240.73,-109.82 2248.05,-102.15 2237.55,-103.58 2240.73,-109.82"/>
</g>
<!-- TFCNBYTR -->
<g id="node67" class="node">
<title>TFCNBYTR</title>
<ellipse fill="none" stroke="black" cx="2399" cy="-93" rx="18" ry="18"/>
</g>
<!-- FSQSVHOG&#45;&gt;TFCNBYTR -->
<g id="edge66" class="edge">
<title>FSQSVHOG&#45;&gt;TFCNBYTR</title>
<path fill="none" stroke="black" d="M2144.43,-159.51C2190.58,-147.63 2316.24,-115.3 2371.87,-100.98"/>
<polygon fill="black" stroke="black" points="2372.9,-104.33 2381.72,-98.44 2371.16,-97.55 2372.9,-104.33"/>
</g>
<!-- MEGFIGZF -->
<g id="node57" class="node">
<title>MEGFIGZF</title>
<ellipse fill="none" stroke="black" cx="1936" cy="-19.5" rx="18" ry="18"/>
<text text-anchor="middle" x="1936" y="-15.8" font-family="Times,serif" font-size="14.00">1</text>
</g>
<!-- LAEBRMWU&#45;&gt;MEGFIGZF -->
<g id="edge56" class="edge">
<title>LAEBRMWU&#45;&gt;MEGFIGZF</title>
<path fill="none" stroke="black" d="M1980.4,-78.21C1972.56,-68.02 1961.73,-53.95 1952.73,-42.25"/>
<polygon fill="black" stroke="black" points="1955.44,-40.03 1946.57,-34.24 1949.9,-44.3 1955.44,-40.03"/>
</g>
<!-- AUCBOJMW -->
<g id="node58" class="node">
<title>AUCBOJMW</title>
<ellipse fill="none" stroke="black" cx="1991" cy="-19.5" rx="19.5" ry="19.5"/>
<text text-anchor="middle" x="1991" y="-15.8" font-family="Times,serif" font-size="14.00">13</text>
</g>
<!-- LAEBRMWU&#45;&gt;AUCBOJMW -->
<g id="edge57" class="edge">
<title>LAEBRMWU&#45;&gt;AUCBOJMW</title>
<path fill="none" stroke="black" d="M1991,-74.69C1991,-67.05 1991,-57.86 1991,-49.24"/>
<polygon fill="black" stroke="black" points="1994.5,-49.15 1991,-39.15 1987.5,-49.15 1994.5,-49.15"/>
</g>
<!-- JWJTHKPY -->
<g id="node60" class="node">
<title>JWJTHKPY</title>
<ellipse fill="none" stroke="black" cx="2046" cy="-19.5" rx="18" ry="18"/>
<text text-anchor="middle" x="2046" y="-15.8" font-family="Times,serif" font-size="14.00">4</text>
</g>
<!-- GBVIHRBP&#45;&gt;JWJTHKPY -->
<g id="edge59" class="edge">
<title>GBVIHRBP&#45;&gt;JWJTHKPY</title>
<path fill="none" stroke="black" d="M2113.99,-80.51C2101.31,-69.32 2081.83,-52.12 2066.96,-39"/>
<polygon fill="black" stroke="black" points="2069.06,-36.19 2059.25,-32.19 2064.43,-41.44 2069.06,-36.19"/>
</g>
<!-- CZQETMUF -->
<g id="node61" class="node">
<title>CZQETMUF</title>
<ellipse fill="none" stroke="black" cx="2100" cy="-19.5" rx="18" ry="18"/>
<text text-anchor="middle" x="2100" y="-15.8" font-family="Times,serif" font-size="14.00">4</text>
</g>
<!-- GBVIHRBP&#45;&gt;CZQETMUF -->
<g id="edge60" class="edge">
<title>GBVIHRBP&#45;&gt;CZQETMUF</title>
<path fill="none" stroke="black" d="M2120.87,-75.77C2117.56,-67 2113.39,-55.96 2109.65,-46.05"/>
<polygon fill="black" stroke="black" points="2112.91,-44.78 2106.1,-36.66 2106.36,-47.25 2112.91,-44.78"/>
</g>
<!-- UTSUBFGO -->
<g id="node62" class="node">
<title>UTSUBFGO</title>
<ellipse fill="none" stroke="black" cx="2155" cy="-19.5" rx="19.5" ry="19.5"/>
<text text-anchor="middle" x="2155" y="-15.8" font-family="Times,serif" font-size="14.00">10</text>
</g>
<!-- GBVIHRBP&#45;&gt;UTSUBFGO -->
<g id="edge61" class="edge">
<title>GBVIHRBP&#45;&gt;UTSUBFGO</title>
<path fill="none" stroke="black" d="M2133.35,-75.77C2136.63,-67.39 2140.72,-56.95 2144.46,-47.41"/>
<polygon fill="black" stroke="black" points="2147.79,-48.5 2148.18,-37.91 2141.28,-45.94 2147.79,-48.5"/>
</g>
<!-- SJJQAVWE -->
<g id="node63" class="node">
<title>SJJQAVWE</title>
<ellipse fill="none" stroke="black" cx="2210" cy="-19.5" rx="18" ry="18"/>
<text text-anchor="middle" x="2210" y="-15.8" font-family="Times,serif" font-size="14.00">1</text>
</g>
<!-- GBVIHRBP&#45;&gt;SJJQAVWE -->
<g id="edge62" class="edge">
<title>GBVIHRBP&#45;&gt;SJJQAVWE</title>
<path fill="none" stroke="black" d="M2140.34,-80.51C2153.4,-69.25 2173.53,-51.92 2188.79,-38.77"/>
<polygon fill="black" stroke="black" points="2191.41,-41.14 2196.7,-31.96 2186.84,-35.83 2191.41,-41.14"/>
</g>
<!-- VUYNHIBE -->
<g id="node65" class="node">
<title>VUYNHIBE</title>
<ellipse fill="none" stroke="black" cx="2264" cy="-19.5" rx="18" ry="18"/>
<text text-anchor="middle" x="2264" y="-15.8" font-family="Times,serif" font-size="14.00">2</text>
</g>
<!-- ZPUFDZIV&#45;&gt;VUYNHIBE -->
<g id="edge64" class="edge">
<title>ZPUFDZIV&#45;&gt;VUYNHIBE</title>
<path fill="none" stroke="black" d="M2264,-74.69C2264,-66.61 2264,-56.8 2264,-47.76"/>
<polygon fill="black" stroke="black" points="2267.5,-47.65 2264,-37.65 2260.5,-47.65 2267.5,-47.65"/>
</g>
<!-- OGFXXNVJ -->
<g id="node66" class="node">
<title>OGFXXNVJ</title>
<ellipse fill="none" stroke="black" cx="2318" cy="-19.5" rx="18" ry="18"/>
<text text-anchor="middle" x="2318" y="-15.8" font-family="Times,serif" font-size="14.00">7</text>
</g>
<!-- ZPUFDZIV&#45;&gt;OGFXXNVJ -->
<g id="edge65" class="edge">
<title>ZPUFDZIV&#45;&gt;OGFXXNVJ</title>
<path fill="none" stroke="black" d="M2274.41,-78.21C2282.11,-68.02 2292.74,-53.95 2301.57,-42.25"/>
<polygon fill="black" stroke="black" points="2304.39,-44.33 2307.62,-34.24 2298.8,-40.11 2304.39,-44.33"/>
</g>
<!-- YOTZCVZC -->
<g id="node68" class="node">
<title>YOTZCVZC</title>
<ellipse fill="none" stroke="black" cx="2372" cy="-19.5" rx="18" ry="18"/>
<text text-anchor="middle" x="2372" y="-15.8" font-family="Times,serif" font-size="14.00">4</text>
</g>
<!-- TFCNBYTR&#45;&gt;YOTZCVZC -->
<g id="edge67" class="edge">
<title>TFCNBYTR&#45;&gt;YOTZCVZC</title>
<path fill="none" stroke="black" d="M2392.87,-75.77C2389.56,-67 2385.39,-55.96 2381.65,-46.05"/>
<polygon fill="black" stroke="black" points="2384.91,-44.78 2378.1,-36.66 2378.36,-47.25 2384.91,-44.78"/>
</g>
<!-- OTXQXXIF -->
<g id="node69" class="node">
<title>OTXQXXIF</title>
<ellipse fill="none" stroke="black" cx="2426" cy="-19.5" rx="18" ry="18"/>
<text text-anchor="middle" x="2426" y="-15.8" font-family="Times,serif" font-size="14.00">1</text>
</g>
<!-- TFCNBYTR&#45;&gt;OTXQXXIF -->
<g id="edge68" class="edge">
<title>TFCNBYTR&#45;&gt;OTXQXXIF</title>
<path fill="none" stroke="black" d="M2405.13,-75.77C2408.44,-67 2412.61,-55.96 2416.35,-46.05"/>
<polygon fill="black" stroke="black" points="2419.64,-47.25 2419.9,-36.66 2413.09,-44.78 2419.64,-47.25"/>
</g>
<!-- BIJQNUWV -->
<g id="node70" class="node">
<title>BIJQNUWV</title>
<ellipse fill="none" stroke="black" cx="2481" cy="-19.5" rx="19.5" ry="19.5"/>
<text text-anchor="middle" x="2481" y="-15.8" font-family="Times,serif" font-size="14.00">13</text>
</g>
<!-- TFCNBYTR&#45;&gt;BIJQNUWV -->
<g id="edge69" class="edge">
<title>TFCNBYTR&#45;&gt;BIJQNUWV</title>
<path fill="none" stroke="black" d="M2412.17,-80.51C2424.78,-69.52 2444.03,-52.73 2458.97,-39.71"/>
<polygon fill="black" stroke="black" points="2461.52,-42.13 2466.76,-32.92 2456.92,-36.85 2461.52,-42.13"/>
</g>
</g>
</svg>
