<?xml version="1.0" encoding="UTF-8" standalone="no"?>
<!DOCTYPE svg PUBLIC "-//W3C//DTD SVG 1.1//EN"
 "http://www.w3.org/Graphics/SVG/1.1/DTD/svg11.dtd">
<!-- Generated by graphviz version 2.46.1 (20210213.1702)
 -->
<!-- Title: D Pages: 1 -->
<svg width="3170pt" height="335pt"
 viewBox="0.00 0.00 3170.00 335.00" xmlns="http://www.w3.org/2000/svg" xmlns:xlink="http://www.w3.org/1999/xlink">
<g id="graph0" class="graph" transform="scale(1 1) rotate(0) translate(4 331)">
<title>D</title>
<polygon fill="white" stroke="transparent" points="-4,4 -4,-331 3166,-331 3166,4 -4,4"/>
<!-- EDNIJVFN -->
<g id="node1" class="node">
<title>EDNIJVFN</title>
<ellipse fill="none" stroke="black" cx="1192" cy="-309" rx="18" ry="18"/>
</g>
<!-- HKDDNVRI -->
<g id="node2" class="node">
<title>HKDDNVRI</title>
<ellipse fill="none" stroke="black" cx="698" cy="-237" rx="18" ry="18"/>
</g>
<!-- EDNIJVFN&#45;&gt;HKDDNVRI -->
<g id="edge1" class="edge">
<title>EDNIJVFN&#45;&gt;HKDDNVRI</title>
<path fill="none" stroke="black" d="M1174.13,-305.46C1099.99,-294.96 816.36,-254.77 725.9,-241.95"/>
<polygon fill="black" stroke="black" points="726.24,-238.46 715.85,-240.53 725.26,-245.39 726.24,-238.46"/>
</g>
<!-- RDYDWLNJ -->
<g id="node32" class="node">
<title>RDYDWLNJ</title>
<ellipse fill="none" stroke="black" cx="1794" cy="-237" rx="18" ry="18"/>
</g>
<!-- EDNIJVFN&#45;&gt;RDYDWLNJ -->
<g id="edge31" class="edge">
<title>EDNIJVFN&#45;&gt;RDYDWLNJ</title>
<path fill="none" stroke="black" d="M1210.02,-305.9C1295.61,-295.95 1661.35,-253.42 1765.95,-241.26"/>
<polygon fill="black" stroke="black" points="1766.52,-244.72 1776.05,-240.08 1765.72,-237.76 1766.52,-244.72"/>
</g>
<!-- LKMDRLWQ -->
<g id="node3" class="node">
<title>LKMDRLWQ</title>
<ellipse fill="none" stroke="black" cx="207" cy="-165" rx="18" ry="18"/>
</g>
<!-- HKDDNVRI&#45;&gt;LKMDRLWQ -->
<g id="edge2" class="edge">
<title>HKDDNVRI&#45;&gt;LKMDRLWQ</title>
<path fill="none" stroke="black" d="M680.23,-233.46C606.55,-222.96 324.64,-182.77 234.73,-169.95"/>
<polygon fill="black" stroke="black" points="235.14,-166.47 224.74,-168.53 234.15,-173.4 235.14,-166.47"/>
</g>
<!-- JHHIWDIL -->
<g id="node11" class="node">
<title>JHHIWDIL</title>
<ellipse fill="none" stroke="black" cx="590" cy="-165" rx="18" ry="18"/>
</g>
<!-- HKDDNVRI&#45;&gt;JHHIWDIL -->
<g id="edge10" class="edge">
<title>HKDDNVRI&#45;&gt;JHHIWDIL</title>
<path fill="none" stroke="black" d="M682.98,-226.26C664.93,-214.56 634.43,-194.79 613.3,-181.1"/>
<polygon fill="black" stroke="black" points="615.18,-178.15 604.89,-175.65 611.38,-184.02 615.18,-178.15"/>
</g>
<!-- FCZFTCQE -->
<g id="node23" class="node">
<title>FCZFTCQE</title>
<ellipse fill="none" stroke="black" cx="779" cy="-165" rx="18" ry="18"/>
</g>
<!-- HKDDNVRI&#45;&gt;FCZFTCQE -->
<g id="edge22" class="edge">
<title>HKDDNVRI&#45;&gt;FCZFTCQE</title>
<path fill="none" stroke="black" d="M711.38,-224.44C724.11,-213.43 743.48,-196.69 758.23,-183.95"/>
<polygon fill="black" stroke="black" points="760.6,-186.53 765.87,-177.34 756.02,-181.23 760.6,-186.53"/>
</g>
<!-- WASWNCFX -->
<g id="node4" class="node">
<title>WASWNCFX</title>
<ellipse fill="none" stroke="black" cx="99" cy="-93" rx="18" ry="18"/>
</g>
<!-- LKMDRLWQ&#45;&gt;WASWNCFX -->
<g id="edge3" class="edge">
<title>LKMDRLWQ&#45;&gt;WASWNCFX</title>
<path fill="none" stroke="black" d="M191.98,-154.26C173.93,-142.56 143.43,-122.79 122.3,-109.1"/>
<polygon fill="black" stroke="black" points="124.18,-106.15 113.89,-103.65 120.38,-112.02 124.18,-106.15"/>
</g>
<!-- GRTHARZD -->
<g id="node8" class="node">
<title>GRTHARZD</title>
<ellipse fill="none" stroke="black" cx="207" cy="-93" rx="18" ry="18"/>
</g>
<!-- LKMDRLWQ&#45;&gt;GRTHARZD -->
<g id="edge7" class="edge">
<title>LKMDRLWQ&#45;&gt;GRTHARZD</title>
<path fill="none" stroke="black" d="M207,-146.69C207,-138.98 207,-129.71 207,-121.11"/>
<polygon fill="black" stroke="black" points="210.5,-121.1 207,-111.1 203.5,-121.1 210.5,-121.1"/>
</g>
<!-- SAMHFOVV -->
<g id="node5" class="node">
<title>SAMHFOVV</title>
<ellipse fill="none" stroke="black" cx="18" cy="-19.5" rx="18" ry="18"/>
<text text-anchor="middle" x="18" y="-15.8" font-family="Times,serif" font-size="14.00">5</text>
</g>
<!-- WASWNCFX&#45;&gt;SAMHFOVV -->
<g id="edge4" class="edge">
<title>WASWNCFX&#45;&gt;SAMHFOVV</title>
<path fill="none" stroke="black" d="M85.99,-80.51C73.31,-69.32 53.83,-52.12 38.96,-39"/>
<polygon fill="black" stroke="black" points="41.06,-36.19 31.25,-32.19 36.43,-41.44 41.06,-36.19"/>
</g>
<!-- NQZLCBOB -->
<g id="node6" class="node">
<title>NQZLCBOB</title>
<ellipse fill="none" stroke="black" cx="72" cy="-19.5" rx="18" ry="18"/>
<text text-anchor="middle" x="72" y="-15.8" font-family="Times,serif" font-size="14.00">7</text>
</g>
<!-- WASWNCFX&#45;&gt;NQZLCBOB -->
<g id="edge5" class="edge">
<title>WASWNCFX&#45;&gt;NQZLCBOB</title>
<path fill="none" stroke="black" d="M92.87,-75.77C89.56,-67 85.39,-55.96 81.65,-46.05"/>
<polygon fill="black" stroke="black" points="84.91,-44.78 78.1,-36.66 78.36,-47.25 84.91,-44.78"/>
</g>
<!-- OEUASXXG -->
<g id="node7" class="node">
<title>OEUASXXG</title>
<ellipse fill="none" stroke="black" cx="126" cy="-19.5" rx="18" ry="18"/>
<text text-anchor="middle" x="126" y="-15.8" font-family="Times,serif" font-size="14.00">2</text>
</g>
<!-- WASWNCFX&#45;&gt;OEUASXXG -->
<g id="edge6" class="edge">
<title>WASWNCFX&#45;&gt;OEUASXXG</title>
<path fill="none" stroke="black" d="M105.13,-75.77C108.44,-67 112.61,-55.96 116.35,-46.05"/>
<polygon fill="black" stroke="black" points="119.64,-47.25 119.9,-36.66 113.09,-44.78 119.64,-47.25"/>
</g>
<!-- VLKFSQPO -->
<g id="node9" class="node">
<title>VLKFSQPO</title>
<ellipse fill="none" stroke="black" cx="180" cy="-19.5" rx="18" ry="18"/>
<text text-anchor="middle" x="180" y="-15.8" font-family="Times,serif" font-size="14.00">0</text>
</g>
<!-- GRTHARZD&#45;&gt;VLKFSQPO -->
<g id="edge8" class="edge">
<title>GRTHARZD&#45;&gt;VLKFSQPO</title>
<path fill="none" stroke="black" d="M200.87,-75.77C197.56,-67 193.39,-55.96 189.65,-46.05"/>
<polygon fill="black" stroke="black" points="192.91,-44.78 186.1,-36.66 186.36,-47.25 192.91,-44.78"/>
</g>
<!-- HCENNSLA -->
<g id="node10" class="node">
<title>HCENNSLA</title>
<ellipse fill="none" stroke="black" cx="234" cy="-19.5" rx="18" ry="18"/>
<text text-anchor="middle" x="234" y="-15.8" font-family="Times,serif" font-size="14.00">0</text>
</g>
<!-- GRTHARZD&#45;&gt;HCENNSLA -->
<g id="edge9" class="edge">
<title>GRTHARZD&#45;&gt;HCENNSLA</title>
<path fill="none" stroke="black" d="M213.13,-75.77C216.44,-67 220.61,-55.96 224.35,-46.05"/>
<polygon fill="black" stroke="black" points="227.64,-47.25 227.9,-36.66 221.09,-44.78 227.64,-47.25"/>
</g>
<!-- UCMJTQOE -->
<g id="node12" class="node">
<title>UCMJTQOE</title>
<ellipse fill="none" stroke="black" cx="400" cy="-93" rx="18" ry="18"/>
</g>
<!-- JHHIWDIL&#45;&gt;UCMJTQOE -->
<g id="edge11" class="edge">
<title>JHHIWDIL&#45;&gt;UCMJTQOE</title>
<path fill="none" stroke="black" d="M573.14,-157.78C539.89,-145.53 465.65,-118.19 426.06,-103.6"/>
<polygon fill="black" stroke="black" points="427.15,-100.27 416.55,-100.09 424.73,-106.84 427.15,-100.27"/>
</g>
<!-- MRLKGFXU -->
<g id="node17" class="node">
<title>MRLKGFXU</title>
<ellipse fill="none" stroke="black" cx="563" cy="-93" rx="18" ry="18"/>
</g>
<!-- JHHIWDIL&#45;&gt;MRLKGFXU -->
<g id="edge16" class="edge">
<title>JHHIWDIL&#45;&gt;MRLKGFXU</title>
<path fill="none" stroke="black" d="M583.74,-147.76C580.5,-139.37 576.47,-128.93 572.83,-119.49"/>
<polygon fill="black" stroke="black" points="576.09,-118.21 569.23,-110.14 569.56,-120.73 576.09,-118.21"/>
</g>
<!-- XZFBPMSO -->
<g id="node20" class="node">
<title>XZFBPMSO</title>
<ellipse fill="none" stroke="black" cx="617" cy="-93" rx="18" ry="18"/>
</g>
<!-- JHHIWDIL&#45;&gt;XZFBPMSO -->
<g id="edge19" class="edge">
<title>JHHIWDIL&#45;&gt;XZFBPMSO</title>
<path fill="none" stroke="black" d="M596.26,-147.76C599.5,-139.37 603.53,-128.93 607.17,-119.49"/>
<polygon fill="black" stroke="black" points="610.44,-120.73 610.77,-110.14 603.91,-118.21 610.44,-120.73"/>
</g>
<!-- VHVGUCDK -->
<g id="node13" class="node">
<title>VHVGUCDK</title>
<ellipse fill="none" stroke="black" cx="288" cy="-19.5" rx="18" ry="18"/>
<text text-anchor="middle" x="288" y="-15.8" font-family="Times,serif" font-size="14.00">6</text>
</g>
<!-- UCMJTQOE&#45;&gt;VHVGUCDK -->
<g id="edge12" class="edge">
<title>UCMJTQOE&#45;&gt;VHVGUCDK</title>
<path fill="none" stroke="black" d="M384.83,-82.81C367.73,-72.39 339.16,-54.8 315,-39 313.72,-38.16 312.41,-37.3 311.1,-36.42"/>
<polygon fill="black" stroke="black" points="312.74,-33.3 302.5,-30.6 308.82,-39.1 312.74,-33.3"/>
</g>
<!-- WGXMSLQY -->
<g id="node14" class="node">
<title>WGXMSLQY</title>
<ellipse fill="none" stroke="black" cx="343" cy="-19.5" rx="19.5" ry="19.5"/>
<text text-anchor="middle" x="343" y="-15.8" font-family="Times,serif" font-size="14.00">13</text>
</g>
<!-- UCMJTQOE&#45;&gt;WGXMSLQY -->
<g id="edge13" class="edge">
<title>UCMJTQOE&#45;&gt;WGXMSLQY</title>
<path fill="none" stroke="black" d="M389.01,-78.21C381.1,-68.28 370.24,-54.67 361.06,-43.16"/>
<polygon fill="black" stroke="black" points="363.71,-40.86 354.74,-35.23 358.24,-45.23 363.71,-40.86"/>
</g>
<!-- SAFELVVG -->
<g id="node15" class="node">
<title>SAFELVVG</title>
<ellipse fill="none" stroke="black" cx="400" cy="-19.5" rx="19.5" ry="19.5"/>
<text text-anchor="middle" x="400" y="-15.8" font-family="Times,serif" font-size="14.00">15</text>
</g>
<!-- UCMJTQOE&#45;&gt;SAFELVVG -->
<g id="edge14" class="edge">
<title>UCMJTQOE&#45;&gt;SAFELVVG</title>
<path fill="none" stroke="black" d="M400,-74.69C400,-67.05 400,-57.86 400,-49.24"/>
<polygon fill="black" stroke="black" points="403.5,-49.15 400,-39.15 396.5,-49.15 403.5,-49.15"/>
</g>
<!-- OTRORTWV -->
<g id="node16" class="node">
<title>OTRORTWV</title>
<ellipse fill="none" stroke="black" cx="455" cy="-19.5" rx="18" ry="18"/>
<text text-anchor="middle" x="455" y="-15.8" font-family="Times,serif" font-size="14.00">8</text>
</g>
<!-- UCMJTQOE&#45;&gt;OTRORTWV -->
<g id="edge15" class="edge">
<title>UCMJTQOE&#45;&gt;OTRORTWV</title>
<path fill="none" stroke="black" d="M410.6,-78.21C418.44,-68.02 429.27,-53.95 438.27,-42.25"/>
<polygon fill="black" stroke="black" points="441.1,-44.3 444.43,-34.24 435.56,-40.03 441.1,-44.3"/>
</g>
<!-- VPHTXLKB -->
<g id="node18" class="node">
<title>VPHTXLKB</title>
<ellipse fill="none" stroke="black" cx="509" cy="-19.5" rx="18" ry="18"/>
<text text-anchor="middle" x="509" y="-15.8" font-family="Times,serif" font-size="14.00">9</text>
</g>
<!-- MRLKGFXU&#45;&gt;VPHTXLKB -->
<g id="edge17" class="edge">
<title>MRLKGFXU&#45;&gt;VPHTXLKB</title>
<path fill="none" stroke="black" d="M552.59,-78.21C544.89,-68.02 534.26,-53.95 525.43,-42.25"/>
<polygon fill="black" stroke="black" points="528.2,-40.11 519.38,-34.24 522.61,-44.33 528.2,-40.11"/>
</g>
<!-- HZJKAGVT -->
<g id="node19" class="node">
<title>HZJKAGVT</title>
<ellipse fill="none" stroke="black" cx="563" cy="-19.5" rx="18" ry="18"/>
<text text-anchor="middle" x="563" y="-15.8" font-family="Times,serif" font-size="14.00">3</text>
</g>
<!-- MRLKGFXU&#45;&gt;HZJKAGVT -->
<g id="edge18" class="edge">
<title>MRLKGFXU&#45;&gt;HZJKAGVT</title>
<path fill="none" stroke="black" d="M563,-74.69C563,-66.61 563,-56.8 563,-47.76"/>
<polygon fill="black" stroke="black" points="566.5,-47.65 563,-37.65 559.5,-47.65 566.5,-47.65"/>
</g>
<!-- WYRCNDGP -->
<g id="node21" class="node">
<title>WYRCNDGP</title>
<ellipse fill="none" stroke="black" cx="617" cy="-19.5" rx="18" ry="18"/>
<text text-anchor="middle" x="617" y="-15.8" font-family="Times,serif" font-size="14.00">0</text>
</g>
<!-- XZFBPMSO&#45;&gt;WYRCNDGP -->
<g id="edge20" class="edge">
<title>XZFBPMSO&#45;&gt;WYRCNDGP</title>
<path fill="none" stroke="black" d="M617,-74.69C617,-66.61 617,-56.8 617,-47.76"/>
<polygon fill="black" stroke="black" points="620.5,-47.65 617,-37.65 613.5,-47.65 620.5,-47.65"/>
</g>
<!-- PPRLNVON -->
<g id="node22" class="node">
<title>PPRLNVON</title>
<ellipse fill="none" stroke="black" cx="671" cy="-19.5" rx="18" ry="18"/>
<text text-anchor="middle" x="671" y="-15.8" font-family="Times,serif" font-size="14.00">6</text>
</g>
<!-- XZFBPMSO&#45;&gt;PPRLNVON -->
<g id="edge21" class="edge">
<title>XZFBPMSO&#45;&gt;PPRLNVON</title>
<path fill="none" stroke="black" d="M627.41,-78.21C635.11,-68.02 645.74,-53.95 654.57,-42.25"/>
<polygon fill="black" stroke="black" points="657.39,-44.33 660.62,-34.24 651.8,-40.11 657.39,-44.33"/>
</g>
<!-- CLCHZJHS -->
<g id="node24" class="node">
<title>CLCHZJHS</title>
<ellipse fill="none" stroke="black" cx="779" cy="-93" rx="18" ry="18"/>
</g>
<!-- FCZFTCQE&#45;&gt;CLCHZJHS -->
<g id="edge23" class="edge">
<title>FCZFTCQE&#45;&gt;CLCHZJHS</title>
<path fill="none" stroke="black" d="M779,-146.69C779,-138.98 779,-129.71 779,-121.11"/>
<polygon fill="black" stroke="black" points="782.5,-121.1 779,-111.1 775.5,-121.1 782.5,-121.1"/>
</g>
<!-- HAMXVNTH -->
<g id="node28" class="node">
<title>HAMXVNTH</title>
<ellipse fill="none" stroke="black" cx="916" cy="-93" rx="18" ry="18"/>
</g>
<!-- FCZFTCQE&#45;&gt;HAMXVNTH -->
<g id="edge27" class="edge">
<title>FCZFTCQE&#45;&gt;HAMXVNTH</title>
<path fill="none" stroke="black" d="M794.72,-155.97C818.23,-143.95 862.8,-121.18 890.87,-106.84"/>
<polygon fill="black" stroke="black" points="892.73,-109.82 900.05,-102.15 889.55,-103.58 892.73,-109.82"/>
</g>
<!-- APPDGUTO -->
<g id="node25" class="node">
<title>APPDGUTO</title>
<ellipse fill="none" stroke="black" cx="725" cy="-19.5" rx="18" ry="18"/>
<text text-anchor="middle" x="725" y="-15.8" font-family="Times,serif" font-size="14.00">4</text>
</g>
<!-- CLCHZJHS&#45;&gt;APPDGUTO -->
<g id="edge24" class="edge">
<title>CLCHZJHS&#45;&gt;APPDGUTO</title>
<path fill="none" stroke="black" d="M768.59,-78.21C760.89,-68.02 750.26,-53.95 741.43,-42.25"/>
<polygon fill="black" stroke="black" points="744.2,-40.11 735.38,-34.24 738.61,-44.33 744.2,-40.11"/>
</g>
<!-- OHBKFFZV -->
<g id="node26" class="node">
<title>OHBKFFZV</title>
<ellipse fill="none" stroke="black" cx="779" cy="-19.5" rx="18" ry="18"/>
<text text-anchor="middle" x="779" y="-15.8" font-family="Times,serif" font-size="14.00">8</text>
</g>
<!-- CLCHZJHS&#45;&gt;OHBKFFZV -->
<g id="edge25" class="edge">
<title>CLCHZJHS&#45;&gt;OHBKFFZV</title>
<path fill="none" stroke="black" d="M779,-74.69C779,-66.61 779,-56.8 779,-47.76"/>
<polygon fill="black" stroke="black" points="782.5,-47.65 779,-37.65 775.5,-47.65 782.5,-47.65"/>
</g>
<!-- LOUTGPSF -->
<g id="node27" class="node">
<title>LOUTGPSF</title>
<ellipse fill="none" stroke="black" cx="834" cy="-19.5" rx="19.5" ry="19.5"/>
<text text-anchor="middle" x="834" y="-15.8" font-family="Times,serif" font-size="14.00">12</text>
</g>
<!-- CLCHZJHS&#45;&gt;LOUTGPSF -->
<g id="edge26" class="edge">
<title>CLCHZJHS&#45;&gt;LOUTGPSF</title>
<path fill="none" stroke="black" d="M789.6,-78.21C797.12,-68.45 807.38,-55.11 816.14,-43.72"/>
<polygon fill="black" stroke="black" points="819.16,-45.54 822.48,-35.48 813.61,-41.27 819.16,-45.54"/>
</g>
<!-- OGRMISOM -->
<g id="node29" class="node">
<title>OGRMISOM</title>
<ellipse fill="none" stroke="black" cx="889" cy="-19.5" rx="18" ry="18"/>
<text text-anchor="middle" x="889" y="-15.8" font-family="Times,serif" font-size="14.00">4</text>
</g>
<!-- HAMXVNTH&#45;&gt;OGRMISOM -->
<g id="edge28" class="edge">
<title>HAMXVNTH&#45;&gt;OGRMISOM</title>
<path fill="none" stroke="black" d="M909.87,-75.77C906.56,-67 902.39,-55.96 898.65,-46.05"/>
<polygon fill="black" stroke="black" points="901.91,-44.78 895.1,-36.66 895.36,-47.25 901.91,-44.78"/>
</g>
<!-- VGPAMYVW -->
<g id="node30" class="node">
<title>VGPAMYVW</title>
<ellipse fill="none" stroke="black" cx="944" cy="-19.5" rx="19.5" ry="19.5"/>
<text text-anchor="middle" x="944" y="-15.8" font-family="Times,serif" font-size="14.00">14</text>
</g>
<!-- HAMXVNTH&#45;&gt;VGPAMYVW -->
<g id="edge29" class="edge">
<title>HAMXVNTH&#45;&gt;VGPAMYVW</title>
<path fill="none" stroke="black" d="M922.35,-75.77C925.63,-67.39 929.72,-56.95 933.46,-47.41"/>
<polygon fill="black" stroke="black" points="936.79,-48.5 937.18,-37.91 930.28,-45.94 936.79,-48.5"/>
</g>
<!-- VUWOACBP -->
<g id="node31" class="node">
<title>VUWOACBP</title>
<ellipse fill="none" stroke="black" cx="999" cy="-19.5" rx="18" ry="18"/>
<text text-anchor="middle" x="999" y="-15.8" font-family="Times,serif" font-size="14.00">0</text>
</g>
<!-- HAMXVNTH&#45;&gt;VUWOACBP -->
<g id="edge30" class="edge">
<title>HAMXVNTH&#45;&gt;VUWOACBP</title>
<path fill="none" stroke="black" d="M929.34,-80.51C942.4,-69.25 962.53,-51.92 977.79,-38.77"/>
<polygon fill="black" stroke="black" points="980.41,-41.14 985.7,-31.96 975.84,-35.83 980.41,-41.14"/>
</g>
<!-- OHATCVPA -->
<g id="node33" class="node">
<title>OHATCVPA</title>
<ellipse fill="none" stroke="black" cx="1358" cy="-165" rx="18" ry="18"/>
</g>
<!-- RDYDWLNJ&#45;&gt;OHATCVPA -->
<g id="edge32" class="edge">
<title>RDYDWLNJ&#45;&gt;OHATCVPA</title>
<path fill="none" stroke="black" d="M1776.37,-233.17C1709.13,-222.37 1468.46,-183.73 1385.97,-170.49"/>
<polygon fill="black" stroke="black" points="1386.28,-166.99 1375.85,-168.86 1385.17,-173.9 1386.28,-166.99"/>
</g>
<!-- WTYRATGS -->
<g id="node47" class="node">
<title>WTYRATGS</title>
<ellipse fill="none" stroke="black" cx="1794" cy="-165" rx="18" ry="18"/>
</g>
<!-- RDYDWLNJ&#45;&gt;WTYRATGS -->
<g id="edge46" class="edge">
<title>RDYDWLNJ&#45;&gt;WTYRATGS</title>
<path fill="none" stroke="black" d="M1794,-218.69C1794,-210.98 1794,-201.71 1794,-193.11"/>
<polygon fill="black" stroke="black" points="1797.5,-193.1 1794,-183.1 1790.5,-193.1 1797.5,-193.1"/>
</g>
<!-- WIBCDIUL -->
<g id="node60" class="node">
<title>WIBCDIUL</title>
<ellipse fill="none" stroke="black" cx="2292" cy="-165" rx="18" ry="18"/>
</g>
<!-- RDYDWLNJ&#45;&gt;WIBCDIUL -->
<g id="edge59" class="edge">
<title>RDYDWLNJ&#45;&gt;WIBCDIUL</title>
<path fill="none" stroke="black" d="M1811.72,-233.51C1886.07,-223.06 2173.09,-182.71 2264.13,-169.91"/>
<polygon fill="black" stroke="black" points="2264.81,-173.35 2274.23,-168.49 2263.84,-166.42 2264.81,-173.35"/>
</g>
<!-- DYZDMCQB -->
<g id="node76" class="node">
<title>DYZDMCQB</title>
<ellipse fill="none" stroke="black" cx="2870" cy="-165" rx="18" ry="18"/>
</g>
<!-- RDYDWLNJ&#45;&gt;DYZDMCQB -->
<g id="edge75" class="edge">
<title>RDYDWLNJ&#45;&gt;DYZDMCQB</title>
<path fill="none" stroke="black" d="M1812.22,-234.81C1938.84,-226.57 2686.94,-177.91 2841.91,-167.82"/>
<polygon fill="black" stroke="black" points="2842.27,-171.31 2852.02,-167.17 2841.82,-164.32 2842.27,-171.31"/>
</g>
<!-- IDIIIWWV -->
<g id="node34" class="node">
<title>IDIIIWWV</title>
<ellipse fill="none" stroke="black" cx="1109" cy="-93" rx="18" ry="18"/>
</g>
<!-- OHATCVPA&#45;&gt;IDIIIWWV -->
<g id="edge33" class="edge">
<title>OHATCVPA&#45;&gt;IDIIIWWV</title>
<path fill="none" stroke="black" d="M1340.89,-159.19C1298.33,-147.22 1187.46,-116.05 1135.99,-101.58"/>
<polygon fill="black" stroke="black" points="1136.81,-98.18 1126.23,-98.84 1134.91,-104.92 1136.81,-98.18"/>
</g>
<!-- FXYANHKH -->
<g id="node37" class="node">
<title>FXYANHKH</title>
<ellipse fill="none" stroke="black" cx="1276" cy="-93" rx="18" ry="18"/>
</g>
<!-- OHATCVPA&#45;&gt;FXYANHKH -->
<g id="edge36" class="edge">
<title>OHATCVPA&#45;&gt;FXYANHKH</title>
<path fill="none" stroke="black" d="M1344.46,-152.44C1331.56,-141.43 1311.96,-124.69 1297.03,-111.95"/>
<polygon fill="black" stroke="black" points="1299.17,-109.17 1289.29,-105.34 1294.62,-114.5 1299.17,-109.17"/>
</g>
<!-- GURJYNSX -->
<g id="node42" class="node">
<title>GURJYNSX</title>
<ellipse fill="none" stroke="black" cx="1440" cy="-93" rx="18" ry="18"/>
</g>
<!-- OHATCVPA&#45;&gt;GURJYNSX -->
<g id="edge41" class="edge">
<title>OHATCVPA&#45;&gt;GURJYNSX</title>
<path fill="none" stroke="black" d="M1371.54,-152.44C1384.44,-141.43 1404.04,-124.69 1418.97,-111.95"/>
<polygon fill="black" stroke="black" points="1421.38,-114.5 1426.71,-105.34 1416.83,-109.17 1421.38,-114.5"/>
</g>
<!-- GGOIGMNM -->
<g id="node35" class="node">
<title>GGOIGMNM</title>
<ellipse fill="none" stroke="black" cx="1054" cy="-19.5" rx="19.5" ry="19.5"/>
<text text-anchor="middle" x="1054" y="-15.8" font-family="Times,serif" font-size="14.00">12</text>
</g>
<!-- IDIIIWWV&#45;&gt;GGOIGMNM -->
<g id="edge34" class="edge">
<title>IDIIIWWV&#45;&gt;GGOIGMNM</title>
<path fill="none" stroke="black" d="M1098.4,-78.21C1090.88,-68.45 1080.62,-55.11 1071.86,-43.72"/>
<polygon fill="black" stroke="black" points="1074.39,-41.27 1065.52,-35.48 1068.84,-45.54 1074.39,-41.27"/>
</g>
<!-- GSVTWONW -->
<g id="node36" class="node">
<title>GSVTWONW</title>
<ellipse fill="none" stroke="black" cx="1109" cy="-19.5" rx="18" ry="18"/>
<text text-anchor="middle" x="1109" y="-15.8" font-family="Times,serif" font-size="14.00">3</text>
</g>
<!-- IDIIIWWV&#45;&gt;GSVTWONW -->
<g id="edge35" class="edge">
<title>IDIIIWWV&#45;&gt;GSVTWONW</title>
<path fill="none" stroke="black" d="M1109,-74.69C1109,-66.61 1109,-56.8 1109,-47.76"/>
<polygon fill="black" stroke="black" points="1112.5,-47.65 1109,-37.65 1105.5,-47.65 1112.5,-47.65"/>
</g>
<!-- SLNKDYYM -->
<g id="node38" class="node">
<title>SLNKDYYM</title>
<ellipse fill="none" stroke="black" cx="1164" cy="-19.5" rx="19.5" ry="19.5"/>
<text text-anchor="middle" x="1164" y="-15.8" font-family="Times,serif" font-size="14.00">13</text>
</g>
<!-- FXYANHKH&#45;&gt;SLNKDYYM -->
<g id="edge37" class="edge">
<title>FXYANHKH&#45;&gt;SLNKDYYM</title>
<path fill="none" stroke="black" d="M1260.9,-82.35C1242.42,-70.56 1210.9,-50.44 1188.84,-36.35"/>
<polygon fill="black" stroke="black" points="1190.63,-33.34 1180.32,-30.91 1186.86,-39.24 1190.63,-33.34"/>
</g>
<!-- UWDYMLBJ -->
<g id="node39" class="node">
<title>UWDYMLBJ</title>
<ellipse fill="none" stroke="black" cx="1221" cy="-19.5" rx="19.5" ry="19.5"/>
<text text-anchor="middle" x="1221" y="-15.8" font-family="Times,serif" font-size="14.00">10</text>
</g>
<!-- FXYANHKH&#45;&gt;UWDYMLBJ -->
<g id="edge38" class="edge">
<title>FXYANHKH&#45;&gt;UWDYMLBJ</title>
<path fill="none" stroke="black" d="M1265.4,-78.21C1257.88,-68.45 1247.62,-55.11 1238.86,-43.72"/>
<polygon fill="black" stroke="black" points="1241.39,-41.27 1232.52,-35.48 1235.84,-45.54 1241.39,-41.27"/>
</g>
<!-- FILARZWO -->
<g id="node40" class="node">
<title>FILARZWO</title>
<ellipse fill="none" stroke="black" cx="1276" cy="-19.5" rx="18" ry="18"/>
<text text-anchor="middle" x="1276" y="-15.8" font-family="Times,serif" font-size="14.00">6</text>
</g>
<!-- FXYANHKH&#45;&gt;FILARZWO -->
<g id="edge39" class="edge">
<title>FXYANHKH&#45;&gt;FILARZWO</title>
<path fill="none" stroke="black" d="M1276,-74.69C1276,-66.61 1276,-56.8 1276,-47.76"/>
<polygon fill="black" stroke="black" points="1279.5,-47.65 1276,-37.65 1272.5,-47.65 1279.5,-47.65"/>
</g>
<!-- ICMMMZHM -->
<g id="node41" class="node">
<title>ICMMMZHM</title>
<ellipse fill="none" stroke="black" cx="1330" cy="-19.5" rx="18" ry="18"/>
<text text-anchor="middle" x="1330" y="-15.8" font-family="Times,serif" font-size="14.00">6</text>
</g>
<!-- FXYANHKH&#45;&gt;ICMMMZHM -->
<g id="edge40" class="edge">
<title>FXYANHKH&#45;&gt;ICMMMZHM</title>
<path fill="none" stroke="black" d="M1286.41,-78.21C1294.11,-68.02 1304.74,-53.95 1313.57,-42.25"/>
<polygon fill="black" stroke="black" points="1316.39,-44.33 1319.62,-34.24 1310.8,-40.11 1316.39,-44.33"/>
</g>
<!-- HLPKYNJA -->
<g id="node43" class="node">
<title>HLPKYNJA</title>
<ellipse fill="none" stroke="black" cx="1385" cy="-19.5" rx="19.5" ry="19.5"/>
<text text-anchor="middle" x="1385" y="-15.8" font-family="Times,serif" font-size="14.00">10</text>
</g>
<!-- GURJYNSX&#45;&gt;HLPKYNJA -->
<g id="edge42" class="edge">
<title>GURJYNSX&#45;&gt;HLPKYNJA</title>
<path fill="none" stroke="black" d="M1429.4,-78.21C1421.88,-68.45 1411.62,-55.11 1402.86,-43.72"/>
<polygon fill="black" stroke="black" points="1405.39,-41.27 1396.52,-35.48 1399.84,-45.54 1405.39,-41.27"/>
</g>
<!-- FTTTEFJA -->
<g id="node44" class="node">
<title>FTTTEFJA</title>
<ellipse fill="none" stroke="black" cx="1440" cy="-19.5" rx="18" ry="18"/>
<text text-anchor="middle" x="1440" y="-15.8" font-family="Times,serif" font-size="14.00">9</text>
</g>
<!-- GURJYNSX&#45;&gt;FTTTEFJA -->
<g id="edge43" class="edge">
<title>GURJYNSX&#45;&gt;FTTTEFJA</title>
<path fill="none" stroke="black" d="M1440,-74.69C1440,-66.61 1440,-56.8 1440,-47.76"/>
<polygon fill="black" stroke="black" points="1443.5,-47.65 1440,-37.65 1436.5,-47.65 1443.5,-47.65"/>
</g>
<!-- DXRORBBA -->
<g id="node45" class="node">
<title>DXRORBBA</title>
<ellipse fill="none" stroke="black" cx="1494" cy="-19.5" rx="18" ry="18"/>
<text text-anchor="middle" x="1494" y="-15.8" font-family="Times,serif" font-size="14.00">5</text>
</g>
<!-- GURJYNSX&#45;&gt;DXRORBBA -->
<g id="edge44" class="edge">
<title>GURJYNSX&#45;&gt;DXRORBBA</title>
<path fill="none" stroke="black" d="M1450.41,-78.21C1458.11,-68.02 1468.74,-53.95 1477.57,-42.25"/>
<polygon fill="black" stroke="black" points="1480.39,-44.33 1483.62,-34.24 1474.8,-40.11 1480.39,-44.33"/>
</g>
<!-- HJURHJHK -->
<g id="node46" class="node">
<title>HJURHJHK</title>
<ellipse fill="none" stroke="black" cx="1548" cy="-19.5" rx="18" ry="18"/>
<text text-anchor="middle" x="1548" y="-15.8" font-family="Times,serif" font-size="14.00">2</text>
</g>
<!-- GURJYNSX&#45;&gt;HJURHJHK -->
<g id="edge45" class="edge">
<title>GURJYNSX&#45;&gt;HJURHJHK</title>
<path fill="none" stroke="black" d="M1454.69,-82.52C1470.97,-71.98 1497.96,-54.42 1521,-39 1522.27,-38.15 1523.57,-37.27 1524.88,-36.39"/>
<polygon fill="black" stroke="black" points="1527.17,-39.06 1533.47,-30.54 1523.23,-33.27 1527.17,-39.06"/>
</g>
<!-- PVLFPYYS -->
<g id="node48" class="node">
<title>PVLFPYYS</title>
<ellipse fill="none" stroke="black" cx="1685" cy="-93" rx="18" ry="18"/>
</g>
<!-- WTYRATGS&#45;&gt;PVLFPYYS -->
<g id="edge47" class="edge">
<title>WTYRATGS&#45;&gt;PVLFPYYS</title>
<path fill="none" stroke="black" d="M1779.3,-154.56C1761.1,-142.87 1729.87,-122.81 1708.37,-109"/>
<polygon fill="black" stroke="black" points="1710.12,-105.97 1699.82,-103.51 1706.34,-111.86 1710.12,-105.97"/>
</g>
<!-- NAKKWKIC -->
<g id="node52" class="node">
<title>NAKKWKIC</title>
<ellipse fill="none" stroke="black" cx="1794" cy="-93" rx="18" ry="18"/>
</g>
<!-- WTYRATGS&#45;&gt;NAKKWKIC -->
<g id="edge51" class="edge">
<title>WTYRATGS&#45;&gt;NAKKWKIC</title>
<path fill="none" stroke="black" d="M1794,-146.69C1794,-138.98 1794,-129.71 1794,-121.11"/>
<polygon fill="black" stroke="black" points="1797.5,-121.1 1794,-111.1 1790.5,-121.1 1797.5,-121.1"/>
</g>
<!-- PICVTQZQ -->
<g id="node55" class="node">
<title>PICVTQZQ</title>
<ellipse fill="none" stroke="black" cx="1931" cy="-93" rx="18" ry="18"/>
</g>
<!-- WTYRATGS&#45;&gt;PICVTQZQ -->
<g id="edge54" class="edge">
<title>WTYRATGS&#45;&gt;PICVTQZQ</title>
<path fill="none" stroke="black" d="M1809.72,-155.97C1833.23,-143.95 1877.8,-121.18 1905.87,-106.84"/>
<polygon fill="black" stroke="black" points="1907.73,-109.82 1915.05,-102.15 1904.55,-103.58 1907.73,-109.82"/>
</g>
<!-- RNTBNPMN -->
<g id="node49" class="node">
<title>RNTBNPMN</title>
<ellipse fill="none" stroke="black" cx="1603" cy="-19.5" rx="19.5" ry="19.5"/>
<text text-anchor="middle" x="1603" y="-15.8" font-family="Times,serif" font-size="14.00">12</text>
</g>
<!-- PVLFPYYS&#45;&gt;RNTBNPMN -->
<g id="edge48" class="edge">
<title>PVLFPYYS&#45;&gt;RNTBNPMN</title>
<path fill="none" stroke="black" d="M1671.83,-80.51C1659.22,-69.52 1639.97,-52.73 1625.03,-39.71"/>
<polygon fill="black" stroke="black" points="1627.08,-36.85 1617.24,-32.92 1622.48,-42.13 1627.08,-36.85"/>
</g>
<!-- SMDVTTVI -->
<g id="node50" class="node">
<title>SMDVTTVI</title>
<ellipse fill="none" stroke="black" cx="1658" cy="-19.5" rx="18" ry="18"/>
<text text-anchor="middle" x="1658" y="-15.8" font-family="Times,serif" font-size="14.00">0</text>
</g>
<!-- PVLFPYYS&#45;&gt;SMDVTTVI -->
<g id="edge49" class="edge">
<title>PVLFPYYS&#45;&gt;SMDVTTVI</title>
<path fill="none" stroke="black" d="M1678.87,-75.77C1675.56,-67 1671.39,-55.96 1667.65,-46.05"/>
<polygon fill="black" stroke="black" points="1670.91,-44.78 1664.1,-36.66 1664.36,-47.25 1670.91,-44.78"/>
</g>
<!-- KJZLHVTV -->
<g id="node51" class="node">
<title>KJZLHVTV</title>
<ellipse fill="none" stroke="black" cx="1712" cy="-19.5" rx="18" ry="18"/>
<text text-anchor="middle" x="1712" y="-15.8" font-family="Times,serif" font-size="14.00">3</text>
</g>
<!-- PVLFPYYS&#45;&gt;KJZLHVTV -->
<g id="edge50" class="edge">
<title>PVLFPYYS&#45;&gt;KJZLHVTV</title>
<path fill="none" stroke="black" d="M1691.13,-75.77C1694.44,-67 1698.61,-55.96 1702.35,-46.05"/>
<polygon fill="black" stroke="black" points="1705.64,-47.25 1705.9,-36.66 1699.09,-44.78 1705.64,-47.25"/>
</g>
<!-- TQYPGERN -->
<g id="node53" class="node">
<title>TQYPGERN</title>
<ellipse fill="none" stroke="black" cx="1767" cy="-19.5" rx="19.5" ry="19.5"/>
<text text-anchor="middle" x="1767" y="-15.8" font-family="Times,serif" font-size="14.00">12</text>
</g>
<!-- NAKKWKIC&#45;&gt;TQYPGERN -->
<g id="edge52" class="edge">
<title>NAKKWKIC&#45;&gt;TQYPGERN</title>
<path fill="none" stroke="black" d="M1787.87,-75.77C1784.71,-67.39 1780.77,-56.95 1777.16,-47.41"/>
<polygon fill="black" stroke="black" points="1780.38,-46.03 1773.57,-37.91 1773.83,-48.5 1780.38,-46.03"/>
</g>
<!-- VNJQRIQQ -->
<g id="node54" class="node">
<title>VNJQRIQQ</title>
<ellipse fill="none" stroke="black" cx="1822" cy="-19.5" rx="18" ry="18"/>
<text text-anchor="middle" x="1822" y="-15.8" font-family="Times,serif" font-size="14.00">3</text>
</g>
<!-- NAKKWKIC&#45;&gt;VNJQRIQQ -->
<g id="edge53" class="edge">
<title>NAKKWKIC&#45;&gt;VNJQRIQQ</title>
<path fill="none" stroke="black" d="M1800.35,-75.77C1803.79,-67 1808.11,-55.96 1811.99,-46.05"/>
<polygon fill="black" stroke="black" points="1815.28,-47.25 1815.67,-36.66 1808.77,-44.69 1815.28,-47.25"/>
</g>
<!-- SNVYLOSI -->
<g id="node56" class="node">
<title>SNVYLOSI</title>
<ellipse fill="none" stroke="black" cx="1876" cy="-19.5" rx="18" ry="18"/>
<text text-anchor="middle" x="1876" y="-15.8" font-family="Times,serif" font-size="14.00">9</text>
</g>
<!-- PICVTQZQ&#45;&gt;SNVYLOSI -->
<g id="edge55" class="edge">
<title>PICVTQZQ&#45;&gt;SNVYLOSI</title>
<path fill="none" stroke="black" d="M1920.4,-78.21C1912.56,-68.02 1901.73,-53.95 1892.73,-42.25"/>
<polygon fill="black" stroke="black" points="1895.44,-40.03 1886.57,-34.24 1889.9,-44.3 1895.44,-40.03"/>
</g>
<!-- EDFWSZQR -->
<g id="node57" class="node">
<title>EDFWSZQR</title>
<ellipse fill="none" stroke="black" cx="1931" cy="-19.5" rx="19.5" ry="19.5"/>
<text text-anchor="middle" x="1931" y="-15.8" font-family="Times,serif" font-size="14.00">14</text>
</g>
<!-- PICVTQZQ&#45;&gt;EDFWSZQR -->
<g id="edge56" class="edge">
<title>PICVTQZQ&#45;&gt;EDFWSZQR</title>
<path fill="none" stroke="black" d="M1931,-74.69C1931,-67.05 1931,-57.86 1931,-49.24"/>
<polygon fill="black" stroke="black" points="1934.5,-49.15 1931,-39.15 1927.5,-49.15 1934.5,-49.15"/>
</g>
<!-- TNAZJKSA -->
<g id="node58" class="node">
<title>TNAZJKSA</title>
<ellipse fill="none" stroke="black" cx="1988" cy="-19.5" rx="19.5" ry="19.5"/>
<text text-anchor="middle" x="1988" y="-15.8" font-family="Times,serif" font-size="14.00">11</text>
</g>
<!-- PICVTQZQ&#45;&gt;TNAZJKSA -->
<g id="edge57" class="edge">
<title>PICVTQZQ&#45;&gt;TNAZJKSA</title>
<path fill="none" stroke="black" d="M1941.99,-78.21C1949.9,-68.28 1960.76,-54.67 1969.94,-43.16"/>
<polygon fill="black" stroke="black" points="1972.76,-45.23 1976.26,-35.23 1967.29,-40.86 1972.76,-45.23"/>
</g>
<!-- KUCJUDFJ -->
<g id="node59" class="node">
<title>KUCJUDFJ</title>
<ellipse fill="none" stroke="black" cx="2043" cy="-19.5" rx="18" ry="18"/>
<text text-anchor="middle" x="2043" y="-15.8" font-family="Times,serif" font-size="14.00">7</text>
</g>
<!-- PICVTQZQ&#45;&gt;KUCJUDFJ -->
<g id="edge58" class="edge">
<title>PICVTQZQ&#45;&gt;KUCJUDFJ</title>
<path fill="none" stroke="black" d="M1946.17,-82.81C1963.27,-72.39 1991.84,-54.8 2016,-39 2017.28,-38.16 2018.59,-37.3 2019.9,-36.42"/>
<polygon fill="black" stroke="black" points="2022.18,-39.1 2028.5,-30.6 2018.26,-33.3 2022.18,-39.1"/>
</g>
<!-- UEFIOWKC -->
<g id="node61" class="node">
<title>UEFIOWKC</title>
<ellipse fill="none" stroke="black" cx="2182" cy="-93" rx="18" ry="18"/>
</g>
<!-- WIBCDIUL&#45;&gt;UEFIOWKC -->
<g id="edge60" class="edge">
<title>WIBCDIUL&#45;&gt;UEFIOWKC</title>
<path fill="none" stroke="black" d="M2277.16,-154.56C2258.79,-142.87 2227.28,-122.81 2205.58,-109"/>
<polygon fill="black" stroke="black" points="2207.27,-105.93 2196.95,-103.51 2203.51,-111.83 2207.27,-105.93"/>
</g>
<!-- FHJQBQZX -->
<g id="node65" class="node">
<title>FHJQBQZX</title>
<ellipse fill="none" stroke="black" cx="2292" cy="-93" rx="18" ry="18"/>
</g>
<!-- WIBCDIUL&#45;&gt;FHJQBQZX -->
<g id="edge64" class="edge">
<title>WIBCDIUL&#45;&gt;FHJQBQZX</title>
<path fill="none" stroke="black" d="M2292,-146.69C2292,-138.98 2292,-129.71 2292,-121.11"/>
<polygon fill="black" stroke="black" points="2295.5,-121.1 2292,-111.1 2288.5,-121.1 2295.5,-121.1"/>
</g>
<!-- OWNLAAGN -->
<g id="node68" class="node">
<title>OWNLAAGN</title>
<ellipse fill="none" stroke="black" cx="2374" cy="-93" rx="18" ry="18"/>
</g>
<!-- WIBCDIUL&#45;&gt;OWNLAAGN -->
<g id="edge67" class="edge">
<title>WIBCDIUL&#45;&gt;OWNLAAGN</title>
<path fill="none" stroke="black" d="M2305.54,-152.44C2318.44,-141.43 2338.04,-124.69 2352.97,-111.95"/>
<polygon fill="black" stroke="black" points="2355.38,-114.5 2360.71,-105.34 2350.83,-109.17 2355.38,-114.5"/>
</g>
<!-- TLZNDARY -->
<g id="node71" class="node">
<title>TLZNDARY</title>
<ellipse fill="none" stroke="black" cx="2537" cy="-93" rx="18" ry="18"/>
</g>
<!-- WIBCDIUL&#45;&gt;TLZNDARY -->
<g id="edge70" class="edge">
<title>WIBCDIUL&#45;&gt;TLZNDARY</title>
<path fill="none" stroke="black" d="M2309.23,-159.07C2351.22,-147.08 2459.14,-116.24 2509.88,-101.75"/>
<polygon fill="black" stroke="black" points="2511.14,-105.03 2519.79,-98.91 2509.21,-98.3 2511.14,-105.03"/>
</g>
<!-- IJDAFENP -->
<g id="node62" class="node">
<title>IJDAFENP</title>
<ellipse fill="none" stroke="black" cx="2098" cy="-19.5" rx="19.5" ry="19.5"/>
<text text-anchor="middle" x="2098" y="-15.8" font-family="Times,serif" font-size="14.00">13</text>
</g>
<!-- UEFIOWKC&#45;&gt;IJDAFENP -->
<g id="edge61" class="edge">
<title>UEFIOWKC&#45;&gt;IJDAFENP</title>
<path fill="none" stroke="black" d="M2168.5,-80.51C2155.59,-69.52 2135.87,-52.73 2120.57,-39.71"/>
<polygon fill="black" stroke="black" points="2122.47,-36.73 2112.59,-32.92 2117.94,-42.06 2122.47,-36.73"/>
</g>
<!-- IVQGJGRM -->
<g id="node63" class="node">
<title>IVQGJGRM</title>
<ellipse fill="none" stroke="black" cx="2155" cy="-19.5" rx="19.5" ry="19.5"/>
<text text-anchor="middle" x="2155" y="-15.8" font-family="Times,serif" font-size="14.00">10</text>
</g>
<!-- UEFIOWKC&#45;&gt;IVQGJGRM -->
<g id="edge62" class="edge">
<title>UEFIOWKC&#45;&gt;IVQGJGRM</title>
<path fill="none" stroke="black" d="M2175.87,-75.77C2172.71,-67.39 2168.77,-56.95 2165.16,-47.41"/>
<polygon fill="black" stroke="black" points="2168.38,-46.03 2161.57,-37.91 2161.83,-48.5 2168.38,-46.03"/>
</g>
<!-- NPOXKBLR -->
<g id="node64" class="node">
<title>NPOXKBLR</title>
<ellipse fill="none" stroke="black" cx="2210" cy="-19.5" rx="18" ry="18"/>
<text text-anchor="middle" x="2210" y="-15.8" font-family="Times,serif" font-size="14.00">8</text>
</g>
<!-- UEFIOWKC&#45;&gt;NPOXKBLR -->
<g id="edge63" class="edge">
<title>UEFIOWKC&#45;&gt;NPOXKBLR</title>
<path fill="none" stroke="black" d="M2188.35,-75.77C2191.79,-67 2196.11,-55.96 2199.99,-46.05"/>
<polygon fill="black" stroke="black" points="2203.28,-47.25 2203.67,-36.66 2196.77,-44.69 2203.28,-47.25"/>
</g>
<!-- FRJQXRBA -->
<g id="node66" class="node">
<title>FRJQXRBA</title>
<ellipse fill="none" stroke="black" cx="2265" cy="-19.5" rx="19.5" ry="19.5"/>
<text text-anchor="middle" x="2265" y="-15.8" font-family="Times,serif" font-size="14.00">11</text>
</g>
<!-- FHJQBQZX&#45;&gt;FRJQXRBA -->
<g id="edge65" class="edge">
<title>FHJQBQZX&#45;&gt;FRJQXRBA</title>
<path fill="none" stroke="black" d="M2285.87,-75.77C2282.71,-67.39 2278.77,-56.95 2275.16,-47.41"/>
<polygon fill="black" stroke="black" points="2278.38,-46.03 2271.57,-37.91 2271.83,-48.5 2278.38,-46.03"/>
</g>
<!-- JTMRNSQY -->
<g id="node67" class="node">
<title>JTMRNSQY</title>
<ellipse fill="none" stroke="black" cx="2320" cy="-19.5" rx="18" ry="18"/>
<text text-anchor="middle" x="2320" y="-15.8" font-family="Times,serif" font-size="14.00">0</text>
</g>
<!-- FHJQBQZX&#45;&gt;JTMRNSQY -->
<g id="edge66" class="edge">
<title>FHJQBQZX&#45;&gt;JTMRNSQY</title>
<path fill="none" stroke="black" d="M2298.35,-75.77C2301.79,-67 2306.11,-55.96 2309.99,-46.05"/>
<polygon fill="black" stroke="black" points="2313.28,-47.25 2313.67,-36.66 2306.77,-44.69 2313.28,-47.25"/>
</g>
<!-- MHWPNEIO -->
<g id="node69" class="node">
<title>MHWPNEIO</title>
<ellipse fill="none" stroke="black" cx="2374" cy="-19.5" rx="18" ry="18"/>
<text text-anchor="middle" x="2374" y="-15.8" font-family="Times,serif" font-size="14.00">9</text>
</g>
<!-- OWNLAAGN&#45;&gt;MHWPNEIO -->
<g id="edge68" class="edge">
<title>OWNLAAGN&#45;&gt;MHWPNEIO</title>
<path fill="none" stroke="black" d="M2374,-74.69C2374,-66.61 2374,-56.8 2374,-47.76"/>
<polygon fill="black" stroke="black" points="2377.5,-47.65 2374,-37.65 2370.5,-47.65 2377.5,-47.65"/>
</g>
<!-- AEOUKEUN -->
<g id="node70" class="node">
<title>AEOUKEUN</title>
<ellipse fill="none" stroke="black" cx="2428" cy="-19.5" rx="18" ry="18"/>
<text text-anchor="middle" x="2428" y="-15.8" font-family="Times,serif" font-size="14.00">1</text>
</g>
<!-- OWNLAAGN&#45;&gt;AEOUKEUN -->
<g id="edge69" class="edge">
<title>OWNLAAGN&#45;&gt;AEOUKEUN</title>
<path fill="none" stroke="black" d="M2384.41,-78.21C2392.11,-68.02 2402.74,-53.95 2411.57,-42.25"/>
<polygon fill="black" stroke="black" points="2414.39,-44.33 2417.62,-34.24 2408.8,-40.11 2414.39,-44.33"/>
</g>
<!-- NDJBBZRS -->
<g id="node72" class="node">
<title>NDJBBZRS</title>
<ellipse fill="none" stroke="black" cx="2482" cy="-19.5" rx="18" ry="18"/>
<text text-anchor="middle" x="2482" y="-15.8" font-family="Times,serif" font-size="14.00">6</text>
</g>
<!-- TLZNDARY&#45;&gt;NDJBBZRS -->
<g id="edge71" class="edge">
<title>TLZNDARY&#45;&gt;NDJBBZRS</title>
<path fill="none" stroke="black" d="M2526.4,-78.21C2518.56,-68.02 2507.73,-53.95 2498.73,-42.25"/>
<polygon fill="black" stroke="black" points="2501.44,-40.03 2492.57,-34.24 2495.9,-44.3 2501.44,-40.03"/>
</g>
<!-- XNSINVIM -->
<g id="node73" class="node">
<title>XNSINVIM</title>
<ellipse fill="none" stroke="black" cx="2537" cy="-19.5" rx="19.5" ry="19.5"/>
<text text-anchor="middle" x="2537" y="-15.8" font-family="Times,serif" font-size="14.00">12</text>
</g>
<!-- TLZNDARY&#45;&gt;XNSINVIM -->
<g id="edge72" class="edge">
<title>TLZNDARY&#45;&gt;XNSINVIM</title>
<path fill="none" stroke="black" d="M2537,-74.69C2537,-67.05 2537,-57.86 2537,-49.24"/>
<polygon fill="black" stroke="black" points="2540.5,-49.15 2537,-39.15 2533.5,-49.15 2540.5,-49.15"/>
</g>
<!-- DTTYSWLE -->
<g id="node74" class="node">
<title>DTTYSWLE</title>
<ellipse fill="none" stroke="black" cx="2594" cy="-19.5" rx="19.5" ry="19.5"/>
<text text-anchor="middle" x="2594" y="-15.8" font-family="Times,serif" font-size="14.00">10</text>
</g>
<!-- TLZNDARY&#45;&gt;DTTYSWLE -->
<g id="edge73" class="edge">
<title>TLZNDARY&#45;&gt;DTTYSWLE</title>
<path fill="none" stroke="black" d="M2547.99,-78.21C2555.9,-68.28 2566.76,-54.67 2575.94,-43.16"/>
<polygon fill="black" stroke="black" points="2578.76,-45.23 2582.26,-35.23 2573.29,-40.86 2578.76,-45.23"/>
</g>
<!-- JTWWCJBY -->
<g id="node75" class="node">
<title>JTWWCJBY</title>
<ellipse fill="none" stroke="black" cx="2649" cy="-19.5" rx="18" ry="18"/>
<text text-anchor="middle" x="2649" y="-15.8" font-family="Times,serif" font-size="14.00">8</text>
</g>
<!-- TLZNDARY&#45;&gt;JTWWCJBY -->
<g id="edge74" class="edge">
<title>TLZNDARY&#45;&gt;JTWWCJBY</title>
<path fill="none" stroke="black" d="M2552.17,-82.81C2569.27,-72.39 2597.84,-54.8 2622,-39 2623.28,-38.16 2624.59,-37.3 2625.9,-36.42"/>
<polygon fill="black" stroke="black" points="2628.18,-39.1 2634.5,-30.6 2624.26,-33.3 2628.18,-39.1"/>
</g>
<!-- MGUYNWMA -->
<g id="node77" class="node">
<title>MGUYNWMA</title>
<ellipse fill="none" stroke="black" cx="2788" cy="-93" rx="18" ry="18"/>
</g>
<!-- DYZDMCQB&#45;&gt;MGUYNWMA -->
<g id="edge76" class="edge">
<title>DYZDMCQB&#45;&gt;MGUYNWMA</title>
<path fill="none" stroke="black" d="M2856.46,-152.44C2843.56,-141.43 2823.96,-124.69 2809.03,-111.95"/>
<polygon fill="black" stroke="black" points="2811.17,-109.17 2801.29,-105.34 2806.62,-114.5 2811.17,-109.17"/>
</g>
<!-- JEXNCHEI -->
<g id="node81" class="node">
<title>JEXNCHEI</title>
<ellipse fill="none" stroke="black" cx="2925" cy="-93" rx="18" ry="18"/>
</g>
<!-- DYZDMCQB&#45;&gt;JEXNCHEI -->
<g id="edge80" class="edge">
<title>DYZDMCQB&#45;&gt;JEXNCHEI</title>
<path fill="none" stroke="black" d="M2880.87,-150.17C2888.55,-140.39 2899.01,-127.08 2907.82,-115.87"/>
<polygon fill="black" stroke="black" points="2910.73,-117.82 2914.16,-107.8 2905.23,-113.5 2910.73,-117.82"/>
</g>
<!-- POFZTCPK -->
<g id="node86" class="node">
<title>POFZTCPK</title>
<ellipse fill="none" stroke="black" cx="3089" cy="-93" rx="18" ry="18"/>
</g>
<!-- DYZDMCQB&#45;&gt;POFZTCPK -->
<g id="edge85" class="edge">
<title>DYZDMCQB&#45;&gt;POFZTCPK</title>
<path fill="none" stroke="black" d="M2887.18,-158.5C2925.16,-146.36 3016.49,-117.17 3062.11,-102.59"/>
<polygon fill="black" stroke="black" points="3063.44,-105.84 3071.9,-99.46 3061.3,-99.17 3063.44,-105.84"/>
</g>
<!-- HKEMRZLM -->
<g id="node78" class="node">
<title>HKEMRZLM</title>
<ellipse fill="none" stroke="black" cx="2704" cy="-19.5" rx="19.5" ry="19.5"/>
<text text-anchor="middle" x="2704" y="-15.8" font-family="Times,serif" font-size="14.00">14</text>
</g>
<!-- MGUYNWMA&#45;&gt;HKEMRZLM -->
<g id="edge77" class="edge">
<title>MGUYNWMA&#45;&gt;HKEMRZLM</title>
<path fill="none" stroke="black" d="M2774.5,-80.51C2761.59,-69.52 2741.87,-52.73 2726.57,-39.71"/>
<polygon fill="black" stroke="black" points="2728.47,-36.73 2718.59,-32.92 2723.94,-42.06 2728.47,-36.73"/>
</g>
<!-- CHXWAJMK -->
<g id="node79" class="node">
<title>CHXWAJMK</title>
<ellipse fill="none" stroke="black" cx="2761" cy="-19.5" rx="19.5" ry="19.5"/>
<text text-anchor="middle" x="2761" y="-15.8" font-family="Times,serif" font-size="14.00">10</text>
</g>
<!-- MGUYNWMA&#45;&gt;CHXWAJMK -->
<g id="edge78" class="edge">
<title>MGUYNWMA&#45;&gt;CHXWAJMK</title>
<path fill="none" stroke="black" d="M2781.87,-75.77C2778.71,-67.39 2774.77,-56.95 2771.16,-47.41"/>
<polygon fill="black" stroke="black" points="2774.38,-46.03 2767.57,-37.91 2767.83,-48.5 2774.38,-46.03"/>
</g>
<!-- MGHLNVSP -->
<g id="node80" class="node">
<title>MGHLNVSP</title>
<ellipse fill="none" stroke="black" cx="2816" cy="-19.5" rx="18" ry="18"/>
<text text-anchor="middle" x="2816" y="-15.8" font-family="Times,serif" font-size="14.00">1</text>
</g>
<!-- MGUYNWMA&#45;&gt;MGHLNVSP -->
<g id="edge79" class="edge">
<title>MGUYNWMA&#45;&gt;MGHLNVSP</title>
<path fill="none" stroke="black" d="M2794.35,-75.77C2797.79,-67 2802.11,-55.96 2805.99,-46.05"/>
<polygon fill="black" stroke="black" points="2809.28,-47.25 2809.67,-36.66 2802.77,-44.69 2809.28,-47.25"/>
</g>
<!-- XVSORBYC -->
<g id="node82" class="node">
<title>XVSORBYC</title>
<ellipse fill="none" stroke="black" cx="2870" cy="-19.5" rx="18" ry="18"/>
<text text-anchor="middle" x="2870" y="-15.8" font-family="Times,serif" font-size="14.00">5</text>
</g>
<!-- JEXNCHEI&#45;&gt;XVSORBYC -->
<g id="edge81" class="edge">
<title>JEXNCHEI&#45;&gt;XVSORBYC</title>
<path fill="none" stroke="black" d="M2914.4,-78.21C2906.56,-68.02 2895.73,-53.95 2886.73,-42.25"/>
<polygon fill="black" stroke="black" points="2889.44,-40.03 2880.57,-34.24 2883.9,-44.3 2889.44,-40.03"/>
</g>
<!-- QZFVVMHJ -->
<g id="node83" class="node">
<title>QZFVVMHJ</title>
<ellipse fill="none" stroke="black" cx="2925" cy="-19.5" rx="19.5" ry="19.5"/>
<text text-anchor="middle" x="2925" y="-15.8" font-family="Times,serif" font-size="14.00">11</text>
</g>
<!-- JEXNCHEI&#45;&gt;QZFVVMHJ -->
<g id="edge82" class="edge">
<title>JEXNCHEI&#45;&gt;QZFVVMHJ</title>
<path fill="none" stroke="black" d="M2925,-74.69C2925,-67.05 2925,-57.86 2925,-49.24"/>
<polygon fill="black" stroke="black" points="2928.5,-49.15 2925,-39.15 2921.5,-49.15 2928.5,-49.15"/>
</g>
<!-- CSVGPQCF -->
<g id="node84" class="node">
<title>CSVGPQCF</title>
<ellipse fill="none" stroke="black" cx="2980" cy="-19.5" rx="18" ry="18"/>
<text text-anchor="middle" x="2980" y="-15.8" font-family="Times,serif" font-size="14.00">6</text>
</g>
<!-- JEXNCHEI&#45;&gt;CSVGPQCF -->
<g id="edge83" class="edge">
<title>JEXNCHEI&#45;&gt;CSVGPQCF</title>
<path fill="none" stroke="black" d="M2935.6,-78.21C2943.44,-68.02 2954.27,-53.95 2963.27,-42.25"/>
<polygon fill="black" stroke="black" points="2966.1,-44.3 2969.43,-34.24 2960.56,-40.03 2966.1,-44.3"/>
</g>
<!-- DOIXIYUM -->
<g id="node85" class="node">
<title>DOIXIYUM</title>
<ellipse fill="none" stroke="black" cx="3034" cy="-19.5" rx="18" ry="18"/>
<text text-anchor="middle" x="3034" y="-15.8" font-family="Times,serif" font-size="14.00">6</text>
</g>
<!-- JEXNCHEI&#45;&gt;DOIXIYUM -->
<g id="edge84" class="edge">
<title>JEXNCHEI&#45;&gt;DOIXIYUM</title>
<path fill="none" stroke="black" d="M2939.89,-82.54C2956.38,-72.03 2983.72,-54.49 3007,-39 3008.27,-38.15 3009.57,-37.28 3010.89,-36.39"/>
<polygon fill="black" stroke="black" points="3013.17,-39.07 3019.48,-30.55 3009.24,-33.28 3013.17,-39.07"/>
</g>
<!-- PAHEUXTQ -->
<g id="node87" class="node">
<title>PAHEUXTQ</title>
<ellipse fill="none" stroke="black" cx="3089" cy="-19.5" rx="19.5" ry="19.5"/>
<text text-anchor="middle" x="3089" y="-15.8" font-family="Times,serif" font-size="14.00">15</text>
</g>
<!-- POFZTCPK&#45;&gt;PAHEUXTQ -->
<g id="edge86" class="edge">
<title>POFZTCPK&#45;&gt;PAHEUXTQ</title>
<path fill="none" stroke="black" d="M3089,-74.69C3089,-67.05 3089,-57.86 3089,-49.24"/>
<polygon fill="black" stroke="black" points="3092.5,-49.15 3089,-39.15 3085.5,-49.15 3092.5,-49.15"/>
</g>
<!-- ZOLXSJVI -->
<g id="node88" class="node">
<title>ZOLXSJVI</title>
<ellipse fill="none" stroke="black" cx="3144" cy="-19.5" rx="18" ry="18"/>
<text text-anchor="middle" x="3144" y="-15.8" font-family="Times,serif" font-size="14.00">1</text>
</g>
<!-- POFZTCPK&#45;&gt;ZOLXSJVI -->
<g id="edge87" class="edge">
<title>POFZTCPK&#45;&gt;ZOLXSJVI</title>
<path fill="none" stroke="black" d="M3099.6,-78.21C3107.44,-68.02 3118.27,-53.95 3127.27,-42.25"/>
<polygon fill="black" stroke="black" points="3130.1,-44.3 3133.43,-34.24 3124.56,-40.03 3130.1,-44.3"/>
</g>
</g>
</svg>
