digraph D {
FTGWNWJN [shape=circle, label=""]
BESOQCBY [shape=circle, label=""]
CWGBGQLH [shape=circle, label=""]
QRXIDTUH [shape=circle, label=""]
IGECTCXV [shape=circle, label="8"]
BEHBDLZD [shape=circle, label="1"]
SVZKAMAZ [shape=circle, label="4"]
BMKZEEXK [shape=circle, label=""]
ZJGWVPJV [shape=circle, label="11"]
AAWEGRZV [shape=circle, label="3"]
FVHFCFAH [shape=circle, label="14"]
PVXEMYVE [shape=circle, label=""]
JPIOMTSH [shape=circle, label="7"]
OHBVYOVB [shape=circle, label="7"]
ZMBNKGHU [shape=circle, label=""]
MASSRXWW [shape=circle, label=""]
TJUYEYFJ [shape=circle, label="13"]
RZZNCSXY [shape=circle, label="15"]
OQIYPLHB [shape=circle, label=""]
HLIGLLGT [shape=circle, label="13"]
ZOYETFQR [shape=circle, label="4"]
YYDFWUVP [shape=circle, label="7"]
VUTHYEZF [shape=circle, label=""]
CTRQJVJE [shape=circle, label="10"]
YSUNMWOJ [shape=circle, label="3"]
EZSQJFME [shape=circle, label="13"]
HNILFBDZ [shape=circle, label="8"]
NBSFDUXR [shape=circle, label=""]
FMARLVCP [shape=circle, label=""]
XTSNGIWT [shape=circle, label="13"]
MQNMRCFK [shape=circle, label="11"]
ENRPEALY [shape=circle, label="4"]
SMRLBNQM [shape=circle, label="4"]
CRWJFYJX [shape=circle, label=""]
GHMAGIMW [shape=circle, label="2"]
WEJDUYLP [shape=circle, label="14"]
UBDACNMK [shape=circle, label=""]
ILJJPAFG [shape=circle, label="14"]
PSXPSDIG [shape=circle, label="14"]
KLMVAHUO [shape=circle, label="9"]
QYGUAQZX [shape=circle, label="10"]
RIZNRBJJ [shape=circle, label=""]
EGDBQQON [shape=circle, label=""]
BSAYPJQF [shape=circle, label=""]
YLVXKJPB [shape=circle, label="3"]
ZOHFGFQK [shape=circle, label="14"]
BFSGRPAM [shape=circle, label="5"]
KZSTRPFS [shape=circle, label="9"]
HTOCSYMV [shape=circle, label=""]
AQJRQUPG [shape=circle, label="15"]
PSFWPBCY [shape=circle, label="14"]
UGPXYQRS [shape=circle, label=""]
UJYBBZWL [shape=circle, label="15"]
ATGESUHQ [shape=circle, label="3"]
BAHTFCXN [shape=circle, label="13"]
MAAMQDUF [shape=circle, label="11"]
VDZLOMUJ [shape=circle, label=""]
SMWFGHHH [shape=circle, label=""]
ERINWLIY [shape=circle, label="2"]
RQDTVSJR [shape=circle, label="2"]
WXVAOWVP [shape=circle, label=""]
UEDPAKML [shape=circle, label="3"]
WGXYPPVR [shape=circle, label="10"]
NKUQNOPD [shape=circle, label="11"]
EWQHJSDA [shape=circle, label="0"]
JDWCTCPN [shape=circle, label=""]
FBZUSYAB [shape=circle, label="3"]
RCDOJZCP [shape=circle, label="14"]
CNSURARF [shape=circle, label="15"]
KUSTAKDN [shape=circle, label="10"]
XVNXEFBJ [shape=circle, label=""]
YYGOQPGM [shape=circle, label=""]
TOFPVYZO [shape=circle, label="5"]
IJJBPXZT [shape=circle, label="6"]
GJSTHSZN [shape=circle, label=""]
RMWPQINH [shape=circle, label="12"]
UZRGCVDH [shape=circle, label="4"]
RWPSPZRC [shape=circle, label="11"]
QAUCDHIP [shape=circle, label=""]
RVLVAKMN [shape=circle, label="6"]
QOQQXFKP [shape=circle, label="11"]
BGMIDPCF [shape=circle, label="1"]
PVVHCXWG [shape=circle, label="7"]
JYJNIUJR [shape=circle, label=""]
BTDCPAYC [shape=circle, label="15"]
HQIWKBQA [shape=circle, label="7"]
NWCQTSML [shape=circle, label="13"]
GGSZGVLN [shape=circle, label=""]
VFXJMTTB [shape=circle, label=""]
XKYNYSVQ [shape=circle, label="3"]
UTCGCBGF [shape=circle, label="3"]
WQSKZGUK [shape=circle, label=""]
XIMNHGWP [shape=circle, label="3"]
OSZKUEBO [shape=circle, label="13"]
GSITUMKF [shape=circle, label="0"]
DTEJFMXX [shape=circle, label=""]
OYEBCIDT [shape=circle, label="11"]
HOBLUMKM [shape=circle, label="11"]
JBBFUWEF [shape=circle, label="7"]
LONRFSET [shape=circle, label="2"]
QFWQNKMW [shape=circle, label=""]
YFAAMWUD [shape=circle, label="4"]
IPDEYBLS [shape=circle, label="8"]
YCNJYXAF [shape=circle, label="0"]

FTGWNWJN -> BESOQCBY
BESOQCBY -> CWGBGQLH
CWGBGQLH -> QRXIDTUH
QRXIDTUH -> IGECTCXV
QRXIDTUH -> BEHBDLZD
QRXIDTUH -> SVZKAMAZ
CWGBGQLH -> BMKZEEXK
BMKZEEXK -> ZJGWVPJV
BMKZEEXK -> AAWEGRZV
BMKZEEXK -> FVHFCFAH
CWGBGQLH -> PVXEMYVE
PVXEMYVE -> JPIOMTSH
PVXEMYVE -> OHBVYOVB
BESOQCBY -> ZMBNKGHU
ZMBNKGHU -> MASSRXWW
MASSRXWW -> TJUYEYFJ
MASSRXWW -> RZZNCSXY
ZMBNKGHU -> OQIYPLHB
OQIYPLHB -> HLIGLLGT
OQIYPLHB -> ZOYETFQR
OQIYPLHB -> YYDFWUVP
ZMBNKGHU -> VUTHYEZF
VUTHYEZF -> CTRQJVJE
VUTHYEZF -> YSUNMWOJ
VUTHYEZF -> EZSQJFME
VUTHYEZF -> HNILFBDZ
BESOQCBY -> NBSFDUXR
NBSFDUXR -> FMARLVCP
FMARLVCP -> XTSNGIWT
FMARLVCP -> MQNMRCFK
FMARLVCP -> ENRPEALY
FMARLVCP -> SMRLBNQM
NBSFDUXR -> CRWJFYJX
CRWJFYJX -> GHMAGIMW
CRWJFYJX -> WEJDUYLP
NBSFDUXR -> UBDACNMK
UBDACNMK -> ILJJPAFG
UBDACNMK -> PSXPSDIG
UBDACNMK -> KLMVAHUO
UBDACNMK -> QYGUAQZX
FTGWNWJN -> RIZNRBJJ
RIZNRBJJ -> EGDBQQON
EGDBQQON -> BSAYPJQF
BSAYPJQF -> YLVXKJPB
BSAYPJQF -> ZOHFGFQK
BSAYPJQF -> BFSGRPAM
BSAYPJQF -> KZSTRPFS
EGDBQQON -> HTOCSYMV
HTOCSYMV -> AQJRQUPG
HTOCSYMV -> PSFWPBCY
EGDBQQON -> UGPXYQRS
UGPXYQRS -> UJYBBZWL
UGPXYQRS -> ATGESUHQ
UGPXYQRS -> BAHTFCXN
UGPXYQRS -> MAAMQDUF
RIZNRBJJ -> VDZLOMUJ
VDZLOMUJ -> SMWFGHHH
SMWFGHHH -> ERINWLIY
SMWFGHHH -> RQDTVSJR
VDZLOMUJ -> WXVAOWVP
WXVAOWVP -> UEDPAKML
WXVAOWVP -> WGXYPPVR
WXVAOWVP -> NKUQNOPD
WXVAOWVP -> EWQHJSDA
VDZLOMUJ -> JDWCTCPN
JDWCTCPN -> FBZUSYAB
JDWCTCPN -> RCDOJZCP
JDWCTCPN -> CNSURARF
JDWCTCPN -> KUSTAKDN
RIZNRBJJ -> XVNXEFBJ
XVNXEFBJ -> YYGOQPGM
YYGOQPGM -> TOFPVYZO
YYGOQPGM -> IJJBPXZT
XVNXEFBJ -> GJSTHSZN
GJSTHSZN -> RMWPQINH
GJSTHSZN -> UZRGCVDH
GJSTHSZN -> RWPSPZRC
XVNXEFBJ -> QAUCDHIP
QAUCDHIP -> RVLVAKMN
QAUCDHIP -> QOQQXFKP
QAUCDHIP -> BGMIDPCF
QAUCDHIP -> PVVHCXWG
XVNXEFBJ -> JYJNIUJR
JYJNIUJR -> BTDCPAYC
JYJNIUJR -> HQIWKBQA
JYJNIUJR -> NWCQTSML
RIZNRBJJ -> GGSZGVLN
GGSZGVLN -> VFXJMTTB
VFXJMTTB -> XKYNYSVQ
VFXJMTTB -> UTCGCBGF
GGSZGVLN -> WQSKZGUK
WQSKZGUK -> XIMNHGWP
WQSKZGUK -> OSZKUEBO
WQSKZGUK -> GSITUMKF
GGSZGVLN -> DTEJFMXX
DTEJFMXX -> OYEBCIDT
DTEJFMXX -> HOBLUMKM
DTEJFMXX -> JBBFUWEF
DTEJFMXX -> LONRFSET
GGSZGVLN -> QFWQNKMW
QFWQNKMW -> YFAAMWUD
QFWQNKMW -> IPDEYBLS
QFWQNKMW -> YCNJYXAF

}