<?xml version="1.0" encoding="UTF-8" standalone="no"?>
<!DOCTYPE svg PUBLIC "-//W3C//DTD SVG 1.1//EN"
 "http://www.w3.org/Graphics/SVG/1.1/DTD/svg11.dtd">
<!-- Generated by graphviz version 2.46.1 (20210213.1702)
 -->
<!-- Title: D Pages: 1 -->
<svg width="2075pt" height="335pt"
 viewBox="0.00 0.00 2075.00 335.00" xmlns="http://www.w3.org/2000/svg" xmlns:xlink="http://www.w3.org/1999/xlink">
<g id="graph0" class="graph" transform="scale(1 1) rotate(0) translate(4 331)">
<title>D</title>
<polygon fill="white" stroke="transparent" points="-4,4 -4,-331 2071,-331 2071,4 -4,4"/>
<!-- PCNGWDPH -->
<g id="node1" class="node">
<title>PCNGWDPH</title>
<ellipse fill="none" stroke="black" cx="842" cy="-309" rx="18" ry="18"/>
</g>
<!-- MBFNWING -->
<g id="node2" class="node">
<title>MBFNWING</title>
<ellipse fill="none" stroke="black" cx="571" cy="-237" rx="18" ry="18"/>
</g>
<!-- PCNGWDPH&#45;&gt;MBFNWING -->
<g id="edge1" class="edge">
<title>PCNGWDPH&#45;&gt;MBFNWING</title>
<path fill="none" stroke="black" d="M824.64,-303.51C778.65,-291.63 653.46,-259.3 598.03,-244.98"/>
<polygon fill="black" stroke="black" points="598.78,-241.56 588.22,-242.44 597.03,-248.33 598.78,-241.56"/>
</g>
<!-- QBGRLQQE -->
<g id="node26" class="node">
<title>QBGRLQQE</title>
<ellipse fill="none" stroke="black" cx="1416" cy="-237" rx="18" ry="18"/>
</g>
<!-- PCNGWDPH&#45;&gt;QBGRLQQE -->
<g id="edge25" class="edge">
<title>PCNGWDPH&#45;&gt;QBGRLQQE</title>
<path fill="none" stroke="black" d="M859.81,-305.82C942.24,-295.77 1287.04,-253.72 1388.07,-241.4"/>
<polygon fill="black" stroke="black" points="1388.61,-244.86 1398.12,-240.18 1387.77,-237.91 1388.61,-244.86"/>
</g>
<!-- NEWURCAB -->
<g id="node3" class="node">
<title>NEWURCAB</title>
<ellipse fill="none" stroke="black" cx="293" cy="-165" rx="18" ry="18"/>
</g>
<!-- MBFNWING&#45;&gt;NEWURCAB -->
<g id="edge2" class="edge">
<title>MBFNWING&#45;&gt;NEWURCAB</title>
<path fill="none" stroke="black" d="M553.61,-231.62C506.61,-219.78 376.78,-187.09 320.08,-172.82"/>
<polygon fill="black" stroke="black" points="320.94,-169.42 310.38,-170.37 319.23,-176.21 320.94,-169.42"/>
</g>
<!-- BQKECSXT -->
<g id="node13" class="node">
<title>BQKECSXT</title>
<ellipse fill="none" stroke="black" cx="571" cy="-165" rx="18" ry="18"/>
</g>
<!-- MBFNWING&#45;&gt;BQKECSXT -->
<g id="edge12" class="edge">
<title>MBFNWING&#45;&gt;BQKECSXT</title>
<path fill="none" stroke="black" d="M571,-218.69C571,-210.98 571,-201.71 571,-193.11"/>
<polygon fill="black" stroke="black" points="574.5,-193.1 571,-183.1 567.5,-193.1 574.5,-193.1"/>
</g>
<!-- LJBKIZKG -->
<g id="node4" class="node">
<title>LJBKIZKG</title>
<ellipse fill="none" stroke="black" cx="127" cy="-93" rx="18" ry="18"/>
</g>
<!-- NEWURCAB&#45;&gt;LJBKIZKG -->
<g id="edge3" class="edge">
<title>NEWURCAB&#45;&gt;LJBKIZKG</title>
<path fill="none" stroke="black" d="M276.78,-157.16C247.97,-145.01 187.65,-119.57 152.99,-104.96"/>
<polygon fill="black" stroke="black" points="154.1,-101.63 143.53,-100.97 151.39,-108.08 154.1,-101.63"/>
</g>
<!-- OAHTGEZP -->
<g id="node9" class="node">
<title>OAHTGEZP</title>
<ellipse fill="none" stroke="black" cx="293" cy="-93" rx="18" ry="18"/>
</g>
<!-- NEWURCAB&#45;&gt;OAHTGEZP -->
<g id="edge8" class="edge">
<title>NEWURCAB&#45;&gt;OAHTGEZP</title>
<path fill="none" stroke="black" d="M293,-146.69C293,-138.98 293,-129.71 293,-121.11"/>
<polygon fill="black" stroke="black" points="296.5,-121.1 293,-111.1 289.5,-121.1 296.5,-121.1"/>
</g>
<!-- BASAKEMZ -->
<g id="node5" class="node">
<title>BASAKEMZ</title>
<ellipse fill="none" stroke="black" cx="18" cy="-19.5" rx="18" ry="18"/>
<text text-anchor="middle" x="18" y="-15.8" font-family="Times,serif" font-size="14.00">7</text>
</g>
<!-- LJBKIZKG&#45;&gt;BASAKEMZ -->
<g id="edge4" class="edge">
<title>LJBKIZKG&#45;&gt;BASAKEMZ</title>
<path fill="none" stroke="black" d="M112.11,-82.54C95.62,-72.03 68.28,-54.49 45,-39 43.73,-38.15 42.43,-37.28 41.11,-36.39"/>
<polygon fill="black" stroke="black" points="42.76,-33.28 32.52,-30.55 38.83,-39.07 42.76,-33.28"/>
</g>
<!-- AUYCUDPX -->
<g id="node6" class="node">
<title>AUYCUDPX</title>
<ellipse fill="none" stroke="black" cx="72" cy="-19.5" rx="18" ry="18"/>
<text text-anchor="middle" x="72" y="-15.8" font-family="Times,serif" font-size="14.00">0</text>
</g>
<!-- LJBKIZKG&#45;&gt;AUYCUDPX -->
<g id="edge5" class="edge">
<title>LJBKIZKG&#45;&gt;AUYCUDPX</title>
<path fill="none" stroke="black" d="M116.4,-78.21C108.56,-68.02 97.73,-53.95 88.73,-42.25"/>
<polygon fill="black" stroke="black" points="91.44,-40.03 82.57,-34.24 85.9,-44.3 91.44,-40.03"/>
</g>
<!-- WAWEJHWX -->
<g id="node7" class="node">
<title>WAWEJHWX</title>
<ellipse fill="none" stroke="black" cx="127" cy="-19.5" rx="19.5" ry="19.5"/>
<text text-anchor="middle" x="127" y="-15.8" font-family="Times,serif" font-size="14.00">11</text>
</g>
<!-- LJBKIZKG&#45;&gt;WAWEJHWX -->
<g id="edge6" class="edge">
<title>LJBKIZKG&#45;&gt;WAWEJHWX</title>
<path fill="none" stroke="black" d="M127,-74.69C127,-67.05 127,-57.86 127,-49.24"/>
<polygon fill="black" stroke="black" points="130.5,-49.15 127,-39.15 123.5,-49.15 130.5,-49.15"/>
</g>
<!-- OVOXQDAH -->
<g id="node8" class="node">
<title>OVOXQDAH</title>
<ellipse fill="none" stroke="black" cx="184" cy="-19.5" rx="19.5" ry="19.5"/>
<text text-anchor="middle" x="184" y="-15.8" font-family="Times,serif" font-size="14.00">14</text>
</g>
<!-- LJBKIZKG&#45;&gt;OVOXQDAH -->
<g id="edge7" class="edge">
<title>LJBKIZKG&#45;&gt;OVOXQDAH</title>
<path fill="none" stroke="black" d="M137.99,-78.21C145.9,-68.28 156.76,-54.67 165.94,-43.16"/>
<polygon fill="black" stroke="black" points="168.76,-45.23 172.26,-35.23 163.29,-40.86 168.76,-45.23"/>
</g>
<!-- BAYEYXON -->
<g id="node10" class="node">
<title>BAYEYXON</title>
<ellipse fill="none" stroke="black" cx="239" cy="-19.5" rx="18" ry="18"/>
<text text-anchor="middle" x="239" y="-15.8" font-family="Times,serif" font-size="14.00">0</text>
</g>
<!-- OAHTGEZP&#45;&gt;BAYEYXON -->
<g id="edge9" class="edge">
<title>OAHTGEZP&#45;&gt;BAYEYXON</title>
<path fill="none" stroke="black" d="M282.59,-78.21C274.89,-68.02 264.26,-53.95 255.43,-42.25"/>
<polygon fill="black" stroke="black" points="258.2,-40.11 249.38,-34.24 252.61,-44.33 258.2,-40.11"/>
</g>
<!-- XYNFTOXC -->
<g id="node11" class="node">
<title>XYNFTOXC</title>
<ellipse fill="none" stroke="black" cx="293" cy="-19.5" rx="18" ry="18"/>
<text text-anchor="middle" x="293" y="-15.8" font-family="Times,serif" font-size="14.00">1</text>
</g>
<!-- OAHTGEZP&#45;&gt;XYNFTOXC -->
<g id="edge10" class="edge">
<title>OAHTGEZP&#45;&gt;XYNFTOXC</title>
<path fill="none" stroke="black" d="M293,-74.69C293,-66.61 293,-56.8 293,-47.76"/>
<polygon fill="black" stroke="black" points="296.5,-47.65 293,-37.65 289.5,-47.65 296.5,-47.65"/>
</g>
<!-- DNBTQBBD -->
<g id="node12" class="node">
<title>DNBTQBBD</title>
<ellipse fill="none" stroke="black" cx="348" cy="-19.5" rx="19.5" ry="19.5"/>
<text text-anchor="middle" x="348" y="-15.8" font-family="Times,serif" font-size="14.00">11</text>
</g>
<!-- OAHTGEZP&#45;&gt;DNBTQBBD -->
<g id="edge11" class="edge">
<title>OAHTGEZP&#45;&gt;DNBTQBBD</title>
<path fill="none" stroke="black" d="M303.6,-78.21C311.12,-68.45 321.38,-55.11 330.14,-43.72"/>
<polygon fill="black" stroke="black" points="333.16,-45.54 336.48,-35.48 327.61,-41.27 333.16,-45.54"/>
</g>
<!-- SJHHBRTJ -->
<g id="node14" class="node">
<title>SJHHBRTJ</title>
<ellipse fill="none" stroke="black" cx="462" cy="-93" rx="18" ry="18"/>
</g>
<!-- BQKECSXT&#45;&gt;SJHHBRTJ -->
<g id="edge13" class="edge">
<title>BQKECSXT&#45;&gt;SJHHBRTJ</title>
<path fill="none" stroke="black" d="M556.3,-154.56C538.1,-142.87 506.87,-122.81 485.37,-109"/>
<polygon fill="black" stroke="black" points="487.12,-105.97 476.82,-103.51 483.34,-111.86 487.12,-105.97"/>
</g>
<!-- NNMYKMJJ -->
<g id="node17" class="node">
<title>NNMYKMJJ</title>
<ellipse fill="none" stroke="black" cx="571" cy="-93" rx="18" ry="18"/>
</g>
<!-- BQKECSXT&#45;&gt;NNMYKMJJ -->
<g id="edge16" class="edge">
<title>BQKECSXT&#45;&gt;NNMYKMJJ</title>
<path fill="none" stroke="black" d="M571,-146.69C571,-138.98 571,-129.71 571,-121.11"/>
<polygon fill="black" stroke="black" points="574.5,-121.1 571,-111.1 567.5,-121.1 574.5,-121.1"/>
</g>
<!-- VMIMWCDP -->
<g id="node21" class="node">
<title>VMIMWCDP</title>
<ellipse fill="none" stroke="black" cx="733" cy="-93" rx="18" ry="18"/>
</g>
<!-- BQKECSXT&#45;&gt;VMIMWCDP -->
<g id="edge20" class="edge">
<title>BQKECSXT&#45;&gt;VMIMWCDP</title>
<path fill="none" stroke="black" d="M587.42,-156.9C615.69,-144.69 673.7,-119.62 707.34,-105.09"/>
<polygon fill="black" stroke="black" points="708.74,-108.29 716.53,-101.11 705.96,-101.87 708.74,-108.29"/>
</g>
<!-- CDOVNEWP -->
<g id="node15" class="node">
<title>CDOVNEWP</title>
<ellipse fill="none" stroke="black" cx="405" cy="-19.5" rx="19.5" ry="19.5"/>
<text text-anchor="middle" x="405" y="-15.8" font-family="Times,serif" font-size="14.00">10</text>
</g>
<!-- SJHHBRTJ&#45;&gt;CDOVNEWP -->
<g id="edge14" class="edge">
<title>SJHHBRTJ&#45;&gt;CDOVNEWP</title>
<path fill="none" stroke="black" d="M451.01,-78.21C443.1,-68.28 432.24,-54.67 423.06,-43.16"/>
<polygon fill="black" stroke="black" points="425.71,-40.86 416.74,-35.23 420.24,-45.23 425.71,-40.86"/>
</g>
<!-- KGCSDABS -->
<g id="node16" class="node">
<title>KGCSDABS</title>
<ellipse fill="none" stroke="black" cx="462" cy="-19.5" rx="19.5" ry="19.5"/>
<text text-anchor="middle" x="462" y="-15.8" font-family="Times,serif" font-size="14.00">13</text>
</g>
<!-- SJHHBRTJ&#45;&gt;KGCSDABS -->
<g id="edge15" class="edge">
<title>SJHHBRTJ&#45;&gt;KGCSDABS</title>
<path fill="none" stroke="black" d="M462,-74.69C462,-67.05 462,-57.86 462,-49.24"/>
<polygon fill="black" stroke="black" points="465.5,-49.15 462,-39.15 458.5,-49.15 465.5,-49.15"/>
</g>
<!-- XGXVISFY -->
<g id="node18" class="node">
<title>XGXVISFY</title>
<ellipse fill="none" stroke="black" cx="517" cy="-19.5" rx="18" ry="18"/>
<text text-anchor="middle" x="517" y="-15.8" font-family="Times,serif" font-size="14.00">2</text>
</g>
<!-- NNMYKMJJ&#45;&gt;XGXVISFY -->
<g id="edge17" class="edge">
<title>NNMYKMJJ&#45;&gt;XGXVISFY</title>
<path fill="none" stroke="black" d="M560.59,-78.21C552.89,-68.02 542.26,-53.95 533.43,-42.25"/>
<polygon fill="black" stroke="black" points="536.2,-40.11 527.38,-34.24 530.61,-44.33 536.2,-40.11"/>
</g>
<!-- OBKJUVSJ -->
<g id="node19" class="node">
<title>OBKJUVSJ</title>
<ellipse fill="none" stroke="black" cx="571" cy="-19.5" rx="18" ry="18"/>
<text text-anchor="middle" x="571" y="-15.8" font-family="Times,serif" font-size="14.00">4</text>
</g>
<!-- NNMYKMJJ&#45;&gt;OBKJUVSJ -->
<g id="edge18" class="edge">
<title>NNMYKMJJ&#45;&gt;OBKJUVSJ</title>
<path fill="none" stroke="black" d="M571,-74.69C571,-66.61 571,-56.8 571,-47.76"/>
<polygon fill="black" stroke="black" points="574.5,-47.65 571,-37.65 567.5,-47.65 574.5,-47.65"/>
</g>
<!-- SUQYZNRD -->
<g id="node20" class="node">
<title>SUQYZNRD</title>
<ellipse fill="none" stroke="black" cx="625" cy="-19.5" rx="18" ry="18"/>
<text text-anchor="middle" x="625" y="-15.8" font-family="Times,serif" font-size="14.00">8</text>
</g>
<!-- NNMYKMJJ&#45;&gt;SUQYZNRD -->
<g id="edge19" class="edge">
<title>NNMYKMJJ&#45;&gt;SUQYZNRD</title>
<path fill="none" stroke="black" d="M581.41,-78.21C589.11,-68.02 599.74,-53.95 608.57,-42.25"/>
<polygon fill="black" stroke="black" points="611.39,-44.33 614.62,-34.24 605.8,-40.11 611.39,-44.33"/>
</g>
<!-- QXONTEOU -->
<g id="node22" class="node">
<title>QXONTEOU</title>
<ellipse fill="none" stroke="black" cx="679" cy="-19.5" rx="18" ry="18"/>
<text text-anchor="middle" x="679" y="-15.8" font-family="Times,serif" font-size="14.00">2</text>
</g>
<!-- VMIMWCDP&#45;&gt;QXONTEOU -->
<g id="edge21" class="edge">
<title>VMIMWCDP&#45;&gt;QXONTEOU</title>
<path fill="none" stroke="black" d="M722.59,-78.21C714.89,-68.02 704.26,-53.95 695.43,-42.25"/>
<polygon fill="black" stroke="black" points="698.2,-40.11 689.38,-34.24 692.61,-44.33 698.2,-40.11"/>
</g>
<!-- BINREMQP -->
<g id="node23" class="node">
<title>BINREMQP</title>
<ellipse fill="none" stroke="black" cx="733" cy="-19.5" rx="18" ry="18"/>
<text text-anchor="middle" x="733" y="-15.8" font-family="Times,serif" font-size="14.00">0</text>
</g>
<!-- VMIMWCDP&#45;&gt;BINREMQP -->
<g id="edge22" class="edge">
<title>VMIMWCDP&#45;&gt;BINREMQP</title>
<path fill="none" stroke="black" d="M733,-74.69C733,-66.61 733,-56.8 733,-47.76"/>
<polygon fill="black" stroke="black" points="736.5,-47.65 733,-37.65 729.5,-47.65 736.5,-47.65"/>
</g>
<!-- SCVGEQER -->
<g id="node24" class="node">
<title>SCVGEQER</title>
<ellipse fill="none" stroke="black" cx="787" cy="-19.5" rx="18" ry="18"/>
<text text-anchor="middle" x="787" y="-15.8" font-family="Times,serif" font-size="14.00">8</text>
</g>
<!-- VMIMWCDP&#45;&gt;SCVGEQER -->
<g id="edge23" class="edge">
<title>VMIMWCDP&#45;&gt;SCVGEQER</title>
<path fill="none" stroke="black" d="M743.41,-78.21C751.11,-68.02 761.74,-53.95 770.57,-42.25"/>
<polygon fill="black" stroke="black" points="773.39,-44.33 776.62,-34.24 767.8,-40.11 773.39,-44.33"/>
</g>
<!-- WZMBIIGZ -->
<g id="node25" class="node">
<title>WZMBIIGZ</title>
<ellipse fill="none" stroke="black" cx="841" cy="-19.5" rx="18" ry="18"/>
<text text-anchor="middle" x="841" y="-15.8" font-family="Times,serif" font-size="14.00">8</text>
</g>
<!-- VMIMWCDP&#45;&gt;WZMBIIGZ -->
<g id="edge24" class="edge">
<title>VMIMWCDP&#45;&gt;WZMBIIGZ</title>
<path fill="none" stroke="black" d="M747.69,-82.52C763.97,-71.98 790.96,-54.42 814,-39 815.27,-38.15 816.57,-37.27 817.88,-36.39"/>
<polygon fill="black" stroke="black" points="820.17,-39.06 826.47,-30.54 816.23,-33.27 820.17,-39.06"/>
</g>
<!-- NOYXGKVW -->
<g id="node27" class="node">
<title>NOYXGKVW</title>
<ellipse fill="none" stroke="black" cx="1223" cy="-165" rx="18" ry="18"/>
</g>
<!-- QBGRLQQE&#45;&gt;NOYXGKVW -->
<g id="edge26" class="edge">
<title>QBGRLQQE&#45;&gt;NOYXGKVW</title>
<path fill="none" stroke="black" d="M1399.21,-229.91C1365.48,-217.67 1289.27,-190.03 1249.02,-175.43"/>
<polygon fill="black" stroke="black" points="1250.21,-172.14 1239.61,-172.02 1247.82,-178.72 1250.21,-172.14"/>
</g>
<!-- DCGXZJSB -->
<g id="node41" class="node">
<title>DCGXZJSB</title>
<ellipse fill="none" stroke="black" cx="1500" cy="-165" rx="18" ry="18"/>
</g>
<!-- QBGRLQQE&#45;&gt;DCGXZJSB -->
<g id="edge40" class="edge">
<title>QBGRLQQE&#45;&gt;DCGXZJSB</title>
<path fill="none" stroke="black" d="M1429.5,-224.75C1442.72,-213.73 1463.09,-196.76 1478.54,-183.88"/>
<polygon fill="black" stroke="black" points="1481.1,-186.31 1486.54,-177.22 1476.61,-180.93 1481.1,-186.31"/>
</g>
<!-- EFLYWJAE -->
<g id="node49" class="node">
<title>EFLYWJAE</title>
<ellipse fill="none" stroke="black" cx="1859" cy="-165" rx="18" ry="18"/>
</g>
<!-- QBGRLQQE&#45;&gt;EFLYWJAE -->
<g id="edge48" class="edge">
<title>QBGRLQQE&#45;&gt;EFLYWJAE</title>
<path fill="none" stroke="black" d="M1433.64,-233.21C1501.78,-222.44 1748.15,-183.51 1831.34,-170.37"/>
<polygon fill="black" stroke="black" points="1831.98,-173.81 1841.31,-168.79 1830.89,-166.9 1831.98,-173.81"/>
</g>
<!-- UKBHLTZE -->
<g id="node28" class="node">
<title>UKBHLTZE</title>
<ellipse fill="none" stroke="black" cx="978" cy="-93" rx="18" ry="18"/>
</g>
<!-- NOYXGKVW&#45;&gt;UKBHLTZE -->
<g id="edge27" class="edge">
<title>NOYXGKVW&#45;&gt;UKBHLTZE</title>
<path fill="none" stroke="black" d="M1205.77,-159.07C1163.78,-147.08 1055.86,-116.24 1005.12,-101.75"/>
<polygon fill="black" stroke="black" points="1005.79,-98.3 995.21,-98.91 1003.86,-105.03 1005.79,-98.3"/>
</g>
<!-- KKWDXNME -->
<g id="node32" class="node">
<title>KKWDXNME</title>
<ellipse fill="none" stroke="black" cx="1140" cy="-93" rx="18" ry="18"/>
</g>
<!-- NOYXGKVW&#45;&gt;KKWDXNME -->
<g id="edge31" class="edge">
<title>NOYXGKVW&#45;&gt;KKWDXNME</title>
<path fill="none" stroke="black" d="M1209.66,-152.75C1196.6,-141.73 1176.47,-124.76 1161.21,-111.88"/>
<polygon fill="black" stroke="black" points="1163.2,-108.99 1153.3,-105.22 1158.69,-114.34 1163.2,-108.99"/>
</g>
<!-- HWOLATRI -->
<g id="node36" class="node">
<title>HWOLATRI</title>
<ellipse fill="none" stroke="black" cx="1279" cy="-93" rx="18" ry="18"/>
</g>
<!-- NOYXGKVW&#45;&gt;HWOLATRI -->
<g id="edge35" class="edge">
<title>NOYXGKVW&#45;&gt;HWOLATRI</title>
<path fill="none" stroke="black" d="M1233.8,-150.5C1241.78,-140.53 1252.8,-126.75 1261.96,-115.29"/>
<polygon fill="black" stroke="black" points="1264.72,-117.45 1268.24,-107.45 1259.26,-113.07 1264.72,-117.45"/>
</g>
<!-- QEVYLQMW -->
<g id="node29" class="node">
<title>QEVYLQMW</title>
<ellipse fill="none" stroke="black" cx="896" cy="-19.5" rx="19.5" ry="19.5"/>
<text text-anchor="middle" x="896" y="-15.8" font-family="Times,serif" font-size="14.00">15</text>
</g>
<!-- UKBHLTZE&#45;&gt;QEVYLQMW -->
<g id="edge28" class="edge">
<title>UKBHLTZE&#45;&gt;QEVYLQMW</title>
<path fill="none" stroke="black" d="M964.83,-80.51C952.22,-69.52 932.97,-52.73 918.03,-39.71"/>
<polygon fill="black" stroke="black" points="920.08,-36.85 910.24,-32.92 915.48,-42.13 920.08,-36.85"/>
</g>
<!-- OXPDLEBX -->
<g id="node30" class="node">
<title>OXPDLEBX</title>
<ellipse fill="none" stroke="black" cx="951" cy="-19.5" rx="18" ry="18"/>
<text text-anchor="middle" x="951" y="-15.8" font-family="Times,serif" font-size="14.00">0</text>
</g>
<!-- UKBHLTZE&#45;&gt;OXPDLEBX -->
<g id="edge29" class="edge">
<title>UKBHLTZE&#45;&gt;OXPDLEBX</title>
<path fill="none" stroke="black" d="M971.87,-75.77C968.56,-67 964.39,-55.96 960.65,-46.05"/>
<polygon fill="black" stroke="black" points="963.91,-44.78 957.1,-36.66 957.36,-47.25 963.91,-44.78"/>
</g>
<!-- GTKLYLGF -->
<g id="node31" class="node">
<title>GTKLYLGF</title>
<ellipse fill="none" stroke="black" cx="1005" cy="-19.5" rx="18" ry="18"/>
<text text-anchor="middle" x="1005" y="-15.8" font-family="Times,serif" font-size="14.00">1</text>
</g>
<!-- UKBHLTZE&#45;&gt;GTKLYLGF -->
<g id="edge30" class="edge">
<title>UKBHLTZE&#45;&gt;GTKLYLGF</title>
<path fill="none" stroke="black" d="M984.13,-75.77C987.44,-67 991.61,-55.96 995.35,-46.05"/>
<polygon fill="black" stroke="black" points="998.64,-47.25 998.9,-36.66 992.09,-44.78 998.64,-47.25"/>
</g>
<!-- WKKCIBHW -->
<g id="node33" class="node">
<title>WKKCIBHW</title>
<ellipse fill="none" stroke="black" cx="1059" cy="-19.5" rx="18" ry="18"/>
<text text-anchor="middle" x="1059" y="-15.8" font-family="Times,serif" font-size="14.00">2</text>
</g>
<!-- KKWDXNME&#45;&gt;WKKCIBHW -->
<g id="edge32" class="edge">
<title>KKWDXNME&#45;&gt;WKKCIBHW</title>
<path fill="none" stroke="black" d="M1126.99,-80.51C1114.31,-69.32 1094.83,-52.12 1079.96,-39"/>
<polygon fill="black" stroke="black" points="1082.06,-36.19 1072.25,-32.19 1077.43,-41.44 1082.06,-36.19"/>
</g>
<!-- FUMVSNUZ -->
<g id="node34" class="node">
<title>FUMVSNUZ</title>
<ellipse fill="none" stroke="black" cx="1113" cy="-19.5" rx="18" ry="18"/>
<text text-anchor="middle" x="1113" y="-15.8" font-family="Times,serif" font-size="14.00">3</text>
</g>
<!-- KKWDXNME&#45;&gt;FUMVSNUZ -->
<g id="edge33" class="edge">
<title>KKWDXNME&#45;&gt;FUMVSNUZ</title>
<path fill="none" stroke="black" d="M1133.87,-75.77C1130.56,-67 1126.39,-55.96 1122.65,-46.05"/>
<polygon fill="black" stroke="black" points="1125.91,-44.78 1119.1,-36.66 1119.36,-47.25 1125.91,-44.78"/>
</g>
<!-- XRFXTGLP -->
<g id="node35" class="node">
<title>XRFXTGLP</title>
<ellipse fill="none" stroke="black" cx="1167" cy="-19.5" rx="18" ry="18"/>
<text text-anchor="middle" x="1167" y="-15.8" font-family="Times,serif" font-size="14.00">2</text>
</g>
<!-- KKWDXNME&#45;&gt;XRFXTGLP -->
<g id="edge34" class="edge">
<title>KKWDXNME&#45;&gt;XRFXTGLP</title>
<path fill="none" stroke="black" d="M1146.13,-75.77C1149.44,-67 1153.61,-55.96 1157.35,-46.05"/>
<polygon fill="black" stroke="black" points="1160.64,-47.25 1160.9,-36.66 1154.09,-44.78 1160.64,-47.25"/>
</g>
<!-- DOATDOLC -->
<g id="node37" class="node">
<title>DOATDOLC</title>
<ellipse fill="none" stroke="black" cx="1222" cy="-19.5" rx="19.5" ry="19.5"/>
<text text-anchor="middle" x="1222" y="-15.8" font-family="Times,serif" font-size="14.00">14</text>
</g>
<!-- HWOLATRI&#45;&gt;DOATDOLC -->
<g id="edge36" class="edge">
<title>HWOLATRI&#45;&gt;DOATDOLC</title>
<path fill="none" stroke="black" d="M1268.01,-78.21C1260.1,-68.28 1249.24,-54.67 1240.06,-43.16"/>
<polygon fill="black" stroke="black" points="1242.71,-40.86 1233.74,-35.23 1237.24,-45.23 1242.71,-40.86"/>
</g>
<!-- MORCPHJD -->
<g id="node38" class="node">
<title>MORCPHJD</title>
<ellipse fill="none" stroke="black" cx="1279" cy="-19.5" rx="19.5" ry="19.5"/>
<text text-anchor="middle" x="1279" y="-15.8" font-family="Times,serif" font-size="14.00">13</text>
</g>
<!-- HWOLATRI&#45;&gt;MORCPHJD -->
<g id="edge37" class="edge">
<title>HWOLATRI&#45;&gt;MORCPHJD</title>
<path fill="none" stroke="black" d="M1279,-74.69C1279,-67.05 1279,-57.86 1279,-49.24"/>
<polygon fill="black" stroke="black" points="1282.5,-49.15 1279,-39.15 1275.5,-49.15 1282.5,-49.15"/>
</g>
<!-- IOQRWMPT -->
<g id="node39" class="node">
<title>IOQRWMPT</title>
<ellipse fill="none" stroke="black" cx="1336" cy="-19.5" rx="19.5" ry="19.5"/>
<text text-anchor="middle" x="1336" y="-15.8" font-family="Times,serif" font-size="14.00">12</text>
</g>
<!-- HWOLATRI&#45;&gt;IOQRWMPT -->
<g id="edge38" class="edge">
<title>HWOLATRI&#45;&gt;IOQRWMPT</title>
<path fill="none" stroke="black" d="M1289.99,-78.21C1297.9,-68.28 1308.76,-54.67 1317.94,-43.16"/>
<polygon fill="black" stroke="black" points="1320.76,-45.23 1324.26,-35.23 1315.29,-40.86 1320.76,-45.23"/>
</g>
<!-- LFBPRQXU -->
<g id="node40" class="node">
<title>LFBPRQXU</title>
<ellipse fill="none" stroke="black" cx="1391" cy="-19.5" rx="18" ry="18"/>
<text text-anchor="middle" x="1391" y="-15.8" font-family="Times,serif" font-size="14.00">6</text>
</g>
<!-- HWOLATRI&#45;&gt;LFBPRQXU -->
<g id="edge39" class="edge">
<title>HWOLATRI&#45;&gt;LFBPRQXU</title>
<path fill="none" stroke="black" d="M1294.17,-82.81C1311.27,-72.39 1339.84,-54.8 1364,-39 1365.28,-38.16 1366.59,-37.3 1367.9,-36.42"/>
<polygon fill="black" stroke="black" points="1370.18,-39.1 1376.5,-30.6 1366.26,-33.3 1370.18,-39.1"/>
</g>
<!-- WJGTSVFV -->
<g id="node42" class="node">
<title>WJGTSVFV</title>
<ellipse fill="none" stroke="black" cx="1500" cy="-93" rx="18" ry="18"/>
</g>
<!-- DCGXZJSB&#45;&gt;WJGTSVFV -->
<g id="edge41" class="edge">
<title>DCGXZJSB&#45;&gt;WJGTSVFV</title>
<path fill="none" stroke="black" d="M1500,-146.69C1500,-138.98 1500,-129.71 1500,-121.11"/>
<polygon fill="black" stroke="black" points="1503.5,-121.1 1500,-111.1 1496.5,-121.1 1503.5,-121.1"/>
</g>
<!-- RANYRHOQ -->
<g id="node46" class="node">
<title>RANYRHOQ</title>
<ellipse fill="none" stroke="black" cx="1612" cy="-93" rx="18" ry="18"/>
</g>
<!-- DCGXZJSB&#45;&gt;RANYRHOQ -->
<g id="edge45" class="edge">
<title>DCGXZJSB&#45;&gt;RANYRHOQ</title>
<path fill="none" stroke="black" d="M1515.1,-154.56C1534,-142.75 1566.54,-122.41 1588.65,-108.59"/>
<polygon fill="black" stroke="black" points="1590.51,-111.56 1597.13,-103.29 1586.8,-105.62 1590.51,-111.56"/>
</g>
<!-- CIRJCVCL -->
<g id="node43" class="node">
<title>CIRJCVCL</title>
<ellipse fill="none" stroke="black" cx="1445" cy="-19.5" rx="18" ry="18"/>
<text text-anchor="middle" x="1445" y="-15.8" font-family="Times,serif" font-size="14.00">3</text>
</g>
<!-- WJGTSVFV&#45;&gt;CIRJCVCL -->
<g id="edge42" class="edge">
<title>WJGTSVFV&#45;&gt;CIRJCVCL</title>
<path fill="none" stroke="black" d="M1489.4,-78.21C1481.56,-68.02 1470.73,-53.95 1461.73,-42.25"/>
<polygon fill="black" stroke="black" points="1464.44,-40.03 1455.57,-34.24 1458.9,-44.3 1464.44,-40.03"/>
</g>
<!-- UNDIITLS -->
<g id="node44" class="node">
<title>UNDIITLS</title>
<ellipse fill="none" stroke="black" cx="1500" cy="-19.5" rx="19.5" ry="19.5"/>
<text text-anchor="middle" x="1500" y="-15.8" font-family="Times,serif" font-size="14.00">15</text>
</g>
<!-- WJGTSVFV&#45;&gt;UNDIITLS -->
<g id="edge43" class="edge">
<title>WJGTSVFV&#45;&gt;UNDIITLS</title>
<path fill="none" stroke="black" d="M1500,-74.69C1500,-67.05 1500,-57.86 1500,-49.24"/>
<polygon fill="black" stroke="black" points="1503.5,-49.15 1500,-39.15 1496.5,-49.15 1503.5,-49.15"/>
</g>
<!-- QBHCRRYC -->
<g id="node45" class="node">
<title>QBHCRRYC</title>
<ellipse fill="none" stroke="black" cx="1557" cy="-19.5" rx="19.5" ry="19.5"/>
<text text-anchor="middle" x="1557" y="-15.8" font-family="Times,serif" font-size="14.00">11</text>
</g>
<!-- WJGTSVFV&#45;&gt;QBHCRRYC -->
<g id="edge44" class="edge">
<title>WJGTSVFV&#45;&gt;QBHCRRYC</title>
<path fill="none" stroke="black" d="M1510.99,-78.21C1518.9,-68.28 1529.76,-54.67 1538.94,-43.16"/>
<polygon fill="black" stroke="black" points="1541.76,-45.23 1545.26,-35.23 1536.29,-40.86 1541.76,-45.23"/>
</g>
<!-- MAETUVBV -->
<g id="node47" class="node">
<title>MAETUVBV</title>
<ellipse fill="none" stroke="black" cx="1612" cy="-19.5" rx="18" ry="18"/>
<text text-anchor="middle" x="1612" y="-15.8" font-family="Times,serif" font-size="14.00">2</text>
</g>
<!-- RANYRHOQ&#45;&gt;MAETUVBV -->
<g id="edge46" class="edge">
<title>RANYRHOQ&#45;&gt;MAETUVBV</title>
<path fill="none" stroke="black" d="M1612,-74.69C1612,-66.61 1612,-56.8 1612,-47.76"/>
<polygon fill="black" stroke="black" points="1615.5,-47.65 1612,-37.65 1608.5,-47.65 1615.5,-47.65"/>
</g>
<!-- AMVUUKAE -->
<g id="node48" class="node">
<title>AMVUUKAE</title>
<ellipse fill="none" stroke="black" cx="1666" cy="-19.5" rx="18" ry="18"/>
<text text-anchor="middle" x="1666" y="-15.8" font-family="Times,serif" font-size="14.00">7</text>
</g>
<!-- RANYRHOQ&#45;&gt;AMVUUKAE -->
<g id="edge47" class="edge">
<title>RANYRHOQ&#45;&gt;AMVUUKAE</title>
<path fill="none" stroke="black" d="M1622.41,-78.21C1630.11,-68.02 1640.74,-53.95 1649.57,-42.25"/>
<polygon fill="black" stroke="black" points="1652.39,-44.33 1655.62,-34.24 1646.8,-40.11 1652.39,-44.33"/>
</g>
<!-- VMXGDDQS -->
<g id="node50" class="node">
<title>VMXGDDQS</title>
<ellipse fill="none" stroke="black" cx="1805" cy="-93" rx="18" ry="18"/>
</g>
<!-- EFLYWJAE&#45;&gt;VMXGDDQS -->
<g id="edge49" class="edge">
<title>EFLYWJAE&#45;&gt;VMXGDDQS</title>
<path fill="none" stroke="black" d="M1848.33,-150.17C1840.79,-140.39 1830.52,-127.08 1821.87,-115.87"/>
<polygon fill="black" stroke="black" points="1824.53,-113.58 1815.65,-107.8 1818.98,-117.85 1824.53,-113.58"/>
</g>
<!-- WLDWFDET -->
<g id="node54" class="node">
<title>WLDWFDET</title>
<ellipse fill="none" stroke="black" cx="1887" cy="-93" rx="18" ry="18"/>
</g>
<!-- EFLYWJAE&#45;&gt;WLDWFDET -->
<g id="edge53" class="edge">
<title>EFLYWJAE&#45;&gt;WLDWFDET</title>
<path fill="none" stroke="black" d="M1865.35,-148.11C1868.71,-139.73 1872.9,-129.24 1876.71,-119.73"/>
<polygon fill="black" stroke="black" points="1880.01,-120.89 1880.48,-110.3 1873.51,-118.29 1880.01,-120.89"/>
</g>
<!-- QMRFWCRE -->
<g id="node57" class="node">
<title>QMRFWCRE</title>
<ellipse fill="none" stroke="black" cx="1995" cy="-93" rx="18" ry="18"/>
</g>
<!-- EFLYWJAE&#45;&gt;QMRFWCRE -->
<g id="edge56" class="edge">
<title>EFLYWJAE&#45;&gt;QMRFWCRE</title>
<path fill="none" stroke="black" d="M1874.6,-155.97C1897.94,-143.95 1942.19,-121.18 1970.05,-106.84"/>
<polygon fill="black" stroke="black" points="1971.87,-109.84 1979.16,-102.15 1968.67,-103.61 1971.87,-109.84"/>
</g>
<!-- OVQMEPMU -->
<g id="node51" class="node">
<title>OVQMEPMU</title>
<ellipse fill="none" stroke="black" cx="1721" cy="-19.5" rx="19.5" ry="19.5"/>
<text text-anchor="middle" x="1721" y="-15.8" font-family="Times,serif" font-size="14.00">15</text>
</g>
<!-- VMXGDDQS&#45;&gt;OVQMEPMU -->
<g id="edge50" class="edge">
<title>VMXGDDQS&#45;&gt;OVQMEPMU</title>
<path fill="none" stroke="black" d="M1791.5,-80.51C1778.59,-69.52 1758.87,-52.73 1743.57,-39.71"/>
<polygon fill="black" stroke="black" points="1745.47,-36.73 1735.59,-32.92 1740.94,-42.06 1745.47,-36.73"/>
</g>
<!-- DCHOPLAH -->
<g id="node52" class="node">
<title>DCHOPLAH</title>
<ellipse fill="none" stroke="black" cx="1778" cy="-19.5" rx="19.5" ry="19.5"/>
<text text-anchor="middle" x="1778" y="-15.8" font-family="Times,serif" font-size="14.00">10</text>
</g>
<!-- VMXGDDQS&#45;&gt;DCHOPLAH -->
<g id="edge51" class="edge">
<title>VMXGDDQS&#45;&gt;DCHOPLAH</title>
<path fill="none" stroke="black" d="M1798.87,-75.77C1795.71,-67.39 1791.77,-56.95 1788.16,-47.41"/>
<polygon fill="black" stroke="black" points="1791.38,-46.03 1784.57,-37.91 1784.83,-48.5 1791.38,-46.03"/>
</g>
<!-- GTHDBJYJ -->
<g id="node53" class="node">
<title>GTHDBJYJ</title>
<ellipse fill="none" stroke="black" cx="1833" cy="-19.5" rx="18" ry="18"/>
<text text-anchor="middle" x="1833" y="-15.8" font-family="Times,serif" font-size="14.00">8</text>
</g>
<!-- VMXGDDQS&#45;&gt;GTHDBJYJ -->
<g id="edge52" class="edge">
<title>VMXGDDQS&#45;&gt;GTHDBJYJ</title>
<path fill="none" stroke="black" d="M1811.35,-75.77C1814.79,-67 1819.11,-55.96 1822.99,-46.05"/>
<polygon fill="black" stroke="black" points="1826.28,-47.25 1826.67,-36.66 1819.77,-44.69 1826.28,-47.25"/>
</g>
<!-- XHPXPNJB -->
<g id="node55" class="node">
<title>XHPXPNJB</title>
<ellipse fill="none" stroke="black" cx="1887" cy="-19.5" rx="18" ry="18"/>
<text text-anchor="middle" x="1887" y="-15.8" font-family="Times,serif" font-size="14.00">7</text>
</g>
<!-- WLDWFDET&#45;&gt;XHPXPNJB -->
<g id="edge54" class="edge">
<title>WLDWFDET&#45;&gt;XHPXPNJB</title>
<path fill="none" stroke="black" d="M1887,-74.69C1887,-66.61 1887,-56.8 1887,-47.76"/>
<polygon fill="black" stroke="black" points="1890.5,-47.65 1887,-37.65 1883.5,-47.65 1890.5,-47.65"/>
</g>
<!-- CMNHERHW -->
<g id="node56" class="node">
<title>CMNHERHW</title>
<ellipse fill="none" stroke="black" cx="1941" cy="-19.5" rx="18" ry="18"/>
<text text-anchor="middle" x="1941" y="-15.8" font-family="Times,serif" font-size="14.00">9</text>
</g>
<!-- WLDWFDET&#45;&gt;CMNHERHW -->
<g id="edge55" class="edge">
<title>WLDWFDET&#45;&gt;CMNHERHW</title>
<path fill="none" stroke="black" d="M1897.41,-78.21C1905.11,-68.02 1915.74,-53.95 1924.57,-42.25"/>
<polygon fill="black" stroke="black" points="1927.39,-44.33 1930.62,-34.24 1921.8,-40.11 1927.39,-44.33"/>
</g>
<!-- PXTWBUSY -->
<g id="node58" class="node">
<title>PXTWBUSY</title>
<ellipse fill="none" stroke="black" cx="1995" cy="-19.5" rx="18" ry="18"/>
<text text-anchor="middle" x="1995" y="-15.8" font-family="Times,serif" font-size="14.00">1</text>
</g>
<!-- QMRFWCRE&#45;&gt;PXTWBUSY -->
<g id="edge57" class="edge">
<title>QMRFWCRE&#45;&gt;PXTWBUSY</title>
<path fill="none" stroke="black" d="M1995,-74.69C1995,-66.61 1995,-56.8 1995,-47.76"/>
<polygon fill="black" stroke="black" points="1998.5,-47.65 1995,-37.65 1991.5,-47.65 1998.5,-47.65"/>
</g>
<!-- ISGIZWND -->
<g id="node59" class="node">
<title>ISGIZWND</title>
<ellipse fill="none" stroke="black" cx="2049" cy="-19.5" rx="18" ry="18"/>
<text text-anchor="middle" x="2049" y="-15.8" font-family="Times,serif" font-size="14.00">7</text>
</g>
<!-- QMRFWCRE&#45;&gt;ISGIZWND -->
<g id="edge58" class="edge">
<title>QMRFWCRE&#45;&gt;ISGIZWND</title>
<path fill="none" stroke="black" d="M2005.41,-78.21C2013.11,-68.02 2023.74,-53.95 2032.57,-42.25"/>
<polygon fill="black" stroke="black" points="2035.39,-44.33 2038.62,-34.24 2029.8,-40.11 2035.39,-44.33"/>
</g>
</g>
</svg>
