<?xml version="1.0" encoding="UTF-8" standalone="no"?>
<!DOCTYPE svg PUBLIC "-//W3C//DTD SVG 1.1//EN"
 "http://www.w3.org/Graphics/SVG/1.1/DTD/svg11.dtd">
<!-- Generated by graphviz version 2.46.1 (20210213.1702)
 -->
<!-- Title: D Pages: 1 -->
<svg width="2414pt" height="335pt"
 viewBox="0.00 0.00 2414.00 335.00" xmlns="http://www.w3.org/2000/svg" xmlns:xlink="http://www.w3.org/1999/xlink">
<g id="graph0" class="graph" transform="scale(1 1) rotate(0) translate(4 331)">
<title>D</title>
<polygon fill="white" stroke="transparent" points="-4,4 -4,-331 2410,-331 2410,4 -4,4"/>
<!-- EBFMZZTC -->
<g id="node1" class="node">
<title>EBFMZZTC</title>
<ellipse fill="none" stroke="black" cx="1335" cy="-309" rx="18" ry="18"/>
</g>
<!-- QCCSODKL -->
<g id="node2" class="node">
<title>QCCSODKL</title>
<ellipse fill="none" stroke="black" cx="1003" cy="-237" rx="18" ry="18"/>
</g>
<!-- EBFMZZTC&#45;&gt;QCCSODKL -->
<g id="edge1" class="edge">
<title>EBFMZZTC&#45;&gt;QCCSODKL</title>
<path fill="none" stroke="black" d="M1317.15,-304.23C1262.42,-292.69 1096.66,-257.74 1030.6,-243.82"/>
<polygon fill="black" stroke="black" points="1031.04,-240.33 1020.54,-241.69 1029.6,-247.18 1031.04,-240.33"/>
</g>
<!-- RZMHVADD -->
<g id="node40" class="node">
<title>RZMHVADD</title>
<ellipse fill="none" stroke="black" cx="1722" cy="-237" rx="18" ry="18"/>
</g>
<!-- EBFMZZTC&#45;&gt;RZMHVADD -->
<g id="edge39" class="edge">
<title>EBFMZZTC&#45;&gt;RZMHVADD</title>
<path fill="none" stroke="black" d="M1352.63,-304.81C1414.08,-293.69 1619.11,-256.61 1694.16,-243.03"/>
<polygon fill="black" stroke="black" points="1695.04,-246.43 1704.26,-241.2 1693.8,-239.54 1695.04,-246.43"/>
</g>
<!-- HYZUKJON -->
<g id="node3" class="node">
<title>HYZUKJON</title>
<ellipse fill="none" stroke="black" cx="318" cy="-165" rx="18" ry="18"/>
</g>
<!-- QCCSODKL&#45;&gt;HYZUKJON -->
<g id="edge2" class="edge">
<title>QCCSODKL&#45;&gt;HYZUKJON</title>
<path fill="none" stroke="black" d="M985.03,-234.16C891.47,-224.6 460.07,-180.51 345.83,-168.84"/>
<polygon fill="black" stroke="black" points="346.09,-165.35 335.78,-167.81 345.37,-172.31 346.09,-165.35"/>
</g>
<!-- WUQHTXBB -->
<g id="node17" class="node">
<title>WUQHTXBB</title>
<ellipse fill="none" stroke="black" cx="866" cy="-165" rx="18" ry="18"/>
</g>
<!-- QCCSODKL&#45;&gt;WUQHTXBB -->
<g id="edge16" class="edge">
<title>QCCSODKL&#45;&gt;WUQHTXBB</title>
<path fill="none" stroke="black" d="M987.28,-227.97C963.77,-215.95 919.2,-193.18 891.13,-178.84"/>
<polygon fill="black" stroke="black" points="892.45,-175.58 881.95,-174.15 889.27,-181.82 892.45,-175.58"/>
</g>
<!-- VDSDCTOZ -->
<g id="node28" class="node">
<title>VDSDCTOZ</title>
<ellipse fill="none" stroke="black" cx="1112" cy="-165" rx="18" ry="18"/>
</g>
<!-- QCCSODKL&#45;&gt;VDSDCTOZ -->
<g id="edge27" class="edge">
<title>QCCSODKL&#45;&gt;VDSDCTOZ</title>
<path fill="none" stroke="black" d="M1017.7,-226.56C1035.9,-214.87 1067.13,-194.81 1088.63,-181"/>
<polygon fill="black" stroke="black" points="1090.66,-183.86 1097.18,-175.51 1086.88,-177.97 1090.66,-183.86"/>
</g>
<!-- LJKZPWDG -->
<g id="node4" class="node">
<title>LJKZPWDG</title>
<ellipse fill="none" stroke="black" cx="72" cy="-93" rx="18" ry="18"/>
</g>
<!-- HYZUKJON&#45;&gt;LJKZPWDG -->
<g id="edge3" class="edge">
<title>HYZUKJON&#45;&gt;LJKZPWDG</title>
<path fill="none" stroke="black" d="M300.7,-159.07C258.45,-147.05 149.72,-116.11 98.91,-101.66"/>
<polygon fill="black" stroke="black" points="99.86,-98.28 89.28,-98.91 97.94,-105.02 99.86,-98.28"/>
</g>
<!-- KMJFBKZP -->
<g id="node7" class="node">
<title>KMJFBKZP</title>
<ellipse fill="none" stroke="black" cx="236" cy="-93" rx="18" ry="18"/>
</g>
<!-- HYZUKJON&#45;&gt;KMJFBKZP -->
<g id="edge6" class="edge">
<title>HYZUKJON&#45;&gt;KMJFBKZP</title>
<path fill="none" stroke="black" d="M304.46,-152.44C291.56,-141.43 271.96,-124.69 257.03,-111.95"/>
<polygon fill="black" stroke="black" points="259.17,-109.17 249.29,-105.34 254.62,-114.5 259.17,-109.17"/>
</g>
<!-- LUQFTVTM -->
<g id="node12" class="node">
<title>LUQFTVTM</title>
<ellipse fill="none" stroke="black" cx="400" cy="-93" rx="18" ry="18"/>
</g>
<!-- HYZUKJON&#45;&gt;LUQFTVTM -->
<g id="edge11" class="edge">
<title>HYZUKJON&#45;&gt;LUQFTVTM</title>
<path fill="none" stroke="black" d="M331.54,-152.44C344.44,-141.43 364.04,-124.69 378.97,-111.95"/>
<polygon fill="black" stroke="black" points="381.38,-114.5 386.71,-105.34 376.83,-109.17 381.38,-114.5"/>
</g>
<!-- SXRBPOYX -->
<g id="node5" class="node">
<title>SXRBPOYX</title>
<ellipse fill="none" stroke="black" cx="18" cy="-19.5" rx="18" ry="18"/>
<text text-anchor="middle" x="18" y="-15.8" font-family="Times,serif" font-size="14.00">6</text>
</g>
<!-- LJKZPWDG&#45;&gt;SXRBPOYX -->
<g id="edge4" class="edge">
<title>LJKZPWDG&#45;&gt;SXRBPOYX</title>
<path fill="none" stroke="black" d="M61.59,-78.21C53.89,-68.02 43.26,-53.95 34.43,-42.25"/>
<polygon fill="black" stroke="black" points="37.2,-40.11 28.38,-34.24 31.61,-44.33 37.2,-40.11"/>
</g>
<!-- RSZFFGPI -->
<g id="node6" class="node">
<title>RSZFFGPI</title>
<ellipse fill="none" stroke="black" cx="72" cy="-19.5" rx="18" ry="18"/>
<text text-anchor="middle" x="72" y="-15.8" font-family="Times,serif" font-size="14.00">2</text>
</g>
<!-- LJKZPWDG&#45;&gt;RSZFFGPI -->
<g id="edge5" class="edge">
<title>LJKZPWDG&#45;&gt;RSZFFGPI</title>
<path fill="none" stroke="black" d="M72,-74.69C72,-66.61 72,-56.8 72,-47.76"/>
<polygon fill="black" stroke="black" points="75.5,-47.65 72,-37.65 68.5,-47.65 75.5,-47.65"/>
</g>
<!-- HTDNHNNZ -->
<g id="node8" class="node">
<title>HTDNHNNZ</title>
<ellipse fill="none" stroke="black" cx="127" cy="-19.5" rx="19.5" ry="19.5"/>
<text text-anchor="middle" x="127" y="-15.8" font-family="Times,serif" font-size="14.00">12</text>
</g>
<!-- KMJFBKZP&#45;&gt;HTDNHNNZ -->
<g id="edge7" class="edge">
<title>KMJFBKZP&#45;&gt;HTDNHNNZ</title>
<path fill="none" stroke="black" d="M221.35,-82.44C205.12,-71.84 178.17,-54.23 155,-39 153.9,-38.28 152.79,-37.54 151.66,-36.8"/>
<polygon fill="black" stroke="black" points="153.26,-33.66 142.98,-31.08 149.4,-39.5 153.26,-33.66"/>
</g>
<!-- UNJYJGNH -->
<g id="node9" class="node">
<title>UNJYJGNH</title>
<ellipse fill="none" stroke="black" cx="182" cy="-19.5" rx="18" ry="18"/>
<text text-anchor="middle" x="182" y="-15.8" font-family="Times,serif" font-size="14.00">3</text>
</g>
<!-- KMJFBKZP&#45;&gt;UNJYJGNH -->
<g id="edge8" class="edge">
<title>KMJFBKZP&#45;&gt;UNJYJGNH</title>
<path fill="none" stroke="black" d="M225.59,-78.21C217.89,-68.02 207.26,-53.95 198.43,-42.25"/>
<polygon fill="black" stroke="black" points="201.2,-40.11 192.38,-34.24 195.61,-44.33 201.2,-40.11"/>
</g>
<!-- RYMMFVHZ -->
<g id="node10" class="node">
<title>RYMMFVHZ</title>
<ellipse fill="none" stroke="black" cx="236" cy="-19.5" rx="18" ry="18"/>
<text text-anchor="middle" x="236" y="-15.8" font-family="Times,serif" font-size="14.00">5</text>
</g>
<!-- KMJFBKZP&#45;&gt;RYMMFVHZ -->
<g id="edge9" class="edge">
<title>KMJFBKZP&#45;&gt;RYMMFVHZ</title>
<path fill="none" stroke="black" d="M236,-74.69C236,-66.61 236,-56.8 236,-47.76"/>
<polygon fill="black" stroke="black" points="239.5,-47.65 236,-37.65 232.5,-47.65 239.5,-47.65"/>
</g>
<!-- RGSQFYHG -->
<g id="node11" class="node">
<title>RGSQFYHG</title>
<ellipse fill="none" stroke="black" cx="290" cy="-19.5" rx="18" ry="18"/>
<text text-anchor="middle" x="290" y="-15.8" font-family="Times,serif" font-size="14.00">4</text>
</g>
<!-- KMJFBKZP&#45;&gt;RGSQFYHG -->
<g id="edge10" class="edge">
<title>KMJFBKZP&#45;&gt;RGSQFYHG</title>
<path fill="none" stroke="black" d="M246.41,-78.21C254.11,-68.02 264.74,-53.95 273.57,-42.25"/>
<polygon fill="black" stroke="black" points="276.39,-44.33 279.62,-34.24 270.8,-40.11 276.39,-44.33"/>
</g>
<!-- NZELKDIH -->
<g id="node13" class="node">
<title>NZELKDIH</title>
<ellipse fill="none" stroke="black" cx="345" cy="-19.5" rx="19.5" ry="19.5"/>
<text text-anchor="middle" x="345" y="-15.8" font-family="Times,serif" font-size="14.00">11</text>
</g>
<!-- LUQFTVTM&#45;&gt;NZELKDIH -->
<g id="edge12" class="edge">
<title>LUQFTVTM&#45;&gt;NZELKDIH</title>
<path fill="none" stroke="black" d="M389.4,-78.21C381.88,-68.45 371.62,-55.11 362.86,-43.72"/>
<polygon fill="black" stroke="black" points="365.39,-41.27 356.52,-35.48 359.84,-45.54 365.39,-41.27"/>
</g>
<!-- WZQDCJUM -->
<g id="node14" class="node">
<title>WZQDCJUM</title>
<ellipse fill="none" stroke="black" cx="400" cy="-19.5" rx="18" ry="18"/>
<text text-anchor="middle" x="400" y="-15.8" font-family="Times,serif" font-size="14.00">3</text>
</g>
<!-- LUQFTVTM&#45;&gt;WZQDCJUM -->
<g id="edge13" class="edge">
<title>LUQFTVTM&#45;&gt;WZQDCJUM</title>
<path fill="none" stroke="black" d="M400,-74.69C400,-66.61 400,-56.8 400,-47.76"/>
<polygon fill="black" stroke="black" points="403.5,-47.65 400,-37.65 396.5,-47.65 403.5,-47.65"/>
</g>
<!-- YNXDTGOU -->
<g id="node15" class="node">
<title>YNXDTGOU</title>
<ellipse fill="none" stroke="black" cx="455" cy="-19.5" rx="19.5" ry="19.5"/>
<text text-anchor="middle" x="455" y="-15.8" font-family="Times,serif" font-size="14.00">12</text>
</g>
<!-- LUQFTVTM&#45;&gt;YNXDTGOU -->
<g id="edge14" class="edge">
<title>LUQFTVTM&#45;&gt;YNXDTGOU</title>
<path fill="none" stroke="black" d="M410.6,-78.21C418.12,-68.45 428.38,-55.11 437.14,-43.72"/>
<polygon fill="black" stroke="black" points="440.16,-45.54 443.48,-35.48 434.61,-41.27 440.16,-45.54"/>
</g>
<!-- BCVNPANF -->
<g id="node16" class="node">
<title>BCVNPANF</title>
<ellipse fill="none" stroke="black" cx="512" cy="-19.5" rx="19.5" ry="19.5"/>
<text text-anchor="middle" x="512" y="-15.8" font-family="Times,serif" font-size="14.00">13</text>
</g>
<!-- LUQFTVTM&#45;&gt;BCVNPANF -->
<g id="edge15" class="edge">
<title>LUQFTVTM&#45;&gt;BCVNPANF</title>
<path fill="none" stroke="black" d="M415.1,-82.35C433.58,-70.56 465.1,-50.44 487.16,-36.35"/>
<polygon fill="black" stroke="black" points="489.14,-39.24 495.68,-30.91 485.37,-33.34 489.14,-39.24"/>
</g>
<!-- YJNQTHLE -->
<g id="node18" class="node">
<title>YJNQTHLE</title>
<ellipse fill="none" stroke="black" cx="676" cy="-93" rx="18" ry="18"/>
</g>
<!-- WUQHTXBB&#45;&gt;YJNQTHLE -->
<g id="edge17" class="edge">
<title>WUQHTXBB&#45;&gt;YJNQTHLE</title>
<path fill="none" stroke="black" d="M849.14,-157.78C815.89,-145.53 741.65,-118.19 702.06,-103.6"/>
<polygon fill="black" stroke="black" points="703.15,-100.27 692.55,-100.09 700.73,-106.84 703.15,-100.27"/>
</g>
<!-- BZXBBPPS -->
<g id="node23" class="node">
<title>BZXBBPPS</title>
<ellipse fill="none" stroke="black" cx="866" cy="-93" rx="18" ry="18"/>
</g>
<!-- WUQHTXBB&#45;&gt;BZXBBPPS -->
<g id="edge22" class="edge">
<title>WUQHTXBB&#45;&gt;BZXBBPPS</title>
<path fill="none" stroke="black" d="M866,-146.69C866,-138.98 866,-129.71 866,-121.11"/>
<polygon fill="black" stroke="black" points="869.5,-121.1 866,-111.1 862.5,-121.1 869.5,-121.1"/>
</g>
<!-- KMHFPKJR -->
<g id="node19" class="node">
<title>KMHFPKJR</title>
<ellipse fill="none" stroke="black" cx="567" cy="-19.5" rx="18" ry="18"/>
<text text-anchor="middle" x="567" y="-15.8" font-family="Times,serif" font-size="14.00">3</text>
</g>
<!-- YJNQTHLE&#45;&gt;KMHFPKJR -->
<g id="edge18" class="edge">
<title>YJNQTHLE&#45;&gt;KMHFPKJR</title>
<path fill="none" stroke="black" d="M661.11,-82.54C644.62,-72.03 617.28,-54.49 594,-39 592.73,-38.15 591.43,-37.28 590.11,-36.39"/>
<polygon fill="black" stroke="black" points="591.76,-33.28 581.52,-30.55 587.83,-39.07 591.76,-33.28"/>
</g>
<!-- YVZEVUNC -->
<g id="node20" class="node">
<title>YVZEVUNC</title>
<ellipse fill="none" stroke="black" cx="621" cy="-19.5" rx="18" ry="18"/>
<text text-anchor="middle" x="621" y="-15.8" font-family="Times,serif" font-size="14.00">0</text>
</g>
<!-- YJNQTHLE&#45;&gt;YVZEVUNC -->
<g id="edge19" class="edge">
<title>YJNQTHLE&#45;&gt;YVZEVUNC</title>
<path fill="none" stroke="black" d="M665.4,-78.21C657.56,-68.02 646.73,-53.95 637.73,-42.25"/>
<polygon fill="black" stroke="black" points="640.44,-40.03 631.57,-34.24 634.9,-44.3 640.44,-40.03"/>
</g>
<!-- ISMECSHJ -->
<g id="node21" class="node">
<title>ISMECSHJ</title>
<ellipse fill="none" stroke="black" cx="676" cy="-19.5" rx="19.5" ry="19.5"/>
<text text-anchor="middle" x="676" y="-15.8" font-family="Times,serif" font-size="14.00">11</text>
</g>
<!-- YJNQTHLE&#45;&gt;ISMECSHJ -->
<g id="edge20" class="edge">
<title>YJNQTHLE&#45;&gt;ISMECSHJ</title>
<path fill="none" stroke="black" d="M676,-74.69C676,-67.05 676,-57.86 676,-49.24"/>
<polygon fill="black" stroke="black" points="679.5,-49.15 676,-39.15 672.5,-49.15 679.5,-49.15"/>
</g>
<!-- UOTVENGB -->
<g id="node22" class="node">
<title>UOTVENGB</title>
<ellipse fill="none" stroke="black" cx="731" cy="-19.5" rx="18" ry="18"/>
<text text-anchor="middle" x="731" y="-15.8" font-family="Times,serif" font-size="14.00">7</text>
</g>
<!-- YJNQTHLE&#45;&gt;UOTVENGB -->
<g id="edge21" class="edge">
<title>YJNQTHLE&#45;&gt;UOTVENGB</title>
<path fill="none" stroke="black" d="M686.6,-78.21C694.44,-68.02 705.27,-53.95 714.27,-42.25"/>
<polygon fill="black" stroke="black" points="717.1,-44.3 720.43,-34.24 711.56,-40.03 717.1,-44.3"/>
</g>
<!-- WLNRNHAD -->
<g id="node24" class="node">
<title>WLNRNHAD</title>
<ellipse fill="none" stroke="black" cx="785" cy="-19.5" rx="18" ry="18"/>
<text text-anchor="middle" x="785" y="-15.8" font-family="Times,serif" font-size="14.00">8</text>
</g>
<!-- BZXBBPPS&#45;&gt;WLNRNHAD -->
<g id="edge23" class="edge">
<title>BZXBBPPS&#45;&gt;WLNRNHAD</title>
<path fill="none" stroke="black" d="M852.99,-80.51C840.31,-69.32 820.83,-52.12 805.96,-39"/>
<polygon fill="black" stroke="black" points="808.06,-36.19 798.25,-32.19 803.43,-41.44 808.06,-36.19"/>
</g>
<!-- KVCXUNNC -->
<g id="node25" class="node">
<title>KVCXUNNC</title>
<ellipse fill="none" stroke="black" cx="839" cy="-19.5" rx="18" ry="18"/>
<text text-anchor="middle" x="839" y="-15.8" font-family="Times,serif" font-size="14.00">2</text>
</g>
<!-- BZXBBPPS&#45;&gt;KVCXUNNC -->
<g id="edge24" class="edge">
<title>BZXBBPPS&#45;&gt;KVCXUNNC</title>
<path fill="none" stroke="black" d="M859.87,-75.77C856.56,-67 852.39,-55.96 848.65,-46.05"/>
<polygon fill="black" stroke="black" points="851.91,-44.78 845.1,-36.66 845.36,-47.25 851.91,-44.78"/>
</g>
<!-- YPDGLPRD -->
<g id="node26" class="node">
<title>YPDGLPRD</title>
<ellipse fill="none" stroke="black" cx="894" cy="-19.5" rx="19.5" ry="19.5"/>
<text text-anchor="middle" x="894" y="-15.8" font-family="Times,serif" font-size="14.00">11</text>
</g>
<!-- BZXBBPPS&#45;&gt;YPDGLPRD -->
<g id="edge25" class="edge">
<title>BZXBBPPS&#45;&gt;YPDGLPRD</title>
<path fill="none" stroke="black" d="M872.35,-75.77C875.63,-67.39 879.72,-56.95 883.46,-47.41"/>
<polygon fill="black" stroke="black" points="886.79,-48.5 887.18,-37.91 880.28,-45.94 886.79,-48.5"/>
</g>
<!-- IASJEBWQ -->
<g id="node27" class="node">
<title>IASJEBWQ</title>
<ellipse fill="none" stroke="black" cx="949" cy="-19.5" rx="18" ry="18"/>
<text text-anchor="middle" x="949" y="-15.8" font-family="Times,serif" font-size="14.00">0</text>
</g>
<!-- BZXBBPPS&#45;&gt;IASJEBWQ -->
<g id="edge26" class="edge">
<title>BZXBBPPS&#45;&gt;IASJEBWQ</title>
<path fill="none" stroke="black" d="M879.34,-80.51C892.4,-69.25 912.53,-51.92 927.79,-38.77"/>
<polygon fill="black" stroke="black" points="930.41,-41.14 935.7,-31.96 925.84,-35.83 930.41,-41.14"/>
</g>
<!-- KGXEVDUA -->
<g id="node29" class="node">
<title>KGXEVDUA</title>
<ellipse fill="none" stroke="black" cx="1057" cy="-93" rx="18" ry="18"/>
</g>
<!-- VDSDCTOZ&#45;&gt;KGXEVDUA -->
<g id="edge28" class="edge">
<title>VDSDCTOZ&#45;&gt;KGXEVDUA</title>
<path fill="none" stroke="black" d="M1101.13,-150.17C1093.45,-140.39 1082.99,-127.08 1074.18,-115.87"/>
<polygon fill="black" stroke="black" points="1076.77,-113.5 1067.84,-107.8 1071.27,-117.82 1076.77,-113.5"/>
</g>
<!-- SUSNACZI -->
<g id="node32" class="node">
<title>SUSNACZI</title>
<ellipse fill="none" stroke="black" cx="1167" cy="-93" rx="18" ry="18"/>
</g>
<!-- VDSDCTOZ&#45;&gt;SUSNACZI -->
<g id="edge31" class="edge">
<title>VDSDCTOZ&#45;&gt;SUSNACZI</title>
<path fill="none" stroke="black" d="M1122.87,-150.17C1130.55,-140.39 1141.01,-127.08 1149.82,-115.87"/>
<polygon fill="black" stroke="black" points="1152.73,-117.82 1156.16,-107.8 1147.23,-113.5 1152.73,-117.82"/>
</g>
<!-- UTVOGXGS -->
<g id="node37" class="node">
<title>UTVOGXGS</title>
<ellipse fill="none" stroke="black" cx="1334" cy="-93" rx="18" ry="18"/>
</g>
<!-- VDSDCTOZ&#45;&gt;UTVOGXGS -->
<g id="edge36" class="edge">
<title>VDSDCTOZ&#45;&gt;UTVOGXGS</title>
<path fill="none" stroke="black" d="M1129.05,-158.62C1167.47,-146.51 1261.04,-117 1307.26,-102.43"/>
<polygon fill="black" stroke="black" points="1308.41,-105.74 1316.89,-99.39 1306.3,-99.06 1308.41,-105.74"/>
</g>
<!-- QUOAOSKE -->
<g id="node30" class="node">
<title>QUOAOSKE</title>
<ellipse fill="none" stroke="black" cx="1003" cy="-19.5" rx="18" ry="18"/>
<text text-anchor="middle" x="1003" y="-15.8" font-family="Times,serif" font-size="14.00">5</text>
</g>
<!-- KGXEVDUA&#45;&gt;QUOAOSKE -->
<g id="edge29" class="edge">
<title>KGXEVDUA&#45;&gt;QUOAOSKE</title>
<path fill="none" stroke="black" d="M1046.59,-78.21C1038.89,-68.02 1028.26,-53.95 1019.43,-42.25"/>
<polygon fill="black" stroke="black" points="1022.2,-40.11 1013.38,-34.24 1016.61,-44.33 1022.2,-40.11"/>
</g>
<!-- UNCVLWID -->
<g id="node31" class="node">
<title>UNCVLWID</title>
<ellipse fill="none" stroke="black" cx="1057" cy="-19.5" rx="18" ry="18"/>
<text text-anchor="middle" x="1057" y="-15.8" font-family="Times,serif" font-size="14.00">3</text>
</g>
<!-- KGXEVDUA&#45;&gt;UNCVLWID -->
<g id="edge30" class="edge">
<title>KGXEVDUA&#45;&gt;UNCVLWID</title>
<path fill="none" stroke="black" d="M1057,-74.69C1057,-66.61 1057,-56.8 1057,-47.76"/>
<polygon fill="black" stroke="black" points="1060.5,-47.65 1057,-37.65 1053.5,-47.65 1060.5,-47.65"/>
</g>
<!-- YQIMZPVR -->
<g id="node33" class="node">
<title>YQIMZPVR</title>
<ellipse fill="none" stroke="black" cx="1112" cy="-19.5" rx="19.5" ry="19.5"/>
<text text-anchor="middle" x="1112" y="-15.8" font-family="Times,serif" font-size="14.00">12</text>
</g>
<!-- SUSNACZI&#45;&gt;YQIMZPVR -->
<g id="edge32" class="edge">
<title>SUSNACZI&#45;&gt;YQIMZPVR</title>
<path fill="none" stroke="black" d="M1156.4,-78.21C1148.88,-68.45 1138.62,-55.11 1129.86,-43.72"/>
<polygon fill="black" stroke="black" points="1132.39,-41.27 1123.52,-35.48 1126.84,-45.54 1132.39,-41.27"/>
</g>
<!-- MDKUQBJL -->
<g id="node34" class="node">
<title>MDKUQBJL</title>
<ellipse fill="none" stroke="black" cx="1167" cy="-19.5" rx="18" ry="18"/>
<text text-anchor="middle" x="1167" y="-15.8" font-family="Times,serif" font-size="14.00">1</text>
</g>
<!-- SUSNACZI&#45;&gt;MDKUQBJL -->
<g id="edge33" class="edge">
<title>SUSNACZI&#45;&gt;MDKUQBJL</title>
<path fill="none" stroke="black" d="M1167,-74.69C1167,-66.61 1167,-56.8 1167,-47.76"/>
<polygon fill="black" stroke="black" points="1170.5,-47.65 1167,-37.65 1163.5,-47.65 1170.5,-47.65"/>
</g>
<!-- NGPWOJXW -->
<g id="node35" class="node">
<title>NGPWOJXW</title>
<ellipse fill="none" stroke="black" cx="1222" cy="-19.5" rx="19.5" ry="19.5"/>
<text text-anchor="middle" x="1222" y="-15.8" font-family="Times,serif" font-size="14.00">14</text>
</g>
<!-- SUSNACZI&#45;&gt;NGPWOJXW -->
<g id="edge34" class="edge">
<title>SUSNACZI&#45;&gt;NGPWOJXW</title>
<path fill="none" stroke="black" d="M1177.6,-78.21C1185.12,-68.45 1195.38,-55.11 1204.14,-43.72"/>
<polygon fill="black" stroke="black" points="1207.16,-45.54 1210.48,-35.48 1201.61,-41.27 1207.16,-45.54"/>
</g>
<!-- WPPUJJVU -->
<g id="node36" class="node">
<title>WPPUJJVU</title>
<ellipse fill="none" stroke="black" cx="1279" cy="-19.5" rx="19.5" ry="19.5"/>
<text text-anchor="middle" x="1279" y="-15.8" font-family="Times,serif" font-size="14.00">15</text>
</g>
<!-- SUSNACZI&#45;&gt;WPPUJJVU -->
<g id="edge35" class="edge">
<title>SUSNACZI&#45;&gt;WPPUJJVU</title>
<path fill="none" stroke="black" d="M1182.1,-82.35C1200.58,-70.56 1232.1,-50.44 1254.16,-36.35"/>
<polygon fill="black" stroke="black" points="1256.14,-39.24 1262.68,-30.91 1252.37,-33.34 1256.14,-39.24"/>
</g>
<!-- JGQOKKVE -->
<g id="node38" class="node">
<title>JGQOKKVE</title>
<ellipse fill="none" stroke="black" cx="1334" cy="-19.5" rx="18" ry="18"/>
<text text-anchor="middle" x="1334" y="-15.8" font-family="Times,serif" font-size="14.00">8</text>
</g>
<!-- UTVOGXGS&#45;&gt;JGQOKKVE -->
<g id="edge37" class="edge">
<title>UTVOGXGS&#45;&gt;JGQOKKVE</title>
<path fill="none" stroke="black" d="M1334,-74.69C1334,-66.61 1334,-56.8 1334,-47.76"/>
<polygon fill="black" stroke="black" points="1337.5,-47.65 1334,-37.65 1330.5,-47.65 1337.5,-47.65"/>
</g>
<!-- DKVIXBEA -->
<g id="node39" class="node">
<title>DKVIXBEA</title>
<ellipse fill="none" stroke="black" cx="1389" cy="-19.5" rx="19.5" ry="19.5"/>
<text text-anchor="middle" x="1389" y="-15.8" font-family="Times,serif" font-size="14.00">11</text>
</g>
<!-- UTVOGXGS&#45;&gt;DKVIXBEA -->
<g id="edge38" class="edge">
<title>UTVOGXGS&#45;&gt;DKVIXBEA</title>
<path fill="none" stroke="black" d="M1344.6,-78.21C1352.12,-68.45 1362.38,-55.11 1371.14,-43.72"/>
<polygon fill="black" stroke="black" points="1374.16,-45.54 1377.48,-35.48 1368.61,-41.27 1374.16,-45.54"/>
</g>
<!-- BWVSWJPX -->
<g id="node41" class="node">
<title>BWVSWJPX</title>
<ellipse fill="none" stroke="black" cx="1722" cy="-165" rx="18" ry="18"/>
</g>
<!-- RZMHVADD&#45;&gt;BWVSWJPX -->
<g id="edge40" class="edge">
<title>RZMHVADD&#45;&gt;BWVSWJPX</title>
<path fill="none" stroke="black" d="M1722,-218.69C1722,-210.98 1722,-201.71 1722,-193.11"/>
<polygon fill="black" stroke="black" points="1725.5,-193.1 1722,-183.1 1718.5,-193.1 1725.5,-193.1"/>
</g>
<!-- VDTZESYY -->
<g id="node56" class="node">
<title>VDTZESYY</title>
<ellipse fill="none" stroke="black" cx="2109" cy="-165" rx="18" ry="18"/>
</g>
<!-- RZMHVADD&#45;&gt;VDTZESYY -->
<g id="edge55" class="edge">
<title>RZMHVADD&#45;&gt;VDTZESYY</title>
<path fill="none" stroke="black" d="M1739.63,-232.81C1801.08,-221.69 2006.11,-184.61 2081.16,-171.03"/>
<polygon fill="black" stroke="black" points="2082.04,-174.43 2091.26,-169.2 2080.8,-167.54 2082.04,-174.43"/>
</g>
<!-- GHGTLQSW -->
<g id="node42" class="node">
<title>GHGTLQSW</title>
<ellipse fill="none" stroke="black" cx="1556" cy="-93" rx="18" ry="18"/>
</g>
<!-- BWVSWJPX&#45;&gt;GHGTLQSW -->
<g id="edge41" class="edge">
<title>BWVSWJPX&#45;&gt;GHGTLQSW</title>
<path fill="none" stroke="black" d="M1705.78,-157.16C1676.97,-145.01 1616.65,-119.57 1581.99,-104.96"/>
<polygon fill="black" stroke="black" points="1583.1,-101.63 1572.53,-100.97 1580.39,-108.08 1583.1,-101.63"/>
</g>
<!-- DLKHJECO -->
<g id="node47" class="node">
<title>DLKHJECO</title>
<ellipse fill="none" stroke="black" cx="1722" cy="-93" rx="18" ry="18"/>
</g>
<!-- BWVSWJPX&#45;&gt;DLKHJECO -->
<g id="edge46" class="edge">
<title>BWVSWJPX&#45;&gt;DLKHJECO</title>
<path fill="none" stroke="black" d="M1722,-146.69C1722,-138.98 1722,-129.71 1722,-121.11"/>
<polygon fill="black" stroke="black" points="1725.5,-121.1 1722,-111.1 1718.5,-121.1 1725.5,-121.1"/>
</g>
<!-- YZPHJUIL -->
<g id="node51" class="node">
<title>YZPHJUIL</title>
<ellipse fill="none" stroke="black" cx="1885" cy="-93" rx="18" ry="18"/>
</g>
<!-- BWVSWJPX&#45;&gt;YZPHJUIL -->
<g id="edge50" class="edge">
<title>BWVSWJPX&#45;&gt;YZPHJUIL</title>
<path fill="none" stroke="black" d="M1738.22,-157.03C1766.66,-144.82 1825.7,-119.46 1859.59,-104.91"/>
<polygon fill="black" stroke="black" points="1861.03,-108.1 1868.84,-100.94 1858.27,-101.67 1861.03,-108.1"/>
</g>
<!-- OVDLBASP -->
<g id="node43" class="node">
<title>OVDLBASP</title>
<ellipse fill="none" stroke="black" cx="1444" cy="-19.5" rx="18" ry="18"/>
<text text-anchor="middle" x="1444" y="-15.8" font-family="Times,serif" font-size="14.00">1</text>
</g>
<!-- GHGTLQSW&#45;&gt;OVDLBASP -->
<g id="edge42" class="edge">
<title>GHGTLQSW&#45;&gt;OVDLBASP</title>
<path fill="none" stroke="black" d="M1540.83,-82.81C1523.73,-72.39 1495.16,-54.8 1471,-39 1469.72,-38.16 1468.41,-37.3 1467.1,-36.42"/>
<polygon fill="black" stroke="black" points="1468.74,-33.3 1458.5,-30.6 1464.82,-39.1 1468.74,-33.3"/>
</g>
<!-- HPXQYHSN -->
<g id="node44" class="node">
<title>HPXQYHSN</title>
<ellipse fill="none" stroke="black" cx="1499" cy="-19.5" rx="19.5" ry="19.5"/>
<text text-anchor="middle" x="1499" y="-15.8" font-family="Times,serif" font-size="14.00">13</text>
</g>
<!-- GHGTLQSW&#45;&gt;HPXQYHSN -->
<g id="edge43" class="edge">
<title>GHGTLQSW&#45;&gt;HPXQYHSN</title>
<path fill="none" stroke="black" d="M1545.01,-78.21C1537.1,-68.28 1526.24,-54.67 1517.06,-43.16"/>
<polygon fill="black" stroke="black" points="1519.71,-40.86 1510.74,-35.23 1514.24,-45.23 1519.71,-40.86"/>
</g>
<!-- PMOKYEHF -->
<g id="node45" class="node">
<title>PMOKYEHF</title>
<ellipse fill="none" stroke="black" cx="1556" cy="-19.5" rx="19.5" ry="19.5"/>
<text text-anchor="middle" x="1556" y="-15.8" font-family="Times,serif" font-size="14.00">11</text>
</g>
<!-- GHGTLQSW&#45;&gt;PMOKYEHF -->
<g id="edge44" class="edge">
<title>GHGTLQSW&#45;&gt;PMOKYEHF</title>
<path fill="none" stroke="black" d="M1556,-74.69C1556,-67.05 1556,-57.86 1556,-49.24"/>
<polygon fill="black" stroke="black" points="1559.5,-49.15 1556,-39.15 1552.5,-49.15 1559.5,-49.15"/>
</g>
<!-- ASGBOSSR -->
<g id="node46" class="node">
<title>ASGBOSSR</title>
<ellipse fill="none" stroke="black" cx="1613" cy="-19.5" rx="19.5" ry="19.5"/>
<text text-anchor="middle" x="1613" y="-15.8" font-family="Times,serif" font-size="14.00">15</text>
</g>
<!-- GHGTLQSW&#45;&gt;ASGBOSSR -->
<g id="edge45" class="edge">
<title>GHGTLQSW&#45;&gt;ASGBOSSR</title>
<path fill="none" stroke="black" d="M1566.99,-78.21C1574.9,-68.28 1585.76,-54.67 1594.94,-43.16"/>
<polygon fill="black" stroke="black" points="1597.76,-45.23 1601.26,-35.23 1592.29,-40.86 1597.76,-45.23"/>
</g>
<!-- UTAKZLRH -->
<g id="node48" class="node">
<title>UTAKZLRH</title>
<ellipse fill="none" stroke="black" cx="1668" cy="-19.5" rx="18" ry="18"/>
<text text-anchor="middle" x="1668" y="-15.8" font-family="Times,serif" font-size="14.00">3</text>
</g>
<!-- DLKHJECO&#45;&gt;UTAKZLRH -->
<g id="edge47" class="edge">
<title>DLKHJECO&#45;&gt;UTAKZLRH</title>
<path fill="none" stroke="black" d="M1711.59,-78.21C1703.89,-68.02 1693.26,-53.95 1684.43,-42.25"/>
<polygon fill="black" stroke="black" points="1687.2,-40.11 1678.38,-34.24 1681.61,-44.33 1687.2,-40.11"/>
</g>
<!-- BPYXOHVC -->
<g id="node49" class="node">
<title>BPYXOHVC</title>
<ellipse fill="none" stroke="black" cx="1722" cy="-19.5" rx="18" ry="18"/>
<text text-anchor="middle" x="1722" y="-15.8" font-family="Times,serif" font-size="14.00">4</text>
</g>
<!-- DLKHJECO&#45;&gt;BPYXOHVC -->
<g id="edge48" class="edge">
<title>DLKHJECO&#45;&gt;BPYXOHVC</title>
<path fill="none" stroke="black" d="M1722,-74.69C1722,-66.61 1722,-56.8 1722,-47.76"/>
<polygon fill="black" stroke="black" points="1725.5,-47.65 1722,-37.65 1718.5,-47.65 1725.5,-47.65"/>
</g>
<!-- ZAQISJEN -->
<g id="node50" class="node">
<title>ZAQISJEN</title>
<ellipse fill="none" stroke="black" cx="1776" cy="-19.5" rx="18" ry="18"/>
<text text-anchor="middle" x="1776" y="-15.8" font-family="Times,serif" font-size="14.00">6</text>
</g>
<!-- DLKHJECO&#45;&gt;ZAQISJEN -->
<g id="edge49" class="edge">
<title>DLKHJECO&#45;&gt;ZAQISJEN</title>
<path fill="none" stroke="black" d="M1732.41,-78.21C1740.11,-68.02 1750.74,-53.95 1759.57,-42.25"/>
<polygon fill="black" stroke="black" points="1762.39,-44.33 1765.62,-34.24 1756.8,-40.11 1762.39,-44.33"/>
</g>
<!-- SIYMYWYS -->
<g id="node52" class="node">
<title>SIYMYWYS</title>
<ellipse fill="none" stroke="black" cx="1830" cy="-19.5" rx="18" ry="18"/>
<text text-anchor="middle" x="1830" y="-15.8" font-family="Times,serif" font-size="14.00">3</text>
</g>
<!-- YZPHJUIL&#45;&gt;SIYMYWYS -->
<g id="edge51" class="edge">
<title>YZPHJUIL&#45;&gt;SIYMYWYS</title>
<path fill="none" stroke="black" d="M1874.4,-78.21C1866.56,-68.02 1855.73,-53.95 1846.73,-42.25"/>
<polygon fill="black" stroke="black" points="1849.44,-40.03 1840.57,-34.24 1843.9,-44.3 1849.44,-40.03"/>
</g>
<!-- SGDFURHK -->
<g id="node53" class="node">
<title>SGDFURHK</title>
<ellipse fill="none" stroke="black" cx="1885" cy="-19.5" rx="19.5" ry="19.5"/>
<text text-anchor="middle" x="1885" y="-15.8" font-family="Times,serif" font-size="14.00">11</text>
</g>
<!-- YZPHJUIL&#45;&gt;SGDFURHK -->
<g id="edge52" class="edge">
<title>YZPHJUIL&#45;&gt;SGDFURHK</title>
<path fill="none" stroke="black" d="M1885,-74.69C1885,-67.05 1885,-57.86 1885,-49.24"/>
<polygon fill="black" stroke="black" points="1888.5,-49.15 1885,-39.15 1881.5,-49.15 1888.5,-49.15"/>
</g>
<!-- TKHRCBAY -->
<g id="node54" class="node">
<title>TKHRCBAY</title>
<ellipse fill="none" stroke="black" cx="1942" cy="-19.5" rx="19.5" ry="19.5"/>
<text text-anchor="middle" x="1942" y="-15.8" font-family="Times,serif" font-size="14.00">12</text>
</g>
<!-- YZPHJUIL&#45;&gt;TKHRCBAY -->
<g id="edge53" class="edge">
<title>YZPHJUIL&#45;&gt;TKHRCBAY</title>
<path fill="none" stroke="black" d="M1895.99,-78.21C1903.9,-68.28 1914.76,-54.67 1923.94,-43.16"/>
<polygon fill="black" stroke="black" points="1926.76,-45.23 1930.26,-35.23 1921.29,-40.86 1926.76,-45.23"/>
</g>
<!-- CZJFSTTA -->
<g id="node55" class="node">
<title>CZJFSTTA</title>
<ellipse fill="none" stroke="black" cx="1997" cy="-19.5" rx="18" ry="18"/>
<text text-anchor="middle" x="1997" y="-15.8" font-family="Times,serif" font-size="14.00">2</text>
</g>
<!-- YZPHJUIL&#45;&gt;CZJFSTTA -->
<g id="edge54" class="edge">
<title>YZPHJUIL&#45;&gt;CZJFSTTA</title>
<path fill="none" stroke="black" d="M1900.17,-82.81C1917.27,-72.39 1945.84,-54.8 1970,-39 1971.28,-38.16 1972.59,-37.3 1973.9,-36.42"/>
<polygon fill="black" stroke="black" points="1976.18,-39.1 1982.5,-30.6 1972.26,-33.3 1976.18,-39.1"/>
</g>
<!-- EZOIJEDC -->
<g id="node57" class="node">
<title>EZOIJEDC</title>
<ellipse fill="none" stroke="black" cx="2109" cy="-93" rx="18" ry="18"/>
</g>
<!-- VDTZESYY&#45;&gt;EZOIJEDC -->
<g id="edge56" class="edge">
<title>VDTZESYY&#45;&gt;EZOIJEDC</title>
<path fill="none" stroke="black" d="M2109,-146.69C2109,-138.98 2109,-129.71 2109,-121.11"/>
<polygon fill="black" stroke="black" points="2112.5,-121.1 2109,-111.1 2105.5,-121.1 2112.5,-121.1"/>
</g>
<!-- TQIAFLFT -->
<g id="node61" class="node">
<title>TQIAFLFT</title>
<ellipse fill="none" stroke="black" cx="2276" cy="-93" rx="18" ry="18"/>
</g>
<!-- VDTZESYY&#45;&gt;TQIAFLFT -->
<g id="edge60" class="edge">
<title>VDTZESYY&#45;&gt;TQIAFLFT</title>
<path fill="none" stroke="black" d="M2125.32,-157.16C2154.3,-145.01 2214.99,-119.57 2249.85,-104.96"/>
<polygon fill="black" stroke="black" points="2251.5,-108.06 2259.37,-100.97 2248.79,-101.61 2251.5,-108.06"/>
</g>
<!-- HCSCQBRK -->
<g id="node58" class="node">
<title>HCSCQBRK</title>
<ellipse fill="none" stroke="black" cx="2052" cy="-19.5" rx="19.5" ry="19.5"/>
<text text-anchor="middle" x="2052" y="-15.8" font-family="Times,serif" font-size="14.00">11</text>
</g>
<!-- EZOIJEDC&#45;&gt;HCSCQBRK -->
<g id="edge57" class="edge">
<title>EZOIJEDC&#45;&gt;HCSCQBRK</title>
<path fill="none" stroke="black" d="M2098.01,-78.21C2090.1,-68.28 2079.24,-54.67 2070.06,-43.16"/>
<polygon fill="black" stroke="black" points="2072.71,-40.86 2063.74,-35.23 2067.24,-45.23 2072.71,-40.86"/>
</g>
<!-- RXIEXFKW -->
<g id="node59" class="node">
<title>RXIEXFKW</title>
<ellipse fill="none" stroke="black" cx="2109" cy="-19.5" rx="19.5" ry="19.5"/>
<text text-anchor="middle" x="2109" y="-15.8" font-family="Times,serif" font-size="14.00">14</text>
</g>
<!-- EZOIJEDC&#45;&gt;RXIEXFKW -->
<g id="edge58" class="edge">
<title>EZOIJEDC&#45;&gt;RXIEXFKW</title>
<path fill="none" stroke="black" d="M2109,-74.69C2109,-67.05 2109,-57.86 2109,-49.24"/>
<polygon fill="black" stroke="black" points="2112.5,-49.15 2109,-39.15 2105.5,-49.15 2112.5,-49.15"/>
</g>
<!-- CJENLQIK -->
<g id="node60" class="node">
<title>CJENLQIK</title>
<ellipse fill="none" stroke="black" cx="2166" cy="-19.5" rx="19.5" ry="19.5"/>
<text text-anchor="middle" x="2166" y="-15.8" font-family="Times,serif" font-size="14.00">12</text>
</g>
<!-- EZOIJEDC&#45;&gt;CJENLQIK -->
<g id="edge59" class="edge">
<title>EZOIJEDC&#45;&gt;CJENLQIK</title>
<path fill="none" stroke="black" d="M2119.99,-78.21C2127.9,-68.28 2138.76,-54.67 2147.94,-43.16"/>
<polygon fill="black" stroke="black" points="2150.76,-45.23 2154.26,-35.23 2145.29,-40.86 2150.76,-45.23"/>
</g>
<!-- MITYTSVW -->
<g id="node62" class="node">
<title>MITYTSVW</title>
<ellipse fill="none" stroke="black" cx="2221" cy="-19.5" rx="18" ry="18"/>
<text text-anchor="middle" x="2221" y="-15.8" font-family="Times,serif" font-size="14.00">8</text>
</g>
<!-- TQIAFLFT&#45;&gt;MITYTSVW -->
<g id="edge61" class="edge">
<title>TQIAFLFT&#45;&gt;MITYTSVW</title>
<path fill="none" stroke="black" d="M2265.4,-78.21C2257.56,-68.02 2246.73,-53.95 2237.73,-42.25"/>
<polygon fill="black" stroke="black" points="2240.44,-40.03 2231.57,-34.24 2234.9,-44.3 2240.44,-40.03"/>
</g>
<!-- BPCJGIPL -->
<g id="node63" class="node">
<title>BPCJGIPL</title>
<ellipse fill="none" stroke="black" cx="2276" cy="-19.5" rx="19.5" ry="19.5"/>
<text text-anchor="middle" x="2276" y="-15.8" font-family="Times,serif" font-size="14.00">15</text>
</g>
<!-- TQIAFLFT&#45;&gt;BPCJGIPL -->
<g id="edge62" class="edge">
<title>TQIAFLFT&#45;&gt;BPCJGIPL</title>
<path fill="none" stroke="black" d="M2276,-74.69C2276,-67.05 2276,-57.86 2276,-49.24"/>
<polygon fill="black" stroke="black" points="2279.5,-49.15 2276,-39.15 2272.5,-49.15 2279.5,-49.15"/>
</g>
<!-- GLMSQHOG -->
<g id="node64" class="node">
<title>GLMSQHOG</title>
<ellipse fill="none" stroke="black" cx="2333" cy="-19.5" rx="19.5" ry="19.5"/>
<text text-anchor="middle" x="2333" y="-15.8" font-family="Times,serif" font-size="14.00">11</text>
</g>
<!-- TQIAFLFT&#45;&gt;GLMSQHOG -->
<g id="edge63" class="edge">
<title>TQIAFLFT&#45;&gt;GLMSQHOG</title>
<path fill="none" stroke="black" d="M2286.99,-78.21C2294.9,-68.28 2305.76,-54.67 2314.94,-43.16"/>
<polygon fill="black" stroke="black" points="2317.76,-45.23 2321.26,-35.23 2312.29,-40.86 2317.76,-45.23"/>
</g>
<!-- AIYVETTE -->
<g id="node65" class="node">
<title>AIYVETTE</title>
<ellipse fill="none" stroke="black" cx="2388" cy="-19.5" rx="18" ry="18"/>
<text text-anchor="middle" x="2388" y="-15.8" font-family="Times,serif" font-size="14.00">4</text>
</g>
<!-- TQIAFLFT&#45;&gt;AIYVETTE -->
<g id="edge64" class="edge">
<title>TQIAFLFT&#45;&gt;AIYVETTE</title>
<path fill="none" stroke="black" d="M2291.17,-82.81C2308.27,-72.39 2336.84,-54.8 2361,-39 2362.28,-38.16 2363.59,-37.3 2364.9,-36.42"/>
<polygon fill="black" stroke="black" points="2367.18,-39.1 2373.5,-30.6 2363.26,-33.3 2367.18,-39.1"/>
</g>
</g>
</svg>
