<?xml version="1.0" encoding="UTF-8" standalone="no"?>
<!DOCTYPE svg PUBLIC "-//W3C//DTD SVG 1.1//EN"
 "http://www.w3.org/Graphics/SVG/1.1/DTD/svg11.dtd">
<!-- Generated by graphviz version 2.46.1 (20210213.1702)
 -->
<!-- Title: D Pages: 1 -->
<svg width="2868pt" height="335pt"
 viewBox="0.00 0.00 2868.50 335.00" xmlns="http://www.w3.org/2000/svg" xmlns:xlink="http://www.w3.org/1999/xlink">
<g id="graph0" class="graph" transform="scale(1 1) rotate(0) translate(4 331)">
<title>D</title>
<polygon fill="white" stroke="transparent" points="-4,4 -4,-331 2864.5,-331 2864.5,4 -4,4"/>
<!-- QEDRQPWL -->
<g id="node1" class="node">
<title>QEDRQPWL</title>
<ellipse fill="none" stroke="black" cx="1063" cy="-309" rx="18" ry="18"/>
</g>
<!-- FSYZJRDE -->
<g id="node2" class="node">
<title>FSYZJRDE</title>
<ellipse fill="none" stroke="black" cx="424" cy="-237" rx="18" ry="18"/>
</g>
<!-- QEDRQPWL&#45;&gt;FSYZJRDE -->
<g id="edge1" class="edge">
<title>QEDRQPWL&#45;&gt;FSYZJRDE</title>
<path fill="none" stroke="black" d="M1045.24,-306.05C956.57,-296.34 561.69,-253.08 452.22,-241.09"/>
<polygon fill="black" stroke="black" points="452.3,-237.58 441.97,-239.97 451.53,-244.53 452.3,-237.58"/>
</g>
<!-- NRILWFFU -->
<g id="node24" class="node">
<title>NRILWFFU</title>
<ellipse fill="none" stroke="black" cx="1730" cy="-237" rx="18" ry="18"/>
</g>
<!-- QEDRQPWL&#45;&gt;NRILWFFU -->
<g id="edge23" class="edge">
<title>QEDRQPWL&#45;&gt;NRILWFFU</title>
<path fill="none" stroke="black" d="M1080.84,-306.12C1172.37,-296.52 1589.27,-252.77 1701.89,-240.95"/>
<polygon fill="black" stroke="black" points="1702.52,-244.4 1712.1,-239.87 1701.79,-237.44 1702.52,-244.4"/>
</g>
<!-- KIKSIACM -->
<g id="node3" class="node">
<title>KIKSIACM</title>
<ellipse fill="none" stroke="black" cx="153" cy="-165" rx="18" ry="18"/>
</g>
<!-- FSYZJRDE&#45;&gt;KIKSIACM -->
<g id="edge2" class="edge">
<title>FSYZJRDE&#45;&gt;KIKSIACM</title>
<path fill="none" stroke="black" d="M406.64,-231.51C360.65,-219.63 235.46,-187.3 180.03,-172.98"/>
<polygon fill="black" stroke="black" points="180.78,-169.56 170.22,-170.44 179.03,-176.33 180.78,-169.56"/>
</g>
<!-- HFPCPXHT -->
<g id="node10" class="node">
<title>HFPCPXHT</title>
<ellipse fill="none" stroke="black" cx="424" cy="-165" rx="18" ry="18"/>
</g>
<!-- FSYZJRDE&#45;&gt;HFPCPXHT -->
<g id="edge9" class="edge">
<title>FSYZJRDE&#45;&gt;HFPCPXHT</title>
<path fill="none" stroke="black" d="M424,-218.69C424,-210.98 424,-201.71 424,-193.11"/>
<polygon fill="black" stroke="black" points="427.5,-193.1 424,-183.1 420.5,-193.1 427.5,-193.1"/>
</g>
<!-- MADHURVN -->
<g id="node4" class="node">
<title>MADHURVN</title>
<ellipse fill="none" stroke="black" cx="72" cy="-93" rx="18" ry="18"/>
</g>
<!-- KIKSIACM&#45;&gt;MADHURVN -->
<g id="edge3" class="edge">
<title>KIKSIACM&#45;&gt;MADHURVN</title>
<path fill="none" stroke="black" d="M139.62,-152.44C126.89,-141.43 107.52,-124.69 92.77,-111.95"/>
<polygon fill="black" stroke="black" points="94.98,-109.23 85.13,-105.34 90.4,-114.53 94.98,-109.23"/>
</g>
<!-- RVUTOUCN -->
<g id="node7" class="node">
<title>RVUTOUCN</title>
<ellipse fill="none" stroke="black" cx="153" cy="-93" rx="18" ry="18"/>
</g>
<!-- KIKSIACM&#45;&gt;RVUTOUCN -->
<g id="edge6" class="edge">
<title>KIKSIACM&#45;&gt;RVUTOUCN</title>
<path fill="none" stroke="black" d="M153,-146.69C153,-138.98 153,-129.71 153,-121.11"/>
<polygon fill="black" stroke="black" points="156.5,-121.1 153,-111.1 149.5,-121.1 156.5,-121.1"/>
</g>
<!-- RAJIWMAM -->
<g id="node5" class="node">
<title>RAJIWMAM</title>
<ellipse fill="none" stroke="black" cx="18" cy="-19.5" rx="18" ry="18"/>
<text text-anchor="middle" x="18" y="-15.8" font-family="Times,serif" font-size="14.00">8</text>
</g>
<!-- MADHURVN&#45;&gt;RAJIWMAM -->
<g id="edge4" class="edge">
<title>MADHURVN&#45;&gt;RAJIWMAM</title>
<path fill="none" stroke="black" d="M61.59,-78.21C53.89,-68.02 43.26,-53.95 34.43,-42.25"/>
<polygon fill="black" stroke="black" points="37.2,-40.11 28.38,-34.24 31.61,-44.33 37.2,-40.11"/>
</g>
<!-- ZPIZCPRO -->
<g id="node6" class="node">
<title>ZPIZCPRO</title>
<ellipse fill="none" stroke="black" cx="72" cy="-19.5" rx="18" ry="18"/>
<text text-anchor="middle" x="72" y="-15.8" font-family="Times,serif" font-size="14.00">4</text>
</g>
<!-- MADHURVN&#45;&gt;ZPIZCPRO -->
<g id="edge5" class="edge">
<title>MADHURVN&#45;&gt;ZPIZCPRO</title>
<path fill="none" stroke="black" d="M72,-74.69C72,-66.61 72,-56.8 72,-47.76"/>
<polygon fill="black" stroke="black" points="75.5,-47.65 72,-37.65 68.5,-47.65 75.5,-47.65"/>
</g>
<!-- WDAJMUHV -->
<g id="node8" class="node">
<title>WDAJMUHV</title>
<ellipse fill="none" stroke="black" cx="126" cy="-19.5" rx="18" ry="18"/>
<text text-anchor="middle" x="126" y="-15.8" font-family="Times,serif" font-size="14.00">5</text>
</g>
<!-- RVUTOUCN&#45;&gt;WDAJMUHV -->
<g id="edge7" class="edge">
<title>RVUTOUCN&#45;&gt;WDAJMUHV</title>
<path fill="none" stroke="black" d="M146.87,-75.77C143.56,-67 139.39,-55.96 135.65,-46.05"/>
<polygon fill="black" stroke="black" points="138.91,-44.78 132.1,-36.66 132.36,-47.25 138.91,-44.78"/>
</g>
<!-- SKCUSYAP -->
<g id="node9" class="node">
<title>SKCUSYAP</title>
<ellipse fill="none" stroke="black" cx="180" cy="-19.5" rx="18" ry="18"/>
<text text-anchor="middle" x="180" y="-15.8" font-family="Times,serif" font-size="14.00">9</text>
</g>
<!-- RVUTOUCN&#45;&gt;SKCUSYAP -->
<g id="edge8" class="edge">
<title>RVUTOUCN&#45;&gt;SKCUSYAP</title>
<path fill="none" stroke="black" d="M159.13,-75.77C162.44,-67 166.61,-55.96 170.35,-46.05"/>
<polygon fill="black" stroke="black" points="173.64,-47.25 173.9,-36.66 167.09,-44.78 173.64,-47.25"/>
</g>
<!-- PXCEBSAH -->
<g id="node11" class="node">
<title>PXCEBSAH</title>
<ellipse fill="none" stroke="black" cx="288" cy="-93" rx="18" ry="18"/>
</g>
<!-- HFPCPXHT&#45;&gt;PXCEBSAH -->
<g id="edge10" class="edge">
<title>HFPCPXHT&#45;&gt;PXCEBSAH</title>
<path fill="none" stroke="black" d="M408.4,-155.97C385.06,-143.95 340.81,-121.18 312.95,-106.84"/>
<polygon fill="black" stroke="black" points="314.33,-103.61 303.84,-102.15 311.13,-109.84 314.33,-103.61"/>
</g>
<!-- ETPXLRWZ -->
<g id="node14" class="node">
<title>ETPXLRWZ</title>
<ellipse fill="none" stroke="black" cx="424" cy="-93" rx="18" ry="18"/>
</g>
<!-- HFPCPXHT&#45;&gt;ETPXLRWZ -->
<g id="edge13" class="edge">
<title>HFPCPXHT&#45;&gt;ETPXLRWZ</title>
<path fill="none" stroke="black" d="M424,-146.69C424,-138.98 424,-129.71 424,-121.11"/>
<polygon fill="black" stroke="black" points="427.5,-121.1 424,-111.1 420.5,-121.1 427.5,-121.1"/>
</g>
<!-- KXMKKPED -->
<g id="node19" class="node">
<title>KXMKKPED</title>
<ellipse fill="none" stroke="black" cx="614" cy="-93" rx="18" ry="18"/>
</g>
<!-- HFPCPXHT&#45;&gt;KXMKKPED -->
<g id="edge18" class="edge">
<title>HFPCPXHT&#45;&gt;KXMKKPED</title>
<path fill="none" stroke="black" d="M440.86,-157.78C474.11,-145.53 548.35,-118.19 587.94,-103.6"/>
<polygon fill="black" stroke="black" points="589.27,-106.84 597.45,-100.09 586.85,-100.27 589.27,-106.84"/>
</g>
<!-- DJIMYCKV -->
<g id="node12" class="node">
<title>DJIMYCKV</title>
<ellipse fill="none" stroke="black" cx="234" cy="-19.5" rx="18" ry="18"/>
<text text-anchor="middle" x="234" y="-15.8" font-family="Times,serif" font-size="14.00">5</text>
</g>
<!-- PXCEBSAH&#45;&gt;DJIMYCKV -->
<g id="edge11" class="edge">
<title>PXCEBSAH&#45;&gt;DJIMYCKV</title>
<path fill="none" stroke="black" d="M277.59,-78.21C269.89,-68.02 259.26,-53.95 250.43,-42.25"/>
<polygon fill="black" stroke="black" points="253.2,-40.11 244.38,-34.24 247.61,-44.33 253.2,-40.11"/>
</g>
<!-- QPIVAVXL -->
<g id="node13" class="node">
<title>QPIVAVXL</title>
<ellipse fill="none" stroke="black" cx="288" cy="-19.5" rx="18" ry="18"/>
<text text-anchor="middle" x="288" y="-15.8" font-family="Times,serif" font-size="14.00">0</text>
</g>
<!-- PXCEBSAH&#45;&gt;QPIVAVXL -->
<g id="edge12" class="edge">
<title>PXCEBSAH&#45;&gt;QPIVAVXL</title>
<path fill="none" stroke="black" d="M288,-74.69C288,-66.61 288,-56.8 288,-47.76"/>
<polygon fill="black" stroke="black" points="291.5,-47.65 288,-37.65 284.5,-47.65 291.5,-47.65"/>
</g>
<!-- LRCHWVNJ -->
<g id="node15" class="node">
<title>LRCHWVNJ</title>
<ellipse fill="none" stroke="black" cx="342" cy="-19.5" rx="18" ry="18"/>
<text text-anchor="middle" x="342" y="-15.8" font-family="Times,serif" font-size="14.00">7</text>
</g>
<!-- ETPXLRWZ&#45;&gt;LRCHWVNJ -->
<g id="edge14" class="edge">
<title>ETPXLRWZ&#45;&gt;LRCHWVNJ</title>
<path fill="none" stroke="black" d="M410.83,-80.51C397.91,-69.25 378.03,-51.92 362.95,-38.77"/>
<polygon fill="black" stroke="black" points="364.98,-35.89 355.14,-31.96 360.38,-41.17 364.98,-35.89"/>
</g>
<!-- LDVJNAWA -->
<g id="node16" class="node">
<title>LDVJNAWA</title>
<ellipse fill="none" stroke="black" cx="396" cy="-19.5" rx="18" ry="18"/>
<text text-anchor="middle" x="396" y="-15.8" font-family="Times,serif" font-size="14.00">6</text>
</g>
<!-- ETPXLRWZ&#45;&gt;LDVJNAWA -->
<g id="edge15" class="edge">
<title>ETPXLRWZ&#45;&gt;LDVJNAWA</title>
<path fill="none" stroke="black" d="M417.65,-75.77C414.21,-67 409.89,-55.96 406.01,-46.05"/>
<polygon fill="black" stroke="black" points="409.23,-44.69 402.33,-36.66 402.72,-47.25 409.23,-44.69"/>
</g>
<!-- KJOOHVLW -->
<g id="node17" class="node">
<title>KJOOHVLW</title>
<ellipse fill="none" stroke="black" cx="451" cy="-19.5" rx="19.5" ry="19.5"/>
<text text-anchor="middle" x="451" y="-15.8" font-family="Times,serif" font-size="14.00">12</text>
</g>
<!-- ETPXLRWZ&#45;&gt;KJOOHVLW -->
<g id="edge16" class="edge">
<title>ETPXLRWZ&#45;&gt;KJOOHVLW</title>
<path fill="none" stroke="black" d="M430.13,-75.77C433.29,-67.39 437.23,-56.95 440.84,-47.41"/>
<polygon fill="black" stroke="black" points="444.17,-48.5 444.43,-37.91 437.62,-46.03 444.17,-48.5"/>
</g>
<!-- HAKFGIKH -->
<g id="node18" class="node">
<title>HAKFGIKH</title>
<ellipse fill="none" stroke="black" cx="506" cy="-19.5" rx="18" ry="18"/>
<text text-anchor="middle" x="506" y="-15.8" font-family="Times,serif" font-size="14.00">2</text>
</g>
<!-- ETPXLRWZ&#45;&gt;HAKFGIKH -->
<g id="edge17" class="edge">
<title>ETPXLRWZ&#45;&gt;HAKFGIKH</title>
<path fill="none" stroke="black" d="M437.17,-80.51C450.09,-69.25 469.97,-51.92 485.05,-38.77"/>
<polygon fill="black" stroke="black" points="487.62,-41.17 492.86,-31.96 483.02,-35.89 487.62,-41.17"/>
</g>
<!-- CCPNVVYQ -->
<g id="node20" class="node">
<title>CCPNVVYQ</title>
<ellipse fill="none" stroke="black" cx="560" cy="-19.5" rx="18" ry="18"/>
<text text-anchor="middle" x="560" y="-15.8" font-family="Times,serif" font-size="14.00">1</text>
</g>
<!-- KXMKKPED&#45;&gt;CCPNVVYQ -->
<g id="edge19" class="edge">
<title>KXMKKPED&#45;&gt;CCPNVVYQ</title>
<path fill="none" stroke="black" d="M603.59,-78.21C595.89,-68.02 585.26,-53.95 576.43,-42.25"/>
<polygon fill="black" stroke="black" points="579.2,-40.11 570.38,-34.24 573.61,-44.33 579.2,-40.11"/>
</g>
<!-- YEAOGYQO -->
<g id="node21" class="node">
<title>YEAOGYQO</title>
<ellipse fill="none" stroke="black" cx="614" cy="-19.5" rx="18" ry="18"/>
<text text-anchor="middle" x="614" y="-15.8" font-family="Times,serif" font-size="14.00">5</text>
</g>
<!-- KXMKKPED&#45;&gt;YEAOGYQO -->
<g id="edge20" class="edge">
<title>KXMKKPED&#45;&gt;YEAOGYQO</title>
<path fill="none" stroke="black" d="M614,-74.69C614,-66.61 614,-56.8 614,-47.76"/>
<polygon fill="black" stroke="black" points="617.5,-47.65 614,-37.65 610.5,-47.65 617.5,-47.65"/>
</g>
<!-- SFUMRPZL -->
<g id="node22" class="node">
<title>SFUMRPZL</title>
<ellipse fill="none" stroke="black" cx="669" cy="-19.5" rx="19.5" ry="19.5"/>
<text text-anchor="middle" x="669" y="-15.8" font-family="Times,serif" font-size="14.00">10</text>
</g>
<!-- KXMKKPED&#45;&gt;SFUMRPZL -->
<g id="edge21" class="edge">
<title>KXMKKPED&#45;&gt;SFUMRPZL</title>
<path fill="none" stroke="black" d="M624.6,-78.21C632.12,-68.45 642.38,-55.11 651.14,-43.72"/>
<polygon fill="black" stroke="black" points="654.16,-45.54 657.48,-35.48 648.61,-41.27 654.16,-45.54"/>
</g>
<!-- HKOVNUHK -->
<g id="node23" class="node">
<title>HKOVNUHK</title>
<ellipse fill="none" stroke="black" cx="726" cy="-19.5" rx="19.5" ry="19.5"/>
<text text-anchor="middle" x="726" y="-15.8" font-family="Times,serif" font-size="14.00">14</text>
</g>
<!-- KXMKKPED&#45;&gt;HKOVNUHK -->
<g id="edge22" class="edge">
<title>KXMKKPED&#45;&gt;HKOVNUHK</title>
<path fill="none" stroke="black" d="M629.1,-82.35C647.58,-70.56 679.1,-50.44 701.16,-36.35"/>
<polygon fill="black" stroke="black" points="703.14,-39.24 709.68,-30.91 699.37,-33.34 703.14,-39.24"/>
</g>
<!-- OTOHHFPK -->
<g id="node25" class="node">
<title>OTOHHFPK</title>
<ellipse fill="none" stroke="black" cx="1258" cy="-165" rx="18" ry="18"/>
</g>
<!-- NRILWFFU&#45;&gt;OTOHHFPK -->
<g id="edge24" class="edge">
<title>NRILWFFU&#45;&gt;OTOHHFPK</title>
<path fill="none" stroke="black" d="M1712.36,-233.38C1641.03,-222.8 1373.59,-183.14 1285.98,-170.15"/>
<polygon fill="black" stroke="black" points="1286.39,-166.67 1275.98,-168.66 1285.36,-173.59 1286.39,-166.67"/>
</g>
<!-- RIYIPWUQ -->
<g id="node44" class="node">
<title>RIYIPWUQ</title>
<ellipse fill="none" stroke="black" cx="1730" cy="-165" rx="18" ry="18"/>
</g>
<!-- NRILWFFU&#45;&gt;RIYIPWUQ -->
<g id="edge43" class="edge">
<title>NRILWFFU&#45;&gt;RIYIPWUQ</title>
<path fill="none" stroke="black" d="M1730,-218.69C1730,-210.98 1730,-201.71 1730,-193.11"/>
<polygon fill="black" stroke="black" points="1733.5,-193.1 1730,-183.1 1726.5,-193.1 1733.5,-193.1"/>
</g>
<!-- KXBZVASG -->
<g id="node55" class="node">
<title>KXBZVASG</title>
<ellipse fill="none" stroke="black" cx="2116" cy="-165" rx="18" ry="18"/>
</g>
<!-- NRILWFFU&#45;&gt;KXBZVASG -->
<g id="edge54" class="edge">
<title>NRILWFFU&#45;&gt;KXBZVASG</title>
<path fill="none" stroke="black" d="M1747.59,-232.81C1808.88,-221.69 2013.37,-184.61 2088.24,-171.03"/>
<polygon fill="black" stroke="black" points="2089.09,-174.43 2098.31,-169.2 2087.84,-167.55 2089.09,-174.43"/>
</g>
<!-- QFOTQXVR -->
<g id="node70" class="node">
<title>QFOTQXVR</title>
<ellipse fill="none" stroke="black" cx="2620" cy="-165" rx="18" ry="18"/>
</g>
<!-- NRILWFFU&#45;&gt;QFOTQXVR -->
<g id="edge69" class="edge">
<title>NRILWFFU&#45;&gt;QFOTQXVR</title>
<path fill="none" stroke="black" d="M1748.18,-234.57C1860.03,-225.77 2454.5,-179.01 2591.72,-168.22"/>
<polygon fill="black" stroke="black" points="2592.15,-171.7 2601.85,-167.42 2591.6,-164.72 2592.15,-171.7"/>
</g>
<!-- QQJOINTR -->
<g id="node26" class="node">
<title>QQJOINTR</title>
<ellipse fill="none" stroke="black" cx="897" cy="-93" rx="18" ry="18"/>
</g>
<!-- OTOHHFPK&#45;&gt;QQJOINTR -->
<g id="edge25" class="edge">
<title>OTOHHFPK&#45;&gt;QQJOINTR</title>
<path fill="none" stroke="black" d="M1240.1,-160.53C1181.5,-149.16 995.17,-113.03 924.52,-99.33"/>
<polygon fill="black" stroke="black" points="925.07,-95.87 914.58,-97.41 923.74,-102.75 925.07,-95.87"/>
</g>
<!-- KAEWAXXT -->
<g id="node31" class="node">
<title>KAEWAXXT</title>
<ellipse fill="none" stroke="black" cx="1119" cy="-93" rx="18" ry="18"/>
</g>
<!-- OTOHHFPK&#45;&gt;KAEWAXXT -->
<g id="edge30" class="edge">
<title>OTOHHFPK&#45;&gt;KAEWAXXT</title>
<path fill="none" stroke="black" d="M1242.33,-156.1C1218.34,-144.02 1172.32,-120.85 1143.78,-106.48"/>
<polygon fill="black" stroke="black" points="1145.34,-103.34 1134.83,-101.97 1142.19,-109.59 1145.34,-103.34"/>
</g>
<!-- HWFFFOUA -->
<g id="node36" class="node">
<title>HWFFFOUA</title>
<ellipse fill="none" stroke="black" cx="1258" cy="-93" rx="18" ry="18"/>
</g>
<!-- OTOHHFPK&#45;&gt;HWFFFOUA -->
<g id="edge35" class="edge">
<title>OTOHHFPK&#45;&gt;HWFFFOUA</title>
<path fill="none" stroke="black" d="M1258,-146.69C1258,-138.98 1258,-129.71 1258,-121.11"/>
<polygon fill="black" stroke="black" points="1261.5,-121.1 1258,-111.1 1254.5,-121.1 1261.5,-121.1"/>
</g>
<!-- OYMYSMYH -->
<g id="node39" class="node">
<title>OYMYSMYH</title>
<ellipse fill="none" stroke="black" cx="1394" cy="-93" rx="18" ry="18"/>
</g>
<!-- OTOHHFPK&#45;&gt;OYMYSMYH -->
<g id="edge38" class="edge">
<title>OTOHHFPK&#45;&gt;OYMYSMYH</title>
<path fill="none" stroke="black" d="M1273.6,-155.97C1296.94,-143.95 1341.19,-121.18 1369.05,-106.84"/>
<polygon fill="black" stroke="black" points="1370.87,-109.84 1378.16,-102.15 1367.67,-103.61 1370.87,-109.84"/>
</g>
<!-- EHFCZBNF -->
<g id="node27" class="node">
<title>EHFCZBNF</title>
<ellipse fill="none" stroke="black" cx="783" cy="-19.5" rx="19.5" ry="19.5"/>
<text text-anchor="middle" x="783" y="-15.8" font-family="Times,serif" font-size="14.00">13</text>
</g>
<!-- QQJOINTR&#45;&gt;EHFCZBNF -->
<g id="edge26" class="edge">
<title>QQJOINTR&#45;&gt;EHFCZBNF</title>
<path fill="none" stroke="black" d="M881.92,-82.66C864.91,-72.11 836.42,-54.4 812,-39 810.71,-38.18 809.38,-37.34 808.04,-36.49"/>
<polygon fill="black" stroke="black" points="809.56,-33.31 799.24,-30.9 805.8,-39.22 809.56,-33.31"/>
</g>
<!-- GLBDTBNR -->
<g id="node28" class="node">
<title>GLBDTBNR</title>
<ellipse fill="none" stroke="black" cx="840" cy="-19.5" rx="19.5" ry="19.5"/>
<text text-anchor="middle" x="840" y="-15.8" font-family="Times,serif" font-size="14.00">11</text>
</g>
<!-- QQJOINTR&#45;&gt;GLBDTBNR -->
<g id="edge27" class="edge">
<title>QQJOINTR&#45;&gt;GLBDTBNR</title>
<path fill="none" stroke="black" d="M886.01,-78.21C878.1,-68.28 867.24,-54.67 858.06,-43.16"/>
<polygon fill="black" stroke="black" points="860.71,-40.86 851.74,-35.23 855.24,-45.23 860.71,-40.86"/>
</g>
<!-- XEDZOTWL -->
<g id="node29" class="node">
<title>XEDZOTWL</title>
<ellipse fill="none" stroke="black" cx="897" cy="-19.5" rx="19.5" ry="19.5"/>
<text text-anchor="middle" x="897" y="-15.8" font-family="Times,serif" font-size="14.00">14</text>
</g>
<!-- QQJOINTR&#45;&gt;XEDZOTWL -->
<g id="edge28" class="edge">
<title>QQJOINTR&#45;&gt;XEDZOTWL</title>
<path fill="none" stroke="black" d="M897,-74.69C897,-67.05 897,-57.86 897,-49.24"/>
<polygon fill="black" stroke="black" points="900.5,-49.15 897,-39.15 893.5,-49.15 900.5,-49.15"/>
</g>
<!-- AXAOVXKY -->
<g id="node30" class="node">
<title>AXAOVXKY</title>
<ellipse fill="none" stroke="black" cx="952" cy="-19.5" rx="18" ry="18"/>
<text text-anchor="middle" x="952" y="-15.8" font-family="Times,serif" font-size="14.00">9</text>
</g>
<!-- QQJOINTR&#45;&gt;AXAOVXKY -->
<g id="edge29" class="edge">
<title>QQJOINTR&#45;&gt;AXAOVXKY</title>
<path fill="none" stroke="black" d="M907.6,-78.21C915.44,-68.02 926.27,-53.95 935.27,-42.25"/>
<polygon fill="black" stroke="black" points="938.1,-44.3 941.43,-34.24 932.56,-40.03 938.1,-44.3"/>
</g>
<!-- IOZHCLJL -->
<g id="node32" class="node">
<title>IOZHCLJL</title>
<ellipse fill="none" stroke="black" cx="1007" cy="-19.5" rx="19.5" ry="19.5"/>
<text text-anchor="middle" x="1007" y="-15.8" font-family="Times,serif" font-size="14.00">15</text>
</g>
<!-- KAEWAXXT&#45;&gt;IOZHCLJL -->
<g id="edge31" class="edge">
<title>KAEWAXXT&#45;&gt;IOZHCLJL</title>
<path fill="none" stroke="black" d="M1103.9,-82.35C1085.42,-70.56 1053.9,-50.44 1031.84,-36.35"/>
<polygon fill="black" stroke="black" points="1033.63,-33.34 1023.32,-30.91 1029.86,-39.24 1033.63,-33.34"/>
</g>
<!-- JZKCVPYO -->
<g id="node33" class="node">
<title>JZKCVPYO</title>
<ellipse fill="none" stroke="black" cx="1064" cy="-19.5" rx="19.5" ry="19.5"/>
<text text-anchor="middle" x="1064" y="-15.8" font-family="Times,serif" font-size="14.00">14</text>
</g>
<!-- KAEWAXXT&#45;&gt;JZKCVPYO -->
<g id="edge32" class="edge">
<title>KAEWAXXT&#45;&gt;JZKCVPYO</title>
<path fill="none" stroke="black" d="M1108.4,-78.21C1100.88,-68.45 1090.62,-55.11 1081.86,-43.72"/>
<polygon fill="black" stroke="black" points="1084.39,-41.27 1075.52,-35.48 1078.84,-45.54 1084.39,-41.27"/>
</g>
<!-- OWACCOFC -->
<g id="node34" class="node">
<title>OWACCOFC</title>
<ellipse fill="none" stroke="black" cx="1119" cy="-19.5" rx="18" ry="18"/>
<text text-anchor="middle" x="1119" y="-15.8" font-family="Times,serif" font-size="14.00">7</text>
</g>
<!-- KAEWAXXT&#45;&gt;OWACCOFC -->
<g id="edge33" class="edge">
<title>KAEWAXXT&#45;&gt;OWACCOFC</title>
<path fill="none" stroke="black" d="M1119,-74.69C1119,-66.61 1119,-56.8 1119,-47.76"/>
<polygon fill="black" stroke="black" points="1122.5,-47.65 1119,-37.65 1115.5,-47.65 1122.5,-47.65"/>
</g>
<!-- WXWTZYSU -->
<g id="node35" class="node">
<title>WXWTZYSU</title>
<ellipse fill="none" stroke="black" cx="1174" cy="-19.5" rx="19.5" ry="19.5"/>
<text text-anchor="middle" x="1174" y="-15.8" font-family="Times,serif" font-size="14.00">15</text>
</g>
<!-- KAEWAXXT&#45;&gt;WXWTZYSU -->
<g id="edge34" class="edge">
<title>KAEWAXXT&#45;&gt;WXWTZYSU</title>
<path fill="none" stroke="black" d="M1129.6,-78.21C1137.12,-68.45 1147.38,-55.11 1156.14,-43.72"/>
<polygon fill="black" stroke="black" points="1159.16,-45.54 1162.48,-35.48 1153.61,-41.27 1159.16,-45.54"/>
</g>
<!-- KBFEWLDL -->
<g id="node37" class="node">
<title>KBFEWLDL</title>
<ellipse fill="none" stroke="black" cx="1231" cy="-19.5" rx="19.5" ry="19.5"/>
<text text-anchor="middle" x="1231" y="-15.8" font-family="Times,serif" font-size="14.00">13</text>
</g>
<!-- HWFFFOUA&#45;&gt;KBFEWLDL -->
<g id="edge36" class="edge">
<title>HWFFFOUA&#45;&gt;KBFEWLDL</title>
<path fill="none" stroke="black" d="M1251.87,-75.77C1248.71,-67.39 1244.77,-56.95 1241.16,-47.41"/>
<polygon fill="black" stroke="black" points="1244.38,-46.03 1237.57,-37.91 1237.83,-48.5 1244.38,-46.03"/>
</g>
<!-- GWWVTOUK -->
<g id="node38" class="node">
<title>GWWVTOUK</title>
<ellipse fill="none" stroke="black" cx="1286" cy="-19.5" rx="18" ry="18"/>
<text text-anchor="middle" x="1286" y="-15.8" font-family="Times,serif" font-size="14.00">5</text>
</g>
<!-- HWFFFOUA&#45;&gt;GWWVTOUK -->
<g id="edge37" class="edge">
<title>HWFFFOUA&#45;&gt;GWWVTOUK</title>
<path fill="none" stroke="black" d="M1264.35,-75.77C1267.79,-67 1272.11,-55.96 1275.99,-46.05"/>
<polygon fill="black" stroke="black" points="1279.28,-47.25 1279.67,-36.66 1272.77,-44.69 1279.28,-47.25"/>
</g>
<!-- MTWCBZYE -->
<g id="node40" class="node">
<title>MTWCBZYE</title>
<ellipse fill="none" stroke="black" cx="1340" cy="-19.5" rx="18" ry="18"/>
<text text-anchor="middle" x="1340" y="-15.8" font-family="Times,serif" font-size="14.00">1</text>
</g>
<!-- OYMYSMYH&#45;&gt;MTWCBZYE -->
<g id="edge39" class="edge">
<title>OYMYSMYH&#45;&gt;MTWCBZYE</title>
<path fill="none" stroke="black" d="M1383.59,-78.21C1375.89,-68.02 1365.26,-53.95 1356.43,-42.25"/>
<polygon fill="black" stroke="black" points="1359.2,-40.11 1350.38,-34.24 1353.61,-44.33 1359.2,-40.11"/>
</g>
<!-- CKQHWUHY -->
<g id="node41" class="node">
<title>CKQHWUHY</title>
<ellipse fill="none" stroke="black" cx="1394" cy="-19.5" rx="18" ry="18"/>
<text text-anchor="middle" x="1394" y="-15.8" font-family="Times,serif" font-size="14.00">6</text>
</g>
<!-- OYMYSMYH&#45;&gt;CKQHWUHY -->
<g id="edge40" class="edge">
<title>OYMYSMYH&#45;&gt;CKQHWUHY</title>
<path fill="none" stroke="black" d="M1394,-74.69C1394,-66.61 1394,-56.8 1394,-47.76"/>
<polygon fill="black" stroke="black" points="1397.5,-47.65 1394,-37.65 1390.5,-47.65 1397.5,-47.65"/>
</g>
<!-- DBXZDTRH -->
<g id="node42" class="node">
<title>DBXZDTRH</title>
<ellipse fill="none" stroke="black" cx="1449" cy="-19.5" rx="19.5" ry="19.5"/>
<text text-anchor="middle" x="1449" y="-15.8" font-family="Times,serif" font-size="14.00">14</text>
</g>
<!-- OYMYSMYH&#45;&gt;DBXZDTRH -->
<g id="edge41" class="edge">
<title>OYMYSMYH&#45;&gt;DBXZDTRH</title>
<path fill="none" stroke="black" d="M1404.6,-78.21C1412.12,-68.45 1422.38,-55.11 1431.14,-43.72"/>
<polygon fill="black" stroke="black" points="1434.16,-45.54 1437.48,-35.48 1428.61,-41.27 1434.16,-45.54"/>
</g>
<!-- MWYRROJV -->
<g id="node43" class="node">
<title>MWYRROJV</title>
<ellipse fill="none" stroke="black" cx="1506" cy="-19.5" rx="19.5" ry="19.5"/>
<text text-anchor="middle" x="1506" y="-15.8" font-family="Times,serif" font-size="14.00">13</text>
</g>
<!-- OYMYSMYH&#45;&gt;MWYRROJV -->
<g id="edge42" class="edge">
<title>OYMYSMYH&#45;&gt;MWYRROJV</title>
<path fill="none" stroke="black" d="M1409.1,-82.35C1427.58,-70.56 1459.1,-50.44 1481.16,-36.35"/>
<polygon fill="black" stroke="black" points="1483.14,-39.24 1489.68,-30.91 1479.37,-33.34 1483.14,-39.24"/>
</g>
<!-- AWBYXGCE -->
<g id="node45" class="node">
<title>AWBYXGCE</title>
<ellipse fill="none" stroke="black" cx="1616" cy="-93" rx="18" ry="18"/>
</g>
<!-- RIYIPWUQ&#45;&gt;AWBYXGCE -->
<g id="edge44" class="edge">
<title>RIYIPWUQ&#45;&gt;AWBYXGCE</title>
<path fill="none" stroke="black" d="M1715.1,-154.85C1695.89,-143.05 1662.29,-122.42 1639.6,-108.49"/>
<polygon fill="black" stroke="black" points="1641.26,-105.4 1630.91,-103.15 1637.6,-111.37 1641.26,-105.4"/>
</g>
<!-- QDDKITSN -->
<g id="node48" class="node">
<title>QDDKITSN</title>
<ellipse fill="none" stroke="black" cx="1730" cy="-93" rx="18" ry="18"/>
</g>
<!-- RIYIPWUQ&#45;&gt;QDDKITSN -->
<g id="edge47" class="edge">
<title>RIYIPWUQ&#45;&gt;QDDKITSN</title>
<path fill="none" stroke="black" d="M1730,-146.69C1730,-138.98 1730,-129.71 1730,-121.11"/>
<polygon fill="black" stroke="black" points="1733.5,-121.1 1730,-111.1 1726.5,-121.1 1733.5,-121.1"/>
</g>
<!-- ICELVHMH -->
<g id="node52" class="node">
<title>ICELVHMH</title>
<ellipse fill="none" stroke="black" cx="1842" cy="-93" rx="18" ry="18"/>
</g>
<!-- RIYIPWUQ&#45;&gt;ICELVHMH -->
<g id="edge51" class="edge">
<title>RIYIPWUQ&#45;&gt;ICELVHMH</title>
<path fill="none" stroke="black" d="M1745.1,-154.56C1764,-142.75 1796.54,-122.41 1818.65,-108.59"/>
<polygon fill="black" stroke="black" points="1820.51,-111.56 1827.13,-103.29 1816.8,-105.62 1820.51,-111.56"/>
</g>
<!-- XHTPICAC -->
<g id="node46" class="node">
<title>XHTPICAC</title>
<ellipse fill="none" stroke="black" cx="1561" cy="-19.5" rx="18" ry="18"/>
<text text-anchor="middle" x="1561" y="-15.8" font-family="Times,serif" font-size="14.00">8</text>
</g>
<!-- AWBYXGCE&#45;&gt;XHTPICAC -->
<g id="edge45" class="edge">
<title>AWBYXGCE&#45;&gt;XHTPICAC</title>
<path fill="none" stroke="black" d="M1605.4,-78.21C1597.56,-68.02 1586.73,-53.95 1577.73,-42.25"/>
<polygon fill="black" stroke="black" points="1580.44,-40.03 1571.57,-34.24 1574.9,-44.3 1580.44,-40.03"/>
</g>
<!-- VVDPZLVX -->
<g id="node47" class="node">
<title>VVDPZLVX</title>
<ellipse fill="none" stroke="black" cx="1616" cy="-19.5" rx="19.5" ry="19.5"/>
<text text-anchor="middle" x="1616" y="-15.8" font-family="Times,serif" font-size="14.00">10</text>
</g>
<!-- AWBYXGCE&#45;&gt;VVDPZLVX -->
<g id="edge46" class="edge">
<title>AWBYXGCE&#45;&gt;VVDPZLVX</title>
<path fill="none" stroke="black" d="M1616,-74.69C1616,-67.05 1616,-57.86 1616,-49.24"/>
<polygon fill="black" stroke="black" points="1619.5,-49.15 1616,-39.15 1612.5,-49.15 1619.5,-49.15"/>
</g>
<!-- YAEBJWSW -->
<g id="node49" class="node">
<title>YAEBJWSW</title>
<ellipse fill="none" stroke="black" cx="1673" cy="-19.5" rx="19.5" ry="19.5"/>
<text text-anchor="middle" x="1673" y="-15.8" font-family="Times,serif" font-size="14.00">12</text>
</g>
<!-- QDDKITSN&#45;&gt;YAEBJWSW -->
<g id="edge48" class="edge">
<title>QDDKITSN&#45;&gt;YAEBJWSW</title>
<path fill="none" stroke="black" d="M1719.01,-78.21C1711.1,-68.28 1700.24,-54.67 1691.06,-43.16"/>
<polygon fill="black" stroke="black" points="1693.71,-40.86 1684.74,-35.23 1688.24,-45.23 1693.71,-40.86"/>
</g>
<!-- JCZKQUNG -->
<g id="node50" class="node">
<title>JCZKQUNG</title>
<ellipse fill="none" stroke="black" cx="1730" cy="-19.5" rx="19.5" ry="19.5"/>
<text text-anchor="middle" x="1730" y="-15.8" font-family="Times,serif" font-size="14.00">11</text>
</g>
<!-- QDDKITSN&#45;&gt;JCZKQUNG -->
<g id="edge49" class="edge">
<title>QDDKITSN&#45;&gt;JCZKQUNG</title>
<path fill="none" stroke="black" d="M1730,-74.69C1730,-67.05 1730,-57.86 1730,-49.24"/>
<polygon fill="black" stroke="black" points="1733.5,-49.15 1730,-39.15 1726.5,-49.15 1733.5,-49.15"/>
</g>
<!-- UJKTDCFT -->
<g id="node51" class="node">
<title>UJKTDCFT</title>
<ellipse fill="none" stroke="black" cx="1787" cy="-19.5" rx="19.5" ry="19.5"/>
<text text-anchor="middle" x="1787" y="-15.8" font-family="Times,serif" font-size="14.00">13</text>
</g>
<!-- QDDKITSN&#45;&gt;UJKTDCFT -->
<g id="edge50" class="edge">
<title>QDDKITSN&#45;&gt;UJKTDCFT</title>
<path fill="none" stroke="black" d="M1740.99,-78.21C1748.9,-68.28 1759.76,-54.67 1768.94,-43.16"/>
<polygon fill="black" stroke="black" points="1771.76,-45.23 1775.26,-35.23 1766.29,-40.86 1771.76,-45.23"/>
</g>
<!-- DSVEHBNW -->
<g id="node53" class="node">
<title>DSVEHBNW</title>
<ellipse fill="none" stroke="black" cx="1842" cy="-19.5" rx="18" ry="18"/>
<text text-anchor="middle" x="1842" y="-15.8" font-family="Times,serif" font-size="14.00">8</text>
</g>
<!-- ICELVHMH&#45;&gt;DSVEHBNW -->
<g id="edge52" class="edge">
<title>ICELVHMH&#45;&gt;DSVEHBNW</title>
<path fill="none" stroke="black" d="M1842,-74.69C1842,-66.61 1842,-56.8 1842,-47.76"/>
<polygon fill="black" stroke="black" points="1845.5,-47.65 1842,-37.65 1838.5,-47.65 1845.5,-47.65"/>
</g>
<!-- XQVDWNCM -->
<g id="node54" class="node">
<title>XQVDWNCM</title>
<ellipse fill="none" stroke="black" cx="1896" cy="-19.5" rx="18" ry="18"/>
<text text-anchor="middle" x="1896" y="-15.8" font-family="Times,serif" font-size="14.00">3</text>
</g>
<!-- ICELVHMH&#45;&gt;XQVDWNCM -->
<g id="edge53" class="edge">
<title>ICELVHMH&#45;&gt;XQVDWNCM</title>
<path fill="none" stroke="black" d="M1852.41,-78.21C1860.11,-68.02 1870.74,-53.95 1879.57,-42.25"/>
<polygon fill="black" stroke="black" points="1882.39,-44.33 1885.62,-34.24 1876.8,-40.11 1882.39,-44.33"/>
</g>
<!-- WNPNHVLK -->
<g id="node56" class="node">
<title>WNPNHVLK</title>
<ellipse fill="none" stroke="black" cx="2060" cy="-93" rx="18" ry="18"/>
</g>
<!-- KXBZVASG&#45;&gt;WNPNHVLK -->
<g id="edge55" class="edge">
<title>KXBZVASG&#45;&gt;WNPNHVLK</title>
<path fill="none" stroke="black" d="M2105.2,-150.5C2097.22,-140.53 2086.2,-126.75 2077.04,-115.29"/>
<polygon fill="black" stroke="black" points="2079.74,-113.07 2070.76,-107.45 2074.28,-117.45 2079.74,-113.07"/>
</g>
<!-- FBZVWFUO -->
<g id="node61" class="node">
<title>FBZVWFUO</title>
<ellipse fill="none" stroke="black" cx="2200" cy="-93" rx="18" ry="18"/>
</g>
<!-- KXBZVASG&#45;&gt;FBZVWFUO -->
<g id="edge60" class="edge">
<title>KXBZVASG&#45;&gt;FBZVWFUO</title>
<path fill="none" stroke="black" d="M2129.5,-152.75C2142.72,-141.73 2163.09,-124.76 2178.54,-111.88"/>
<polygon fill="black" stroke="black" points="2181.1,-114.31 2186.54,-105.22 2176.61,-108.93 2181.1,-114.31"/>
</g>
<!-- TMWXHQED -->
<g id="node65" class="node">
<title>TMWXHQED</title>
<ellipse fill="none" stroke="black" cx="2396" cy="-93" rx="18" ry="18"/>
</g>
<!-- KXBZVASG&#45;&gt;TMWXHQED -->
<g id="edge64" class="edge">
<title>KXBZVASG&#45;&gt;TMWXHQED</title>
<path fill="none" stroke="black" d="M2133.52,-159.62C2180.85,-147.78 2311.61,-115.09 2368.72,-100.82"/>
<polygon fill="black" stroke="black" points="2369.64,-104.19 2378.49,-98.37 2367.94,-97.4 2369.64,-104.19"/>
</g>
<!-- NNYAIXKM -->
<g id="node57" class="node">
<title>NNYAIXKM</title>
<ellipse fill="none" stroke="black" cx="1950" cy="-19.5" rx="18" ry="18"/>
<text text-anchor="middle" x="1950" y="-15.8" font-family="Times,serif" font-size="14.00">3</text>
</g>
<!-- WNPNHVLK&#45;&gt;NNYAIXKM -->
<g id="edge56" class="edge">
<title>WNPNHVLK&#45;&gt;NNYAIXKM</title>
<path fill="none" stroke="black" d="M2044.91,-82.57C2028.21,-72.08 2000.53,-54.56 1977,-39 1975.73,-38.15 1974.42,-37.28 1973.11,-36.4"/>
<polygon fill="black" stroke="black" points="1974.75,-33.29 1964.51,-30.57 1970.82,-39.08 1974.75,-33.29"/>
</g>
<!-- NRWCHPBU -->
<g id="node58" class="node">
<title>NRWCHPBU</title>
<ellipse fill="none" stroke="black" cx="2005" cy="-19.5" rx="19.5" ry="19.5"/>
<text text-anchor="middle" x="2005" y="-15.8" font-family="Times,serif" font-size="14.00">10</text>
</g>
<!-- WNPNHVLK&#45;&gt;NRWCHPBU -->
<g id="edge57" class="edge">
<title>WNPNHVLK&#45;&gt;NRWCHPBU</title>
<path fill="none" stroke="black" d="M2049.4,-78.21C2041.88,-68.45 2031.62,-55.11 2022.86,-43.72"/>
<polygon fill="black" stroke="black" points="2025.39,-41.27 2016.52,-35.48 2019.84,-45.54 2025.39,-41.27"/>
</g>
<!-- WXSJEKXM -->
<g id="node59" class="node">
<title>WXSJEKXM</title>
<ellipse fill="none" stroke="black" cx="2060" cy="-19.5" rx="18" ry="18"/>
<text text-anchor="middle" x="2060" y="-15.8" font-family="Times,serif" font-size="14.00">5</text>
</g>
<!-- WNPNHVLK&#45;&gt;WXSJEKXM -->
<g id="edge58" class="edge">
<title>WNPNHVLK&#45;&gt;WXSJEKXM</title>
<path fill="none" stroke="black" d="M2060,-74.69C2060,-66.61 2060,-56.8 2060,-47.76"/>
<polygon fill="black" stroke="black" points="2063.5,-47.65 2060,-37.65 2056.5,-47.65 2063.5,-47.65"/>
</g>
<!-- MVSIESQY -->
<g id="node60" class="node">
<title>MVSIESQY</title>
<ellipse fill="none" stroke="black" cx="2115" cy="-19.5" rx="19.5" ry="19.5"/>
<text text-anchor="middle" x="2115" y="-15.8" font-family="Times,serif" font-size="14.00">10</text>
</g>
<!-- WNPNHVLK&#45;&gt;MVSIESQY -->
<g id="edge59" class="edge">
<title>WNPNHVLK&#45;&gt;MVSIESQY</title>
<path fill="none" stroke="black" d="M2070.6,-78.21C2078.12,-68.45 2088.38,-55.11 2097.14,-43.72"/>
<polygon fill="black" stroke="black" points="2100.16,-45.54 2103.48,-35.48 2094.61,-41.27 2100.16,-45.54"/>
</g>
<!-- SYIYJJUS -->
<g id="node62" class="node">
<title>SYIYJJUS</title>
<ellipse fill="none" stroke="black" cx="2172" cy="-19.5" rx="19.5" ry="19.5"/>
<text text-anchor="middle" x="2172" y="-15.8" font-family="Times,serif" font-size="14.00">14</text>
</g>
<!-- FBZVWFUO&#45;&gt;SYIYJJUS -->
<g id="edge61" class="edge">
<title>FBZVWFUO&#45;&gt;SYIYJJUS</title>
<path fill="none" stroke="black" d="M2193.65,-75.77C2190.37,-67.39 2186.28,-56.95 2182.54,-47.41"/>
<polygon fill="black" stroke="black" points="2185.72,-45.94 2178.82,-37.91 2179.21,-48.5 2185.72,-45.94"/>
</g>
<!-- JEECSBQC -->
<g id="node63" class="node">
<title>JEECSBQC</title>
<ellipse fill="none" stroke="black" cx="2229" cy="-19.5" rx="19.5" ry="19.5"/>
<text text-anchor="middle" x="2229" y="-15.8" font-family="Times,serif" font-size="14.00">15</text>
</g>
<!-- FBZVWFUO&#45;&gt;JEECSBQC -->
<g id="edge62" class="edge">
<title>FBZVWFUO&#45;&gt;JEECSBQC</title>
<path fill="none" stroke="black" d="M2206.44,-76.13C2209.89,-67.61 2214.24,-56.89 2218.2,-47.14"/>
<polygon fill="black" stroke="black" points="2221.46,-48.41 2221.97,-37.82 2214.97,-45.77 2221.46,-48.41"/>
</g>
<!-- UBPSKHDQ -->
<g id="node64" class="node">
<title>UBPSKHDQ</title>
<ellipse fill="none" stroke="black" cx="2286" cy="-19.5" rx="19.5" ry="19.5"/>
<text text-anchor="middle" x="2286" y="-15.8" font-family="Times,serif" font-size="14.00">15</text>
</g>
<!-- FBZVWFUO&#45;&gt;UBPSKHDQ -->
<g id="edge63" class="edge">
<title>FBZVWFUO&#45;&gt;UBPSKHDQ</title>
<path fill="none" stroke="black" d="M2213.44,-80.82C2226.87,-69.65 2247.77,-52.28 2263.7,-39.04"/>
<polygon fill="black" stroke="black" points="2266.06,-41.63 2271.51,-32.55 2261.58,-36.25 2266.06,-41.63"/>
</g>
<!-- BBUIKYFS -->
<g id="node66" class="node">
<title>BBUIKYFS</title>
<ellipse fill="none" stroke="black" cx="2341" cy="-19.5" rx="18" ry="18"/>
<text text-anchor="middle" x="2341" y="-15.8" font-family="Times,serif" font-size="14.00">0</text>
</g>
<!-- TMWXHQED&#45;&gt;BBUIKYFS -->
<g id="edge65" class="edge">
<title>TMWXHQED&#45;&gt;BBUIKYFS</title>
<path fill="none" stroke="black" d="M2385.4,-78.21C2377.56,-68.02 2366.73,-53.95 2357.73,-42.25"/>
<polygon fill="black" stroke="black" points="2360.44,-40.03 2351.57,-34.24 2354.9,-44.3 2360.44,-40.03"/>
</g>
<!-- SXHDPADA -->
<g id="node67" class="node">
<title>SXHDPADA</title>
<ellipse fill="none" stroke="black" cx="2396" cy="-19.5" rx="19.5" ry="19.5"/>
<text text-anchor="middle" x="2396" y="-15.8" font-family="Times,serif" font-size="14.00">15</text>
</g>
<!-- TMWXHQED&#45;&gt;SXHDPADA -->
<g id="edge66" class="edge">
<title>TMWXHQED&#45;&gt;SXHDPADA</title>
<path fill="none" stroke="black" d="M2396,-74.69C2396,-67.05 2396,-57.86 2396,-49.24"/>
<polygon fill="black" stroke="black" points="2399.5,-49.15 2396,-39.15 2392.5,-49.15 2399.5,-49.15"/>
</g>
<!-- RLMYHMNJ -->
<g id="node68" class="node">
<title>RLMYHMNJ</title>
<ellipse fill="none" stroke="black" cx="2451" cy="-19.5" rx="18" ry="18"/>
<text text-anchor="middle" x="2451" y="-15.8" font-family="Times,serif" font-size="14.00">8</text>
</g>
<!-- TMWXHQED&#45;&gt;RLMYHMNJ -->
<g id="edge67" class="edge">
<title>TMWXHQED&#45;&gt;RLMYHMNJ</title>
<path fill="none" stroke="black" d="M2406.6,-78.21C2414.44,-68.02 2425.27,-53.95 2434.27,-42.25"/>
<polygon fill="black" stroke="black" points="2437.1,-44.3 2440.43,-34.24 2431.56,-40.03 2437.1,-44.3"/>
</g>
<!-- QQRHSCXR -->
<g id="node69" class="node">
<title>QQRHSCXR</title>
<ellipse fill="none" stroke="black" cx="2506" cy="-19.5" rx="19.5" ry="19.5"/>
<text text-anchor="middle" x="2506" y="-15.8" font-family="Times,serif" font-size="14.00">15</text>
</g>
<!-- TMWXHQED&#45;&gt;QQRHSCXR -->
<g id="edge68" class="edge">
<title>TMWXHQED&#45;&gt;QQRHSCXR</title>
<path fill="none" stroke="black" d="M2410.84,-82.47C2427.29,-71.89 2454.59,-54.3 2478,-39 2479.1,-38.28 2480.22,-37.55 2481.35,-36.8"/>
<polygon fill="black" stroke="black" points="2483.6,-39.51 2490.03,-31.09 2479.75,-33.67 2483.6,-39.51"/>
</g>
<!-- KNOVAVBA -->
<g id="node71" class="node">
<title>KNOVAVBA</title>
<ellipse fill="none" stroke="black" cx="2620" cy="-93" rx="18" ry="18"/>
</g>
<!-- QFOTQXVR&#45;&gt;KNOVAVBA -->
<g id="edge70" class="edge">
<title>QFOTQXVR&#45;&gt;KNOVAVBA</title>
<path fill="none" stroke="black" d="M2620,-146.69C2620,-138.98 2620,-129.71 2620,-121.11"/>
<polygon fill="black" stroke="black" points="2623.5,-121.1 2620,-111.1 2616.5,-121.1 2623.5,-121.1"/>
</g>
<!-- XTCFEZEF -->
<g id="node75" class="node">
<title>XTCFEZEF</title>
<ellipse fill="none" stroke="black" cx="2756" cy="-93" rx="18" ry="18"/>
</g>
<!-- QFOTQXVR&#45;&gt;XTCFEZEF -->
<g id="edge74" class="edge">
<title>QFOTQXVR&#45;&gt;XTCFEZEF</title>
<path fill="none" stroke="black" d="M2635.6,-155.97C2658.94,-143.95 2703.19,-121.18 2731.05,-106.84"/>
<polygon fill="black" stroke="black" points="2732.87,-109.84 2740.16,-102.15 2729.67,-103.61 2732.87,-109.84"/>
</g>
<!-- RVZHYDHK -->
<g id="node72" class="node">
<title>RVZHYDHK</title>
<ellipse fill="none" stroke="black" cx="2563" cy="-19.5" rx="19.5" ry="19.5"/>
<text text-anchor="middle" x="2563" y="-15.8" font-family="Times,serif" font-size="14.00">13</text>
</g>
<!-- KNOVAVBA&#45;&gt;RVZHYDHK -->
<g id="edge71" class="edge">
<title>KNOVAVBA&#45;&gt;RVZHYDHK</title>
<path fill="none" stroke="black" d="M2609.01,-78.21C2601.1,-68.28 2590.24,-54.67 2581.06,-43.16"/>
<polygon fill="black" stroke="black" points="2583.71,-40.86 2574.74,-35.23 2578.24,-45.23 2583.71,-40.86"/>
</g>
<!-- DMTSTZFV -->
<g id="node73" class="node">
<title>DMTSTZFV</title>
<ellipse fill="none" stroke="black" cx="2620" cy="-19.5" rx="19.5" ry="19.5"/>
<text text-anchor="middle" x="2620" y="-15.8" font-family="Times,serif" font-size="14.00">10</text>
</g>
<!-- KNOVAVBA&#45;&gt;DMTSTZFV -->
<g id="edge72" class="edge">
<title>KNOVAVBA&#45;&gt;DMTSTZFV</title>
<path fill="none" stroke="black" d="M2620,-74.69C2620,-67.05 2620,-57.86 2620,-49.24"/>
<polygon fill="black" stroke="black" points="2623.5,-49.15 2620,-39.15 2616.5,-49.15 2623.5,-49.15"/>
</g>
<!-- ZEAIYCTE -->
<g id="node74" class="node">
<title>ZEAIYCTE</title>
<ellipse fill="none" stroke="black" cx="2675" cy="-19.5" rx="18" ry="18"/>
<text text-anchor="middle" x="2675" y="-15.8" font-family="Times,serif" font-size="14.00">1</text>
</g>
<!-- KNOVAVBA&#45;&gt;ZEAIYCTE -->
<g id="edge73" class="edge">
<title>KNOVAVBA&#45;&gt;ZEAIYCTE</title>
<path fill="none" stroke="black" d="M2630.6,-78.21C2638.44,-68.02 2649.27,-53.95 2658.27,-42.25"/>
<polygon fill="black" stroke="black" points="2661.1,-44.3 2664.43,-34.24 2655.56,-40.03 2661.1,-44.3"/>
</g>
<!-- TCMMTYMB -->
<g id="node76" class="node">
<title>TCMMTYMB</title>
<ellipse fill="none" stroke="black" cx="2729" cy="-19.5" rx="18" ry="18"/>
<text text-anchor="middle" x="2729" y="-15.8" font-family="Times,serif" font-size="14.00">4</text>
</g>
<!-- XTCFEZEF&#45;&gt;TCMMTYMB -->
<g id="edge75" class="edge">
<title>XTCFEZEF&#45;&gt;TCMMTYMB</title>
<path fill="none" stroke="black" d="M2749.87,-75.77C2746.56,-67 2742.39,-55.96 2738.65,-46.05"/>
<polygon fill="black" stroke="black" points="2741.91,-44.78 2735.1,-36.66 2735.36,-47.25 2741.91,-44.78"/>
</g>
<!-- QYPJXZLB -->
<g id="node77" class="node">
<title>QYPJXZLB</title>
<ellipse fill="none" stroke="black" cx="2784" cy="-19.5" rx="19.5" ry="19.5"/>
<text text-anchor="middle" x="2784" y="-15.8" font-family="Times,serif" font-size="14.00">11</text>
</g>
<!-- XTCFEZEF&#45;&gt;QYPJXZLB -->
<g id="edge76" class="edge">
<title>XTCFEZEF&#45;&gt;QYPJXZLB</title>
<path fill="none" stroke="black" d="M2762.35,-75.77C2765.63,-67.39 2769.72,-56.95 2773.46,-47.41"/>
<polygon fill="black" stroke="black" points="2776.79,-48.5 2777.18,-37.91 2770.28,-45.94 2776.79,-48.5"/>
</g>
<!-- SBWDNUYZ -->
<g id="node78" class="node">
<title>SBWDNUYZ</title>
<ellipse fill="none" stroke="black" cx="2841" cy="-19.5" rx="19.5" ry="19.5"/>
<text text-anchor="middle" x="2841" y="-15.8" font-family="Times,serif" font-size="14.00">10</text>
</g>
<!-- XTCFEZEF&#45;&gt;SBWDNUYZ -->
<g id="edge77" class="edge">
<title>XTCFEZEF&#45;&gt;SBWDNUYZ</title>
<path fill="none" stroke="black" d="M2769.28,-80.82C2782.48,-69.72 2802.97,-52.49 2818.68,-39.28"/>
<polygon fill="black" stroke="black" points="2820.99,-41.9 2826.39,-32.79 2816.48,-36.55 2820.99,-41.9"/>
</g>
</g>
</svg>
