<?xml version="1.0" encoding="UTF-8" standalone="no"?>
<!DOCTYPE svg PUBLIC "-//W3C//DTD SVG 1.1//EN"
 "http://www.w3.org/Graphics/SVG/1.1/DTD/svg11.dtd">
<!-- Generated by graphviz version 2.46.1 (20210213.1702)
 -->
<!-- Title: D Pages: 1 -->
<svg width="2958pt" height="335pt"
 viewBox="0.00 0.00 2958.50 335.00" xmlns="http://www.w3.org/2000/svg" xmlns:xlink="http://www.w3.org/1999/xlink">
<g id="graph0" class="graph" transform="scale(1 1) rotate(0) translate(4 331)">
<title>D</title>
<polygon fill="white" stroke="transparent" points="-4,4 -4,-331 2954.5,-331 2954.5,4 -4,4"/>
<!-- GILQYYIZ -->
<g id="node1" class="node">
<title>GILQYYIZ</title>
<ellipse fill="none" stroke="black" cx="1249" cy="-309" rx="18" ry="18"/>
</g>
<!-- DGSFMHIC -->
<g id="node2" class="node">
<title>DGSFMHIC</title>
<ellipse fill="none" stroke="black" cx="756" cy="-237" rx="18" ry="18"/>
</g>
<!-- GILQYYIZ&#45;&gt;DGSFMHIC -->
<g id="edge1" class="edge">
<title>GILQYYIZ&#45;&gt;DGSFMHIC</title>
<path fill="none" stroke="black" d="M1231.16,-305.46C1157.18,-294.96 874.12,-254.77 783.84,-241.95"/>
<polygon fill="black" stroke="black" points="784.21,-238.47 773.81,-240.53 783.22,-245.4 784.21,-238.47"/>
</g>
<!-- OPSSVLCM -->
<g id="node32" class="node">
<title>OPSSVLCM</title>
<ellipse fill="none" stroke="black" cx="1851" cy="-237" rx="18" ry="18"/>
</g>
<!-- GILQYYIZ&#45;&gt;OPSSVLCM -->
<g id="edge31" class="edge">
<title>GILQYYIZ&#45;&gt;OPSSVLCM</title>
<path fill="none" stroke="black" d="M1267.02,-305.9C1352.61,-295.95 1718.35,-253.42 1822.95,-241.26"/>
<polygon fill="black" stroke="black" points="1823.52,-244.72 1833.05,-240.08 1822.72,-237.76 1823.52,-244.72"/>
</g>
<!-- UFIXCHUW -->
<g id="node3" class="node">
<title>UFIXCHUW</title>
<ellipse fill="none" stroke="black" cx="212" cy="-165" rx="18" ry="18"/>
</g>
<!-- DGSFMHIC&#45;&gt;UFIXCHUW -->
<g id="edge2" class="edge">
<title>DGSFMHIC&#45;&gt;UFIXCHUW</title>
<path fill="none" stroke="black" d="M738.21,-233.71C658.87,-223.5 337.01,-182.08 239.88,-169.58"/>
<polygon fill="black" stroke="black" points="240.29,-166.11 229.93,-168.3 239.4,-173.05 240.29,-166.11"/>
</g>
<!-- WPQMKRWP -->
<g id="node12" class="node">
<title>WPQMKRWP</title>
<ellipse fill="none" stroke="black" cx="633" cy="-165" rx="18" ry="18"/>
</g>
<!-- DGSFMHIC&#45;&gt;WPQMKRWP -->
<g id="edge11" class="edge">
<title>DGSFMHIC&#45;&gt;WPQMKRWP</title>
<path fill="none" stroke="black" d="M740.67,-227.27C719.77,-215.38 682.11,-193.94 657.33,-179.84"/>
<polygon fill="black" stroke="black" points="658.94,-176.73 648.52,-174.83 655.48,-182.82 658.94,-176.73"/>
</g>
<!-- VKGXZNFK -->
<g id="node24" class="node">
<title>VKGXZNFK</title>
<ellipse fill="none" stroke="black" cx="837" cy="-165" rx="18" ry="18"/>
</g>
<!-- DGSFMHIC&#45;&gt;VKGXZNFK -->
<g id="edge23" class="edge">
<title>DGSFMHIC&#45;&gt;VKGXZNFK</title>
<path fill="none" stroke="black" d="M769.38,-224.44C782.11,-213.43 801.48,-196.69 816.23,-183.95"/>
<polygon fill="black" stroke="black" points="818.6,-186.53 823.87,-177.34 814.02,-181.23 818.6,-186.53"/>
</g>
<!-- EAJJTTDJ -->
<g id="node4" class="node">
<title>EAJJTTDJ</title>
<ellipse fill="none" stroke="black" cx="73" cy="-93" rx="18" ry="18"/>
</g>
<!-- UFIXCHUW&#45;&gt;EAJJTTDJ -->
<g id="edge3" class="edge">
<title>UFIXCHUW&#45;&gt;EAJJTTDJ</title>
<path fill="none" stroke="black" d="M196.33,-156.1C172.34,-144.02 126.32,-120.85 97.78,-106.48"/>
<polygon fill="black" stroke="black" points="99.34,-103.34 88.83,-101.97 96.19,-109.59 99.34,-103.34"/>
</g>
<!-- TGHKGCTG -->
<g id="node7" class="node">
<title>TGHKGCTG</title>
<ellipse fill="none" stroke="black" cx="212" cy="-93" rx="18" ry="18"/>
</g>
<!-- UFIXCHUW&#45;&gt;TGHKGCTG -->
<g id="edge6" class="edge">
<title>UFIXCHUW&#45;&gt;TGHKGCTG</title>
<path fill="none" stroke="black" d="M212,-146.69C212,-138.98 212,-129.71 212,-121.11"/>
<polygon fill="black" stroke="black" points="215.5,-121.1 212,-111.1 208.5,-121.1 215.5,-121.1"/>
</g>
<!-- NLECHNZK -->
<g id="node5" class="node">
<title>NLECHNZK</title>
<ellipse fill="none" stroke="black" cx="18" cy="-19.5" rx="18" ry="18"/>
<text text-anchor="middle" x="18" y="-15.8" font-family="Times,serif" font-size="14.00">7</text>
</g>
<!-- EAJJTTDJ&#45;&gt;NLECHNZK -->
<g id="edge4" class="edge">
<title>EAJJTTDJ&#45;&gt;NLECHNZK</title>
<path fill="none" stroke="black" d="M62.4,-78.21C54.56,-68.02 43.73,-53.95 34.73,-42.25"/>
<polygon fill="black" stroke="black" points="37.44,-40.03 28.57,-34.24 31.9,-44.3 37.44,-40.03"/>
</g>
<!-- ZMXQNERO -->
<g id="node6" class="node">
<title>ZMXQNERO</title>
<ellipse fill="none" stroke="black" cx="73" cy="-19.5" rx="19.5" ry="19.5"/>
<text text-anchor="middle" x="73" y="-15.8" font-family="Times,serif" font-size="14.00">15</text>
</g>
<!-- EAJJTTDJ&#45;&gt;ZMXQNERO -->
<g id="edge5" class="edge">
<title>EAJJTTDJ&#45;&gt;ZMXQNERO</title>
<path fill="none" stroke="black" d="M73,-74.69C73,-67.05 73,-57.86 73,-49.24"/>
<polygon fill="black" stroke="black" points="76.5,-49.15 73,-39.15 69.5,-49.15 76.5,-49.15"/>
</g>
<!-- QMIWYWJH -->
<g id="node8" class="node">
<title>QMIWYWJH</title>
<ellipse fill="none" stroke="black" cx="130" cy="-19.5" rx="19.5" ry="19.5"/>
<text text-anchor="middle" x="130" y="-15.8" font-family="Times,serif" font-size="14.00">14</text>
</g>
<!-- TGHKGCTG&#45;&gt;QMIWYWJH -->
<g id="edge7" class="edge">
<title>TGHKGCTG&#45;&gt;QMIWYWJH</title>
<path fill="none" stroke="black" d="M198.83,-80.51C186.22,-69.52 166.97,-52.73 152.03,-39.71"/>
<polygon fill="black" stroke="black" points="154.08,-36.85 144.24,-32.92 149.48,-42.13 154.08,-36.85"/>
</g>
<!-- FONVMWED -->
<g id="node9" class="node">
<title>FONVMWED</title>
<ellipse fill="none" stroke="black" cx="185" cy="-19.5" rx="18" ry="18"/>
<text text-anchor="middle" x="185" y="-15.8" font-family="Times,serif" font-size="14.00">2</text>
</g>
<!-- TGHKGCTG&#45;&gt;FONVMWED -->
<g id="edge8" class="edge">
<title>TGHKGCTG&#45;&gt;FONVMWED</title>
<path fill="none" stroke="black" d="M205.87,-75.77C202.56,-67 198.39,-55.96 194.65,-46.05"/>
<polygon fill="black" stroke="black" points="197.91,-44.78 191.1,-36.66 191.36,-47.25 197.91,-44.78"/>
</g>
<!-- KKRERAFU -->
<g id="node10" class="node">
<title>KKRERAFU</title>
<ellipse fill="none" stroke="black" cx="239" cy="-19.5" rx="18" ry="18"/>
<text text-anchor="middle" x="239" y="-15.8" font-family="Times,serif" font-size="14.00">0</text>
</g>
<!-- TGHKGCTG&#45;&gt;KKRERAFU -->
<g id="edge9" class="edge">
<title>TGHKGCTG&#45;&gt;KKRERAFU</title>
<path fill="none" stroke="black" d="M218.13,-75.77C221.44,-67 225.61,-55.96 229.35,-46.05"/>
<polygon fill="black" stroke="black" points="232.64,-47.25 232.9,-36.66 226.09,-44.78 232.64,-47.25"/>
</g>
<!-- VYJQYUHJ -->
<g id="node11" class="node">
<title>VYJQYUHJ</title>
<ellipse fill="none" stroke="black" cx="293" cy="-19.5" rx="18" ry="18"/>
<text text-anchor="middle" x="293" y="-15.8" font-family="Times,serif" font-size="14.00">0</text>
</g>
<!-- TGHKGCTG&#45;&gt;VYJQYUHJ -->
<g id="edge10" class="edge">
<title>TGHKGCTG&#45;&gt;VYJQYUHJ</title>
<path fill="none" stroke="black" d="M225.01,-80.51C237.69,-69.32 257.17,-52.12 272.04,-39"/>
<polygon fill="black" stroke="black" points="274.57,-41.44 279.75,-32.19 269.94,-36.19 274.57,-41.44"/>
</g>
<!-- MANMYIQM -->
<g id="node13" class="node">
<title>MANMYIQM</title>
<ellipse fill="none" stroke="black" cx="430" cy="-93" rx="18" ry="18"/>
</g>
<!-- WPQMKRWP&#45;&gt;MANMYIQM -->
<g id="edge12" class="edge">
<title>WPQMKRWP&#45;&gt;MANMYIQM</title>
<path fill="none" stroke="black" d="M616.04,-158.15C580.65,-145.95 498.72,-117.69 456.38,-103.09"/>
<polygon fill="black" stroke="black" points="457.36,-99.73 446.77,-99.78 455.08,-106.35 457.36,-99.73"/>
</g>
<!-- RXZCEQTL -->
<g id="node17" class="node">
<title>RXZCEQTL</title>
<ellipse fill="none" stroke="black" cx="592" cy="-93" rx="18" ry="18"/>
</g>
<!-- WPQMKRWP&#45;&gt;RXZCEQTL -->
<g id="edge16" class="edge">
<title>WPQMKRWP&#45;&gt;RXZCEQTL</title>
<path fill="none" stroke="black" d="M624.3,-149.15C618.92,-139.96 611.9,-127.96 605.77,-117.51"/>
<polygon fill="black" stroke="black" points="608.76,-115.68 600.68,-108.82 602.72,-119.22 608.76,-115.68"/>
</g>
<!-- YHPNWVOT -->
<g id="node21" class="node">
<title>YHPNWVOT</title>
<ellipse fill="none" stroke="black" cx="674" cy="-93" rx="18" ry="18"/>
</g>
<!-- WPQMKRWP&#45;&gt;YHPNWVOT -->
<g id="edge20" class="edge">
<title>WPQMKRWP&#45;&gt;YHPNWVOT</title>
<path fill="none" stroke="black" d="M641.7,-149.15C647.08,-139.96 654.1,-127.96 660.23,-117.51"/>
<polygon fill="black" stroke="black" points="663.28,-119.22 665.32,-108.82 657.24,-115.68 663.28,-119.22"/>
</g>
<!-- DZUGBJAO -->
<g id="node14" class="node">
<title>DZUGBJAO</title>
<ellipse fill="none" stroke="black" cx="348" cy="-19.5" rx="19.5" ry="19.5"/>
<text text-anchor="middle" x="348" y="-15.8" font-family="Times,serif" font-size="14.00">15</text>
</g>
<!-- MANMYIQM&#45;&gt;DZUGBJAO -->
<g id="edge13" class="edge">
<title>MANMYIQM&#45;&gt;DZUGBJAO</title>
<path fill="none" stroke="black" d="M416.83,-80.51C404.22,-69.52 384.97,-52.73 370.03,-39.71"/>
<polygon fill="black" stroke="black" points="372.08,-36.85 362.24,-32.92 367.48,-42.13 372.08,-36.85"/>
</g>
<!-- DJDQNUBK -->
<g id="node15" class="node">
<title>DJDQNUBK</title>
<ellipse fill="none" stroke="black" cx="403" cy="-19.5" rx="18" ry="18"/>
<text text-anchor="middle" x="403" y="-15.8" font-family="Times,serif" font-size="14.00">4</text>
</g>
<!-- MANMYIQM&#45;&gt;DJDQNUBK -->
<g id="edge14" class="edge">
<title>MANMYIQM&#45;&gt;DJDQNUBK</title>
<path fill="none" stroke="black" d="M423.87,-75.77C420.56,-67 416.39,-55.96 412.65,-46.05"/>
<polygon fill="black" stroke="black" points="415.91,-44.78 409.1,-36.66 409.36,-47.25 415.91,-44.78"/>
</g>
<!-- TXPXGWQB -->
<g id="node16" class="node">
<title>TXPXGWQB</title>
<ellipse fill="none" stroke="black" cx="457" cy="-19.5" rx="18" ry="18"/>
<text text-anchor="middle" x="457" y="-15.8" font-family="Times,serif" font-size="14.00">9</text>
</g>
<!-- MANMYIQM&#45;&gt;TXPXGWQB -->
<g id="edge15" class="edge">
<title>MANMYIQM&#45;&gt;TXPXGWQB</title>
<path fill="none" stroke="black" d="M436.13,-75.77C439.44,-67 443.61,-55.96 447.35,-46.05"/>
<polygon fill="black" stroke="black" points="450.64,-47.25 450.9,-36.66 444.09,-44.78 450.64,-47.25"/>
</g>
<!-- IFHHPTNY -->
<g id="node18" class="node">
<title>IFHHPTNY</title>
<ellipse fill="none" stroke="black" cx="511" cy="-19.5" rx="18" ry="18"/>
<text text-anchor="middle" x="511" y="-15.8" font-family="Times,serif" font-size="14.00">5</text>
</g>
<!-- RXZCEQTL&#45;&gt;IFHHPTNY -->
<g id="edge17" class="edge">
<title>RXZCEQTL&#45;&gt;IFHHPTNY</title>
<path fill="none" stroke="black" d="M578.99,-80.51C566.31,-69.32 546.83,-52.12 531.96,-39"/>
<polygon fill="black" stroke="black" points="534.06,-36.19 524.25,-32.19 529.43,-41.44 534.06,-36.19"/>
</g>
<!-- RKYOZBDH -->
<g id="node19" class="node">
<title>RKYOZBDH</title>
<ellipse fill="none" stroke="black" cx="565" cy="-19.5" rx="18" ry="18"/>
<text text-anchor="middle" x="565" y="-15.8" font-family="Times,serif" font-size="14.00">5</text>
</g>
<!-- RXZCEQTL&#45;&gt;RKYOZBDH -->
<g id="edge18" class="edge">
<title>RXZCEQTL&#45;&gt;RKYOZBDH</title>
<path fill="none" stroke="black" d="M585.87,-75.77C582.56,-67 578.39,-55.96 574.65,-46.05"/>
<polygon fill="black" stroke="black" points="577.91,-44.78 571.1,-36.66 571.36,-47.25 577.91,-44.78"/>
</g>
<!-- YPQBBOHY -->
<g id="node20" class="node">
<title>YPQBBOHY</title>
<ellipse fill="none" stroke="black" cx="619" cy="-19.5" rx="18" ry="18"/>
<text text-anchor="middle" x="619" y="-15.8" font-family="Times,serif" font-size="14.00">9</text>
</g>
<!-- RXZCEQTL&#45;&gt;YPQBBOHY -->
<g id="edge19" class="edge">
<title>RXZCEQTL&#45;&gt;YPQBBOHY</title>
<path fill="none" stroke="black" d="M598.13,-75.77C601.44,-67 605.61,-55.96 609.35,-46.05"/>
<polygon fill="black" stroke="black" points="612.64,-47.25 612.9,-36.66 606.09,-44.78 612.64,-47.25"/>
</g>
<!-- CATZYKGP -->
<g id="node22" class="node">
<title>CATZYKGP</title>
<ellipse fill="none" stroke="black" cx="674" cy="-19.5" rx="19.5" ry="19.5"/>
<text text-anchor="middle" x="674" y="-15.8" font-family="Times,serif" font-size="14.00">10</text>
</g>
<!-- YHPNWVOT&#45;&gt;CATZYKGP -->
<g id="edge21" class="edge">
<title>YHPNWVOT&#45;&gt;CATZYKGP</title>
<path fill="none" stroke="black" d="M674,-74.69C674,-67.05 674,-57.86 674,-49.24"/>
<polygon fill="black" stroke="black" points="677.5,-49.15 674,-39.15 670.5,-49.15 677.5,-49.15"/>
</g>
<!-- SQWFLACE -->
<g id="node23" class="node">
<title>SQWFLACE</title>
<ellipse fill="none" stroke="black" cx="729" cy="-19.5" rx="18" ry="18"/>
<text text-anchor="middle" x="729" y="-15.8" font-family="Times,serif" font-size="14.00">6</text>
</g>
<!-- YHPNWVOT&#45;&gt;SQWFLACE -->
<g id="edge22" class="edge">
<title>YHPNWVOT&#45;&gt;SQWFLACE</title>
<path fill="none" stroke="black" d="M684.6,-78.21C692.44,-68.02 703.27,-53.95 712.27,-42.25"/>
<polygon fill="black" stroke="black" points="715.1,-44.3 718.43,-34.24 709.56,-40.03 715.1,-44.3"/>
</g>
<!-- CJNLOPZR -->
<g id="node25" class="node">
<title>CJNLOPZR</title>
<ellipse fill="none" stroke="black" cx="837" cy="-93" rx="18" ry="18"/>
</g>
<!-- VKGXZNFK&#45;&gt;CJNLOPZR -->
<g id="edge24" class="edge">
<title>VKGXZNFK&#45;&gt;CJNLOPZR</title>
<path fill="none" stroke="black" d="M837,-146.69C837,-138.98 837,-129.71 837,-121.11"/>
<polygon fill="black" stroke="black" points="840.5,-121.1 837,-111.1 833.5,-121.1 840.5,-121.1"/>
</g>
<!-- ALICQQHH -->
<g id="node29" class="node">
<title>ALICQQHH</title>
<ellipse fill="none" stroke="black" cx="947" cy="-93" rx="18" ry="18"/>
</g>
<!-- VKGXZNFK&#45;&gt;ALICQQHH -->
<g id="edge28" class="edge">
<title>VKGXZNFK&#45;&gt;ALICQQHH</title>
<path fill="none" stroke="black" d="M851.84,-154.56C870.21,-142.87 901.72,-122.81 923.42,-109"/>
<polygon fill="black" stroke="black" points="925.49,-111.83 932.05,-103.51 921.73,-105.93 925.49,-111.83"/>
</g>
<!-- KFGCKWRR -->
<g id="node26" class="node">
<title>KFGCKWRR</title>
<ellipse fill="none" stroke="black" cx="783" cy="-19.5" rx="18" ry="18"/>
<text text-anchor="middle" x="783" y="-15.8" font-family="Times,serif" font-size="14.00">7</text>
</g>
<!-- CJNLOPZR&#45;&gt;KFGCKWRR -->
<g id="edge25" class="edge">
<title>CJNLOPZR&#45;&gt;KFGCKWRR</title>
<path fill="none" stroke="black" d="M826.59,-78.21C818.89,-68.02 808.26,-53.95 799.43,-42.25"/>
<polygon fill="black" stroke="black" points="802.2,-40.11 793.38,-34.24 796.61,-44.33 802.2,-40.11"/>
</g>
<!-- YZCDVOSE -->
<g id="node27" class="node">
<title>YZCDVOSE</title>
<ellipse fill="none" stroke="black" cx="837" cy="-19.5" rx="18" ry="18"/>
<text text-anchor="middle" x="837" y="-15.8" font-family="Times,serif" font-size="14.00">9</text>
</g>
<!-- CJNLOPZR&#45;&gt;YZCDVOSE -->
<g id="edge26" class="edge">
<title>CJNLOPZR&#45;&gt;YZCDVOSE</title>
<path fill="none" stroke="black" d="M837,-74.69C837,-66.61 837,-56.8 837,-47.76"/>
<polygon fill="black" stroke="black" points="840.5,-47.65 837,-37.65 833.5,-47.65 840.5,-47.65"/>
</g>
<!-- SEKOQCZM -->
<g id="node28" class="node">
<title>SEKOQCZM</title>
<ellipse fill="none" stroke="black" cx="892" cy="-19.5" rx="19.5" ry="19.5"/>
<text text-anchor="middle" x="892" y="-15.8" font-family="Times,serif" font-size="14.00">11</text>
</g>
<!-- CJNLOPZR&#45;&gt;SEKOQCZM -->
<g id="edge27" class="edge">
<title>CJNLOPZR&#45;&gt;SEKOQCZM</title>
<path fill="none" stroke="black" d="M847.6,-78.21C855.12,-68.45 865.38,-55.11 874.14,-43.72"/>
<polygon fill="black" stroke="black" points="877.16,-45.54 880.48,-35.48 871.61,-41.27 877.16,-45.54"/>
</g>
<!-- ZKCXMRGU -->
<g id="node30" class="node">
<title>ZKCXMRGU</title>
<ellipse fill="none" stroke="black" cx="947" cy="-19.5" rx="18" ry="18"/>
<text text-anchor="middle" x="947" y="-15.8" font-family="Times,serif" font-size="14.00">1</text>
</g>
<!-- ALICQQHH&#45;&gt;ZKCXMRGU -->
<g id="edge29" class="edge">
<title>ALICQQHH&#45;&gt;ZKCXMRGU</title>
<path fill="none" stroke="black" d="M947,-74.69C947,-66.61 947,-56.8 947,-47.76"/>
<polygon fill="black" stroke="black" points="950.5,-47.65 947,-37.65 943.5,-47.65 950.5,-47.65"/>
</g>
<!-- IQPBJSQA -->
<g id="node31" class="node">
<title>IQPBJSQA</title>
<ellipse fill="none" stroke="black" cx="1002" cy="-19.5" rx="19.5" ry="19.5"/>
<text text-anchor="middle" x="1002" y="-15.8" font-family="Times,serif" font-size="14.00">12</text>
</g>
<!-- ALICQQHH&#45;&gt;IQPBJSQA -->
<g id="edge30" class="edge">
<title>ALICQQHH&#45;&gt;IQPBJSQA</title>
<path fill="none" stroke="black" d="M957.6,-78.21C965.12,-68.45 975.38,-55.11 984.14,-43.72"/>
<polygon fill="black" stroke="black" points="987.16,-45.54 990.48,-35.48 981.61,-41.27 987.16,-45.54"/>
</g>
<!-- NCZIBSVC -->
<g id="node33" class="node">
<title>NCZIBSVC</title>
<ellipse fill="none" stroke="black" cx="1438" cy="-165" rx="18" ry="18"/>
</g>
<!-- OPSSVLCM&#45;&gt;NCZIBSVC -->
<g id="edge32" class="edge">
<title>OPSSVLCM&#45;&gt;NCZIBSVC</title>
<path fill="none" stroke="black" d="M1833.25,-232.99C1768.52,-222.02 1544.75,-184.09 1465.82,-170.71"/>
<polygon fill="black" stroke="black" points="1466.12,-167.21 1455.68,-168.99 1464.95,-174.12 1466.12,-167.21"/>
</g>
<!-- APABPJTL -->
<g id="node48" class="node">
<title>APABPJTL</title>
<ellipse fill="none" stroke="black" cx="1851" cy="-165" rx="18" ry="18"/>
</g>
<!-- OPSSVLCM&#45;&gt;APABPJTL -->
<g id="edge47" class="edge">
<title>OPSSVLCM&#45;&gt;APABPJTL</title>
<path fill="none" stroke="black" d="M1851,-218.69C1851,-210.98 1851,-201.71 1851,-193.11"/>
<polygon fill="black" stroke="black" points="1854.5,-193.1 1851,-183.1 1847.5,-193.1 1854.5,-193.1"/>
</g>
<!-- NGAMPCKX -->
<g id="node59" class="node">
<title>NGAMPCKX</title>
<ellipse fill="none" stroke="black" cx="2290" cy="-165" rx="18" ry="18"/>
</g>
<!-- OPSSVLCM&#45;&gt;NGAMPCKX -->
<g id="edge58" class="edge">
<title>OPSSVLCM&#45;&gt;NGAMPCKX</title>
<path fill="none" stroke="black" d="M1868.75,-233.17C1936.52,-222.36 2179.27,-183.65 2262.09,-170.45"/>
<polygon fill="black" stroke="black" points="2262.7,-173.89 2272.03,-168.86 2261.6,-166.98 2262.7,-173.89"/>
</g>
<!-- LUZECRXT -->
<g id="node75" class="node">
<title>LUZECRXT</title>
<ellipse fill="none" stroke="black" cx="2734" cy="-165" rx="18" ry="18"/>
</g>
<!-- OPSSVLCM&#45;&gt;LUZECRXT -->
<g id="edge74" class="edge">
<title>OPSSVLCM&#45;&gt;LUZECRXT</title>
<path fill="none" stroke="black" d="M1869.04,-234.57C1980.01,-225.77 2569.81,-179.01 2705.95,-168.22"/>
<polygon fill="black" stroke="black" points="2706.3,-171.7 2715.99,-167.42 2705.74,-164.73 2706.3,-171.7"/>
</g>
<!-- QBRIIYVL -->
<g id="node34" class="node">
<title>QBRIIYVL</title>
<ellipse fill="none" stroke="black" cx="1166" cy="-93" rx="18" ry="18"/>
</g>
<!-- NCZIBSVC&#45;&gt;QBRIIYVL -->
<g id="edge33" class="edge">
<title>NCZIBSVC&#45;&gt;QBRIIYVL</title>
<path fill="none" stroke="black" d="M1420.57,-159.51C1374.42,-147.63 1248.76,-115.3 1193.13,-100.98"/>
<polygon fill="black" stroke="black" points="1193.84,-97.55 1183.28,-98.44 1192.1,-104.33 1193.84,-97.55"/>
</g>
<!-- ZJZGGQTW -->
<g id="node39" class="node">
<title>ZJZGGQTW</title>
<ellipse fill="none" stroke="black" cx="1384" cy="-93" rx="18" ry="18"/>
</g>
<!-- NCZIBSVC&#45;&gt;ZJZGGQTW -->
<g id="edge38" class="edge">
<title>NCZIBSVC&#45;&gt;ZJZGGQTW</title>
<path fill="none" stroke="black" d="M1427.33,-150.17C1419.79,-140.39 1409.52,-127.08 1400.87,-115.87"/>
<polygon fill="black" stroke="black" points="1403.53,-113.58 1394.65,-107.8 1397.98,-117.85 1403.53,-113.58"/>
</g>
<!-- DKVZTUJE -->
<g id="node44" class="node">
<title>DKVZTUJE</title>
<ellipse fill="none" stroke="black" cx="1520" cy="-93" rx="18" ry="18"/>
</g>
<!-- NCZIBSVC&#45;&gt;DKVZTUJE -->
<g id="edge43" class="edge">
<title>NCZIBSVC&#45;&gt;DKVZTUJE</title>
<path fill="none" stroke="black" d="M1451.54,-152.44C1464.44,-141.43 1484.04,-124.69 1498.97,-111.95"/>
<polygon fill="black" stroke="black" points="1501.38,-114.5 1506.71,-105.34 1496.83,-109.17 1501.38,-114.5"/>
</g>
<!-- TFOPNIUW -->
<g id="node35" class="node">
<title>TFOPNIUW</title>
<ellipse fill="none" stroke="black" cx="1057" cy="-19.5" rx="18" ry="18"/>
<text text-anchor="middle" x="1057" y="-15.8" font-family="Times,serif" font-size="14.00">1</text>
</g>
<!-- QBRIIYVL&#45;&gt;TFOPNIUW -->
<g id="edge34" class="edge">
<title>QBRIIYVL&#45;&gt;TFOPNIUW</title>
<path fill="none" stroke="black" d="M1151.11,-82.54C1134.62,-72.03 1107.28,-54.49 1084,-39 1082.73,-38.15 1081.43,-37.28 1080.11,-36.39"/>
<polygon fill="black" stroke="black" points="1081.76,-33.28 1071.52,-30.55 1077.83,-39.07 1081.76,-33.28"/>
</g>
<!-- FJUNMKCL -->
<g id="node36" class="node">
<title>FJUNMKCL</title>
<ellipse fill="none" stroke="black" cx="1111" cy="-19.5" rx="18" ry="18"/>
<text text-anchor="middle" x="1111" y="-15.8" font-family="Times,serif" font-size="14.00">9</text>
</g>
<!-- QBRIIYVL&#45;&gt;FJUNMKCL -->
<g id="edge35" class="edge">
<title>QBRIIYVL&#45;&gt;FJUNMKCL</title>
<path fill="none" stroke="black" d="M1155.4,-78.21C1147.56,-68.02 1136.73,-53.95 1127.73,-42.25"/>
<polygon fill="black" stroke="black" points="1130.44,-40.03 1121.57,-34.24 1124.9,-44.3 1130.44,-40.03"/>
</g>
<!-- QMNENEIO -->
<g id="node37" class="node">
<title>QMNENEIO</title>
<ellipse fill="none" stroke="black" cx="1166" cy="-19.5" rx="19.5" ry="19.5"/>
<text text-anchor="middle" x="1166" y="-15.8" font-family="Times,serif" font-size="14.00">10</text>
</g>
<!-- QBRIIYVL&#45;&gt;QMNENEIO -->
<g id="edge36" class="edge">
<title>QBRIIYVL&#45;&gt;QMNENEIO</title>
<path fill="none" stroke="black" d="M1166,-74.69C1166,-67.05 1166,-57.86 1166,-49.24"/>
<polygon fill="black" stroke="black" points="1169.5,-49.15 1166,-39.15 1162.5,-49.15 1169.5,-49.15"/>
</g>
<!-- DWDRXUYK -->
<g id="node38" class="node">
<title>DWDRXUYK</title>
<ellipse fill="none" stroke="black" cx="1221" cy="-19.5" rx="18" ry="18"/>
<text text-anchor="middle" x="1221" y="-15.8" font-family="Times,serif" font-size="14.00">0</text>
</g>
<!-- QBRIIYVL&#45;&gt;DWDRXUYK -->
<g id="edge37" class="edge">
<title>QBRIIYVL&#45;&gt;DWDRXUYK</title>
<path fill="none" stroke="black" d="M1176.6,-78.21C1184.44,-68.02 1195.27,-53.95 1204.27,-42.25"/>
<polygon fill="black" stroke="black" points="1207.1,-44.3 1210.43,-34.24 1201.56,-40.03 1207.1,-44.3"/>
</g>
<!-- VNPGGGCL -->
<g id="node40" class="node">
<title>VNPGGGCL</title>
<ellipse fill="none" stroke="black" cx="1275" cy="-19.5" rx="18" ry="18"/>
<text text-anchor="middle" x="1275" y="-15.8" font-family="Times,serif" font-size="14.00">9</text>
</g>
<!-- ZJZGGQTW&#45;&gt;VNPGGGCL -->
<g id="edge39" class="edge">
<title>ZJZGGQTW&#45;&gt;VNPGGGCL</title>
<path fill="none" stroke="black" d="M1369.11,-82.54C1352.62,-72.03 1325.28,-54.49 1302,-39 1300.73,-38.15 1299.43,-37.28 1298.11,-36.39"/>
<polygon fill="black" stroke="black" points="1299.76,-33.28 1289.52,-30.55 1295.83,-39.07 1299.76,-33.28"/>
</g>
<!-- CSTKPMEH -->
<g id="node41" class="node">
<title>CSTKPMEH</title>
<ellipse fill="none" stroke="black" cx="1329" cy="-19.5" rx="18" ry="18"/>
<text text-anchor="middle" x="1329" y="-15.8" font-family="Times,serif" font-size="14.00">1</text>
</g>
<!-- ZJZGGQTW&#45;&gt;CSTKPMEH -->
<g id="edge40" class="edge">
<title>ZJZGGQTW&#45;&gt;CSTKPMEH</title>
<path fill="none" stroke="black" d="M1373.4,-78.21C1365.56,-68.02 1354.73,-53.95 1345.73,-42.25"/>
<polygon fill="black" stroke="black" points="1348.44,-40.03 1339.57,-34.24 1342.9,-44.3 1348.44,-40.03"/>
</g>
<!-- PINDQADE -->
<g id="node42" class="node">
<title>PINDQADE</title>
<ellipse fill="none" stroke="black" cx="1384" cy="-19.5" rx="19.5" ry="19.5"/>
<text text-anchor="middle" x="1384" y="-15.8" font-family="Times,serif" font-size="14.00">13</text>
</g>
<!-- ZJZGGQTW&#45;&gt;PINDQADE -->
<g id="edge41" class="edge">
<title>ZJZGGQTW&#45;&gt;PINDQADE</title>
<path fill="none" stroke="black" d="M1384,-74.69C1384,-67.05 1384,-57.86 1384,-49.24"/>
<polygon fill="black" stroke="black" points="1387.5,-49.15 1384,-39.15 1380.5,-49.15 1387.5,-49.15"/>
</g>
<!-- HXWWDLPI -->
<g id="node43" class="node">
<title>HXWWDLPI</title>
<ellipse fill="none" stroke="black" cx="1439" cy="-19.5" rx="18" ry="18"/>
<text text-anchor="middle" x="1439" y="-15.8" font-family="Times,serif" font-size="14.00">9</text>
</g>
<!-- ZJZGGQTW&#45;&gt;HXWWDLPI -->
<g id="edge42" class="edge">
<title>ZJZGGQTW&#45;&gt;HXWWDLPI</title>
<path fill="none" stroke="black" d="M1394.6,-78.21C1402.44,-68.02 1413.27,-53.95 1422.27,-42.25"/>
<polygon fill="black" stroke="black" points="1425.1,-44.3 1428.43,-34.24 1419.56,-40.03 1425.1,-44.3"/>
</g>
<!-- GLLVVXCP -->
<g id="node45" class="node">
<title>GLLVVXCP</title>
<ellipse fill="none" stroke="black" cx="1493" cy="-19.5" rx="18" ry="18"/>
<text text-anchor="middle" x="1493" y="-15.8" font-family="Times,serif" font-size="14.00">4</text>
</g>
<!-- DKVZTUJE&#45;&gt;GLLVVXCP -->
<g id="edge44" class="edge">
<title>DKVZTUJE&#45;&gt;GLLVVXCP</title>
<path fill="none" stroke="black" d="M1513.87,-75.77C1510.56,-67 1506.39,-55.96 1502.65,-46.05"/>
<polygon fill="black" stroke="black" points="1505.91,-44.78 1499.1,-36.66 1499.36,-47.25 1505.91,-44.78"/>
</g>
<!-- ARSOZYKX -->
<g id="node46" class="node">
<title>ARSOZYKX</title>
<ellipse fill="none" stroke="black" cx="1548" cy="-19.5" rx="19.5" ry="19.5"/>
<text text-anchor="middle" x="1548" y="-15.8" font-family="Times,serif" font-size="14.00">11</text>
</g>
<!-- DKVZTUJE&#45;&gt;ARSOZYKX -->
<g id="edge45" class="edge">
<title>DKVZTUJE&#45;&gt;ARSOZYKX</title>
<path fill="none" stroke="black" d="M1526.35,-75.77C1529.63,-67.39 1533.72,-56.95 1537.46,-47.41"/>
<polygon fill="black" stroke="black" points="1540.79,-48.5 1541.18,-37.91 1534.28,-45.94 1540.79,-48.5"/>
</g>
<!-- QQUJNDAC -->
<g id="node47" class="node">
<title>QQUJNDAC</title>
<ellipse fill="none" stroke="black" cx="1603" cy="-19.5" rx="18" ry="18"/>
<text text-anchor="middle" x="1603" y="-15.8" font-family="Times,serif" font-size="14.00">2</text>
</g>
<!-- DKVZTUJE&#45;&gt;QQUJNDAC -->
<g id="edge46" class="edge">
<title>DKVZTUJE&#45;&gt;QQUJNDAC</title>
<path fill="none" stroke="black" d="M1533.34,-80.51C1546.4,-69.25 1566.53,-51.92 1581.79,-38.77"/>
<polygon fill="black" stroke="black" points="1584.41,-41.14 1589.7,-31.96 1579.84,-35.83 1584.41,-41.14"/>
</g>
<!-- OPOCAXYS -->
<g id="node49" class="node">
<title>OPOCAXYS</title>
<ellipse fill="none" stroke="black" cx="1742" cy="-93" rx="18" ry="18"/>
</g>
<!-- APABPJTL&#45;&gt;OPOCAXYS -->
<g id="edge48" class="edge">
<title>APABPJTL&#45;&gt;OPOCAXYS</title>
<path fill="none" stroke="black" d="M1836.3,-154.56C1818.1,-142.87 1786.87,-122.81 1765.37,-109"/>
<polygon fill="black" stroke="black" points="1767.12,-105.97 1756.82,-103.51 1763.34,-111.86 1767.12,-105.97"/>
</g>
<!-- AVCOPIPC -->
<g id="node53" class="node">
<title>AVCOPIPC</title>
<ellipse fill="none" stroke="black" cx="1851" cy="-93" rx="18" ry="18"/>
</g>
<!-- APABPJTL&#45;&gt;AVCOPIPC -->
<g id="edge52" class="edge">
<title>APABPJTL&#45;&gt;AVCOPIPC</title>
<path fill="none" stroke="black" d="M1851,-146.69C1851,-138.98 1851,-129.71 1851,-121.11"/>
<polygon fill="black" stroke="black" points="1854.5,-121.1 1851,-111.1 1847.5,-121.1 1854.5,-121.1"/>
</g>
<!-- PWNMUFFD -->
<g id="node56" class="node">
<title>PWNMUFFD</title>
<ellipse fill="none" stroke="black" cx="1933" cy="-93" rx="18" ry="18"/>
</g>
<!-- APABPJTL&#45;&gt;PWNMUFFD -->
<g id="edge55" class="edge">
<title>APABPJTL&#45;&gt;PWNMUFFD</title>
<path fill="none" stroke="black" d="M1864.54,-152.44C1877.44,-141.43 1897.04,-124.69 1911.97,-111.95"/>
<polygon fill="black" stroke="black" points="1914.38,-114.5 1919.71,-105.34 1909.83,-109.17 1914.38,-114.5"/>
</g>
<!-- TVUPTAVE -->
<g id="node50" class="node">
<title>TVUPTAVE</title>
<ellipse fill="none" stroke="black" cx="1658" cy="-19.5" rx="19.5" ry="19.5"/>
<text text-anchor="middle" x="1658" y="-15.8" font-family="Times,serif" font-size="14.00">14</text>
</g>
<!-- OPOCAXYS&#45;&gt;TVUPTAVE -->
<g id="edge49" class="edge">
<title>OPOCAXYS&#45;&gt;TVUPTAVE</title>
<path fill="none" stroke="black" d="M1728.5,-80.51C1715.59,-69.52 1695.87,-52.73 1680.57,-39.71"/>
<polygon fill="black" stroke="black" points="1682.47,-36.73 1672.59,-32.92 1677.94,-42.06 1682.47,-36.73"/>
</g>
<!-- UEJEFQJG -->
<g id="node51" class="node">
<title>UEJEFQJG</title>
<ellipse fill="none" stroke="black" cx="1715" cy="-19.5" rx="19.5" ry="19.5"/>
<text text-anchor="middle" x="1715" y="-15.8" font-family="Times,serif" font-size="14.00">14</text>
</g>
<!-- OPOCAXYS&#45;&gt;UEJEFQJG -->
<g id="edge50" class="edge">
<title>OPOCAXYS&#45;&gt;UEJEFQJG</title>
<path fill="none" stroke="black" d="M1735.87,-75.77C1732.71,-67.39 1728.77,-56.95 1725.16,-47.41"/>
<polygon fill="black" stroke="black" points="1728.38,-46.03 1721.57,-37.91 1721.83,-48.5 1728.38,-46.03"/>
</g>
<!-- FDMJJVQL -->
<g id="node52" class="node">
<title>FDMJJVQL</title>
<ellipse fill="none" stroke="black" cx="1770" cy="-19.5" rx="18" ry="18"/>
<text text-anchor="middle" x="1770" y="-15.8" font-family="Times,serif" font-size="14.00">7</text>
</g>
<!-- OPOCAXYS&#45;&gt;FDMJJVQL -->
<g id="edge51" class="edge">
<title>OPOCAXYS&#45;&gt;FDMJJVQL</title>
<path fill="none" stroke="black" d="M1748.35,-75.77C1751.79,-67 1756.11,-55.96 1759.99,-46.05"/>
<polygon fill="black" stroke="black" points="1763.28,-47.25 1763.67,-36.66 1756.77,-44.69 1763.28,-47.25"/>
</g>
<!-- JHJXRUHT -->
<g id="node54" class="node">
<title>JHJXRUHT</title>
<ellipse fill="none" stroke="black" cx="1824" cy="-19.5" rx="18" ry="18"/>
<text text-anchor="middle" x="1824" y="-15.8" font-family="Times,serif" font-size="14.00">4</text>
</g>
<!-- AVCOPIPC&#45;&gt;JHJXRUHT -->
<g id="edge53" class="edge">
<title>AVCOPIPC&#45;&gt;JHJXRUHT</title>
<path fill="none" stroke="black" d="M1844.87,-75.77C1841.56,-67 1837.39,-55.96 1833.65,-46.05"/>
<polygon fill="black" stroke="black" points="1836.91,-44.78 1830.1,-36.66 1830.36,-47.25 1836.91,-44.78"/>
</g>
<!-- OCJTRWXD -->
<g id="node55" class="node">
<title>OCJTRWXD</title>
<ellipse fill="none" stroke="black" cx="1878" cy="-19.5" rx="18" ry="18"/>
<text text-anchor="middle" x="1878" y="-15.8" font-family="Times,serif" font-size="14.00">1</text>
</g>
<!-- AVCOPIPC&#45;&gt;OCJTRWXD -->
<g id="edge54" class="edge">
<title>AVCOPIPC&#45;&gt;OCJTRWXD</title>
<path fill="none" stroke="black" d="M1857.13,-75.77C1860.44,-67 1864.61,-55.96 1868.35,-46.05"/>
<polygon fill="black" stroke="black" points="1871.64,-47.25 1871.9,-36.66 1865.09,-44.78 1871.64,-47.25"/>
</g>
<!-- QMJUSYTW -->
<g id="node57" class="node">
<title>QMJUSYTW</title>
<ellipse fill="none" stroke="black" cx="1933" cy="-19.5" rx="19.5" ry="19.5"/>
<text text-anchor="middle" x="1933" y="-15.8" font-family="Times,serif" font-size="14.00">10</text>
</g>
<!-- PWNMUFFD&#45;&gt;QMJUSYTW -->
<g id="edge56" class="edge">
<title>PWNMUFFD&#45;&gt;QMJUSYTW</title>
<path fill="none" stroke="black" d="M1933,-74.69C1933,-67.05 1933,-57.86 1933,-49.24"/>
<polygon fill="black" stroke="black" points="1936.5,-49.15 1933,-39.15 1929.5,-49.15 1936.5,-49.15"/>
</g>
<!-- RNUAVCAW -->
<g id="node58" class="node">
<title>RNUAVCAW</title>
<ellipse fill="none" stroke="black" cx="1990" cy="-19.5" rx="19.5" ry="19.5"/>
<text text-anchor="middle" x="1990" y="-15.8" font-family="Times,serif" font-size="14.00">14</text>
</g>
<!-- PWNMUFFD&#45;&gt;RNUAVCAW -->
<g id="edge57" class="edge">
<title>PWNMUFFD&#45;&gt;RNUAVCAW</title>
<path fill="none" stroke="black" d="M1943.99,-78.21C1951.9,-68.28 1962.76,-54.67 1971.94,-43.16"/>
<polygon fill="black" stroke="black" points="1974.76,-45.23 1978.26,-35.23 1969.29,-40.86 1974.76,-45.23"/>
</g>
<!-- LJLGCZIV -->
<g id="node60" class="node">
<title>LJLGCZIV</title>
<ellipse fill="none" stroke="black" cx="2153" cy="-93" rx="18" ry="18"/>
</g>
<!-- NGAMPCKX&#45;&gt;LJLGCZIV -->
<g id="edge59" class="edge">
<title>NGAMPCKX&#45;&gt;LJLGCZIV</title>
<path fill="none" stroke="black" d="M2274.28,-155.97C2250.77,-143.95 2206.2,-121.18 2178.13,-106.84"/>
<polygon fill="black" stroke="black" points="2179.45,-103.58 2168.95,-102.15 2176.27,-109.82 2179.45,-103.58"/>
</g>
<!-- ZDFLNGNS -->
<g id="node65" class="node">
<title>ZDFLNGNS</title>
<ellipse fill="none" stroke="black" cx="2290" cy="-93" rx="18" ry="18"/>
</g>
<!-- NGAMPCKX&#45;&gt;ZDFLNGNS -->
<g id="edge64" class="edge">
<title>NGAMPCKX&#45;&gt;ZDFLNGNS</title>
<path fill="none" stroke="black" d="M2290,-146.69C2290,-138.98 2290,-129.71 2290,-121.11"/>
<polygon fill="black" stroke="black" points="2293.5,-121.1 2290,-111.1 2286.5,-121.1 2293.5,-121.1"/>
</g>
<!-- IZWRNWMN -->
<g id="node68" class="node">
<title>IZWRNWMN</title>
<ellipse fill="none" stroke="black" cx="2401" cy="-93" rx="18" ry="18"/>
</g>
<!-- NGAMPCKX&#45;&gt;IZWRNWMN -->
<g id="edge67" class="edge">
<title>NGAMPCKX&#45;&gt;IZWRNWMN</title>
<path fill="none" stroke="black" d="M2304.97,-154.56C2323.51,-142.87 2355.31,-122.81 2377.2,-109"/>
<polygon fill="black" stroke="black" points="2379.32,-111.81 2385.91,-103.51 2375.59,-105.88 2379.32,-111.81"/>
</g>
<!-- FOHPBDDI -->
<g id="node72" class="node">
<title>FOHPBDDI</title>
<ellipse fill="none" stroke="black" cx="2543" cy="-93" rx="18" ry="18"/>
</g>
<!-- NGAMPCKX&#45;&gt;FOHPBDDI -->
<g id="edge71" class="edge">
<title>NGAMPCKX&#45;&gt;FOHPBDDI</title>
<path fill="none" stroke="black" d="M2307.39,-159.19C2350.73,-147.19 2463.82,-115.9 2515.96,-101.48"/>
<polygon fill="black" stroke="black" points="2517.12,-104.79 2525.82,-98.75 2515.25,-98.04 2517.12,-104.79"/>
</g>
<!-- MSDELOMA -->
<g id="node61" class="node">
<title>MSDELOMA</title>
<ellipse fill="none" stroke="black" cx="2045" cy="-19.5" rx="18" ry="18"/>
<text text-anchor="middle" x="2045" y="-15.8" font-family="Times,serif" font-size="14.00">8</text>
</g>
<!-- LJLGCZIV&#45;&gt;MSDELOMA -->
<g id="edge60" class="edge">
<title>LJLGCZIV&#45;&gt;MSDELOMA</title>
<path fill="none" stroke="black" d="M2138.31,-82.52C2122.03,-71.98 2095.04,-54.42 2072,-39 2070.73,-38.15 2069.43,-37.27 2068.12,-36.39"/>
<polygon fill="black" stroke="black" points="2069.77,-33.27 2059.53,-30.54 2065.83,-39.06 2069.77,-33.27"/>
</g>
<!-- OYBJDTMW -->
<g id="node62" class="node">
<title>OYBJDTMW</title>
<ellipse fill="none" stroke="black" cx="2099" cy="-19.5" rx="18" ry="18"/>
<text text-anchor="middle" x="2099" y="-15.8" font-family="Times,serif" font-size="14.00">0</text>
</g>
<!-- LJLGCZIV&#45;&gt;OYBJDTMW -->
<g id="edge61" class="edge">
<title>LJLGCZIV&#45;&gt;OYBJDTMW</title>
<path fill="none" stroke="black" d="M2142.59,-78.21C2134.89,-68.02 2124.26,-53.95 2115.43,-42.25"/>
<polygon fill="black" stroke="black" points="2118.2,-40.11 2109.38,-34.24 2112.61,-44.33 2118.2,-40.11"/>
</g>
<!-- QPAFAYBF -->
<g id="node63" class="node">
<title>QPAFAYBF</title>
<ellipse fill="none" stroke="black" cx="2153" cy="-19.5" rx="18" ry="18"/>
<text text-anchor="middle" x="2153" y="-15.8" font-family="Times,serif" font-size="14.00">5</text>
</g>
<!-- LJLGCZIV&#45;&gt;QPAFAYBF -->
<g id="edge62" class="edge">
<title>LJLGCZIV&#45;&gt;QPAFAYBF</title>
<path fill="none" stroke="black" d="M2153,-74.69C2153,-66.61 2153,-56.8 2153,-47.76"/>
<polygon fill="black" stroke="black" points="2156.5,-47.65 2153,-37.65 2149.5,-47.65 2156.5,-47.65"/>
</g>
<!-- TANCINJA -->
<g id="node64" class="node">
<title>TANCINJA</title>
<ellipse fill="none" stroke="black" cx="2207" cy="-19.5" rx="18" ry="18"/>
<text text-anchor="middle" x="2207" y="-15.8" font-family="Times,serif" font-size="14.00">6</text>
</g>
<!-- LJLGCZIV&#45;&gt;TANCINJA -->
<g id="edge63" class="edge">
<title>LJLGCZIV&#45;&gt;TANCINJA</title>
<path fill="none" stroke="black" d="M2163.41,-78.21C2171.11,-68.02 2181.74,-53.95 2190.57,-42.25"/>
<polygon fill="black" stroke="black" points="2193.39,-44.33 2196.62,-34.24 2187.8,-40.11 2193.39,-44.33"/>
</g>
<!-- FTYSDCQH -->
<g id="node66" class="node">
<title>FTYSDCQH</title>
<ellipse fill="none" stroke="black" cx="2262" cy="-19.5" rx="19.5" ry="19.5"/>
<text text-anchor="middle" x="2262" y="-15.8" font-family="Times,serif" font-size="14.00">10</text>
</g>
<!-- ZDFLNGNS&#45;&gt;FTYSDCQH -->
<g id="edge65" class="edge">
<title>ZDFLNGNS&#45;&gt;FTYSDCQH</title>
<path fill="none" stroke="black" d="M2283.65,-75.77C2280.37,-67.39 2276.28,-56.95 2272.54,-47.41"/>
<polygon fill="black" stroke="black" points="2275.72,-45.94 2268.82,-37.91 2269.21,-48.5 2275.72,-45.94"/>
</g>
<!-- NZEZVETN -->
<g id="node67" class="node">
<title>NZEZVETN</title>
<ellipse fill="none" stroke="black" cx="2319" cy="-19.5" rx="19.5" ry="19.5"/>
<text text-anchor="middle" x="2319" y="-15.8" font-family="Times,serif" font-size="14.00">15</text>
</g>
<!-- ZDFLNGNS&#45;&gt;NZEZVETN -->
<g id="edge66" class="edge">
<title>ZDFLNGNS&#45;&gt;NZEZVETN</title>
<path fill="none" stroke="black" d="M2296.44,-76.13C2299.89,-67.61 2304.24,-56.89 2308.2,-47.14"/>
<polygon fill="black" stroke="black" points="2311.46,-48.41 2311.97,-37.82 2304.97,-45.77 2311.46,-48.41"/>
</g>
<!-- FAVMHLEA -->
<g id="node69" class="node">
<title>FAVMHLEA</title>
<ellipse fill="none" stroke="black" cx="2374" cy="-19.5" rx="18" ry="18"/>
<text text-anchor="middle" x="2374" y="-15.8" font-family="Times,serif" font-size="14.00">1</text>
</g>
<!-- IZWRNWMN&#45;&gt;FAVMHLEA -->
<g id="edge68" class="edge">
<title>IZWRNWMN&#45;&gt;FAVMHLEA</title>
<path fill="none" stroke="black" d="M2394.87,-75.77C2391.56,-67 2387.39,-55.96 2383.65,-46.05"/>
<polygon fill="black" stroke="black" points="2386.91,-44.78 2380.1,-36.66 2380.36,-47.25 2386.91,-44.78"/>
</g>
<!-- TFFVBQNX -->
<g id="node70" class="node">
<title>TFFVBQNX</title>
<ellipse fill="none" stroke="black" cx="2429" cy="-19.5" rx="19.5" ry="19.5"/>
<text text-anchor="middle" x="2429" y="-15.8" font-family="Times,serif" font-size="14.00">14</text>
</g>
<!-- IZWRNWMN&#45;&gt;TFFVBQNX -->
<g id="edge69" class="edge">
<title>IZWRNWMN&#45;&gt;TFFVBQNX</title>
<path fill="none" stroke="black" d="M2407.35,-75.77C2410.63,-67.39 2414.72,-56.95 2418.46,-47.41"/>
<polygon fill="black" stroke="black" points="2421.79,-48.5 2422.18,-37.91 2415.28,-45.94 2421.79,-48.5"/>
</g>
<!-- CIAAJQYR -->
<g id="node71" class="node">
<title>CIAAJQYR</title>
<ellipse fill="none" stroke="black" cx="2486" cy="-19.5" rx="19.5" ry="19.5"/>
<text text-anchor="middle" x="2486" y="-15.8" font-family="Times,serif" font-size="14.00">13</text>
</g>
<!-- IZWRNWMN&#45;&gt;CIAAJQYR -->
<g id="edge70" class="edge">
<title>IZWRNWMN&#45;&gt;CIAAJQYR</title>
<path fill="none" stroke="black" d="M2414.28,-80.82C2427.48,-69.72 2447.97,-52.49 2463.68,-39.28"/>
<polygon fill="black" stroke="black" points="2465.99,-41.9 2471.39,-32.79 2461.48,-36.55 2465.99,-41.9"/>
</g>
<!-- ORPVKNTO -->
<g id="node73" class="node">
<title>ORPVKNTO</title>
<ellipse fill="none" stroke="black" cx="2543" cy="-19.5" rx="19.5" ry="19.5"/>
<text text-anchor="middle" x="2543" y="-15.8" font-family="Times,serif" font-size="14.00">10</text>
</g>
<!-- FOHPBDDI&#45;&gt;ORPVKNTO -->
<g id="edge72" class="edge">
<title>FOHPBDDI&#45;&gt;ORPVKNTO</title>
<path fill="none" stroke="black" d="M2543,-74.69C2543,-67.05 2543,-57.86 2543,-49.24"/>
<polygon fill="black" stroke="black" points="2546.5,-49.15 2543,-39.15 2539.5,-49.15 2546.5,-49.15"/>
</g>
<!-- QVDICNQR -->
<g id="node74" class="node">
<title>QVDICNQR</title>
<ellipse fill="none" stroke="black" cx="2598" cy="-19.5" rx="18" ry="18"/>
<text text-anchor="middle" x="2598" y="-15.8" font-family="Times,serif" font-size="14.00">4</text>
</g>
<!-- FOHPBDDI&#45;&gt;QVDICNQR -->
<g id="edge73" class="edge">
<title>FOHPBDDI&#45;&gt;QVDICNQR</title>
<path fill="none" stroke="black" d="M2553.6,-78.21C2561.44,-68.02 2572.27,-53.95 2581.27,-42.25"/>
<polygon fill="black" stroke="black" points="2584.1,-44.3 2587.43,-34.24 2578.56,-40.03 2584.1,-44.3"/>
</g>
<!-- GEJWRTRG -->
<g id="node76" class="node">
<title>GEJWRTRG</title>
<ellipse fill="none" stroke="black" cx="2734" cy="-93" rx="18" ry="18"/>
</g>
<!-- LUZECRXT&#45;&gt;GEJWRTRG -->
<g id="edge75" class="edge">
<title>LUZECRXT&#45;&gt;GEJWRTRG</title>
<path fill="none" stroke="black" d="M2734,-146.69C2734,-138.98 2734,-129.71 2734,-121.11"/>
<polygon fill="black" stroke="black" points="2737.5,-121.1 2734,-111.1 2730.5,-121.1 2737.5,-121.1"/>
</g>
<!-- XNLUEGXA -->
<g id="node81" class="node">
<title>XNLUEGXA</title>
<ellipse fill="none" stroke="black" cx="2874" cy="-93" rx="18" ry="18"/>
</g>
<!-- LUZECRXT&#45;&gt;XNLUEGXA -->
<g id="edge80" class="edge">
<title>LUZECRXT&#45;&gt;XNLUEGXA</title>
<path fill="none" stroke="black" d="M2749.79,-156.1C2773.94,-144.02 2820.3,-120.85 2849.04,-106.48"/>
<polygon fill="black" stroke="black" points="2850.68,-109.57 2858.06,-101.97 2847.55,-103.31 2850.68,-109.57"/>
</g>
<!-- SCVOZJKT -->
<g id="node77" class="node">
<title>SCVOZJKT</title>
<ellipse fill="none" stroke="black" cx="2652" cy="-19.5" rx="18" ry="18"/>
<text text-anchor="middle" x="2652" y="-15.8" font-family="Times,serif" font-size="14.00">3</text>
</g>
<!-- GEJWRTRG&#45;&gt;SCVOZJKT -->
<g id="edge76" class="edge">
<title>GEJWRTRG&#45;&gt;SCVOZJKT</title>
<path fill="none" stroke="black" d="M2720.83,-80.51C2707.91,-69.25 2688.03,-51.92 2672.95,-38.77"/>
<polygon fill="black" stroke="black" points="2674.98,-35.89 2665.14,-31.96 2670.38,-41.17 2674.98,-35.89"/>
</g>
<!-- MLAXZGLH -->
<g id="node78" class="node">
<title>MLAXZGLH</title>
<ellipse fill="none" stroke="black" cx="2707" cy="-19.5" rx="19.5" ry="19.5"/>
<text text-anchor="middle" x="2707" y="-15.8" font-family="Times,serif" font-size="14.00">11</text>
</g>
<!-- GEJWRTRG&#45;&gt;MLAXZGLH -->
<g id="edge77" class="edge">
<title>GEJWRTRG&#45;&gt;MLAXZGLH</title>
<path fill="none" stroke="black" d="M2727.87,-75.77C2724.71,-67.39 2720.77,-56.95 2717.16,-47.41"/>
<polygon fill="black" stroke="black" points="2720.38,-46.03 2713.57,-37.91 2713.83,-48.5 2720.38,-46.03"/>
</g>
<!-- HAXQQBCX -->
<g id="node79" class="node">
<title>HAXQQBCX</title>
<ellipse fill="none" stroke="black" cx="2762" cy="-19.5" rx="18" ry="18"/>
<text text-anchor="middle" x="2762" y="-15.8" font-family="Times,serif" font-size="14.00">4</text>
</g>
<!-- GEJWRTRG&#45;&gt;HAXQQBCX -->
<g id="edge78" class="edge">
<title>GEJWRTRG&#45;&gt;HAXQQBCX</title>
<path fill="none" stroke="black" d="M2740.35,-75.77C2743.79,-67 2748.11,-55.96 2751.99,-46.05"/>
<polygon fill="black" stroke="black" points="2755.28,-47.25 2755.67,-36.66 2748.77,-44.69 2755.28,-47.25"/>
</g>
<!-- AOZCCMJX -->
<g id="node80" class="node">
<title>AOZCCMJX</title>
<ellipse fill="none" stroke="black" cx="2817" cy="-19.5" rx="19.5" ry="19.5"/>
<text text-anchor="middle" x="2817" y="-15.8" font-family="Times,serif" font-size="14.00">14</text>
</g>
<!-- GEJWRTRG&#45;&gt;AOZCCMJX -->
<g id="edge79" class="edge">
<title>GEJWRTRG&#45;&gt;AOZCCMJX</title>
<path fill="none" stroke="black" d="M2747.34,-80.51C2760.09,-69.52 2779.58,-52.73 2794.7,-39.71"/>
<polygon fill="black" stroke="black" points="2797.29,-42.1 2802.58,-32.92 2792.72,-36.79 2797.29,-42.1"/>
</g>
<!-- GATLHHRW -->
<g id="node82" class="node">
<title>GATLHHRW</title>
<ellipse fill="none" stroke="black" cx="2874" cy="-19.5" rx="19.5" ry="19.5"/>
<text text-anchor="middle" x="2874" y="-15.8" font-family="Times,serif" font-size="14.00">15</text>
</g>
<!-- XNLUEGXA&#45;&gt;GATLHHRW -->
<g id="edge81" class="edge">
<title>XNLUEGXA&#45;&gt;GATLHHRW</title>
<path fill="none" stroke="black" d="M2874,-74.69C2874,-67.05 2874,-57.86 2874,-49.24"/>
<polygon fill="black" stroke="black" points="2877.5,-49.15 2874,-39.15 2870.5,-49.15 2877.5,-49.15"/>
</g>
<!-- DXLGTTPU -->
<g id="node83" class="node">
<title>DXLGTTPU</title>
<ellipse fill="none" stroke="black" cx="2931" cy="-19.5" rx="19.5" ry="19.5"/>
<text text-anchor="middle" x="2931" y="-15.8" font-family="Times,serif" font-size="14.00">12</text>
</g>
<!-- XNLUEGXA&#45;&gt;DXLGTTPU -->
<g id="edge82" class="edge">
<title>XNLUEGXA&#45;&gt;DXLGTTPU</title>
<path fill="none" stroke="black" d="M2884.99,-78.21C2892.9,-68.28 2903.76,-54.67 2912.94,-43.16"/>
<polygon fill="black" stroke="black" points="2915.76,-45.23 2919.26,-35.23 2910.29,-40.86 2915.76,-45.23"/>
</g>
</g>
</svg>
