digraph D {
YFSSZUEC [shape=circle, label=""]
BEPOYTZE [shape=circle, label=""]
IUSQGSKM [shape=circle, label=""]
IDEDLEGH [shape=circle, label=""]
EZOSVBDR [shape=circle, label="10"]
NGSXZWEA [shape=circle, label="7"]
FFIYNJGZ [shape=circle, label="11"]
UPWLTOZU [shape=circle, label="2"]
GHKITOOA [shape=circle, label=""]
RWATOTJM [shape=circle, label="8"]
GIZSAAKC [shape=circle, label="12"]
DJPAEEXU [shape=circle, label=""]
ZFPPAXTK [shape=circle, label="11"]
NIOTXPJK [shape=circle, label="3"]
JBSTBJSE [shape=circle, label="5"]
ZINFNGRV [shape=circle, label=""]
OHZESWKV [shape=circle, label="3"]
LEOMOBRL [shape=circle, label="14"]
XFXSFTLU [shape=circle, label="13"]
VGAWHIGY [shape=circle, label="2"]
UKEEZOVR [shape=circle, label=""]
ZBICZKMS [shape=circle, label=""]
LQQIDXHV [shape=circle, label="7"]
SFPURRPX [shape=circle, label="4"]
ITMQVNIC [shape=circle, label=""]
LVKOCZLL [shape=circle, label="11"]
XMNBBLGV [shape=circle, label="9"]
XCOIRXIN [shape=circle, label="9"]
JKMZPNEU [shape=circle, label=""]
PFPOHZUF [shape=circle, label="8"]
KSNQCJUS [shape=circle, label="8"]
OHPJZGKL [shape=circle, label=""]
AELTIMJV [shape=circle, label="8"]
QZVVBLXO [shape=circle, label="10"]
BBTMZKYI [shape=circle, label=""]
ZQGGFSRQ [shape=circle, label=""]
ZQNFREOK [shape=circle, label="0"]
NDVACOYZ [shape=circle, label="13"]
EMOLMIKQ [shape=circle, label="10"]
IPNUGBZC [shape=circle, label=""]
JDZVICGA [shape=circle, label="8"]
NIQAWDAO [shape=circle, label="1"]
LGHVLYAM [shape=circle, label=""]
TEGVVBMQ [shape=circle, label="7"]
HFUGMDAN [shape=circle, label="8"]
MWXMVNUU [shape=circle, label="6"]
GUPUIGYQ [shape=circle, label="4"]
URASVJJF [shape=circle, label=""]
AMSNWTUJ [shape=circle, label=""]
TWKYBMRL [shape=circle, label="5"]
WYAYZLRB [shape=circle, label="5"]
RNADPJFX [shape=circle, label=""]
DJZNGMMR [shape=circle, label="4"]
XDXYJGDU [shape=circle, label="9"]
MXAKNGZT [shape=circle, label="0"]
GSWGHPBP [shape=circle, label="15"]
KEIJDARQ [shape=circle, label=""]
YJTWBBLQ [shape=circle, label="11"]
QIOOYQNE [shape=circle, label="7"]
RKFXFIVC [shape=circle, label=""]
KTLHFKSP [shape=circle, label=""]
KXEZDWLL [shape=circle, label=""]
FTCRDMHG [shape=circle, label="15"]
HFWWVAYA [shape=circle, label="2"]
CMSGXRRX [shape=circle, label=""]
EKDAJTLE [shape=circle, label="15"]
WIYFNCKR [shape=circle, label="5"]
GBXPRIHE [shape=circle, label="12"]
CZHFZAJR [shape=circle, label="1"]
TEXHFTLB [shape=circle, label=""]
PLSZVMYS [shape=circle, label="0"]
YJJPZLXM [shape=circle, label="9"]
GNVTXKYQ [shape=circle, label="15"]
YBINYQVK [shape=circle, label=""]
YSXUAEYM [shape=circle, label="6"]
FEOBCABS [shape=circle, label="11"]
XPDNYKNR [shape=circle, label="10"]
YGIIZTYB [shape=circle, label="6"]
AXSCASHC [shape=circle, label=""]
XMBZFQIN [shape=circle, label=""]
XWOSEILF [shape=circle, label="10"]
NJXWKBPO [shape=circle, label="6"]
AXHBZKCC [shape=circle, label="8"]
OCAIPFJO [shape=circle, label=""]
JGQXDKQR [shape=circle, label="3"]
LCXZIAFY [shape=circle, label="9"]
WTEZJXLU [shape=circle, label="0"]
CXFMAPLF [shape=circle, label="0"]

YFSSZUEC -> BEPOYTZE
BEPOYTZE -> IUSQGSKM
IUSQGSKM -> IDEDLEGH
IDEDLEGH -> EZOSVBDR
IDEDLEGH -> NGSXZWEA
IDEDLEGH -> FFIYNJGZ
IDEDLEGH -> UPWLTOZU
IUSQGSKM -> GHKITOOA
GHKITOOA -> RWATOTJM
GHKITOOA -> GIZSAAKC
IUSQGSKM -> DJPAEEXU
DJPAEEXU -> ZFPPAXTK
DJPAEEXU -> NIOTXPJK
DJPAEEXU -> JBSTBJSE
IUSQGSKM -> ZINFNGRV
ZINFNGRV -> OHZESWKV
ZINFNGRV -> LEOMOBRL
ZINFNGRV -> XFXSFTLU
ZINFNGRV -> VGAWHIGY
BEPOYTZE -> UKEEZOVR
UKEEZOVR -> ZBICZKMS
ZBICZKMS -> LQQIDXHV
ZBICZKMS -> SFPURRPX
UKEEZOVR -> ITMQVNIC
ITMQVNIC -> LVKOCZLL
ITMQVNIC -> XMNBBLGV
ITMQVNIC -> XCOIRXIN
UKEEZOVR -> JKMZPNEU
JKMZPNEU -> PFPOHZUF
JKMZPNEU -> KSNQCJUS
UKEEZOVR -> OHPJZGKL
OHPJZGKL -> AELTIMJV
OHPJZGKL -> QZVVBLXO
BEPOYTZE -> BBTMZKYI
BBTMZKYI -> ZQGGFSRQ
ZQGGFSRQ -> ZQNFREOK
ZQGGFSRQ -> NDVACOYZ
ZQGGFSRQ -> EMOLMIKQ
BBTMZKYI -> IPNUGBZC
IPNUGBZC -> JDZVICGA
IPNUGBZC -> NIQAWDAO
BBTMZKYI -> LGHVLYAM
LGHVLYAM -> TEGVVBMQ
LGHVLYAM -> HFUGMDAN
LGHVLYAM -> MWXMVNUU
LGHVLYAM -> GUPUIGYQ
BEPOYTZE -> URASVJJF
URASVJJF -> AMSNWTUJ
AMSNWTUJ -> TWKYBMRL
AMSNWTUJ -> WYAYZLRB
URASVJJF -> RNADPJFX
RNADPJFX -> DJZNGMMR
RNADPJFX -> XDXYJGDU
RNADPJFX -> MXAKNGZT
RNADPJFX -> GSWGHPBP
URASVJJF -> KEIJDARQ
KEIJDARQ -> YJTWBBLQ
KEIJDARQ -> QIOOYQNE
YFSSZUEC -> RKFXFIVC
RKFXFIVC -> KTLHFKSP
KTLHFKSP -> KXEZDWLL
KXEZDWLL -> FTCRDMHG
KXEZDWLL -> HFWWVAYA
KTLHFKSP -> CMSGXRRX
CMSGXRRX -> EKDAJTLE
CMSGXRRX -> WIYFNCKR
CMSGXRRX -> GBXPRIHE
CMSGXRRX -> CZHFZAJR
KTLHFKSP -> TEXHFTLB
TEXHFTLB -> PLSZVMYS
TEXHFTLB -> YJJPZLXM
TEXHFTLB -> GNVTXKYQ
KTLHFKSP -> YBINYQVK
YBINYQVK -> YSXUAEYM
YBINYQVK -> FEOBCABS
YBINYQVK -> XPDNYKNR
YBINYQVK -> YGIIZTYB
RKFXFIVC -> AXSCASHC
AXSCASHC -> XMBZFQIN
XMBZFQIN -> XWOSEILF
XMBZFQIN -> NJXWKBPO
XMBZFQIN -> AXHBZKCC
AXSCASHC -> OCAIPFJO
OCAIPFJO -> JGQXDKQR
OCAIPFJO -> LCXZIAFY
OCAIPFJO -> WTEZJXLU
OCAIPFJO -> CXFMAPLF

}