<?xml version="1.0" encoding="UTF-8" standalone="no"?>
<!DOCTYPE svg PUBLIC "-//W3C//DTD SVG 1.1//EN"
 "http://www.w3.org/Graphics/SVG/1.1/DTD/svg11.dtd">
<!-- Generated by graphviz version 2.46.1 (20210213.1702)
 -->
<!-- Title: D Pages: 1 -->
<svg width="3937pt" height="335pt"
 viewBox="0.00 0.00 3937.50 335.00" xmlns="http://www.w3.org/2000/svg" xmlns:xlink="http://www.w3.org/1999/xlink">
<g id="graph0" class="graph" transform="scale(1 1) rotate(0) translate(4 331)">
<title>D</title>
<polygon fill="white" stroke="transparent" points="-4,4 -4,-331 3933.5,-331 3933.5,4 -4,4"/>
<!-- FNXZZUBT -->
<g id="node1" class="node">
<title>FNXZZUBT</title>
<ellipse fill="none" stroke="black" cx="2081" cy="-309" rx="18" ry="18"/>
</g>
<!-- OLRPECSA -->
<g id="node2" class="node">
<title>OLRPECSA</title>
<ellipse fill="none" stroke="black" cx="1392" cy="-237" rx="18" ry="18"/>
</g>
<!-- FNXZZUBT&#45;&gt;OLRPECSA -->
<g id="edge1" class="edge">
<title>FNXZZUBT&#45;&gt;OLRPECSA</title>
<path fill="none" stroke="black" d="M2062.93,-306.16C1968.82,-296.6 1534.9,-252.51 1419.99,-240.84"/>
<polygon fill="black" stroke="black" points="1420.19,-237.34 1409.89,-239.81 1419.48,-244.31 1420.19,-237.34"/>
</g>
<!-- CYQGALAQ -->
<g id="node62" class="node">
<title>CYQGALAQ</title>
<ellipse fill="none" stroke="black" cx="2771" cy="-237" rx="18" ry="18"/>
</g>
<!-- FNXZZUBT&#45;&gt;CYQGALAQ -->
<g id="edge61" class="edge">
<title>FNXZZUBT&#45;&gt;CYQGALAQ</title>
<path fill="none" stroke="black" d="M2099.1,-306.16C2193.34,-296.6 2627.89,-252.51 2742.97,-240.84"/>
<polygon fill="black" stroke="black" points="2743.49,-244.31 2753.09,-239.81 2742.79,-237.34 2743.49,-244.31"/>
</g>
<!-- OWBNLMMJ -->
<g id="node3" class="node">
<title>OWBNLMMJ</title>
<ellipse fill="none" stroke="black" cx="536" cy="-165" rx="18" ry="18"/>
</g>
<!-- OLRPECSA&#45;&gt;OWBNLMMJ -->
<g id="edge2" class="edge">
<title>OLRPECSA&#45;&gt;OWBNLMMJ</title>
<path fill="none" stroke="black" d="M1374.12,-234.53C1265.88,-225.68 698.45,-179.28 564.4,-168.32"/>
<polygon fill="black" stroke="black" points="564.39,-164.81 554.14,-167.48 563.82,-171.78 564.39,-164.81"/>
</g>
<!-- NSKCPJOO -->
<g id="node24" class="node">
<title>NSKCPJOO</title>
<ellipse fill="none" stroke="black" cx="1093" cy="-165" rx="18" ry="18"/>
</g>
<!-- OLRPECSA&#45;&gt;NSKCPJOO -->
<g id="edge23" class="edge">
<title>OLRPECSA&#45;&gt;NSKCPJOO</title>
<path fill="none" stroke="black" d="M1374.63,-231.93C1324.78,-220.26 1180.94,-186.58 1120.38,-172.41"/>
<polygon fill="black" stroke="black" points="1120.95,-168.95 1110.42,-170.07 1119.35,-175.76 1120.95,-168.95"/>
</g>
<!-- DEMVUNFO -->
<g id="node32" class="node">
<title>DEMVUNFO</title>
<ellipse fill="none" stroke="black" cx="1392" cy="-165" rx="18" ry="18"/>
</g>
<!-- OLRPECSA&#45;&gt;DEMVUNFO -->
<g id="edge31" class="edge">
<title>OLRPECSA&#45;&gt;DEMVUNFO</title>
<path fill="none" stroke="black" d="M1392,-218.69C1392,-210.98 1392,-201.71 1392,-193.11"/>
<polygon fill="black" stroke="black" points="1395.5,-193.1 1392,-183.1 1388.5,-193.1 1395.5,-193.1"/>
</g>
<!-- SXSIFBFL -->
<g id="node45" class="node">
<title>SXSIFBFL</title>
<ellipse fill="none" stroke="black" cx="1888" cy="-165" rx="18" ry="18"/>
</g>
<!-- OLRPECSA&#45;&gt;SXSIFBFL -->
<g id="edge44" class="edge">
<title>OLRPECSA&#45;&gt;SXSIFBFL</title>
<path fill="none" stroke="black" d="M1409.95,-233.46C1484.46,-222.95 1769.8,-182.68 1860.3,-169.91"/>
<polygon fill="black" stroke="black" points="1860.92,-173.35 1870.34,-168.49 1859.95,-166.42 1860.92,-173.35"/>
</g>
<!-- VRDIPHVR -->
<g id="node4" class="node">
<title>VRDIPHVR</title>
<ellipse fill="none" stroke="black" cx="127" cy="-93" rx="18" ry="18"/>
</g>
<!-- OWBNLMMJ&#45;&gt;VRDIPHVR -->
<g id="edge3" class="edge">
<title>OWBNLMMJ&#45;&gt;VRDIPHVR</title>
<path fill="none" stroke="black" d="M518.43,-160.99C454.46,-150.04 233.72,-112.26 155.09,-98.8"/>
<polygon fill="black" stroke="black" points="155.42,-95.31 144.97,-97.07 154.24,-102.21 155.42,-95.31"/>
</g>
<!-- PQINOESU -->
<g id="node9" class="node">
<title>PQINOESU</title>
<ellipse fill="none" stroke="black" cx="344" cy="-93" rx="18" ry="18"/>
</g>
<!-- OWBNLMMJ&#45;&gt;PQINOESU -->
<g id="edge8" class="edge">
<title>OWBNLMMJ&#45;&gt;PQINOESU</title>
<path fill="none" stroke="black" d="M519.3,-157.91C485.89,-145.73 410.62,-118.29 370.44,-103.64"/>
<polygon fill="black" stroke="black" points="371.39,-100.26 360.8,-100.12 369,-106.84 371.39,-100.26"/>
</g>
<!-- QFHMXRHZ -->
<g id="node14" class="node">
<title>QFHMXRHZ</title>
<ellipse fill="none" stroke="black" cx="536" cy="-93" rx="18" ry="18"/>
</g>
<!-- OWBNLMMJ&#45;&gt;QFHMXRHZ -->
<g id="edge13" class="edge">
<title>OWBNLMMJ&#45;&gt;QFHMXRHZ</title>
<path fill="none" stroke="black" d="M536,-146.69C536,-138.98 536,-129.71 536,-121.11"/>
<polygon fill="black" stroke="black" points="539.5,-121.1 536,-111.1 532.5,-121.1 539.5,-121.1"/>
</g>
<!-- WZSCKFTU -->
<g id="node19" class="node">
<title>WZSCKFTU</title>
<ellipse fill="none" stroke="black" cx="730" cy="-93" rx="18" ry="18"/>
</g>
<!-- OWBNLMMJ&#45;&gt;WZSCKFTU -->
<g id="edge18" class="edge">
<title>OWBNLMMJ&#45;&gt;WZSCKFTU</title>
<path fill="none" stroke="black" d="M552.88,-157.91C586.79,-145.67 663.39,-118.03 703.84,-103.43"/>
<polygon fill="black" stroke="black" points="705.08,-106.71 713.3,-100.02 702.71,-100.12 705.08,-106.71"/>
</g>
<!-- GHLMONQT -->
<g id="node5" class="node">
<title>GHLMONQT</title>
<ellipse fill="none" stroke="black" cx="18" cy="-19.5" rx="18" ry="18"/>
<text text-anchor="middle" x="18" y="-15.8" font-family="Times,serif" font-size="14.00">6</text>
</g>
<!-- VRDIPHVR&#45;&gt;GHLMONQT -->
<g id="edge4" class="edge">
<title>VRDIPHVR&#45;&gt;GHLMONQT</title>
<path fill="none" stroke="black" d="M112.11,-82.54C95.62,-72.03 68.28,-54.49 45,-39 43.73,-38.15 42.43,-37.28 41.11,-36.39"/>
<polygon fill="black" stroke="black" points="42.76,-33.28 32.52,-30.55 38.83,-39.07 42.76,-33.28"/>
</g>
<!-- PUWYBOXP -->
<g id="node6" class="node">
<title>PUWYBOXP</title>
<ellipse fill="none" stroke="black" cx="72" cy="-19.5" rx="18" ry="18"/>
<text text-anchor="middle" x="72" y="-15.8" font-family="Times,serif" font-size="14.00">2</text>
</g>
<!-- VRDIPHVR&#45;&gt;PUWYBOXP -->
<g id="edge5" class="edge">
<title>VRDIPHVR&#45;&gt;PUWYBOXP</title>
<path fill="none" stroke="black" d="M116.4,-78.21C108.56,-68.02 97.73,-53.95 88.73,-42.25"/>
<polygon fill="black" stroke="black" points="91.44,-40.03 82.57,-34.24 85.9,-44.3 91.44,-40.03"/>
</g>
<!-- SWBEPHUM -->
<g id="node7" class="node">
<title>SWBEPHUM</title>
<ellipse fill="none" stroke="black" cx="127" cy="-19.5" rx="19.5" ry="19.5"/>
<text text-anchor="middle" x="127" y="-15.8" font-family="Times,serif" font-size="14.00">14</text>
</g>
<!-- VRDIPHVR&#45;&gt;SWBEPHUM -->
<g id="edge6" class="edge">
<title>VRDIPHVR&#45;&gt;SWBEPHUM</title>
<path fill="none" stroke="black" d="M127,-74.69C127,-67.05 127,-57.86 127,-49.24"/>
<polygon fill="black" stroke="black" points="130.5,-49.15 127,-39.15 123.5,-49.15 130.5,-49.15"/>
</g>
<!-- EGCTZVEK -->
<g id="node8" class="node">
<title>EGCTZVEK</title>
<ellipse fill="none" stroke="black" cx="182" cy="-19.5" rx="18" ry="18"/>
<text text-anchor="middle" x="182" y="-15.8" font-family="Times,serif" font-size="14.00">8</text>
</g>
<!-- VRDIPHVR&#45;&gt;EGCTZVEK -->
<g id="edge7" class="edge">
<title>VRDIPHVR&#45;&gt;EGCTZVEK</title>
<path fill="none" stroke="black" d="M137.6,-78.21C145.44,-68.02 156.27,-53.95 165.27,-42.25"/>
<polygon fill="black" stroke="black" points="168.1,-44.3 171.43,-34.24 162.56,-40.03 168.1,-44.3"/>
</g>
<!-- PZHDRJGX -->
<g id="node10" class="node">
<title>PZHDRJGX</title>
<ellipse fill="none" stroke="black" cx="236" cy="-19.5" rx="18" ry="18"/>
<text text-anchor="middle" x="236" y="-15.8" font-family="Times,serif" font-size="14.00">7</text>
</g>
<!-- PQINOESU&#45;&gt;PZHDRJGX -->
<g id="edge9" class="edge">
<title>PQINOESU&#45;&gt;PZHDRJGX</title>
<path fill="none" stroke="black" d="M329.31,-82.52C313.03,-71.98 286.04,-54.42 263,-39 261.73,-38.15 260.43,-37.27 259.12,-36.39"/>
<polygon fill="black" stroke="black" points="260.77,-33.27 250.53,-30.54 256.83,-39.06 260.77,-33.27"/>
</g>
<!-- KVWVJREV -->
<g id="node11" class="node">
<title>KVWVJREV</title>
<ellipse fill="none" stroke="black" cx="290" cy="-19.5" rx="18" ry="18"/>
<text text-anchor="middle" x="290" y="-15.8" font-family="Times,serif" font-size="14.00">6</text>
</g>
<!-- PQINOESU&#45;&gt;KVWVJREV -->
<g id="edge10" class="edge">
<title>PQINOESU&#45;&gt;KVWVJREV</title>
<path fill="none" stroke="black" d="M333.59,-78.21C325.89,-68.02 315.26,-53.95 306.43,-42.25"/>
<polygon fill="black" stroke="black" points="309.2,-40.11 300.38,-34.24 303.61,-44.33 309.2,-40.11"/>
</g>
<!-- KELBFPUN -->
<g id="node12" class="node">
<title>KELBFPUN</title>
<ellipse fill="none" stroke="black" cx="344" cy="-19.5" rx="18" ry="18"/>
<text text-anchor="middle" x="344" y="-15.8" font-family="Times,serif" font-size="14.00">5</text>
</g>
<!-- PQINOESU&#45;&gt;KELBFPUN -->
<g id="edge11" class="edge">
<title>PQINOESU&#45;&gt;KELBFPUN</title>
<path fill="none" stroke="black" d="M344,-74.69C344,-66.61 344,-56.8 344,-47.76"/>
<polygon fill="black" stroke="black" points="347.5,-47.65 344,-37.65 340.5,-47.65 347.5,-47.65"/>
</g>
<!-- QQUKQWZW -->
<g id="node13" class="node">
<title>QQUKQWZW</title>
<ellipse fill="none" stroke="black" cx="398" cy="-19.5" rx="18" ry="18"/>
<text text-anchor="middle" x="398" y="-15.8" font-family="Times,serif" font-size="14.00">6</text>
</g>
<!-- PQINOESU&#45;&gt;QQUKQWZW -->
<g id="edge12" class="edge">
<title>PQINOESU&#45;&gt;QQUKQWZW</title>
<path fill="none" stroke="black" d="M354.41,-78.21C362.11,-68.02 372.74,-53.95 381.57,-42.25"/>
<polygon fill="black" stroke="black" points="384.39,-44.33 387.62,-34.24 378.8,-40.11 384.39,-44.33"/>
</g>
<!-- WSXTNDWD -->
<g id="node15" class="node">
<title>WSXTNDWD</title>
<ellipse fill="none" stroke="black" cx="453" cy="-19.5" rx="19.5" ry="19.5"/>
<text text-anchor="middle" x="453" y="-15.8" font-family="Times,serif" font-size="14.00">15</text>
</g>
<!-- QFHMXRHZ&#45;&gt;WSXTNDWD -->
<g id="edge14" class="edge">
<title>QFHMXRHZ&#45;&gt;WSXTNDWD</title>
<path fill="none" stroke="black" d="M522.66,-80.51C509.91,-69.52 490.42,-52.73 475.3,-39.71"/>
<polygon fill="black" stroke="black" points="477.28,-36.79 467.42,-32.92 472.71,-42.1 477.28,-36.79"/>
</g>
<!-- UFPWBPEX -->
<g id="node16" class="node">
<title>UFPWBPEX</title>
<ellipse fill="none" stroke="black" cx="508" cy="-19.5" rx="18" ry="18"/>
<text text-anchor="middle" x="508" y="-15.8" font-family="Times,serif" font-size="14.00">3</text>
</g>
<!-- QFHMXRHZ&#45;&gt;UFPWBPEX -->
<g id="edge15" class="edge">
<title>QFHMXRHZ&#45;&gt;UFPWBPEX</title>
<path fill="none" stroke="black" d="M529.65,-75.77C526.21,-67 521.89,-55.96 518.01,-46.05"/>
<polygon fill="black" stroke="black" points="521.23,-44.69 514.33,-36.66 514.72,-47.25 521.23,-44.69"/>
</g>
<!-- OUXQJCOS -->
<g id="node17" class="node">
<title>OUXQJCOS</title>
<ellipse fill="none" stroke="black" cx="563" cy="-19.5" rx="19.5" ry="19.5"/>
<text text-anchor="middle" x="563" y="-15.8" font-family="Times,serif" font-size="14.00">13</text>
</g>
<!-- QFHMXRHZ&#45;&gt;OUXQJCOS -->
<g id="edge16" class="edge">
<title>QFHMXRHZ&#45;&gt;OUXQJCOS</title>
<path fill="none" stroke="black" d="M542.13,-75.77C545.29,-67.39 549.23,-56.95 552.84,-47.41"/>
<polygon fill="black" stroke="black" points="556.17,-48.5 556.43,-37.91 549.62,-46.03 556.17,-48.5"/>
</g>
<!-- LYKQVCEW -->
<g id="node18" class="node">
<title>LYKQVCEW</title>
<ellipse fill="none" stroke="black" cx="618" cy="-19.5" rx="18" ry="18"/>
<text text-anchor="middle" x="618" y="-15.8" font-family="Times,serif" font-size="14.00">7</text>
</g>
<!-- QFHMXRHZ&#45;&gt;LYKQVCEW -->
<g id="edge17" class="edge">
<title>QFHMXRHZ&#45;&gt;LYKQVCEW</title>
<path fill="none" stroke="black" d="M549.17,-80.51C562.09,-69.25 581.97,-51.92 597.05,-38.77"/>
<polygon fill="black" stroke="black" points="599.62,-41.17 604.86,-31.96 595.02,-35.89 599.62,-41.17"/>
</g>
<!-- WMBDEDCC -->
<g id="node20" class="node">
<title>WMBDEDCC</title>
<ellipse fill="none" stroke="black" cx="673" cy="-19.5" rx="19.5" ry="19.5"/>
<text text-anchor="middle" x="673" y="-15.8" font-family="Times,serif" font-size="14.00">13</text>
</g>
<!-- WZSCKFTU&#45;&gt;WMBDEDCC -->
<g id="edge19" class="edge">
<title>WZSCKFTU&#45;&gt;WMBDEDCC</title>
<path fill="none" stroke="black" d="M719.01,-78.21C711.1,-68.28 700.24,-54.67 691.06,-43.16"/>
<polygon fill="black" stroke="black" points="693.71,-40.86 684.74,-35.23 688.24,-45.23 693.71,-40.86"/>
</g>
<!-- ZFCGXCVJ -->
<g id="node21" class="node">
<title>ZFCGXCVJ</title>
<ellipse fill="none" stroke="black" cx="730" cy="-19.5" rx="19.5" ry="19.5"/>
<text text-anchor="middle" x="730" y="-15.8" font-family="Times,serif" font-size="14.00">12</text>
</g>
<!-- WZSCKFTU&#45;&gt;ZFCGXCVJ -->
<g id="edge20" class="edge">
<title>WZSCKFTU&#45;&gt;ZFCGXCVJ</title>
<path fill="none" stroke="black" d="M730,-74.69C730,-67.05 730,-57.86 730,-49.24"/>
<polygon fill="black" stroke="black" points="733.5,-49.15 730,-39.15 726.5,-49.15 733.5,-49.15"/>
</g>
<!-- EFBGWQFO -->
<g id="node22" class="node">
<title>EFBGWQFO</title>
<ellipse fill="none" stroke="black" cx="787" cy="-19.5" rx="19.5" ry="19.5"/>
<text text-anchor="middle" x="787" y="-15.8" font-family="Times,serif" font-size="14.00">12</text>
</g>
<!-- WZSCKFTU&#45;&gt;EFBGWQFO -->
<g id="edge21" class="edge">
<title>WZSCKFTU&#45;&gt;EFBGWQFO</title>
<path fill="none" stroke="black" d="M740.99,-78.21C748.9,-68.28 759.76,-54.67 768.94,-43.16"/>
<polygon fill="black" stroke="black" points="771.76,-45.23 775.26,-35.23 766.29,-40.86 771.76,-45.23"/>
</g>
<!-- NCBRAUQM -->
<g id="node23" class="node">
<title>NCBRAUQM</title>
<ellipse fill="none" stroke="black" cx="844" cy="-19.5" rx="19.5" ry="19.5"/>
<text text-anchor="middle" x="844" y="-15.8" font-family="Times,serif" font-size="14.00">11</text>
</g>
<!-- WZSCKFTU&#45;&gt;NCBRAUQM -->
<g id="edge22" class="edge">
<title>WZSCKFTU&#45;&gt;NCBRAUQM</title>
<path fill="none" stroke="black" d="M745.08,-82.66C762.09,-72.11 790.58,-54.4 815,-39 816.29,-38.18 817.62,-37.34 818.96,-36.49"/>
<polygon fill="black" stroke="black" points="821.2,-39.22 827.76,-30.9 817.44,-33.31 821.2,-39.22"/>
</g>
<!-- HJVPIMVV -->
<g id="node25" class="node">
<title>HJVPIMVV</title>
<ellipse fill="none" stroke="black" cx="983" cy="-93" rx="18" ry="18"/>
</g>
<!-- NSKCPJOO&#45;&gt;HJVPIMVV -->
<g id="edge24" class="edge">
<title>NSKCPJOO&#45;&gt;HJVPIMVV</title>
<path fill="none" stroke="black" d="M1078.16,-154.56C1059.79,-142.87 1028.28,-122.81 1006.58,-109"/>
<polygon fill="black" stroke="black" points="1008.27,-105.93 997.95,-103.51 1004.51,-111.83 1008.27,-105.93"/>
</g>
<!-- QKQDOTCJ -->
<g id="node29" class="node">
<title>QKQDOTCJ</title>
<ellipse fill="none" stroke="black" cx="1093" cy="-93" rx="18" ry="18"/>
</g>
<!-- NSKCPJOO&#45;&gt;QKQDOTCJ -->
<g id="edge28" class="edge">
<title>NSKCPJOO&#45;&gt;QKQDOTCJ</title>
<path fill="none" stroke="black" d="M1093,-146.69C1093,-138.98 1093,-129.71 1093,-121.11"/>
<polygon fill="black" stroke="black" points="1096.5,-121.1 1093,-111.1 1089.5,-121.1 1096.5,-121.1"/>
</g>
<!-- DPMOTLSW -->
<g id="node26" class="node">
<title>DPMOTLSW</title>
<ellipse fill="none" stroke="black" cx="901" cy="-19.5" rx="19.5" ry="19.5"/>
<text text-anchor="middle" x="901" y="-15.8" font-family="Times,serif" font-size="14.00">11</text>
</g>
<!-- HJVPIMVV&#45;&gt;DPMOTLSW -->
<g id="edge25" class="edge">
<title>HJVPIMVV&#45;&gt;DPMOTLSW</title>
<path fill="none" stroke="black" d="M969.83,-80.51C957.22,-69.52 937.97,-52.73 923.03,-39.71"/>
<polygon fill="black" stroke="black" points="925.08,-36.85 915.24,-32.92 920.48,-42.13 925.08,-36.85"/>
</g>
<!-- EGVVMUZC -->
<g id="node27" class="node">
<title>EGVVMUZC</title>
<ellipse fill="none" stroke="black" cx="956" cy="-19.5" rx="18" ry="18"/>
<text text-anchor="middle" x="956" y="-15.8" font-family="Times,serif" font-size="14.00">8</text>
</g>
<!-- HJVPIMVV&#45;&gt;EGVVMUZC -->
<g id="edge26" class="edge">
<title>HJVPIMVV&#45;&gt;EGVVMUZC</title>
<path fill="none" stroke="black" d="M976.87,-75.77C973.56,-67 969.39,-55.96 965.65,-46.05"/>
<polygon fill="black" stroke="black" points="968.91,-44.78 962.1,-36.66 962.36,-47.25 968.91,-44.78"/>
</g>
<!-- QFTRMDQF -->
<g id="node28" class="node">
<title>QFTRMDQF</title>
<ellipse fill="none" stroke="black" cx="1011" cy="-19.5" rx="19.5" ry="19.5"/>
<text text-anchor="middle" x="1011" y="-15.8" font-family="Times,serif" font-size="14.00">10</text>
</g>
<!-- HJVPIMVV&#45;&gt;QFTRMDQF -->
<g id="edge27" class="edge">
<title>HJVPIMVV&#45;&gt;QFTRMDQF</title>
<path fill="none" stroke="black" d="M989.35,-75.77C992.63,-67.39 996.72,-56.95 1000.46,-47.41"/>
<polygon fill="black" stroke="black" points="1003.79,-48.5 1004.18,-37.91 997.28,-45.94 1003.79,-48.5"/>
</g>
<!-- BKDPQVVM -->
<g id="node30" class="node">
<title>BKDPQVVM</title>
<ellipse fill="none" stroke="black" cx="1066" cy="-19.5" rx="18" ry="18"/>
<text text-anchor="middle" x="1066" y="-15.8" font-family="Times,serif" font-size="14.00">2</text>
</g>
<!-- QKQDOTCJ&#45;&gt;BKDPQVVM -->
<g id="edge29" class="edge">
<title>QKQDOTCJ&#45;&gt;BKDPQVVM</title>
<path fill="none" stroke="black" d="M1086.87,-75.77C1083.56,-67 1079.39,-55.96 1075.65,-46.05"/>
<polygon fill="black" stroke="black" points="1078.91,-44.78 1072.1,-36.66 1072.36,-47.25 1078.91,-44.78"/>
</g>
<!-- LLVLHHZJ -->
<g id="node31" class="node">
<title>LLVLHHZJ</title>
<ellipse fill="none" stroke="black" cx="1120" cy="-19.5" rx="18" ry="18"/>
<text text-anchor="middle" x="1120" y="-15.8" font-family="Times,serif" font-size="14.00">1</text>
</g>
<!-- QKQDOTCJ&#45;&gt;LLVLHHZJ -->
<g id="edge30" class="edge">
<title>QKQDOTCJ&#45;&gt;LLVLHHZJ</title>
<path fill="none" stroke="black" d="M1099.13,-75.77C1102.44,-67 1106.61,-55.96 1110.35,-46.05"/>
<polygon fill="black" stroke="black" points="1113.64,-47.25 1113.9,-36.66 1107.09,-44.78 1113.64,-47.25"/>
</g>
<!-- PQXLXUBE -->
<g id="node33" class="node">
<title>PQXLXUBE</title>
<ellipse fill="none" stroke="black" cx="1257" cy="-93" rx="18" ry="18"/>
</g>
<!-- DEMVUNFO&#45;&gt;PQXLXUBE -->
<g id="edge32" class="edge">
<title>DEMVUNFO&#45;&gt;PQXLXUBE</title>
<path fill="none" stroke="black" d="M1376.25,-155.83C1352.98,-143.76 1309.2,-121.07 1281.66,-106.78"/>
<polygon fill="black" stroke="black" points="1283.14,-103.61 1272.65,-102.11 1279.92,-109.82 1283.14,-103.61"/>
</g>
<!-- IOXONVMW -->
<g id="node37" class="node">
<title>IOXONVMW</title>
<ellipse fill="none" stroke="black" cx="1392" cy="-93" rx="18" ry="18"/>
</g>
<!-- DEMVUNFO&#45;&gt;IOXONVMW -->
<g id="edge36" class="edge">
<title>DEMVUNFO&#45;&gt;IOXONVMW</title>
<path fill="none" stroke="black" d="M1392,-146.69C1392,-138.98 1392,-129.71 1392,-121.11"/>
<polygon fill="black" stroke="black" points="1395.5,-121.1 1392,-111.1 1388.5,-121.1 1395.5,-121.1"/>
</g>
<!-- KSGYHMIH -->
<g id="node41" class="node">
<title>KSGYHMIH</title>
<ellipse fill="none" stroke="black" cx="1530" cy="-93" rx="18" ry="18"/>
</g>
<!-- DEMVUNFO&#45;&gt;KSGYHMIH -->
<g id="edge40" class="edge">
<title>DEMVUNFO&#45;&gt;KSGYHMIH</title>
<path fill="none" stroke="black" d="M1407.83,-155.97C1431.64,-143.89 1476.89,-120.94 1505.14,-106.61"/>
<polygon fill="black" stroke="black" points="1507.02,-109.58 1514.35,-101.93 1503.85,-103.34 1507.02,-109.58"/>
</g>
<!-- VHUETRMF -->
<g id="node34" class="node">
<title>VHUETRMF</title>
<ellipse fill="none" stroke="black" cx="1175" cy="-19.5" rx="19.5" ry="19.5"/>
<text text-anchor="middle" x="1175" y="-15.8" font-family="Times,serif" font-size="14.00">12</text>
</g>
<!-- PQXLXUBE&#45;&gt;VHUETRMF -->
<g id="edge33" class="edge">
<title>PQXLXUBE&#45;&gt;VHUETRMF</title>
<path fill="none" stroke="black" d="M1243.83,-80.51C1231.22,-69.52 1211.97,-52.73 1197.03,-39.71"/>
<polygon fill="black" stroke="black" points="1199.08,-36.85 1189.24,-32.92 1194.48,-42.13 1199.08,-36.85"/>
</g>
<!-- HNCKEJGM -->
<g id="node35" class="node">
<title>HNCKEJGM</title>
<ellipse fill="none" stroke="black" cx="1230" cy="-19.5" rx="18" ry="18"/>
<text text-anchor="middle" x="1230" y="-15.8" font-family="Times,serif" font-size="14.00">0</text>
</g>
<!-- PQXLXUBE&#45;&gt;HNCKEJGM -->
<g id="edge34" class="edge">
<title>PQXLXUBE&#45;&gt;HNCKEJGM</title>
<path fill="none" stroke="black" d="M1250.87,-75.77C1247.56,-67 1243.39,-55.96 1239.65,-46.05"/>
<polygon fill="black" stroke="black" points="1242.91,-44.78 1236.1,-36.66 1236.36,-47.25 1242.91,-44.78"/>
</g>
<!-- YNNKXBPX -->
<g id="node36" class="node">
<title>YNNKXBPX</title>
<ellipse fill="none" stroke="black" cx="1284" cy="-19.5" rx="18" ry="18"/>
<text text-anchor="middle" x="1284" y="-15.8" font-family="Times,serif" font-size="14.00">6</text>
</g>
<!-- PQXLXUBE&#45;&gt;YNNKXBPX -->
<g id="edge35" class="edge">
<title>PQXLXUBE&#45;&gt;YNNKXBPX</title>
<path fill="none" stroke="black" d="M1263.13,-75.77C1266.44,-67 1270.61,-55.96 1274.35,-46.05"/>
<polygon fill="black" stroke="black" points="1277.64,-47.25 1277.9,-36.66 1271.09,-44.78 1277.64,-47.25"/>
</g>
<!-- DZWLOHNB -->
<g id="node38" class="node">
<title>DZWLOHNB</title>
<ellipse fill="none" stroke="black" cx="1338" cy="-19.5" rx="18" ry="18"/>
<text text-anchor="middle" x="1338" y="-15.8" font-family="Times,serif" font-size="14.00">3</text>
</g>
<!-- IOXONVMW&#45;&gt;DZWLOHNB -->
<g id="edge37" class="edge">
<title>IOXONVMW&#45;&gt;DZWLOHNB</title>
<path fill="none" stroke="black" d="M1381.59,-78.21C1373.89,-68.02 1363.26,-53.95 1354.43,-42.25"/>
<polygon fill="black" stroke="black" points="1357.2,-40.11 1348.38,-34.24 1351.61,-44.33 1357.2,-40.11"/>
</g>
<!-- AQHQGEBP -->
<g id="node39" class="node">
<title>AQHQGEBP</title>
<ellipse fill="none" stroke="black" cx="1392" cy="-19.5" rx="18" ry="18"/>
<text text-anchor="middle" x="1392" y="-15.8" font-family="Times,serif" font-size="14.00">8</text>
</g>
<!-- IOXONVMW&#45;&gt;AQHQGEBP -->
<g id="edge38" class="edge">
<title>IOXONVMW&#45;&gt;AQHQGEBP</title>
<path fill="none" stroke="black" d="M1392,-74.69C1392,-66.61 1392,-56.8 1392,-47.76"/>
<polygon fill="black" stroke="black" points="1395.5,-47.65 1392,-37.65 1388.5,-47.65 1395.5,-47.65"/>
</g>
<!-- FQNFHYEW -->
<g id="node40" class="node">
<title>FQNFHYEW</title>
<ellipse fill="none" stroke="black" cx="1446" cy="-19.5" rx="18" ry="18"/>
<text text-anchor="middle" x="1446" y="-15.8" font-family="Times,serif" font-size="14.00">4</text>
</g>
<!-- IOXONVMW&#45;&gt;FQNFHYEW -->
<g id="edge39" class="edge">
<title>IOXONVMW&#45;&gt;FQNFHYEW</title>
<path fill="none" stroke="black" d="M1402.41,-78.21C1410.11,-68.02 1420.74,-53.95 1429.57,-42.25"/>
<polygon fill="black" stroke="black" points="1432.39,-44.33 1435.62,-34.24 1426.8,-40.11 1432.39,-44.33"/>
</g>
<!-- ZJZNMHET -->
<g id="node42" class="node">
<title>ZJZNMHET</title>
<ellipse fill="none" stroke="black" cx="1501" cy="-19.5" rx="19.5" ry="19.5"/>
<text text-anchor="middle" x="1501" y="-15.8" font-family="Times,serif" font-size="14.00">14</text>
</g>
<!-- KSGYHMIH&#45;&gt;ZJZNMHET -->
<g id="edge41" class="edge">
<title>KSGYHMIH&#45;&gt;ZJZNMHET</title>
<path fill="none" stroke="black" d="M1523.56,-76.13C1520.11,-67.61 1515.76,-56.89 1511.8,-47.14"/>
<polygon fill="black" stroke="black" points="1515.03,-45.77 1508.03,-37.82 1508.54,-48.41 1515.03,-45.77"/>
</g>
<!-- UYVNFVKM -->
<g id="node43" class="node">
<title>UYVNFVKM</title>
<ellipse fill="none" stroke="black" cx="1558" cy="-19.5" rx="19.5" ry="19.5"/>
<text text-anchor="middle" x="1558" y="-15.8" font-family="Times,serif" font-size="14.00">14</text>
</g>
<!-- KSGYHMIH&#45;&gt;UYVNFVKM -->
<g id="edge42" class="edge">
<title>KSGYHMIH&#45;&gt;UYVNFVKM</title>
<path fill="none" stroke="black" d="M1536.35,-75.77C1539.63,-67.39 1543.72,-56.95 1547.46,-47.41"/>
<polygon fill="black" stroke="black" points="1550.79,-48.5 1551.18,-37.91 1544.28,-45.94 1550.79,-48.5"/>
</g>
<!-- RUKAAWFH -->
<g id="node44" class="node">
<title>RUKAAWFH</title>
<ellipse fill="none" stroke="black" cx="1613" cy="-19.5" rx="18" ry="18"/>
<text text-anchor="middle" x="1613" y="-15.8" font-family="Times,serif" font-size="14.00">2</text>
</g>
<!-- KSGYHMIH&#45;&gt;RUKAAWFH -->
<g id="edge43" class="edge">
<title>KSGYHMIH&#45;&gt;RUKAAWFH</title>
<path fill="none" stroke="black" d="M1543.34,-80.51C1556.4,-69.25 1576.53,-51.92 1591.79,-38.77"/>
<polygon fill="black" stroke="black" points="1594.41,-41.14 1599.7,-31.96 1589.84,-35.83 1594.41,-41.14"/>
</g>
<!-- DXTBMWYW -->
<g id="node46" class="node">
<title>DXTBMWYW</title>
<ellipse fill="none" stroke="black" cx="1750" cy="-93" rx="18" ry="18"/>
</g>
<!-- SXSIFBFL&#45;&gt;DXTBMWYW -->
<g id="edge45" class="edge">
<title>SXSIFBFL&#45;&gt;DXTBMWYW</title>
<path fill="none" stroke="black" d="M1872.17,-155.97C1848.36,-143.89 1803.11,-120.94 1774.86,-106.61"/>
<polygon fill="black" stroke="black" points="1776.15,-103.34 1765.65,-101.93 1772.98,-109.58 1776.15,-103.34"/>
</g>
<!-- LRYNQQZD -->
<g id="node50" class="node">
<title>LRYNQQZD</title>
<ellipse fill="none" stroke="black" cx="1888" cy="-93" rx="18" ry="18"/>
</g>
<!-- SXSIFBFL&#45;&gt;LRYNQQZD -->
<g id="edge49" class="edge">
<title>SXSIFBFL&#45;&gt;LRYNQQZD</title>
<path fill="none" stroke="black" d="M1888,-146.69C1888,-138.98 1888,-129.71 1888,-121.11"/>
<polygon fill="black" stroke="black" points="1891.5,-121.1 1888,-111.1 1884.5,-121.1 1891.5,-121.1"/>
</g>
<!-- BEXDLYYQ -->
<g id="node54" class="node">
<title>BEXDLYYQ</title>
<ellipse fill="none" stroke="black" cx="1997" cy="-93" rx="18" ry="18"/>
</g>
<!-- SXSIFBFL&#45;&gt;BEXDLYYQ -->
<g id="edge53" class="edge">
<title>SXSIFBFL&#45;&gt;BEXDLYYQ</title>
<path fill="none" stroke="black" d="M1902.7,-154.56C1920.9,-142.87 1952.13,-122.81 1973.63,-109"/>
<polygon fill="black" stroke="black" points="1975.66,-111.86 1982.18,-103.51 1971.88,-105.97 1975.66,-111.86"/>
</g>
<!-- GYNAHAJL -->
<g id="node57" class="node">
<title>GYNAHAJL</title>
<ellipse fill="none" stroke="black" cx="2166" cy="-93" rx="18" ry="18"/>
</g>
<!-- SXSIFBFL&#45;&gt;GYNAHAJL -->
<g id="edge56" class="edge">
<title>SXSIFBFL&#45;&gt;GYNAHAJL</title>
<path fill="none" stroke="black" d="M1905.39,-159.62C1952.39,-147.78 2082.22,-115.09 2138.92,-100.82"/>
<polygon fill="black" stroke="black" points="2139.77,-104.21 2148.62,-98.37 2138.06,-97.42 2139.77,-104.21"/>
</g>
<!-- NETXGOSS -->
<g id="node47" class="node">
<title>NETXGOSS</title>
<ellipse fill="none" stroke="black" cx="1668" cy="-19.5" rx="19.5" ry="19.5"/>
<text text-anchor="middle" x="1668" y="-15.8" font-family="Times,serif" font-size="14.00">13</text>
</g>
<!-- DXTBMWYW&#45;&gt;NETXGOSS -->
<g id="edge46" class="edge">
<title>DXTBMWYW&#45;&gt;NETXGOSS</title>
<path fill="none" stroke="black" d="M1736.83,-80.51C1724.22,-69.52 1704.97,-52.73 1690.03,-39.71"/>
<polygon fill="black" stroke="black" points="1692.08,-36.85 1682.24,-32.92 1687.48,-42.13 1692.08,-36.85"/>
</g>
<!-- VYFJBNNR -->
<g id="node48" class="node">
<title>VYFJBNNR</title>
<ellipse fill="none" stroke="black" cx="1723" cy="-19.5" rx="18" ry="18"/>
<text text-anchor="middle" x="1723" y="-15.8" font-family="Times,serif" font-size="14.00">1</text>
</g>
<!-- DXTBMWYW&#45;&gt;VYFJBNNR -->
<g id="edge47" class="edge">
<title>DXTBMWYW&#45;&gt;VYFJBNNR</title>
<path fill="none" stroke="black" d="M1743.87,-75.77C1740.56,-67 1736.39,-55.96 1732.65,-46.05"/>
<polygon fill="black" stroke="black" points="1735.91,-44.78 1729.1,-36.66 1729.36,-47.25 1735.91,-44.78"/>
</g>
<!-- XILFWYGQ -->
<g id="node49" class="node">
<title>XILFWYGQ</title>
<ellipse fill="none" stroke="black" cx="1778" cy="-19.5" rx="19.5" ry="19.5"/>
<text text-anchor="middle" x="1778" y="-15.8" font-family="Times,serif" font-size="14.00">10</text>
</g>
<!-- DXTBMWYW&#45;&gt;XILFWYGQ -->
<g id="edge48" class="edge">
<title>DXTBMWYW&#45;&gt;XILFWYGQ</title>
<path fill="none" stroke="black" d="M1756.35,-75.77C1759.63,-67.39 1763.72,-56.95 1767.46,-47.41"/>
<polygon fill="black" stroke="black" points="1770.79,-48.5 1771.18,-37.91 1764.28,-45.94 1770.79,-48.5"/>
</g>
<!-- JRQHXBYF -->
<g id="node51" class="node">
<title>JRQHXBYF</title>
<ellipse fill="none" stroke="black" cx="1833" cy="-19.5" rx="18" ry="18"/>
<text text-anchor="middle" x="1833" y="-15.8" font-family="Times,serif" font-size="14.00">9</text>
</g>
<!-- LRYNQQZD&#45;&gt;JRQHXBYF -->
<g id="edge50" class="edge">
<title>LRYNQQZD&#45;&gt;JRQHXBYF</title>
<path fill="none" stroke="black" d="M1877.4,-78.21C1869.56,-68.02 1858.73,-53.95 1849.73,-42.25"/>
<polygon fill="black" stroke="black" points="1852.44,-40.03 1843.57,-34.24 1846.9,-44.3 1852.44,-40.03"/>
</g>
<!-- EPUOSMMO -->
<g id="node52" class="node">
<title>EPUOSMMO</title>
<ellipse fill="none" stroke="black" cx="1888" cy="-19.5" rx="19.5" ry="19.5"/>
<text text-anchor="middle" x="1888" y="-15.8" font-family="Times,serif" font-size="14.00">11</text>
</g>
<!-- LRYNQQZD&#45;&gt;EPUOSMMO -->
<g id="edge51" class="edge">
<title>LRYNQQZD&#45;&gt;EPUOSMMO</title>
<path fill="none" stroke="black" d="M1888,-74.69C1888,-67.05 1888,-57.86 1888,-49.24"/>
<polygon fill="black" stroke="black" points="1891.5,-49.15 1888,-39.15 1884.5,-49.15 1891.5,-49.15"/>
</g>
<!-- GANUJCEJ -->
<g id="node53" class="node">
<title>GANUJCEJ</title>
<ellipse fill="none" stroke="black" cx="1943" cy="-19.5" rx="18" ry="18"/>
<text text-anchor="middle" x="1943" y="-15.8" font-family="Times,serif" font-size="14.00">4</text>
</g>
<!-- LRYNQQZD&#45;&gt;GANUJCEJ -->
<g id="edge52" class="edge">
<title>LRYNQQZD&#45;&gt;GANUJCEJ</title>
<path fill="none" stroke="black" d="M1898.6,-78.21C1906.44,-68.02 1917.27,-53.95 1926.27,-42.25"/>
<polygon fill="black" stroke="black" points="1929.1,-44.3 1932.43,-34.24 1923.56,-40.03 1929.1,-44.3"/>
</g>
<!-- OKWBGRBI -->
<g id="node55" class="node">
<title>OKWBGRBI</title>
<ellipse fill="none" stroke="black" cx="1997" cy="-19.5" rx="18" ry="18"/>
<text text-anchor="middle" x="1997" y="-15.8" font-family="Times,serif" font-size="14.00">2</text>
</g>
<!-- BEXDLYYQ&#45;&gt;OKWBGRBI -->
<g id="edge54" class="edge">
<title>BEXDLYYQ&#45;&gt;OKWBGRBI</title>
<path fill="none" stroke="black" d="M1997,-74.69C1997,-66.61 1997,-56.8 1997,-47.76"/>
<polygon fill="black" stroke="black" points="2000.5,-47.65 1997,-37.65 1993.5,-47.65 2000.5,-47.65"/>
</g>
<!-- ITONSPQK -->
<g id="node56" class="node">
<title>ITONSPQK</title>
<ellipse fill="none" stroke="black" cx="2052" cy="-19.5" rx="19.5" ry="19.5"/>
<text text-anchor="middle" x="2052" y="-15.8" font-family="Times,serif" font-size="14.00">15</text>
</g>
<!-- BEXDLYYQ&#45;&gt;ITONSPQK -->
<g id="edge55" class="edge">
<title>BEXDLYYQ&#45;&gt;ITONSPQK</title>
<path fill="none" stroke="black" d="M2007.6,-78.21C2015.12,-68.45 2025.38,-55.11 2034.14,-43.72"/>
<polygon fill="black" stroke="black" points="2037.16,-45.54 2040.48,-35.48 2031.61,-41.27 2037.16,-45.54"/>
</g>
<!-- IVSIHJOG -->
<g id="node58" class="node">
<title>IVSIHJOG</title>
<ellipse fill="none" stroke="black" cx="2109" cy="-19.5" rx="19.5" ry="19.5"/>
<text text-anchor="middle" x="2109" y="-15.8" font-family="Times,serif" font-size="14.00">11</text>
</g>
<!-- GYNAHAJL&#45;&gt;IVSIHJOG -->
<g id="edge57" class="edge">
<title>GYNAHAJL&#45;&gt;IVSIHJOG</title>
<path fill="none" stroke="black" d="M2155.01,-78.21C2147.1,-68.28 2136.24,-54.67 2127.06,-43.16"/>
<polygon fill="black" stroke="black" points="2129.71,-40.86 2120.74,-35.23 2124.24,-45.23 2129.71,-40.86"/>
</g>
<!-- FOCQXHYQ -->
<g id="node59" class="node">
<title>FOCQXHYQ</title>
<ellipse fill="none" stroke="black" cx="2166" cy="-19.5" rx="19.5" ry="19.5"/>
<text text-anchor="middle" x="2166" y="-15.8" font-family="Times,serif" font-size="14.00">13</text>
</g>
<!-- GYNAHAJL&#45;&gt;FOCQXHYQ -->
<g id="edge58" class="edge">
<title>GYNAHAJL&#45;&gt;FOCQXHYQ</title>
<path fill="none" stroke="black" d="M2166,-74.69C2166,-67.05 2166,-57.86 2166,-49.24"/>
<polygon fill="black" stroke="black" points="2169.5,-49.15 2166,-39.15 2162.5,-49.15 2169.5,-49.15"/>
</g>
<!-- HRWCREYQ -->
<g id="node60" class="node">
<title>HRWCREYQ</title>
<ellipse fill="none" stroke="black" cx="2221" cy="-19.5" rx="18" ry="18"/>
<text text-anchor="middle" x="2221" y="-15.8" font-family="Times,serif" font-size="14.00">2</text>
</g>
<!-- GYNAHAJL&#45;&gt;HRWCREYQ -->
<g id="edge59" class="edge">
<title>GYNAHAJL&#45;&gt;HRWCREYQ</title>
<path fill="none" stroke="black" d="M2176.6,-78.21C2184.44,-68.02 2195.27,-53.95 2204.27,-42.25"/>
<polygon fill="black" stroke="black" points="2207.1,-44.3 2210.43,-34.24 2201.56,-40.03 2207.1,-44.3"/>
</g>
<!-- MHPFJNJM -->
<g id="node61" class="node">
<title>MHPFJNJM</title>
<ellipse fill="none" stroke="black" cx="2276" cy="-19.5" rx="19.5" ry="19.5"/>
<text text-anchor="middle" x="2276" y="-15.8" font-family="Times,serif" font-size="14.00">15</text>
</g>
<!-- GYNAHAJL&#45;&gt;MHPFJNJM -->
<g id="edge60" class="edge">
<title>GYNAHAJL&#45;&gt;MHPFJNJM</title>
<path fill="none" stroke="black" d="M2180.84,-82.47C2197.29,-71.89 2224.59,-54.3 2248,-39 2249.1,-38.28 2250.22,-37.55 2251.35,-36.8"/>
<polygon fill="black" stroke="black" points="2253.6,-39.51 2260.03,-31.09 2249.75,-33.67 2253.6,-39.51"/>
</g>
<!-- LUWKRIKI -->
<g id="node63" class="node">
<title>LUWKRIKI</title>
<ellipse fill="none" stroke="black" cx="2493" cy="-165" rx="18" ry="18"/>
</g>
<!-- CYQGALAQ&#45;&gt;LUWKRIKI -->
<g id="edge62" class="edge">
<title>CYQGALAQ&#45;&gt;LUWKRIKI</title>
<path fill="none" stroke="black" d="M2753.61,-231.62C2706.61,-219.78 2576.78,-187.09 2520.08,-172.82"/>
<polygon fill="black" stroke="black" points="2520.94,-169.42 2510.38,-170.37 2519.23,-176.21 2520.94,-169.42"/>
</g>
<!-- GRONJLBZ -->
<g id="node71" class="node">
<title>GRONJLBZ</title>
<ellipse fill="none" stroke="black" cx="2771" cy="-165" rx="18" ry="18"/>
</g>
<!-- CYQGALAQ&#45;&gt;GRONJLBZ -->
<g id="edge70" class="edge">
<title>CYQGALAQ&#45;&gt;GRONJLBZ</title>
<path fill="none" stroke="black" d="M2771,-218.69C2771,-210.98 2771,-201.71 2771,-193.11"/>
<polygon fill="black" stroke="black" points="2774.5,-193.1 2771,-183.1 2767.5,-193.1 2774.5,-193.1"/>
</g>
<!-- GHEZOKLW -->
<g id="node84" class="node">
<title>GHEZOKLW</title>
<ellipse fill="none" stroke="black" cx="3286" cy="-165" rx="18" ry="18"/>
</g>
<!-- CYQGALAQ&#45;&gt;GHEZOKLW -->
<g id="edge83" class="edge">
<title>CYQGALAQ&#45;&gt;GHEZOKLW</title>
<path fill="none" stroke="black" d="M2788.73,-233.59C2864.86,-223.24 3164.47,-182.52 3257.97,-169.81"/>
<polygon fill="black" stroke="black" points="3258.64,-173.25 3268.08,-168.43 3257.7,-166.31 3258.64,-173.25"/>
</g>
<!-- WQZFFIHL -->
<g id="node98" class="node">
<title>WQZFFIHL</title>
<ellipse fill="none" stroke="black" cx="3691" cy="-165" rx="18" ry="18"/>
</g>
<!-- CYQGALAQ&#45;&gt;WQZFFIHL -->
<g id="edge97" class="edge">
<title>CYQGALAQ&#45;&gt;WQZFFIHL</title>
<path fill="none" stroke="black" d="M2788.96,-234.63C2902.65,-225.98 3521.89,-178.86 3662.56,-168.16"/>
<polygon fill="black" stroke="black" points="3663.21,-171.62 3672.92,-167.37 3662.68,-164.64 3663.21,-171.62"/>
</g>
<!-- VVAACMMB -->
<g id="node64" class="node">
<title>VVAACMMB</title>
<ellipse fill="none" stroke="black" cx="2385" cy="-93" rx="18" ry="18"/>
</g>
<!-- LUWKRIKI&#45;&gt;VVAACMMB -->
<g id="edge63" class="edge">
<title>LUWKRIKI&#45;&gt;VVAACMMB</title>
<path fill="none" stroke="black" d="M2477.98,-154.26C2459.93,-142.56 2429.43,-122.79 2408.3,-109.1"/>
<polygon fill="black" stroke="black" points="2410.18,-106.15 2399.89,-103.65 2406.38,-112.02 2410.18,-106.15"/>
</g>
<!-- EJTWNQJO -->
<g id="node67" class="node">
<title>EJTWNQJO</title>
<ellipse fill="none" stroke="black" cx="2493" cy="-93" rx="18" ry="18"/>
</g>
<!-- LUWKRIKI&#45;&gt;EJTWNQJO -->
<g id="edge66" class="edge">
<title>LUWKRIKI&#45;&gt;EJTWNQJO</title>
<path fill="none" stroke="black" d="M2493,-146.69C2493,-138.98 2493,-129.71 2493,-121.11"/>
<polygon fill="black" stroke="black" points="2496.5,-121.1 2493,-111.1 2489.5,-121.1 2496.5,-121.1"/>
</g>
<!-- PDAWESVS -->
<g id="node65" class="node">
<title>PDAWESVS</title>
<ellipse fill="none" stroke="black" cx="2331" cy="-19.5" rx="18" ry="18"/>
<text text-anchor="middle" x="2331" y="-15.8" font-family="Times,serif" font-size="14.00">9</text>
</g>
<!-- VVAACMMB&#45;&gt;PDAWESVS -->
<g id="edge64" class="edge">
<title>VVAACMMB&#45;&gt;PDAWESVS</title>
<path fill="none" stroke="black" d="M2374.59,-78.21C2366.89,-68.02 2356.26,-53.95 2347.43,-42.25"/>
<polygon fill="black" stroke="black" points="2350.2,-40.11 2341.38,-34.24 2344.61,-44.33 2350.2,-40.11"/>
</g>
<!-- HVXOLIMQ -->
<g id="node66" class="node">
<title>HVXOLIMQ</title>
<ellipse fill="none" stroke="black" cx="2385" cy="-19.5" rx="18" ry="18"/>
<text text-anchor="middle" x="2385" y="-15.8" font-family="Times,serif" font-size="14.00">1</text>
</g>
<!-- VVAACMMB&#45;&gt;HVXOLIMQ -->
<g id="edge65" class="edge">
<title>VVAACMMB&#45;&gt;HVXOLIMQ</title>
<path fill="none" stroke="black" d="M2385,-74.69C2385,-66.61 2385,-56.8 2385,-47.76"/>
<polygon fill="black" stroke="black" points="2388.5,-47.65 2385,-37.65 2381.5,-47.65 2388.5,-47.65"/>
</g>
<!-- TVMQVTPN -->
<g id="node68" class="node">
<title>TVMQVTPN</title>
<ellipse fill="none" stroke="black" cx="2439" cy="-19.5" rx="18" ry="18"/>
<text text-anchor="middle" x="2439" y="-15.8" font-family="Times,serif" font-size="14.00">8</text>
</g>
<!-- EJTWNQJO&#45;&gt;TVMQVTPN -->
<g id="edge67" class="edge">
<title>EJTWNQJO&#45;&gt;TVMQVTPN</title>
<path fill="none" stroke="black" d="M2482.59,-78.21C2474.89,-68.02 2464.26,-53.95 2455.43,-42.25"/>
<polygon fill="black" stroke="black" points="2458.2,-40.11 2449.38,-34.24 2452.61,-44.33 2458.2,-40.11"/>
</g>
<!-- XUGLDEDX -->
<g id="node69" class="node">
<title>XUGLDEDX</title>
<ellipse fill="none" stroke="black" cx="2493" cy="-19.5" rx="18" ry="18"/>
<text text-anchor="middle" x="2493" y="-15.8" font-family="Times,serif" font-size="14.00">7</text>
</g>
<!-- EJTWNQJO&#45;&gt;XUGLDEDX -->
<g id="edge68" class="edge">
<title>EJTWNQJO&#45;&gt;XUGLDEDX</title>
<path fill="none" stroke="black" d="M2493,-74.69C2493,-66.61 2493,-56.8 2493,-47.76"/>
<polygon fill="black" stroke="black" points="2496.5,-47.65 2493,-37.65 2489.5,-47.65 2496.5,-47.65"/>
</g>
<!-- GGJCPPFR -->
<g id="node70" class="node">
<title>GGJCPPFR</title>
<ellipse fill="none" stroke="black" cx="2548" cy="-19.5" rx="19.5" ry="19.5"/>
<text text-anchor="middle" x="2548" y="-15.8" font-family="Times,serif" font-size="14.00">15</text>
</g>
<!-- EJTWNQJO&#45;&gt;GGJCPPFR -->
<g id="edge69" class="edge">
<title>EJTWNQJO&#45;&gt;GGJCPPFR</title>
<path fill="none" stroke="black" d="M2503.6,-78.21C2511.12,-68.45 2521.38,-55.11 2530.14,-43.72"/>
<polygon fill="black" stroke="black" points="2533.16,-45.54 2536.48,-35.48 2527.61,-41.27 2533.16,-45.54"/>
</g>
<!-- NNISTQNF -->
<g id="node72" class="node">
<title>NNISTQNF</title>
<ellipse fill="none" stroke="black" cx="2662" cy="-93" rx="18" ry="18"/>
</g>
<!-- GRONJLBZ&#45;&gt;NNISTQNF -->
<g id="edge71" class="edge">
<title>GRONJLBZ&#45;&gt;NNISTQNF</title>
<path fill="none" stroke="black" d="M2756.3,-154.56C2738.1,-142.87 2706.87,-122.81 2685.37,-109"/>
<polygon fill="black" stroke="black" points="2687.12,-105.97 2676.82,-103.51 2683.34,-111.86 2687.12,-105.97"/>
</g>
<!-- WUFQQQBQ -->
<g id="node75" class="node">
<title>WUFQQQBQ</title>
<ellipse fill="none" stroke="black" cx="2771" cy="-93" rx="18" ry="18"/>
</g>
<!-- GRONJLBZ&#45;&gt;WUFQQQBQ -->
<g id="edge74" class="edge">
<title>GRONJLBZ&#45;&gt;WUFQQQBQ</title>
<path fill="none" stroke="black" d="M2771,-146.69C2771,-138.98 2771,-129.71 2771,-121.11"/>
<polygon fill="black" stroke="black" points="2774.5,-121.1 2771,-111.1 2767.5,-121.1 2774.5,-121.1"/>
</g>
<!-- OJCZPYVS -->
<g id="node79" class="node">
<title>OJCZPYVS</title>
<ellipse fill="none" stroke="black" cx="2934" cy="-93" rx="18" ry="18"/>
</g>
<!-- GRONJLBZ&#45;&gt;OJCZPYVS -->
<g id="edge78" class="edge">
<title>GRONJLBZ&#45;&gt;OJCZPYVS</title>
<path fill="none" stroke="black" d="M2787.22,-157.03C2815.66,-144.82 2874.7,-119.46 2908.59,-104.91"/>
<polygon fill="black" stroke="black" points="2910.03,-108.1 2917.84,-100.94 2907.27,-101.67 2910.03,-108.1"/>
</g>
<!-- NRPHKBIL -->
<g id="node73" class="node">
<title>NRPHKBIL</title>
<ellipse fill="none" stroke="black" cx="2605" cy="-19.5" rx="19.5" ry="19.5"/>
<text text-anchor="middle" x="2605" y="-15.8" font-family="Times,serif" font-size="14.00">12</text>
</g>
<!-- NNISTQNF&#45;&gt;NRPHKBIL -->
<g id="edge72" class="edge">
<title>NNISTQNF&#45;&gt;NRPHKBIL</title>
<path fill="none" stroke="black" d="M2651.01,-78.21C2643.1,-68.28 2632.24,-54.67 2623.06,-43.16"/>
<polygon fill="black" stroke="black" points="2625.71,-40.86 2616.74,-35.23 2620.24,-45.23 2625.71,-40.86"/>
</g>
<!-- HFKBHKON -->
<g id="node74" class="node">
<title>HFKBHKON</title>
<ellipse fill="none" stroke="black" cx="2662" cy="-19.5" rx="19.5" ry="19.5"/>
<text text-anchor="middle" x="2662" y="-15.8" font-family="Times,serif" font-size="14.00">12</text>
</g>
<!-- NNISTQNF&#45;&gt;HFKBHKON -->
<g id="edge73" class="edge">
<title>NNISTQNF&#45;&gt;HFKBHKON</title>
<path fill="none" stroke="black" d="M2662,-74.69C2662,-67.05 2662,-57.86 2662,-49.24"/>
<polygon fill="black" stroke="black" points="2665.5,-49.15 2662,-39.15 2658.5,-49.15 2665.5,-49.15"/>
</g>
<!-- ZITXCRKI -->
<g id="node76" class="node">
<title>ZITXCRKI</title>
<ellipse fill="none" stroke="black" cx="2717" cy="-19.5" rx="18" ry="18"/>
<text text-anchor="middle" x="2717" y="-15.8" font-family="Times,serif" font-size="14.00">9</text>
</g>
<!-- WUFQQQBQ&#45;&gt;ZITXCRKI -->
<g id="edge75" class="edge">
<title>WUFQQQBQ&#45;&gt;ZITXCRKI</title>
<path fill="none" stroke="black" d="M2760.59,-78.21C2752.89,-68.02 2742.26,-53.95 2733.43,-42.25"/>
<polygon fill="black" stroke="black" points="2736.2,-40.11 2727.38,-34.24 2730.61,-44.33 2736.2,-40.11"/>
</g>
<!-- HFBHONXU -->
<g id="node77" class="node">
<title>HFBHONXU</title>
<ellipse fill="none" stroke="black" cx="2771" cy="-19.5" rx="18" ry="18"/>
<text text-anchor="middle" x="2771" y="-15.8" font-family="Times,serif" font-size="14.00">5</text>
</g>
<!-- WUFQQQBQ&#45;&gt;HFBHONXU -->
<g id="edge76" class="edge">
<title>WUFQQQBQ&#45;&gt;HFBHONXU</title>
<path fill="none" stroke="black" d="M2771,-74.69C2771,-66.61 2771,-56.8 2771,-47.76"/>
<polygon fill="black" stroke="black" points="2774.5,-47.65 2771,-37.65 2767.5,-47.65 2774.5,-47.65"/>
</g>
<!-- DNBIVYGE -->
<g id="node78" class="node">
<title>DNBIVYGE</title>
<ellipse fill="none" stroke="black" cx="2825" cy="-19.5" rx="18" ry="18"/>
<text text-anchor="middle" x="2825" y="-15.8" font-family="Times,serif" font-size="14.00">2</text>
</g>
<!-- WUFQQQBQ&#45;&gt;DNBIVYGE -->
<g id="edge77" class="edge">
<title>WUFQQQBQ&#45;&gt;DNBIVYGE</title>
<path fill="none" stroke="black" d="M2781.41,-78.21C2789.11,-68.02 2799.74,-53.95 2808.57,-42.25"/>
<polygon fill="black" stroke="black" points="2811.39,-44.33 2814.62,-34.24 2805.8,-40.11 2811.39,-44.33"/>
</g>
<!-- HHKIQJTN -->
<g id="node80" class="node">
<title>HHKIQJTN</title>
<ellipse fill="none" stroke="black" cx="2879" cy="-19.5" rx="18" ry="18"/>
<text text-anchor="middle" x="2879" y="-15.8" font-family="Times,serif" font-size="14.00">8</text>
</g>
<!-- OJCZPYVS&#45;&gt;HHKIQJTN -->
<g id="edge79" class="edge">
<title>OJCZPYVS&#45;&gt;HHKIQJTN</title>
<path fill="none" stroke="black" d="M2923.4,-78.21C2915.56,-68.02 2904.73,-53.95 2895.73,-42.25"/>
<polygon fill="black" stroke="black" points="2898.44,-40.03 2889.57,-34.24 2892.9,-44.3 2898.44,-40.03"/>
</g>
<!-- YDFWOGAX -->
<g id="node81" class="node">
<title>YDFWOGAX</title>
<ellipse fill="none" stroke="black" cx="2934" cy="-19.5" rx="19.5" ry="19.5"/>
<text text-anchor="middle" x="2934" y="-15.8" font-family="Times,serif" font-size="14.00">14</text>
</g>
<!-- OJCZPYVS&#45;&gt;YDFWOGAX -->
<g id="edge80" class="edge">
<title>OJCZPYVS&#45;&gt;YDFWOGAX</title>
<path fill="none" stroke="black" d="M2934,-74.69C2934,-67.05 2934,-57.86 2934,-49.24"/>
<polygon fill="black" stroke="black" points="2937.5,-49.15 2934,-39.15 2930.5,-49.15 2937.5,-49.15"/>
</g>
<!-- BYLQEBGQ -->
<g id="node82" class="node">
<title>BYLQEBGQ</title>
<ellipse fill="none" stroke="black" cx="2989" cy="-19.5" rx="18" ry="18"/>
<text text-anchor="middle" x="2989" y="-15.8" font-family="Times,serif" font-size="14.00">8</text>
</g>
<!-- OJCZPYVS&#45;&gt;BYLQEBGQ -->
<g id="edge81" class="edge">
<title>OJCZPYVS&#45;&gt;BYLQEBGQ</title>
<path fill="none" stroke="black" d="M2944.6,-78.21C2952.44,-68.02 2963.27,-53.95 2972.27,-42.25"/>
<polygon fill="black" stroke="black" points="2975.1,-44.3 2978.43,-34.24 2969.56,-40.03 2975.1,-44.3"/>
</g>
<!-- ZIIJTLRS -->
<g id="node83" class="node">
<title>ZIIJTLRS</title>
<ellipse fill="none" stroke="black" cx="3043" cy="-19.5" rx="18" ry="18"/>
<text text-anchor="middle" x="3043" y="-15.8" font-family="Times,serif" font-size="14.00">4</text>
</g>
<!-- OJCZPYVS&#45;&gt;ZIIJTLRS -->
<g id="edge82" class="edge">
<title>OJCZPYVS&#45;&gt;ZIIJTLRS</title>
<path fill="none" stroke="black" d="M2948.89,-82.54C2965.38,-72.03 2992.72,-54.49 3016,-39 3017.27,-38.15 3018.57,-37.28 3019.89,-36.39"/>
<polygon fill="black" stroke="black" points="3022.17,-39.07 3028.48,-30.55 3018.24,-33.28 3022.17,-39.07"/>
</g>
<!-- FNSZNQVM -->
<g id="node85" class="node">
<title>FNSZNQVM</title>
<ellipse fill="none" stroke="black" cx="3205" cy="-93" rx="18" ry="18"/>
</g>
<!-- GHEZOKLW&#45;&gt;FNSZNQVM -->
<g id="edge84" class="edge">
<title>GHEZOKLW&#45;&gt;FNSZNQVM</title>
<path fill="none" stroke="black" d="M3272.62,-152.44C3259.89,-141.43 3240.52,-124.69 3225.77,-111.95"/>
<polygon fill="black" stroke="black" points="3227.98,-109.23 3218.13,-105.34 3223.4,-114.53 3227.98,-109.23"/>
</g>
<!-- FAAUJBKH -->
<g id="node90" class="node">
<title>FAAUJBKH</title>
<ellipse fill="none" stroke="black" cx="3367" cy="-93" rx="18" ry="18"/>
</g>
<!-- GHEZOKLW&#45;&gt;FAAUJBKH -->
<g id="edge89" class="edge">
<title>GHEZOKLW&#45;&gt;FAAUJBKH</title>
<path fill="none" stroke="black" d="M3299.38,-152.44C3312.11,-141.43 3331.48,-124.69 3346.23,-111.95"/>
<polygon fill="black" stroke="black" points="3348.6,-114.53 3353.87,-105.34 3344.02,-109.23 3348.6,-114.53"/>
</g>
<!-- ZXFTNUGD -->
<g id="node95" class="node">
<title>ZXFTNUGD</title>
<ellipse fill="none" stroke="black" cx="3529" cy="-93" rx="18" ry="18"/>
</g>
<!-- GHEZOKLW&#45;&gt;ZXFTNUGD -->
<g id="edge94" class="edge">
<title>GHEZOKLW&#45;&gt;ZXFTNUGD</title>
<path fill="none" stroke="black" d="M3303.09,-159.07C3344.74,-147.08 3451.78,-116.24 3502.1,-101.75"/>
<polygon fill="black" stroke="black" points="3503.29,-105.04 3511.93,-98.91 3501.35,-98.32 3503.29,-105.04"/>
</g>
<!-- KGFHSLUH -->
<g id="node86" class="node">
<title>KGFHSLUH</title>
<ellipse fill="none" stroke="black" cx="3097" cy="-19.5" rx="18" ry="18"/>
<text text-anchor="middle" x="3097" y="-15.8" font-family="Times,serif" font-size="14.00">4</text>
</g>
<!-- FNSZNQVM&#45;&gt;KGFHSLUH -->
<g id="edge85" class="edge">
<title>FNSZNQVM&#45;&gt;KGFHSLUH</title>
<path fill="none" stroke="black" d="M3190.31,-82.52C3174.03,-71.98 3147.04,-54.42 3124,-39 3122.73,-38.15 3121.43,-37.27 3120.12,-36.39"/>
<polygon fill="black" stroke="black" points="3121.77,-33.27 3111.53,-30.54 3117.83,-39.06 3121.77,-33.27"/>
</g>
<!-- UZYUJPNF -->
<g id="node87" class="node">
<title>UZYUJPNF</title>
<ellipse fill="none" stroke="black" cx="3151" cy="-19.5" rx="18" ry="18"/>
<text text-anchor="middle" x="3151" y="-15.8" font-family="Times,serif" font-size="14.00">8</text>
</g>
<!-- FNSZNQVM&#45;&gt;UZYUJPNF -->
<g id="edge86" class="edge">
<title>FNSZNQVM&#45;&gt;UZYUJPNF</title>
<path fill="none" stroke="black" d="M3194.59,-78.21C3186.89,-68.02 3176.26,-53.95 3167.43,-42.25"/>
<polygon fill="black" stroke="black" points="3170.2,-40.11 3161.38,-34.24 3164.61,-44.33 3170.2,-40.11"/>
</g>
<!-- HTCVSEPF -->
<g id="node88" class="node">
<title>HTCVSEPF</title>
<ellipse fill="none" stroke="black" cx="3205" cy="-19.5" rx="18" ry="18"/>
<text text-anchor="middle" x="3205" y="-15.8" font-family="Times,serif" font-size="14.00">4</text>
</g>
<!-- FNSZNQVM&#45;&gt;HTCVSEPF -->
<g id="edge87" class="edge">
<title>FNSZNQVM&#45;&gt;HTCVSEPF</title>
<path fill="none" stroke="black" d="M3205,-74.69C3205,-66.61 3205,-56.8 3205,-47.76"/>
<polygon fill="black" stroke="black" points="3208.5,-47.65 3205,-37.65 3201.5,-47.65 3208.5,-47.65"/>
</g>
<!-- LJRLLGNA -->
<g id="node89" class="node">
<title>LJRLLGNA</title>
<ellipse fill="none" stroke="black" cx="3259" cy="-19.5" rx="18" ry="18"/>
<text text-anchor="middle" x="3259" y="-15.8" font-family="Times,serif" font-size="14.00">6</text>
</g>
<!-- FNSZNQVM&#45;&gt;LJRLLGNA -->
<g id="edge88" class="edge">
<title>FNSZNQVM&#45;&gt;LJRLLGNA</title>
<path fill="none" stroke="black" d="M3215.41,-78.21C3223.11,-68.02 3233.74,-53.95 3242.57,-42.25"/>
<polygon fill="black" stroke="black" points="3245.39,-44.33 3248.62,-34.24 3239.8,-40.11 3245.39,-44.33"/>
</g>
<!-- HHWDPTPS -->
<g id="node91" class="node">
<title>HHWDPTPS</title>
<ellipse fill="none" stroke="black" cx="3313" cy="-19.5" rx="18" ry="18"/>
<text text-anchor="middle" x="3313" y="-15.8" font-family="Times,serif" font-size="14.00">5</text>
</g>
<!-- FAAUJBKH&#45;&gt;HHWDPTPS -->
<g id="edge90" class="edge">
<title>FAAUJBKH&#45;&gt;HHWDPTPS</title>
<path fill="none" stroke="black" d="M3356.59,-78.21C3348.89,-68.02 3338.26,-53.95 3329.43,-42.25"/>
<polygon fill="black" stroke="black" points="3332.2,-40.11 3323.38,-34.24 3326.61,-44.33 3332.2,-40.11"/>
</g>
<!-- HSCNBGYP -->
<g id="node92" class="node">
<title>HSCNBGYP</title>
<ellipse fill="none" stroke="black" cx="3367" cy="-19.5" rx="18" ry="18"/>
<text text-anchor="middle" x="3367" y="-15.8" font-family="Times,serif" font-size="14.00">6</text>
</g>
<!-- FAAUJBKH&#45;&gt;HSCNBGYP -->
<g id="edge91" class="edge">
<title>FAAUJBKH&#45;&gt;HSCNBGYP</title>
<path fill="none" stroke="black" d="M3367,-74.69C3367,-66.61 3367,-56.8 3367,-47.76"/>
<polygon fill="black" stroke="black" points="3370.5,-47.65 3367,-37.65 3363.5,-47.65 3370.5,-47.65"/>
</g>
<!-- TGFJMNZK -->
<g id="node93" class="node">
<title>TGFJMNZK</title>
<ellipse fill="none" stroke="black" cx="3421" cy="-19.5" rx="18" ry="18"/>
<text text-anchor="middle" x="3421" y="-15.8" font-family="Times,serif" font-size="14.00">5</text>
</g>
<!-- FAAUJBKH&#45;&gt;TGFJMNZK -->
<g id="edge92" class="edge">
<title>FAAUJBKH&#45;&gt;TGFJMNZK</title>
<path fill="none" stroke="black" d="M3377.41,-78.21C3385.11,-68.02 3395.74,-53.95 3404.57,-42.25"/>
<polygon fill="black" stroke="black" points="3407.39,-44.33 3410.62,-34.24 3401.8,-40.11 3407.39,-44.33"/>
</g>
<!-- KSVWSTHQ -->
<g id="node94" class="node">
<title>KSVWSTHQ</title>
<ellipse fill="none" stroke="black" cx="3475" cy="-19.5" rx="18" ry="18"/>
<text text-anchor="middle" x="3475" y="-15.8" font-family="Times,serif" font-size="14.00">7</text>
</g>
<!-- FAAUJBKH&#45;&gt;KSVWSTHQ -->
<g id="edge93" class="edge">
<title>FAAUJBKH&#45;&gt;KSVWSTHQ</title>
<path fill="none" stroke="black" d="M3381.69,-82.52C3397.97,-71.98 3424.96,-54.42 3448,-39 3449.27,-38.15 3450.57,-37.27 3451.88,-36.39"/>
<polygon fill="black" stroke="black" points="3454.17,-39.06 3460.47,-30.54 3450.23,-33.27 3454.17,-39.06"/>
</g>
<!-- OYCEBHUM -->
<g id="node96" class="node">
<title>OYCEBHUM</title>
<ellipse fill="none" stroke="black" cx="3529" cy="-19.5" rx="18" ry="18"/>
<text text-anchor="middle" x="3529" y="-15.8" font-family="Times,serif" font-size="14.00">4</text>
</g>
<!-- ZXFTNUGD&#45;&gt;OYCEBHUM -->
<g id="edge95" class="edge">
<title>ZXFTNUGD&#45;&gt;OYCEBHUM</title>
<path fill="none" stroke="black" d="M3529,-74.69C3529,-66.61 3529,-56.8 3529,-47.76"/>
<polygon fill="black" stroke="black" points="3532.5,-47.65 3529,-37.65 3525.5,-47.65 3532.5,-47.65"/>
</g>
<!-- NLHDXAGU -->
<g id="node97" class="node">
<title>NLHDXAGU</title>
<ellipse fill="none" stroke="black" cx="3583" cy="-19.5" rx="18" ry="18"/>
<text text-anchor="middle" x="3583" y="-15.8" font-family="Times,serif" font-size="14.00">1</text>
</g>
<!-- ZXFTNUGD&#45;&gt;NLHDXAGU -->
<g id="edge96" class="edge">
<title>ZXFTNUGD&#45;&gt;NLHDXAGU</title>
<path fill="none" stroke="black" d="M3539.41,-78.21C3547.11,-68.02 3557.74,-53.95 3566.57,-42.25"/>
<polygon fill="black" stroke="black" points="3569.39,-44.33 3572.62,-34.24 3563.8,-40.11 3569.39,-44.33"/>
</g>
<!-- GJNRLNSV -->
<g id="node99" class="node">
<title>GJNRLNSV</title>
<ellipse fill="none" stroke="black" cx="3691" cy="-93" rx="18" ry="18"/>
</g>
<!-- WQZFFIHL&#45;&gt;GJNRLNSV -->
<g id="edge98" class="edge">
<title>WQZFFIHL&#45;&gt;GJNRLNSV</title>
<path fill="none" stroke="black" d="M3691,-146.69C3691,-138.98 3691,-129.71 3691,-121.11"/>
<polygon fill="black" stroke="black" points="3694.5,-121.1 3691,-111.1 3687.5,-121.1 3694.5,-121.1"/>
</g>
<!-- BHJHGLCW -->
<g id="node103" class="node">
<title>BHJHGLCW</title>
<ellipse fill="none" stroke="black" cx="3828" cy="-93" rx="18" ry="18"/>
</g>
<!-- WQZFFIHL&#45;&gt;BHJHGLCW -->
<g id="edge102" class="edge">
<title>WQZFFIHL&#45;&gt;BHJHGLCW</title>
<path fill="none" stroke="black" d="M3706.72,-155.97C3730.23,-143.95 3774.8,-121.18 3802.87,-106.84"/>
<polygon fill="black" stroke="black" points="3804.73,-109.82 3812.05,-102.15 3801.55,-103.58 3804.73,-109.82"/>
</g>
<!-- PLLLBCLZ -->
<g id="node100" class="node">
<title>PLLLBCLZ</title>
<ellipse fill="none" stroke="black" cx="3637" cy="-19.5" rx="18" ry="18"/>
<text text-anchor="middle" x="3637" y="-15.8" font-family="Times,serif" font-size="14.00">7</text>
</g>
<!-- GJNRLNSV&#45;&gt;PLLLBCLZ -->
<g id="edge99" class="edge">
<title>GJNRLNSV&#45;&gt;PLLLBCLZ</title>
<path fill="none" stroke="black" d="M3680.59,-78.21C3672.89,-68.02 3662.26,-53.95 3653.43,-42.25"/>
<polygon fill="black" stroke="black" points="3656.2,-40.11 3647.38,-34.24 3650.61,-44.33 3656.2,-40.11"/>
</g>
<!-- ODYCRTYM -->
<g id="node101" class="node">
<title>ODYCRTYM</title>
<ellipse fill="none" stroke="black" cx="3691" cy="-19.5" rx="18" ry="18"/>
<text text-anchor="middle" x="3691" y="-15.8" font-family="Times,serif" font-size="14.00">1</text>
</g>
<!-- GJNRLNSV&#45;&gt;ODYCRTYM -->
<g id="edge100" class="edge">
<title>GJNRLNSV&#45;&gt;ODYCRTYM</title>
<path fill="none" stroke="black" d="M3691,-74.69C3691,-66.61 3691,-56.8 3691,-47.76"/>
<polygon fill="black" stroke="black" points="3694.5,-47.65 3691,-37.65 3687.5,-47.65 3694.5,-47.65"/>
</g>
<!-- ENQHLDGU -->
<g id="node102" class="node">
<title>ENQHLDGU</title>
<ellipse fill="none" stroke="black" cx="3746" cy="-19.5" rx="19.5" ry="19.5"/>
<text text-anchor="middle" x="3746" y="-15.8" font-family="Times,serif" font-size="14.00">15</text>
</g>
<!-- GJNRLNSV&#45;&gt;ENQHLDGU -->
<g id="edge101" class="edge">
<title>GJNRLNSV&#45;&gt;ENQHLDGU</title>
<path fill="none" stroke="black" d="M3701.6,-78.21C3709.12,-68.45 3719.38,-55.11 3728.14,-43.72"/>
<polygon fill="black" stroke="black" points="3731.16,-45.54 3734.48,-35.48 3725.61,-41.27 3731.16,-45.54"/>
</g>
<!-- EQMACXEV -->
<g id="node104" class="node">
<title>EQMACXEV</title>
<ellipse fill="none" stroke="black" cx="3801" cy="-19.5" rx="18" ry="18"/>
<text text-anchor="middle" x="3801" y="-15.8" font-family="Times,serif" font-size="14.00">2</text>
</g>
<!-- BHJHGLCW&#45;&gt;EQMACXEV -->
<g id="edge103" class="edge">
<title>BHJHGLCW&#45;&gt;EQMACXEV</title>
<path fill="none" stroke="black" d="M3821.87,-75.77C3818.56,-67 3814.39,-55.96 3810.65,-46.05"/>
<polygon fill="black" stroke="black" points="3813.91,-44.78 3807.1,-36.66 3807.36,-47.25 3813.91,-44.78"/>
</g>
<!-- IZDAKVVF -->
<g id="node105" class="node">
<title>IZDAKVVF</title>
<ellipse fill="none" stroke="black" cx="3855" cy="-19.5" rx="18" ry="18"/>
<text text-anchor="middle" x="3855" y="-15.8" font-family="Times,serif" font-size="14.00">9</text>
</g>
<!-- BHJHGLCW&#45;&gt;IZDAKVVF -->
<g id="edge104" class="edge">
<title>BHJHGLCW&#45;&gt;IZDAKVVF</title>
<path fill="none" stroke="black" d="M3834.13,-75.77C3837.44,-67 3841.61,-55.96 3845.35,-46.05"/>
<polygon fill="black" stroke="black" points="3848.64,-47.25 3848.9,-36.66 3842.09,-44.78 3848.64,-47.25"/>
</g>
<!-- LHFGLZST -->
<g id="node106" class="node">
<title>LHFGLZST</title>
<ellipse fill="none" stroke="black" cx="3910" cy="-19.5" rx="19.5" ry="19.5"/>
<text text-anchor="middle" x="3910" y="-15.8" font-family="Times,serif" font-size="14.00">10</text>
</g>
<!-- BHJHGLCW&#45;&gt;LHFGLZST -->
<g id="edge105" class="edge">
<title>BHJHGLCW&#45;&gt;LHFGLZST</title>
<path fill="none" stroke="black" d="M3841.17,-80.51C3853.78,-69.52 3873.03,-52.73 3887.97,-39.71"/>
<polygon fill="black" stroke="black" points="3890.52,-42.13 3895.76,-32.92 3885.92,-36.85 3890.52,-42.13"/>
</g>
</g>
</svg>
