<?xml version="1.0" encoding="UTF-8" standalone="no"?>
<!DOCTYPE svg PUBLIC "-//W3C//DTD SVG 1.1//EN"
 "http://www.w3.org/Graphics/SVG/1.1/DTD/svg11.dtd">
<!-- Generated by graphviz version 2.46.1 (20210213.1702)
 -->
<!-- Title: D Pages: 1 -->
<svg width="2075pt" height="335pt"
 viewBox="0.00 0.00 2075.50 335.00" xmlns="http://www.w3.org/2000/svg" xmlns:xlink="http://www.w3.org/1999/xlink">
<g id="graph0" class="graph" transform="scale(1 1) rotate(0) translate(4 331)">
<title>D</title>
<polygon fill="white" stroke="transparent" points="-4,4 -4,-331 2071.5,-331 2071.5,4 -4,4"/>
<!-- IAUGUECY -->
<g id="node1" class="node">
<title>IAUGUECY</title>
<ellipse fill="none" stroke="black" cx="1112" cy="-309" rx="18" ry="18"/>
</g>
<!-- IVKRLIPO -->
<g id="node2" class="node">
<title>IVKRLIPO</title>
<ellipse fill="none" stroke="black" cx="948" cy="-237" rx="18" ry="18"/>
</g>
<!-- IAUGUECY&#45;&gt;IVKRLIPO -->
<g id="edge1" class="edge">
<title>IAUGUECY&#45;&gt;IVKRLIPO</title>
<path fill="none" stroke="black" d="M1095.68,-301.03C1067.06,-288.82 1007.67,-263.46 973.56,-248.91"/>
<polygon fill="black" stroke="black" points="974.83,-245.64 964.26,-244.94 972.08,-252.08 974.83,-245.64"/>
</g>
<!-- OZCRQAFM -->
<g id="node38" class="node">
<title>OZCRQAFM</title>
<ellipse fill="none" stroke="black" cx="1443" cy="-237" rx="18" ry="18"/>
</g>
<!-- IAUGUECY&#45;&gt;OZCRQAFM -->
<g id="edge37" class="edge">
<title>IAUGUECY&#45;&gt;OZCRQAFM</title>
<path fill="none" stroke="black" d="M1129.8,-304.23C1184.36,-292.69 1349.62,-257.74 1415.48,-243.82"/>
<polygon fill="black" stroke="black" points="1416.46,-247.19 1425.52,-241.69 1415.01,-240.34 1416.46,-247.19"/>
</g>
<!-- WRJHGHPI -->
<g id="node3" class="node">
<title>WRJHGHPI</title>
<ellipse fill="none" stroke="black" cx="318" cy="-165" rx="18" ry="18"/>
</g>
<!-- IVKRLIPO&#45;&gt;WRJHGHPI -->
<g id="edge2" class="edge">
<title>IVKRLIPO&#45;&gt;WRJHGHPI</title>
<path fill="none" stroke="black" d="M930.16,-234.01C842.17,-224.24 454.33,-181.14 346.12,-169.12"/>
<polygon fill="black" stroke="black" points="346.31,-165.62 335.98,-167.99 345.54,-172.58 346.31,-165.62"/>
</g>
<!-- PKGFSIDY -->
<g id="node16" class="node">
<title>PKGFSIDY</title>
<ellipse fill="none" stroke="black" cx="837" cy="-165" rx="18" ry="18"/>
</g>
<!-- IVKRLIPO&#45;&gt;PKGFSIDY -->
<g id="edge15" class="edge">
<title>IVKRLIPO&#45;&gt;PKGFSIDY</title>
<path fill="none" stroke="black" d="M933.03,-226.56C914.49,-214.87 882.69,-194.81 860.8,-181"/>
<polygon fill="black" stroke="black" points="862.41,-177.88 852.09,-175.51 858.68,-183.81 862.41,-177.88"/>
</g>
<!-- PMHCDODL -->
<g id="node30" class="node">
<title>PMHCDODL</title>
<ellipse fill="none" stroke="black" cx="1085" cy="-165" rx="18" ry="18"/>
</g>
<!-- IVKRLIPO&#45;&gt;PMHCDODL -->
<g id="edge29" class="edge">
<title>IVKRLIPO&#45;&gt;PMHCDODL</title>
<path fill="none" stroke="black" d="M963.72,-227.97C987.23,-215.95 1031.8,-193.18 1059.87,-178.84"/>
<polygon fill="black" stroke="black" points="1061.73,-181.82 1069.05,-174.15 1058.55,-175.58 1061.73,-181.82"/>
</g>
<!-- CXQJKAMK -->
<g id="node4" class="node">
<title>CXQJKAMK</title>
<ellipse fill="none" stroke="black" cx="128" cy="-93" rx="18" ry="18"/>
</g>
<!-- WRJHGHPI&#45;&gt;CXQJKAMK -->
<g id="edge3" class="edge">
<title>WRJHGHPI&#45;&gt;CXQJKAMK</title>
<path fill="none" stroke="black" d="M301.14,-157.78C267.89,-145.53 193.65,-118.19 154.06,-103.6"/>
<polygon fill="black" stroke="black" points="155.15,-100.27 144.55,-100.09 152.73,-106.84 155.15,-100.27"/>
</g>
<!-- HABRULPF -->
<g id="node9" class="node">
<title>HABRULPF</title>
<ellipse fill="none" stroke="black" cx="290" cy="-93" rx="18" ry="18"/>
</g>
<!-- WRJHGHPI&#45;&gt;HABRULPF -->
<g id="edge8" class="edge">
<title>WRJHGHPI&#45;&gt;HABRULPF</title>
<path fill="none" stroke="black" d="M311.65,-148.11C308.29,-139.73 304.1,-129.24 300.29,-119.73"/>
<polygon fill="black" stroke="black" points="303.49,-118.29 296.52,-110.3 296.99,-120.89 303.49,-118.29"/>
</g>
<!-- XMRBWAYE -->
<g id="node12" class="node">
<title>XMRBWAYE</title>
<ellipse fill="none" stroke="black" cx="372" cy="-93" rx="18" ry="18"/>
</g>
<!-- WRJHGHPI&#45;&gt;XMRBWAYE -->
<g id="edge11" class="edge">
<title>WRJHGHPI&#45;&gt;XMRBWAYE</title>
<path fill="none" stroke="black" d="M328.67,-150.17C336.21,-140.39 346.48,-127.08 355.13,-115.87"/>
<polygon fill="black" stroke="black" points="358.02,-117.85 361.35,-107.8 352.47,-113.58 358.02,-117.85"/>
</g>
<!-- POFDEURC -->
<g id="node5" class="node">
<title>POFDEURC</title>
<ellipse fill="none" stroke="black" cx="18" cy="-19.5" rx="18" ry="18"/>
<text text-anchor="middle" x="18" y="-15.8" font-family="Times,serif" font-size="14.00">1</text>
</g>
<!-- CXQJKAMK&#45;&gt;POFDEURC -->
<g id="edge4" class="edge">
<title>CXQJKAMK&#45;&gt;POFDEURC</title>
<path fill="none" stroke="black" d="M112.91,-82.57C96.21,-72.08 68.53,-54.56 45,-39 43.73,-38.15 42.42,-37.28 41.11,-36.4"/>
<polygon fill="black" stroke="black" points="42.75,-33.29 32.51,-30.57 38.82,-39.08 42.75,-33.29"/>
</g>
<!-- LVTNYRLI -->
<g id="node6" class="node">
<title>LVTNYRLI</title>
<ellipse fill="none" stroke="black" cx="73" cy="-19.5" rx="19.5" ry="19.5"/>
<text text-anchor="middle" x="73" y="-15.8" font-family="Times,serif" font-size="14.00">15</text>
</g>
<!-- CXQJKAMK&#45;&gt;LVTNYRLI -->
<g id="edge5" class="edge">
<title>CXQJKAMK&#45;&gt;LVTNYRLI</title>
<path fill="none" stroke="black" d="M117.4,-78.21C109.88,-68.45 99.62,-55.11 90.86,-43.72"/>
<polygon fill="black" stroke="black" points="93.39,-41.27 84.52,-35.48 87.84,-45.54 93.39,-41.27"/>
</g>
<!-- LUVAOAVT -->
<g id="node7" class="node">
<title>LUVAOAVT</title>
<ellipse fill="none" stroke="black" cx="128" cy="-19.5" rx="18" ry="18"/>
<text text-anchor="middle" x="128" y="-15.8" font-family="Times,serif" font-size="14.00">9</text>
</g>
<!-- CXQJKAMK&#45;&gt;LUVAOAVT -->
<g id="edge6" class="edge">
<title>CXQJKAMK&#45;&gt;LUVAOAVT</title>
<path fill="none" stroke="black" d="M128,-74.69C128,-66.61 128,-56.8 128,-47.76"/>
<polygon fill="black" stroke="black" points="131.5,-47.65 128,-37.65 124.5,-47.65 131.5,-47.65"/>
</g>
<!-- SCRCTMZG -->
<g id="node8" class="node">
<title>SCRCTMZG</title>
<ellipse fill="none" stroke="black" cx="182" cy="-19.5" rx="18" ry="18"/>
<text text-anchor="middle" x="182" y="-15.8" font-family="Times,serif" font-size="14.00">4</text>
</g>
<!-- CXQJKAMK&#45;&gt;SCRCTMZG -->
<g id="edge7" class="edge">
<title>CXQJKAMK&#45;&gt;SCRCTMZG</title>
<path fill="none" stroke="black" d="M138.41,-78.21C146.11,-68.02 156.74,-53.95 165.57,-42.25"/>
<polygon fill="black" stroke="black" points="168.39,-44.33 171.62,-34.24 162.8,-40.11 168.39,-44.33"/>
</g>
<!-- QXSLZABC -->
<g id="node10" class="node">
<title>QXSLZABC</title>
<ellipse fill="none" stroke="black" cx="236" cy="-19.5" rx="18" ry="18"/>
<text text-anchor="middle" x="236" y="-15.8" font-family="Times,serif" font-size="14.00">2</text>
</g>
<!-- HABRULPF&#45;&gt;QXSLZABC -->
<g id="edge9" class="edge">
<title>HABRULPF&#45;&gt;QXSLZABC</title>
<path fill="none" stroke="black" d="M279.59,-78.21C271.89,-68.02 261.26,-53.95 252.43,-42.25"/>
<polygon fill="black" stroke="black" points="255.2,-40.11 246.38,-34.24 249.61,-44.33 255.2,-40.11"/>
</g>
<!-- VYRVNLKQ -->
<g id="node11" class="node">
<title>VYRVNLKQ</title>
<ellipse fill="none" stroke="black" cx="290" cy="-19.5" rx="18" ry="18"/>
<text text-anchor="middle" x="290" y="-15.8" font-family="Times,serif" font-size="14.00">8</text>
</g>
<!-- HABRULPF&#45;&gt;VYRVNLKQ -->
<g id="edge10" class="edge">
<title>HABRULPF&#45;&gt;VYRVNLKQ</title>
<path fill="none" stroke="black" d="M290,-74.69C290,-66.61 290,-56.8 290,-47.76"/>
<polygon fill="black" stroke="black" points="293.5,-47.65 290,-37.65 286.5,-47.65 293.5,-47.65"/>
</g>
<!-- WWNLPVZE -->
<g id="node13" class="node">
<title>WWNLPVZE</title>
<ellipse fill="none" stroke="black" cx="344" cy="-19.5" rx="18" ry="18"/>
<text text-anchor="middle" x="344" y="-15.8" font-family="Times,serif" font-size="14.00">2</text>
</g>
<!-- XMRBWAYE&#45;&gt;WWNLPVZE -->
<g id="edge12" class="edge">
<title>XMRBWAYE&#45;&gt;WWNLPVZE</title>
<path fill="none" stroke="black" d="M365.65,-75.77C362.21,-67 357.89,-55.96 354.01,-46.05"/>
<polygon fill="black" stroke="black" points="357.23,-44.69 350.33,-36.66 350.72,-47.25 357.23,-44.69"/>
</g>
<!-- CQCEPMBP -->
<g id="node14" class="node">
<title>CQCEPMBP</title>
<ellipse fill="none" stroke="black" cx="399" cy="-19.5" rx="19.5" ry="19.5"/>
<text text-anchor="middle" x="399" y="-15.8" font-family="Times,serif" font-size="14.00">10</text>
</g>
<!-- XMRBWAYE&#45;&gt;CQCEPMBP -->
<g id="edge13" class="edge">
<title>XMRBWAYE&#45;&gt;CQCEPMBP</title>
<path fill="none" stroke="black" d="M378.13,-75.77C381.29,-67.39 385.23,-56.95 388.84,-47.41"/>
<polygon fill="black" stroke="black" points="392.17,-48.5 392.43,-37.91 385.62,-46.03 392.17,-48.5"/>
</g>
<!-- PLKPBSZE -->
<g id="node15" class="node">
<title>PLKPBSZE</title>
<ellipse fill="none" stroke="black" cx="456" cy="-19.5" rx="19.5" ry="19.5"/>
<text text-anchor="middle" x="456" y="-15.8" font-family="Times,serif" font-size="14.00">12</text>
</g>
<!-- XMRBWAYE&#45;&gt;PLKPBSZE -->
<g id="edge14" class="edge">
<title>XMRBWAYE&#45;&gt;PLKPBSZE</title>
<path fill="none" stroke="black" d="M385.5,-80.51C398.41,-69.52 418.13,-52.73 433.43,-39.71"/>
<polygon fill="black" stroke="black" points="436.06,-42.06 441.41,-32.92 431.53,-36.73 436.06,-42.06"/>
</g>
<!-- WNVYDVQR -->
<g id="node17" class="node">
<title>WNVYDVQR</title>
<ellipse fill="none" stroke="black" cx="619" cy="-93" rx="18" ry="18"/>
</g>
<!-- PKGFSIDY&#45;&gt;WNVYDVQR -->
<g id="edge16" class="edge">
<title>PKGFSIDY&#45;&gt;WNVYDVQR</title>
<path fill="none" stroke="black" d="M819.89,-158.5C782.09,-146.36 691.18,-117.17 645.77,-102.59"/>
<polygon fill="black" stroke="black" points="646.62,-99.19 636.03,-99.46 644.48,-105.85 646.62,-99.19"/>
</g>
<!-- LJYECWRR -->
<g id="node22" class="node">
<title>LJYECWRR</title>
<ellipse fill="none" stroke="black" cx="783" cy="-93" rx="18" ry="18"/>
</g>
<!-- PKGFSIDY&#45;&gt;LJYECWRR -->
<g id="edge21" class="edge">
<title>PKGFSIDY&#45;&gt;LJYECWRR</title>
<path fill="none" stroke="black" d="M826.33,-150.17C818.79,-140.39 808.52,-127.08 799.87,-115.87"/>
<polygon fill="black" stroke="black" points="802.53,-113.58 793.65,-107.8 796.98,-117.85 802.53,-113.58"/>
</g>
<!-- WLEPSUCN -->
<g id="node25" class="node">
<title>WLEPSUCN</title>
<ellipse fill="none" stroke="black" cx="892" cy="-93" rx="18" ry="18"/>
</g>
<!-- PKGFSIDY&#45;&gt;WLEPSUCN -->
<g id="edge24" class="edge">
<title>PKGFSIDY&#45;&gt;WLEPSUCN</title>
<path fill="none" stroke="black" d="M847.87,-150.17C855.55,-140.39 866.01,-127.08 874.82,-115.87"/>
<polygon fill="black" stroke="black" points="877.73,-117.82 881.16,-107.8 872.23,-113.5 877.73,-117.82"/>
</g>
<!-- BQZYDOVX -->
<g id="node18" class="node">
<title>BQZYDOVX</title>
<ellipse fill="none" stroke="black" cx="511" cy="-19.5" rx="18" ry="18"/>
<text text-anchor="middle" x="511" y="-15.8" font-family="Times,serif" font-size="14.00">2</text>
</g>
<!-- WNVYDVQR&#45;&gt;BQZYDOVX -->
<g id="edge17" class="edge">
<title>WNVYDVQR&#45;&gt;BQZYDOVX</title>
<path fill="none" stroke="black" d="M604.31,-82.52C588.03,-71.98 561.04,-54.42 538,-39 536.73,-38.15 535.43,-37.27 534.12,-36.39"/>
<polygon fill="black" stroke="black" points="535.77,-33.27 525.53,-30.54 531.83,-39.06 535.77,-33.27"/>
</g>
<!-- FVTXUIUJ -->
<g id="node19" class="node">
<title>FVTXUIUJ</title>
<ellipse fill="none" stroke="black" cx="565" cy="-19.5" rx="18" ry="18"/>
<text text-anchor="middle" x="565" y="-15.8" font-family="Times,serif" font-size="14.00">9</text>
</g>
<!-- WNVYDVQR&#45;&gt;FVTXUIUJ -->
<g id="edge18" class="edge">
<title>WNVYDVQR&#45;&gt;FVTXUIUJ</title>
<path fill="none" stroke="black" d="M608.59,-78.21C600.89,-68.02 590.26,-53.95 581.43,-42.25"/>
<polygon fill="black" stroke="black" points="584.2,-40.11 575.38,-34.24 578.61,-44.33 584.2,-40.11"/>
</g>
<!-- ZDOIJTCY -->
<g id="node20" class="node">
<title>ZDOIJTCY</title>
<ellipse fill="none" stroke="black" cx="619" cy="-19.5" rx="18" ry="18"/>
<text text-anchor="middle" x="619" y="-15.8" font-family="Times,serif" font-size="14.00">3</text>
</g>
<!-- WNVYDVQR&#45;&gt;ZDOIJTCY -->
<g id="edge19" class="edge">
<title>WNVYDVQR&#45;&gt;ZDOIJTCY</title>
<path fill="none" stroke="black" d="M619,-74.69C619,-66.61 619,-56.8 619,-47.76"/>
<polygon fill="black" stroke="black" points="622.5,-47.65 619,-37.65 615.5,-47.65 622.5,-47.65"/>
</g>
<!-- AGAWPEJM -->
<g id="node21" class="node">
<title>AGAWPEJM</title>
<ellipse fill="none" stroke="black" cx="674" cy="-19.5" rx="19.5" ry="19.5"/>
<text text-anchor="middle" x="674" y="-15.8" font-family="Times,serif" font-size="14.00">11</text>
</g>
<!-- WNVYDVQR&#45;&gt;AGAWPEJM -->
<g id="edge20" class="edge">
<title>WNVYDVQR&#45;&gt;AGAWPEJM</title>
<path fill="none" stroke="black" d="M629.6,-78.21C637.12,-68.45 647.38,-55.11 656.14,-43.72"/>
<polygon fill="black" stroke="black" points="659.16,-45.54 662.48,-35.48 653.61,-41.27 659.16,-45.54"/>
</g>
<!-- WDTOWXGJ -->
<g id="node23" class="node">
<title>WDTOWXGJ</title>
<ellipse fill="none" stroke="black" cx="729" cy="-19.5" rx="18" ry="18"/>
<text text-anchor="middle" x="729" y="-15.8" font-family="Times,serif" font-size="14.00">2</text>
</g>
<!-- LJYECWRR&#45;&gt;WDTOWXGJ -->
<g id="edge22" class="edge">
<title>LJYECWRR&#45;&gt;WDTOWXGJ</title>
<path fill="none" stroke="black" d="M772.59,-78.21C764.89,-68.02 754.26,-53.95 745.43,-42.25"/>
<polygon fill="black" stroke="black" points="748.2,-40.11 739.38,-34.24 742.61,-44.33 748.2,-40.11"/>
</g>
<!-- VBHDYCQK -->
<g id="node24" class="node">
<title>VBHDYCQK</title>
<ellipse fill="none" stroke="black" cx="783" cy="-19.5" rx="18" ry="18"/>
<text text-anchor="middle" x="783" y="-15.8" font-family="Times,serif" font-size="14.00">5</text>
</g>
<!-- LJYECWRR&#45;&gt;VBHDYCQK -->
<g id="edge23" class="edge">
<title>LJYECWRR&#45;&gt;VBHDYCQK</title>
<path fill="none" stroke="black" d="M783,-74.69C783,-66.61 783,-56.8 783,-47.76"/>
<polygon fill="black" stroke="black" points="786.5,-47.65 783,-37.65 779.5,-47.65 786.5,-47.65"/>
</g>
<!-- RTKABMXI -->
<g id="node26" class="node">
<title>RTKABMXI</title>
<ellipse fill="none" stroke="black" cx="837" cy="-19.5" rx="18" ry="18"/>
<text text-anchor="middle" x="837" y="-15.8" font-family="Times,serif" font-size="14.00">0</text>
</g>
<!-- WLEPSUCN&#45;&gt;RTKABMXI -->
<g id="edge25" class="edge">
<title>WLEPSUCN&#45;&gt;RTKABMXI</title>
<path fill="none" stroke="black" d="M881.4,-78.21C873.56,-68.02 862.73,-53.95 853.73,-42.25"/>
<polygon fill="black" stroke="black" points="856.44,-40.03 847.57,-34.24 850.9,-44.3 856.44,-40.03"/>
</g>
<!-- HSOYLJED -->
<g id="node27" class="node">
<title>HSOYLJED</title>
<ellipse fill="none" stroke="black" cx="892" cy="-19.5" rx="19.5" ry="19.5"/>
<text text-anchor="middle" x="892" y="-15.8" font-family="Times,serif" font-size="14.00">12</text>
</g>
<!-- WLEPSUCN&#45;&gt;HSOYLJED -->
<g id="edge26" class="edge">
<title>WLEPSUCN&#45;&gt;HSOYLJED</title>
<path fill="none" stroke="black" d="M892,-74.69C892,-67.05 892,-57.86 892,-49.24"/>
<polygon fill="black" stroke="black" points="895.5,-49.15 892,-39.15 888.5,-49.15 895.5,-49.15"/>
</g>
<!-- VXPBTFKS -->
<g id="node28" class="node">
<title>VXPBTFKS</title>
<ellipse fill="none" stroke="black" cx="949" cy="-19.5" rx="19.5" ry="19.5"/>
<text text-anchor="middle" x="949" y="-15.8" font-family="Times,serif" font-size="14.00">14</text>
</g>
<!-- WLEPSUCN&#45;&gt;VXPBTFKS -->
<g id="edge27" class="edge">
<title>WLEPSUCN&#45;&gt;VXPBTFKS</title>
<path fill="none" stroke="black" d="M902.99,-78.21C910.9,-68.28 921.76,-54.67 930.94,-43.16"/>
<polygon fill="black" stroke="black" points="933.76,-45.23 937.26,-35.23 928.29,-40.86 933.76,-45.23"/>
</g>
<!-- OMQFHUGT -->
<g id="node29" class="node">
<title>OMQFHUGT</title>
<ellipse fill="none" stroke="black" cx="1004" cy="-19.5" rx="18" ry="18"/>
<text text-anchor="middle" x="1004" y="-15.8" font-family="Times,serif" font-size="14.00">1</text>
</g>
<!-- WLEPSUCN&#45;&gt;OMQFHUGT -->
<g id="edge28" class="edge">
<title>WLEPSUCN&#45;&gt;OMQFHUGT</title>
<path fill="none" stroke="black" d="M907.17,-82.81C924.27,-72.39 952.84,-54.8 977,-39 978.28,-38.16 979.59,-37.3 980.9,-36.42"/>
<polygon fill="black" stroke="black" points="983.18,-39.1 989.5,-30.6 979.26,-33.3 983.18,-39.1"/>
</g>
<!-- XHIJWQWD -->
<g id="node31" class="node">
<title>XHIJWQWD</title>
<ellipse fill="none" stroke="black" cx="1085" cy="-93" rx="18" ry="18"/>
</g>
<!-- PMHCDODL&#45;&gt;XHIJWQWD -->
<g id="edge30" class="edge">
<title>PMHCDODL&#45;&gt;XHIJWQWD</title>
<path fill="none" stroke="black" d="M1085,-146.69C1085,-138.98 1085,-129.71 1085,-121.11"/>
<polygon fill="black" stroke="black" points="1088.5,-121.1 1085,-111.1 1081.5,-121.1 1088.5,-121.1"/>
</g>
<!-- KUDMPNMN -->
<g id="node34" class="node">
<title>KUDMPNMN</title>
<ellipse fill="none" stroke="black" cx="1193" cy="-93" rx="18" ry="18"/>
</g>
<!-- PMHCDODL&#45;&gt;KUDMPNMN -->
<g id="edge33" class="edge">
<title>PMHCDODL&#45;&gt;KUDMPNMN</title>
<path fill="none" stroke="black" d="M1100.02,-154.26C1118.07,-142.56 1148.57,-122.79 1169.7,-109.1"/>
<polygon fill="black" stroke="black" points="1171.62,-112.02 1178.11,-103.65 1167.82,-106.15 1171.62,-112.02"/>
</g>
<!-- TMUSUQLX -->
<g id="node32" class="node">
<title>TMUSUQLX</title>
<ellipse fill="none" stroke="black" cx="1058" cy="-19.5" rx="18" ry="18"/>
<text text-anchor="middle" x="1058" y="-15.8" font-family="Times,serif" font-size="14.00">8</text>
</g>
<!-- XHIJWQWD&#45;&gt;TMUSUQLX -->
<g id="edge31" class="edge">
<title>XHIJWQWD&#45;&gt;TMUSUQLX</title>
<path fill="none" stroke="black" d="M1078.87,-75.77C1075.56,-67 1071.39,-55.96 1067.65,-46.05"/>
<polygon fill="black" stroke="black" points="1070.91,-44.78 1064.1,-36.66 1064.36,-47.25 1070.91,-44.78"/>
</g>
<!-- HRFWLFAS -->
<g id="node33" class="node">
<title>HRFWLFAS</title>
<ellipse fill="none" stroke="black" cx="1112" cy="-19.5" rx="18" ry="18"/>
<text text-anchor="middle" x="1112" y="-15.8" font-family="Times,serif" font-size="14.00">6</text>
</g>
<!-- XHIJWQWD&#45;&gt;HRFWLFAS -->
<g id="edge32" class="edge">
<title>XHIJWQWD&#45;&gt;HRFWLFAS</title>
<path fill="none" stroke="black" d="M1091.13,-75.77C1094.44,-67 1098.61,-55.96 1102.35,-46.05"/>
<polygon fill="black" stroke="black" points="1105.64,-47.25 1105.9,-36.66 1099.09,-44.78 1105.64,-47.25"/>
</g>
<!-- JPHULALU -->
<g id="node35" class="node">
<title>JPHULALU</title>
<ellipse fill="none" stroke="black" cx="1166" cy="-19.5" rx="18" ry="18"/>
<text text-anchor="middle" x="1166" y="-15.8" font-family="Times,serif" font-size="14.00">0</text>
</g>
<!-- KUDMPNMN&#45;&gt;JPHULALU -->
<g id="edge34" class="edge">
<title>KUDMPNMN&#45;&gt;JPHULALU</title>
<path fill="none" stroke="black" d="M1186.87,-75.77C1183.56,-67 1179.39,-55.96 1175.65,-46.05"/>
<polygon fill="black" stroke="black" points="1178.91,-44.78 1172.1,-36.66 1172.36,-47.25 1178.91,-44.78"/>
</g>
<!-- HBCJSGKM -->
<g id="node36" class="node">
<title>HBCJSGKM</title>
<ellipse fill="none" stroke="black" cx="1220" cy="-19.5" rx="18" ry="18"/>
<text text-anchor="middle" x="1220" y="-15.8" font-family="Times,serif" font-size="14.00">2</text>
</g>
<!-- KUDMPNMN&#45;&gt;HBCJSGKM -->
<g id="edge35" class="edge">
<title>KUDMPNMN&#45;&gt;HBCJSGKM</title>
<path fill="none" stroke="black" d="M1199.13,-75.77C1202.44,-67 1206.61,-55.96 1210.35,-46.05"/>
<polygon fill="black" stroke="black" points="1213.64,-47.25 1213.9,-36.66 1207.09,-44.78 1213.64,-47.25"/>
</g>
<!-- XQVEHUCD -->
<g id="node37" class="node">
<title>XQVEHUCD</title>
<ellipse fill="none" stroke="black" cx="1275" cy="-19.5" rx="19.5" ry="19.5"/>
<text text-anchor="middle" x="1275" y="-15.8" font-family="Times,serif" font-size="14.00">13</text>
</g>
<!-- KUDMPNMN&#45;&gt;XQVEHUCD -->
<g id="edge36" class="edge">
<title>KUDMPNMN&#45;&gt;XQVEHUCD</title>
<path fill="none" stroke="black" d="M1206.17,-80.51C1218.78,-69.52 1238.03,-52.73 1252.97,-39.71"/>
<polygon fill="black" stroke="black" points="1255.52,-42.13 1260.76,-32.92 1250.92,-36.85 1255.52,-42.13"/>
</g>
<!-- CHWDERGT -->
<g id="node39" class="node">
<title>CHWDERGT</title>
<ellipse fill="none" stroke="black" cx="1443" cy="-165" rx="18" ry="18"/>
</g>
<!-- OZCRQAFM&#45;&gt;CHWDERGT -->
<g id="edge38" class="edge">
<title>OZCRQAFM&#45;&gt;CHWDERGT</title>
<path fill="none" stroke="black" d="M1443,-218.69C1443,-210.98 1443,-201.71 1443,-193.11"/>
<polygon fill="black" stroke="black" points="1446.5,-193.1 1443,-183.1 1439.5,-193.1 1446.5,-193.1"/>
</g>
<!-- NEXAZEMI -->
<g id="node48" class="node">
<title>NEXAZEMI</title>
<ellipse fill="none" stroke="black" cx="1743" cy="-165" rx="18" ry="18"/>
</g>
<!-- OZCRQAFM&#45;&gt;NEXAZEMI -->
<g id="edge47" class="edge">
<title>OZCRQAFM&#45;&gt;NEXAZEMI</title>
<path fill="none" stroke="black" d="M1460.43,-231.93C1510.45,-220.26 1654.77,-186.58 1715.52,-172.41"/>
<polygon fill="black" stroke="black" points="1716.58,-175.75 1725.53,-170.07 1714.99,-168.94 1716.58,-175.75"/>
</g>
<!-- WUPLTGTZ -->
<g id="node40" class="node">
<title>WUPLTGTZ</title>
<ellipse fill="none" stroke="black" cx="1387" cy="-93" rx="18" ry="18"/>
</g>
<!-- CHWDERGT&#45;&gt;WUPLTGTZ -->
<g id="edge39" class="edge">
<title>CHWDERGT&#45;&gt;WUPLTGTZ</title>
<path fill="none" stroke="black" d="M1432.2,-150.5C1424.22,-140.53 1413.2,-126.75 1404.04,-115.29"/>
<polygon fill="black" stroke="black" points="1406.74,-113.07 1397.76,-107.45 1401.28,-117.45 1406.74,-113.07"/>
</g>
<!-- SMEJSZFD -->
<g id="node43" class="node">
<title>SMEJSZFD</title>
<ellipse fill="none" stroke="black" cx="1499" cy="-93" rx="18" ry="18"/>
</g>
<!-- CHWDERGT&#45;&gt;SMEJSZFD -->
<g id="edge42" class="edge">
<title>CHWDERGT&#45;&gt;SMEJSZFD</title>
<path fill="none" stroke="black" d="M1453.8,-150.5C1461.78,-140.53 1472.8,-126.75 1481.96,-115.29"/>
<polygon fill="black" stroke="black" points="1484.72,-117.45 1488.24,-107.45 1479.26,-113.07 1484.72,-117.45"/>
</g>
<!-- DQVWTFHY -->
<g id="node41" class="node">
<title>DQVWTFHY</title>
<ellipse fill="none" stroke="black" cx="1332" cy="-19.5" rx="19.5" ry="19.5"/>
<text text-anchor="middle" x="1332" y="-15.8" font-family="Times,serif" font-size="14.00">14</text>
</g>
<!-- WUPLTGTZ&#45;&gt;DQVWTFHY -->
<g id="edge40" class="edge">
<title>WUPLTGTZ&#45;&gt;DQVWTFHY</title>
<path fill="none" stroke="black" d="M1376.4,-78.21C1368.88,-68.45 1358.62,-55.11 1349.86,-43.72"/>
<polygon fill="black" stroke="black" points="1352.39,-41.27 1343.52,-35.48 1346.84,-45.54 1352.39,-41.27"/>
</g>
<!-- UJZUXXJP -->
<g id="node42" class="node">
<title>UJZUXXJP</title>
<ellipse fill="none" stroke="black" cx="1387" cy="-19.5" rx="18" ry="18"/>
<text text-anchor="middle" x="1387" y="-15.8" font-family="Times,serif" font-size="14.00">1</text>
</g>
<!-- WUPLTGTZ&#45;&gt;UJZUXXJP -->
<g id="edge41" class="edge">
<title>WUPLTGTZ&#45;&gt;UJZUXXJP</title>
<path fill="none" stroke="black" d="M1387,-74.69C1387,-66.61 1387,-56.8 1387,-47.76"/>
<polygon fill="black" stroke="black" points="1390.5,-47.65 1387,-37.65 1383.5,-47.65 1390.5,-47.65"/>
</g>
<!-- MTWORMSH -->
<g id="node44" class="node">
<title>MTWORMSH</title>
<ellipse fill="none" stroke="black" cx="1442" cy="-19.5" rx="19.5" ry="19.5"/>
<text text-anchor="middle" x="1442" y="-15.8" font-family="Times,serif" font-size="14.00">15</text>
</g>
<!-- SMEJSZFD&#45;&gt;MTWORMSH -->
<g id="edge43" class="edge">
<title>SMEJSZFD&#45;&gt;MTWORMSH</title>
<path fill="none" stroke="black" d="M1488.01,-78.21C1480.1,-68.28 1469.24,-54.67 1460.06,-43.16"/>
<polygon fill="black" stroke="black" points="1462.71,-40.86 1453.74,-35.23 1457.24,-45.23 1462.71,-40.86"/>
</g>
<!-- RSELAISQ -->
<g id="node45" class="node">
<title>RSELAISQ</title>
<ellipse fill="none" stroke="black" cx="1499" cy="-19.5" rx="19.5" ry="19.5"/>
<text text-anchor="middle" x="1499" y="-15.8" font-family="Times,serif" font-size="14.00">15</text>
</g>
<!-- SMEJSZFD&#45;&gt;RSELAISQ -->
<g id="edge44" class="edge">
<title>SMEJSZFD&#45;&gt;RSELAISQ</title>
<path fill="none" stroke="black" d="M1499,-74.69C1499,-67.05 1499,-57.86 1499,-49.24"/>
<polygon fill="black" stroke="black" points="1502.5,-49.15 1499,-39.15 1495.5,-49.15 1502.5,-49.15"/>
</g>
<!-- CXVWJGYY -->
<g id="node46" class="node">
<title>CXVWJGYY</title>
<ellipse fill="none" stroke="black" cx="1554" cy="-19.5" rx="18" ry="18"/>
<text text-anchor="middle" x="1554" y="-15.8" font-family="Times,serif" font-size="14.00">2</text>
</g>
<!-- SMEJSZFD&#45;&gt;CXVWJGYY -->
<g id="edge45" class="edge">
<title>SMEJSZFD&#45;&gt;CXVWJGYY</title>
<path fill="none" stroke="black" d="M1509.6,-78.21C1517.44,-68.02 1528.27,-53.95 1537.27,-42.25"/>
<polygon fill="black" stroke="black" points="1540.1,-44.3 1543.43,-34.24 1534.56,-40.03 1540.1,-44.3"/>
</g>
<!-- GKBTVWWW -->
<g id="node47" class="node">
<title>GKBTVWWW</title>
<ellipse fill="none" stroke="black" cx="1608" cy="-19.5" rx="18" ry="18"/>
<text text-anchor="middle" x="1608" y="-15.8" font-family="Times,serif" font-size="14.00">6</text>
</g>
<!-- SMEJSZFD&#45;&gt;GKBTVWWW -->
<g id="edge46" class="edge">
<title>SMEJSZFD&#45;&gt;GKBTVWWW</title>
<path fill="none" stroke="black" d="M1513.89,-82.54C1530.38,-72.03 1557.72,-54.49 1581,-39 1582.27,-38.15 1583.57,-37.28 1584.89,-36.39"/>
<polygon fill="black" stroke="black" points="1587.17,-39.07 1593.48,-30.55 1583.24,-33.28 1587.17,-39.07"/>
</g>
<!-- WQVEYMSR -->
<g id="node49" class="node">
<title>WQVEYMSR</title>
<ellipse fill="none" stroke="black" cx="1716" cy="-93" rx="18" ry="18"/>
</g>
<!-- NEXAZEMI&#45;&gt;WQVEYMSR -->
<g id="edge48" class="edge">
<title>NEXAZEMI&#45;&gt;WQVEYMSR</title>
<path fill="none" stroke="black" d="M1736.74,-147.76C1733.5,-139.37 1729.47,-128.93 1725.83,-119.49"/>
<polygon fill="black" stroke="black" points="1729.09,-118.21 1722.23,-110.14 1722.56,-120.73 1729.09,-118.21"/>
</g>
<!-- LEYNCTSF -->
<g id="node52" class="node">
<title>LEYNCTSF</title>
<ellipse fill="none" stroke="black" cx="1798" cy="-93" rx="18" ry="18"/>
</g>
<!-- NEXAZEMI&#45;&gt;LEYNCTSF -->
<g id="edge51" class="edge">
<title>NEXAZEMI&#45;&gt;LEYNCTSF</title>
<path fill="none" stroke="black" d="M1753.87,-150.17C1761.55,-140.39 1772.01,-127.08 1780.82,-115.87"/>
<polygon fill="black" stroke="black" points="1783.73,-117.82 1787.16,-107.8 1778.23,-113.5 1783.73,-117.82"/>
</g>
<!-- RXSYRJGE -->
<g id="node56" class="node">
<title>RXSYRJGE</title>
<ellipse fill="none" stroke="black" cx="1965" cy="-93" rx="18" ry="18"/>
</g>
<!-- NEXAZEMI&#45;&gt;RXSYRJGE -->
<g id="edge55" class="edge">
<title>NEXAZEMI&#45;&gt;RXSYRJGE</title>
<path fill="none" stroke="black" d="M1760.05,-158.62C1798.47,-146.51 1892.04,-117 1938.26,-102.43"/>
<polygon fill="black" stroke="black" points="1939.41,-105.74 1947.89,-99.39 1937.3,-99.06 1939.41,-105.74"/>
</g>
<!-- WZPJHXZE -->
<g id="node50" class="node">
<title>WZPJHXZE</title>
<ellipse fill="none" stroke="black" cx="1662" cy="-19.5" rx="18" ry="18"/>
<text text-anchor="middle" x="1662" y="-15.8" font-family="Times,serif" font-size="14.00">0</text>
</g>
<!-- WQVEYMSR&#45;&gt;WZPJHXZE -->
<g id="edge49" class="edge">
<title>WQVEYMSR&#45;&gt;WZPJHXZE</title>
<path fill="none" stroke="black" d="M1705.59,-78.21C1697.89,-68.02 1687.26,-53.95 1678.43,-42.25"/>
<polygon fill="black" stroke="black" points="1681.2,-40.11 1672.38,-34.24 1675.61,-44.33 1681.2,-40.11"/>
</g>
<!-- JMPEBUYM -->
<g id="node51" class="node">
<title>JMPEBUYM</title>
<ellipse fill="none" stroke="black" cx="1716" cy="-19.5" rx="18" ry="18"/>
<text text-anchor="middle" x="1716" y="-15.8" font-family="Times,serif" font-size="14.00">2</text>
</g>
<!-- WQVEYMSR&#45;&gt;JMPEBUYM -->
<g id="edge50" class="edge">
<title>WQVEYMSR&#45;&gt;JMPEBUYM</title>
<path fill="none" stroke="black" d="M1716,-74.69C1716,-66.61 1716,-56.8 1716,-47.76"/>
<polygon fill="black" stroke="black" points="1719.5,-47.65 1716,-37.65 1712.5,-47.65 1719.5,-47.65"/>
</g>
<!-- AOABXLTD -->
<g id="node53" class="node">
<title>AOABXLTD</title>
<ellipse fill="none" stroke="black" cx="1771" cy="-19.5" rx="19.5" ry="19.5"/>
<text text-anchor="middle" x="1771" y="-15.8" font-family="Times,serif" font-size="14.00">15</text>
</g>
<!-- LEYNCTSF&#45;&gt;AOABXLTD -->
<g id="edge52" class="edge">
<title>LEYNCTSF&#45;&gt;AOABXLTD</title>
<path fill="none" stroke="black" d="M1791.87,-75.77C1788.71,-67.39 1784.77,-56.95 1781.16,-47.41"/>
<polygon fill="black" stroke="black" points="1784.38,-46.03 1777.57,-37.91 1777.83,-48.5 1784.38,-46.03"/>
</g>
<!-- PTTZUVMB -->
<g id="node54" class="node">
<title>PTTZUVMB</title>
<ellipse fill="none" stroke="black" cx="1826" cy="-19.5" rx="18" ry="18"/>
<text text-anchor="middle" x="1826" y="-15.8" font-family="Times,serif" font-size="14.00">6</text>
</g>
<!-- LEYNCTSF&#45;&gt;PTTZUVMB -->
<g id="edge53" class="edge">
<title>LEYNCTSF&#45;&gt;PTTZUVMB</title>
<path fill="none" stroke="black" d="M1804.35,-75.77C1807.79,-67 1812.11,-55.96 1815.99,-46.05"/>
<polygon fill="black" stroke="black" points="1819.28,-47.25 1819.67,-36.66 1812.77,-44.69 1819.28,-47.25"/>
</g>
<!-- VELUJSRA -->
<g id="node55" class="node">
<title>VELUJSRA</title>
<ellipse fill="none" stroke="black" cx="1881" cy="-19.5" rx="19.5" ry="19.5"/>
<text text-anchor="middle" x="1881" y="-15.8" font-family="Times,serif" font-size="14.00">12</text>
</g>
<!-- LEYNCTSF&#45;&gt;VELUJSRA -->
<g id="edge54" class="edge">
<title>LEYNCTSF&#45;&gt;VELUJSRA</title>
<path fill="none" stroke="black" d="M1811.34,-80.51C1824.09,-69.52 1843.58,-52.73 1858.7,-39.71"/>
<polygon fill="black" stroke="black" points="1861.29,-42.1 1866.58,-32.92 1856.72,-36.79 1861.29,-42.1"/>
</g>
<!-- MXYURYAH -->
<g id="node57" class="node">
<title>MXYURYAH</title>
<ellipse fill="none" stroke="black" cx="1938" cy="-19.5" rx="19.5" ry="19.5"/>
<text text-anchor="middle" x="1938" y="-15.8" font-family="Times,serif" font-size="14.00">10</text>
</g>
<!-- RXSYRJGE&#45;&gt;MXYURYAH -->
<g id="edge56" class="edge">
<title>RXSYRJGE&#45;&gt;MXYURYAH</title>
<path fill="none" stroke="black" d="M1958.87,-75.77C1955.71,-67.39 1951.77,-56.95 1948.16,-47.41"/>
<polygon fill="black" stroke="black" points="1951.38,-46.03 1944.57,-37.91 1944.83,-48.5 1951.38,-46.03"/>
</g>
<!-- OHMQPVPP -->
<g id="node58" class="node">
<title>OHMQPVPP</title>
<ellipse fill="none" stroke="black" cx="1993" cy="-19.5" rx="18" ry="18"/>
<text text-anchor="middle" x="1993" y="-15.8" font-family="Times,serif" font-size="14.00">7</text>
</g>
<!-- RXSYRJGE&#45;&gt;OHMQPVPP -->
<g id="edge57" class="edge">
<title>RXSYRJGE&#45;&gt;OHMQPVPP</title>
<path fill="none" stroke="black" d="M1971.35,-75.77C1974.79,-67 1979.11,-55.96 1982.99,-46.05"/>
<polygon fill="black" stroke="black" points="1986.28,-47.25 1986.67,-36.66 1979.77,-44.69 1986.28,-47.25"/>
</g>
<!-- GTIMKDTZ -->
<g id="node59" class="node">
<title>GTIMKDTZ</title>
<ellipse fill="none" stroke="black" cx="2048" cy="-19.5" rx="19.5" ry="19.5"/>
<text text-anchor="middle" x="2048" y="-15.8" font-family="Times,serif" font-size="14.00">14</text>
</g>
<!-- RXSYRJGE&#45;&gt;GTIMKDTZ -->
<g id="edge58" class="edge">
<title>RXSYRJGE&#45;&gt;GTIMKDTZ</title>
<path fill="none" stroke="black" d="M1978.34,-80.51C1991.09,-69.52 2010.58,-52.73 2025.7,-39.71"/>
<polygon fill="black" stroke="black" points="2028.29,-42.1 2033.58,-32.92 2023.72,-36.79 2028.29,-42.1"/>
</g>
</g>
</svg>
