<?xml version="1.0" encoding="UTF-8" standalone="no"?>
<!DOCTYPE svg PUBLIC "-//W3C//DTD SVG 1.1//EN"
 "http://www.w3.org/Graphics/SVG/1.1/DTD/svg11.dtd">
<!-- Generated by graphviz version 2.46.1 (20210213.1702)
 -->
<!-- Title: D Pages: 1 -->
<svg width="2697pt" height="335pt"
 viewBox="0.00 0.00 2697.00 335.00" xmlns="http://www.w3.org/2000/svg" xmlns:xlink="http://www.w3.org/1999/xlink">
<g id="graph0" class="graph" transform="scale(1 1) rotate(0) translate(4 331)">
<title>D</title>
<polygon fill="white" stroke="transparent" points="-4,4 -4,-331 2693,-331 2693,4 -4,4"/>
<!-- VCYBJOOD -->
<g id="node1" class="node">
<title>VCYBJOOD</title>
<ellipse fill="none" stroke="black" cx="1241.5" cy="-309" rx="18" ry="18"/>
</g>
<!-- AUVREOBW -->
<g id="node2" class="node">
<title>AUVREOBW</title>
<ellipse fill="none" stroke="black" cx="903.5" cy="-237" rx="18" ry="18"/>
</g>
<!-- VCYBJOOD&#45;&gt;AUVREOBW -->
<g id="edge1" class="edge">
<title>VCYBJOOD&#45;&gt;AUVREOBW</title>
<path fill="none" stroke="black" d="M1223.8,-304.33C1168.36,-292.85 997.75,-257.52 930.84,-243.66"/>
<polygon fill="black" stroke="black" points="931.52,-240.23 921.02,-241.63 930.1,-247.08 931.52,-240.23"/>
</g>
<!-- AYMDWEME -->
<g id="node39" class="node">
<title>AYMDWEME</title>
<ellipse fill="none" stroke="black" cx="1907.5" cy="-237" rx="18" ry="18"/>
</g>
<!-- VCYBJOOD&#45;&gt;AYMDWEME -->
<g id="edge38" class="edge">
<title>VCYBJOOD&#45;&gt;AYMDWEME</title>
<path fill="none" stroke="black" d="M1259.31,-306.12C1350.7,-296.52 1766.98,-252.77 1879.43,-240.95"/>
<polygon fill="black" stroke="black" points="1880.05,-244.4 1889.63,-239.87 1879.32,-237.44 1880.05,-244.4"/>
</g>
<!-- PQSHXWAU -->
<g id="node3" class="node">
<title>PQSHXWAU</title>
<ellipse fill="none" stroke="black" cx="265.5" cy="-165" rx="18" ry="18"/>
</g>
<!-- AUVREOBW&#45;&gt;PQSHXWAU -->
<g id="edge2" class="edge">
<title>AUVREOBW&#45;&gt;PQSHXWAU</title>
<path fill="none" stroke="black" d="M885.43,-234.01C796.23,-224.23 402.69,-181.05 293.62,-169.08"/>
<polygon fill="black" stroke="black" points="293.73,-165.57 283.41,-167.96 292.97,-172.53 293.73,-165.57"/>
</g>
<!-- TYZEJQMW -->
<g id="node13" class="node">
<title>TYZEJQMW</title>
<ellipse fill="none" stroke="black" cx="708.5" cy="-165" rx="18" ry="18"/>
</g>
<!-- AUVREOBW&#45;&gt;TYZEJQMW -->
<g id="edge12" class="edge">
<title>AUVREOBW&#45;&gt;TYZEJQMW</title>
<path fill="none" stroke="black" d="M886.87,-230.03C852.99,-217.87 775.73,-190.13 734.9,-175.48"/>
<polygon fill="black" stroke="black" points="735.95,-172.13 725.36,-172.05 733.59,-178.72 735.95,-172.13"/>
</g>
<!-- RFDOUXEH -->
<g id="node25" class="node">
<title>RFDOUXEH</title>
<ellipse fill="none" stroke="black" cx="1013.5" cy="-165" rx="18" ry="18"/>
</g>
<!-- AUVREOBW&#45;&gt;RFDOUXEH -->
<g id="edge24" class="edge">
<title>AUVREOBW&#45;&gt;RFDOUXEH</title>
<path fill="none" stroke="black" d="M918.33,-226.56C936.7,-214.87 968.22,-194.81 989.92,-181"/>
<polygon fill="black" stroke="black" points="991.99,-183.83 998.55,-175.51 988.23,-177.93 991.99,-183.83"/>
</g>
<!-- HNZRHDJK -->
<g id="node4" class="node">
<title>HNZRHDJK</title>
<ellipse fill="none" stroke="black" cx="101.5" cy="-93" rx="18" ry="18"/>
</g>
<!-- PQSHXWAU&#45;&gt;HNZRHDJK -->
<g id="edge3" class="edge">
<title>PQSHXWAU&#45;&gt;HNZRHDJK</title>
<path fill="none" stroke="black" d="M249.17,-157.03C220.56,-144.82 161.17,-119.46 127.06,-104.91"/>
<polygon fill="black" stroke="black" points="128.33,-101.64 117.76,-100.94 125.58,-108.08 128.33,-101.64"/>
</g>
<!-- YLJXSVRW -->
<g id="node8" class="node">
<title>YLJXSVRW</title>
<ellipse fill="none" stroke="black" cx="265.5" cy="-93" rx="18" ry="18"/>
</g>
<!-- PQSHXWAU&#45;&gt;YLJXSVRW -->
<g id="edge7" class="edge">
<title>PQSHXWAU&#45;&gt;YLJXSVRW</title>
<path fill="none" stroke="black" d="M265.5,-146.69C265.5,-138.98 265.5,-129.71 265.5,-121.11"/>
<polygon fill="black" stroke="black" points="269,-121.1 265.5,-111.1 262,-121.1 269,-121.1"/>
</g>
<!-- DVTYAUIE -->
<g id="node5" class="node">
<title>DVTYAUIE</title>
<ellipse fill="none" stroke="black" cx="19.5" cy="-19.5" rx="19.5" ry="19.5"/>
<text text-anchor="middle" x="19.5" y="-15.8" font-family="Times,serif" font-size="14.00">13</text>
</g>
<!-- HNZRHDJK&#45;&gt;DVTYAUIE -->
<g id="edge4" class="edge">
<title>HNZRHDJK&#45;&gt;DVTYAUIE</title>
<path fill="none" stroke="black" d="M88.32,-80.51C75.72,-69.52 56.47,-52.73 41.53,-39.71"/>
<polygon fill="black" stroke="black" points="43.58,-36.85 33.74,-32.92 38.98,-42.13 43.58,-36.85"/>
</g>
<!-- DNYUFGMK -->
<g id="node6" class="node">
<title>DNYUFGMK</title>
<ellipse fill="none" stroke="black" cx="74.5" cy="-19.5" rx="18" ry="18"/>
<text text-anchor="middle" x="74.5" y="-15.8" font-family="Times,serif" font-size="14.00">6</text>
</g>
<!-- HNZRHDJK&#45;&gt;DNYUFGMK -->
<g id="edge5" class="edge">
<title>HNZRHDJK&#45;&gt;DNYUFGMK</title>
<path fill="none" stroke="black" d="M95.37,-75.77C92.06,-67 87.89,-55.96 84.15,-46.05"/>
<polygon fill="black" stroke="black" points="87.41,-44.78 80.6,-36.66 80.86,-47.25 87.41,-44.78"/>
</g>
<!-- FFUGJTQW -->
<g id="node7" class="node">
<title>FFUGJTQW</title>
<ellipse fill="none" stroke="black" cx="128.5" cy="-19.5" rx="18" ry="18"/>
<text text-anchor="middle" x="128.5" y="-15.8" font-family="Times,serif" font-size="14.00">0</text>
</g>
<!-- HNZRHDJK&#45;&gt;FFUGJTQW -->
<g id="edge6" class="edge">
<title>HNZRHDJK&#45;&gt;FFUGJTQW</title>
<path fill="none" stroke="black" d="M107.62,-75.77C110.94,-67 115.11,-55.96 118.85,-46.05"/>
<polygon fill="black" stroke="black" points="122.14,-47.25 122.4,-36.66 115.59,-44.78 122.14,-47.25"/>
</g>
<!-- GTMPCDMH -->
<g id="node9" class="node">
<title>GTMPCDMH</title>
<ellipse fill="none" stroke="black" cx="183.5" cy="-19.5" rx="19.5" ry="19.5"/>
<text text-anchor="middle" x="183.5" y="-15.8" font-family="Times,serif" font-size="14.00">15</text>
</g>
<!-- YLJXSVRW&#45;&gt;GTMPCDMH -->
<g id="edge8" class="edge">
<title>YLJXSVRW&#45;&gt;GTMPCDMH</title>
<path fill="none" stroke="black" d="M252.32,-80.51C239.72,-69.52 220.47,-52.73 205.53,-39.71"/>
<polygon fill="black" stroke="black" points="207.58,-36.85 197.74,-32.92 202.98,-42.13 207.58,-36.85"/>
</g>
<!-- GBKYRXBA -->
<g id="node10" class="node">
<title>GBKYRXBA</title>
<ellipse fill="none" stroke="black" cx="238.5" cy="-19.5" rx="18" ry="18"/>
<text text-anchor="middle" x="238.5" y="-15.8" font-family="Times,serif" font-size="14.00">4</text>
</g>
<!-- YLJXSVRW&#45;&gt;GBKYRXBA -->
<g id="edge9" class="edge">
<title>YLJXSVRW&#45;&gt;GBKYRXBA</title>
<path fill="none" stroke="black" d="M259.37,-75.77C256.06,-67 251.89,-55.96 248.15,-46.05"/>
<polygon fill="black" stroke="black" points="251.41,-44.78 244.6,-36.66 244.86,-47.25 251.41,-44.78"/>
</g>
<!-- QQORWLCS -->
<g id="node11" class="node">
<title>QQORWLCS</title>
<ellipse fill="none" stroke="black" cx="292.5" cy="-19.5" rx="18" ry="18"/>
<text text-anchor="middle" x="292.5" y="-15.8" font-family="Times,serif" font-size="14.00">8</text>
</g>
<!-- YLJXSVRW&#45;&gt;QQORWLCS -->
<g id="edge10" class="edge">
<title>YLJXSVRW&#45;&gt;QQORWLCS</title>
<path fill="none" stroke="black" d="M271.62,-75.77C274.94,-67 279.11,-55.96 282.85,-46.05"/>
<polygon fill="black" stroke="black" points="286.14,-47.25 286.4,-36.66 279.59,-44.78 286.14,-47.25"/>
</g>
<!-- PYMXYOOC -->
<g id="node12" class="node">
<title>PYMXYOOC</title>
<ellipse fill="none" stroke="black" cx="347.5" cy="-19.5" rx="19.5" ry="19.5"/>
<text text-anchor="middle" x="347.5" y="-15.8" font-family="Times,serif" font-size="14.00">15</text>
</g>
<!-- YLJXSVRW&#45;&gt;PYMXYOOC -->
<g id="edge11" class="edge">
<title>YLJXSVRW&#45;&gt;PYMXYOOC</title>
<path fill="none" stroke="black" d="M278.67,-80.51C291.28,-69.52 310.53,-52.73 325.47,-39.71"/>
<polygon fill="black" stroke="black" points="328.02,-42.13 333.25,-32.92 323.42,-36.85 328.02,-42.13"/>
</g>
<!-- ZVDRKFXV -->
<g id="node14" class="node">
<title>ZVDRKFXV</title>
<ellipse fill="none" stroke="black" cx="516.5" cy="-93" rx="18" ry="18"/>
</g>
<!-- TYZEJQMW&#45;&gt;ZVDRKFXV -->
<g id="edge13" class="edge">
<title>TYZEJQMW&#45;&gt;ZVDRKFXV</title>
<path fill="none" stroke="black" d="M691.8,-157.91C658.39,-145.73 583.12,-118.29 542.94,-103.64"/>
<polygon fill="black" stroke="black" points="543.89,-100.26 533.3,-100.12 541.5,-106.84 543.89,-100.26"/>
</g>
<!-- LOMWYKJO -->
<g id="node19" class="node">
<title>LOMWYKJO</title>
<ellipse fill="none" stroke="black" cx="680.5" cy="-93" rx="18" ry="18"/>
</g>
<!-- TYZEJQMW&#45;&gt;LOMWYKJO -->
<g id="edge18" class="edge">
<title>TYZEJQMW&#45;&gt;LOMWYKJO</title>
<path fill="none" stroke="black" d="M702.14,-148.11C698.79,-139.73 694.59,-129.24 690.79,-119.73"/>
<polygon fill="black" stroke="black" points="693.98,-118.29 687.02,-110.3 687.49,-120.89 693.98,-118.29"/>
</g>
<!-- XHUUKHGI -->
<g id="node22" class="node">
<title>XHUUKHGI</title>
<ellipse fill="none" stroke="black" cx="735.5" cy="-93" rx="18" ry="18"/>
</g>
<!-- TYZEJQMW&#45;&gt;XHUUKHGI -->
<g id="edge21" class="edge">
<title>TYZEJQMW&#45;&gt;XHUUKHGI</title>
<path fill="none" stroke="black" d="M714.76,-147.76C718,-139.37 722.02,-128.93 725.66,-119.49"/>
<polygon fill="black" stroke="black" points="728.94,-120.73 729.27,-110.14 722.41,-118.21 728.94,-120.73"/>
</g>
<!-- JUOUMHTJ -->
<g id="node15" class="node">
<title>JUOUMHTJ</title>
<ellipse fill="none" stroke="black" cx="404.5" cy="-19.5" rx="19.5" ry="19.5"/>
<text text-anchor="middle" x="404.5" y="-15.8" font-family="Times,serif" font-size="14.00">15</text>
</g>
<!-- ZVDRKFXV&#45;&gt;JUOUMHTJ -->
<g id="edge14" class="edge">
<title>ZVDRKFXV&#45;&gt;JUOUMHTJ</title>
<path fill="none" stroke="black" d="M501.39,-82.35C482.92,-70.56 451.39,-50.44 429.33,-36.35"/>
<polygon fill="black" stroke="black" points="431.13,-33.34 420.81,-30.91 427.36,-39.24 431.13,-33.34"/>
</g>
<!-- PCVHIOCQ -->
<g id="node16" class="node">
<title>PCVHIOCQ</title>
<ellipse fill="none" stroke="black" cx="461.5" cy="-19.5" rx="19.5" ry="19.5"/>
<text text-anchor="middle" x="461.5" y="-15.8" font-family="Times,serif" font-size="14.00">13</text>
</g>
<!-- ZVDRKFXV&#45;&gt;PCVHIOCQ -->
<g id="edge15" class="edge">
<title>ZVDRKFXV&#45;&gt;PCVHIOCQ</title>
<path fill="none" stroke="black" d="M505.89,-78.21C498.38,-68.45 488.12,-55.11 479.36,-43.72"/>
<polygon fill="black" stroke="black" points="481.89,-41.27 473.02,-35.48 476.34,-45.54 481.89,-41.27"/>
</g>
<!-- PPZHIHWQ -->
<g id="node17" class="node">
<title>PPZHIHWQ</title>
<ellipse fill="none" stroke="black" cx="516.5" cy="-19.5" rx="18" ry="18"/>
<text text-anchor="middle" x="516.5" y="-15.8" font-family="Times,serif" font-size="14.00">6</text>
</g>
<!-- ZVDRKFXV&#45;&gt;PPZHIHWQ -->
<g id="edge16" class="edge">
<title>ZVDRKFXV&#45;&gt;PPZHIHWQ</title>
<path fill="none" stroke="black" d="M516.5,-74.69C516.5,-66.61 516.5,-56.8 516.5,-47.76"/>
<polygon fill="black" stroke="black" points="520,-47.65 516.5,-37.65 513,-47.65 520,-47.65"/>
</g>
<!-- OGZTGYCA -->
<g id="node18" class="node">
<title>OGZTGYCA</title>
<ellipse fill="none" stroke="black" cx="571.5" cy="-19.5" rx="19.5" ry="19.5"/>
<text text-anchor="middle" x="571.5" y="-15.8" font-family="Times,serif" font-size="14.00">11</text>
</g>
<!-- ZVDRKFXV&#45;&gt;OGZTGYCA -->
<g id="edge17" class="edge">
<title>ZVDRKFXV&#45;&gt;OGZTGYCA</title>
<path fill="none" stroke="black" d="M527.1,-78.21C534.62,-68.45 544.87,-55.11 553.64,-43.72"/>
<polygon fill="black" stroke="black" points="556.65,-45.54 559.98,-35.48 551.11,-41.27 556.65,-45.54"/>
</g>
<!-- YOARVDFW -->
<g id="node20" class="node">
<title>YOARVDFW</title>
<ellipse fill="none" stroke="black" cx="626.5" cy="-19.5" rx="18" ry="18"/>
<text text-anchor="middle" x="626.5" y="-15.8" font-family="Times,serif" font-size="14.00">9</text>
</g>
<!-- LOMWYKJO&#45;&gt;YOARVDFW -->
<g id="edge19" class="edge">
<title>LOMWYKJO&#45;&gt;YOARVDFW</title>
<path fill="none" stroke="black" d="M670.09,-78.21C662.39,-68.02 651.76,-53.95 642.93,-42.25"/>
<polygon fill="black" stroke="black" points="645.7,-40.11 636.88,-34.24 640.11,-44.33 645.7,-40.11"/>
</g>
<!-- HCUZSPZU -->
<g id="node21" class="node">
<title>HCUZSPZU</title>
<ellipse fill="none" stroke="black" cx="680.5" cy="-19.5" rx="18" ry="18"/>
<text text-anchor="middle" x="680.5" y="-15.8" font-family="Times,serif" font-size="14.00">8</text>
</g>
<!-- LOMWYKJO&#45;&gt;HCUZSPZU -->
<g id="edge20" class="edge">
<title>LOMWYKJO&#45;&gt;HCUZSPZU</title>
<path fill="none" stroke="black" d="M680.5,-74.69C680.5,-66.61 680.5,-56.8 680.5,-47.76"/>
<polygon fill="black" stroke="black" points="684,-47.65 680.5,-37.65 677,-47.65 684,-47.65"/>
</g>
<!-- YVMDMHCQ -->
<g id="node23" class="node">
<title>YVMDMHCQ</title>
<ellipse fill="none" stroke="black" cx="735.5" cy="-19.5" rx="19.5" ry="19.5"/>
<text text-anchor="middle" x="735.5" y="-15.8" font-family="Times,serif" font-size="14.00">15</text>
</g>
<!-- XHUUKHGI&#45;&gt;YVMDMHCQ -->
<g id="edge22" class="edge">
<title>XHUUKHGI&#45;&gt;YVMDMHCQ</title>
<path fill="none" stroke="black" d="M735.5,-74.69C735.5,-67.05 735.5,-57.86 735.5,-49.24"/>
<polygon fill="black" stroke="black" points="739,-49.15 735.5,-39.15 732,-49.15 739,-49.15"/>
</g>
<!-- LIYOCNMZ -->
<g id="node24" class="node">
<title>LIYOCNMZ</title>
<ellipse fill="none" stroke="black" cx="792.5" cy="-19.5" rx="19.5" ry="19.5"/>
<text text-anchor="middle" x="792.5" y="-15.8" font-family="Times,serif" font-size="14.00">15</text>
</g>
<!-- XHUUKHGI&#45;&gt;LIYOCNMZ -->
<g id="edge23" class="edge">
<title>XHUUKHGI&#45;&gt;LIYOCNMZ</title>
<path fill="none" stroke="black" d="M746.49,-78.21C754.4,-68.28 765.26,-54.67 774.44,-43.16"/>
<polygon fill="black" stroke="black" points="777.26,-45.23 780.76,-35.23 771.79,-40.86 777.26,-45.23"/>
</g>
<!-- JSPATQXD -->
<g id="node26" class="node">
<title>JSPATQXD</title>
<ellipse fill="none" stroke="black" cx="956.5" cy="-93" rx="18" ry="18"/>
</g>
<!-- RFDOUXEH&#45;&gt;JSPATQXD -->
<g id="edge25" class="edge">
<title>RFDOUXEH&#45;&gt;JSPATQXD</title>
<path fill="none" stroke="black" d="M1002.51,-150.5C994.39,-140.53 983.17,-126.75 973.84,-115.29"/>
<polygon fill="black" stroke="black" points="976.48,-113 967.45,-107.45 971.05,-117.42 976.48,-113"/>
</g>
<!-- VLBRIPFC -->
<g id="node31" class="node">
<title>VLBRIPFC</title>
<ellipse fill="none" stroke="black" cx="1098.5" cy="-93" rx="18" ry="18"/>
</g>
<!-- RFDOUXEH&#45;&gt;VLBRIPFC -->
<g id="edge30" class="edge">
<title>RFDOUXEH&#45;&gt;VLBRIPFC</title>
<path fill="none" stroke="black" d="M1027.15,-152.75C1040.54,-141.73 1061.15,-124.76 1076.78,-111.88"/>
<polygon fill="black" stroke="black" points="1079.38,-114.27 1084.88,-105.22 1074.93,-108.87 1079.38,-114.27"/>
</g>
<!-- YLFGTCJY -->
<g id="node35" class="node">
<title>YLFGTCJY</title>
<ellipse fill="none" stroke="black" cx="1268.5" cy="-93" rx="18" ry="18"/>
</g>
<!-- RFDOUXEH&#45;&gt;YLFGTCJY -->
<g id="edge34" class="edge">
<title>RFDOUXEH&#45;&gt;YLFGTCJY</title>
<path fill="none" stroke="black" d="M1030.63,-159.29C1074.07,-147.37 1188.84,-115.86 1241.46,-101.42"/>
<polygon fill="black" stroke="black" points="1242.39,-104.79 1251.11,-98.77 1240.54,-98.04 1242.39,-104.79"/>
</g>
<!-- FOTNFTWL -->
<g id="node27" class="node">
<title>FOTNFTWL</title>
<ellipse fill="none" stroke="black" cx="847.5" cy="-19.5" rx="18" ry="18"/>
<text text-anchor="middle" x="847.5" y="-15.8" font-family="Times,serif" font-size="14.00">7</text>
</g>
<!-- JSPATQXD&#45;&gt;FOTNFTWL -->
<g id="edge26" class="edge">
<title>JSPATQXD&#45;&gt;FOTNFTWL</title>
<path fill="none" stroke="black" d="M941.61,-82.54C925.12,-72.03 897.78,-54.49 874.5,-39 873.23,-38.15 871.93,-37.28 870.61,-36.39"/>
<polygon fill="black" stroke="black" points="872.26,-33.28 862.02,-30.55 868.32,-39.07 872.26,-33.28"/>
</g>
<!-- WHSLAESJ -->
<g id="node28" class="node">
<title>WHSLAESJ</title>
<ellipse fill="none" stroke="black" cx="901.5" cy="-19.5" rx="18" ry="18"/>
<text text-anchor="middle" x="901.5" y="-15.8" font-family="Times,serif" font-size="14.00">9</text>
</g>
<!-- JSPATQXD&#45;&gt;WHSLAESJ -->
<g id="edge27" class="edge">
<title>JSPATQXD&#45;&gt;WHSLAESJ</title>
<path fill="none" stroke="black" d="M945.89,-78.21C938.06,-68.02 927.23,-53.95 918.23,-42.25"/>
<polygon fill="black" stroke="black" points="920.94,-40.03 912.07,-34.24 915.39,-44.3 920.94,-40.03"/>
</g>
<!-- HFIASJYU -->
<g id="node29" class="node">
<title>HFIASJYU</title>
<ellipse fill="none" stroke="black" cx="956.5" cy="-19.5" rx="19.5" ry="19.5"/>
<text text-anchor="middle" x="956.5" y="-15.8" font-family="Times,serif" font-size="14.00">13</text>
</g>
<!-- JSPATQXD&#45;&gt;HFIASJYU -->
<g id="edge28" class="edge">
<title>JSPATQXD&#45;&gt;HFIASJYU</title>
<path fill="none" stroke="black" d="M956.5,-74.69C956.5,-67.05 956.5,-57.86 956.5,-49.24"/>
<polygon fill="black" stroke="black" points="960,-49.15 956.5,-39.15 953,-49.15 960,-49.15"/>
</g>
<!-- MAEWYZBU -->
<g id="node30" class="node">
<title>MAEWYZBU</title>
<ellipse fill="none" stroke="black" cx="1013.5" cy="-19.5" rx="19.5" ry="19.5"/>
<text text-anchor="middle" x="1013.5" y="-15.8" font-family="Times,serif" font-size="14.00">12</text>
</g>
<!-- JSPATQXD&#45;&gt;MAEWYZBU -->
<g id="edge29" class="edge">
<title>JSPATQXD&#45;&gt;MAEWYZBU</title>
<path fill="none" stroke="black" d="M967.49,-78.21C975.4,-68.28 986.26,-54.67 995.44,-43.16"/>
<polygon fill="black" stroke="black" points="998.26,-45.23 1001.76,-35.23 992.79,-40.86 998.26,-45.23"/>
</g>
<!-- RHJZQTOC -->
<g id="node32" class="node">
<title>RHJZQTOC</title>
<ellipse fill="none" stroke="black" cx="1070.5" cy="-19.5" rx="19.5" ry="19.5"/>
<text text-anchor="middle" x="1070.5" y="-15.8" font-family="Times,serif" font-size="14.00">13</text>
</g>
<!-- VLBRIPFC&#45;&gt;RHJZQTOC -->
<g id="edge31" class="edge">
<title>VLBRIPFC&#45;&gt;RHJZQTOC</title>
<path fill="none" stroke="black" d="M1092.14,-75.77C1088.86,-67.39 1084.77,-56.95 1081.04,-47.41"/>
<polygon fill="black" stroke="black" points="1084.22,-45.94 1077.32,-37.91 1077.7,-48.5 1084.22,-45.94"/>
</g>
<!-- ADQJWWWE -->
<g id="node33" class="node">
<title>ADQJWWWE</title>
<ellipse fill="none" stroke="black" cx="1127.5" cy="-19.5" rx="19.5" ry="19.5"/>
<text text-anchor="middle" x="1127.5" y="-15.8" font-family="Times,serif" font-size="14.00">12</text>
</g>
<!-- VLBRIPFC&#45;&gt;ADQJWWWE -->
<g id="edge32" class="edge">
<title>VLBRIPFC&#45;&gt;ADQJWWWE</title>
<path fill="none" stroke="black" d="M1104.93,-76.13C1108.39,-67.61 1112.74,-56.89 1116.69,-47.14"/>
<polygon fill="black" stroke="black" points="1119.96,-48.41 1120.47,-37.82 1113.47,-45.77 1119.96,-48.41"/>
</g>
<!-- OGRINAIB -->
<g id="node34" class="node">
<title>OGRINAIB</title>
<ellipse fill="none" stroke="black" cx="1184.5" cy="-19.5" rx="19.5" ry="19.5"/>
<text text-anchor="middle" x="1184.5" y="-15.8" font-family="Times,serif" font-size="14.00">12</text>
</g>
<!-- VLBRIPFC&#45;&gt;OGRINAIB -->
<g id="edge33" class="edge">
<title>VLBRIPFC&#45;&gt;OGRINAIB</title>
<path fill="none" stroke="black" d="M1111.94,-80.82C1125.37,-69.65 1146.27,-52.28 1162.2,-39.04"/>
<polygon fill="black" stroke="black" points="1164.55,-41.63 1170.01,-32.55 1160.08,-36.25 1164.55,-41.63"/>
</g>
<!-- MRKGURVC -->
<g id="node36" class="node">
<title>MRKGURVC</title>
<ellipse fill="none" stroke="black" cx="1241.5" cy="-19.5" rx="19.5" ry="19.5"/>
<text text-anchor="middle" x="1241.5" y="-15.8" font-family="Times,serif" font-size="14.00">12</text>
</g>
<!-- YLFGTCJY&#45;&gt;MRKGURVC -->
<g id="edge35" class="edge">
<title>YLFGTCJY&#45;&gt;MRKGURVC</title>
<path fill="none" stroke="black" d="M1262.37,-75.77C1259.21,-67.39 1255.26,-56.95 1251.66,-47.41"/>
<polygon fill="black" stroke="black" points="1254.88,-46.03 1248.07,-37.91 1248.33,-48.5 1254.88,-46.03"/>
</g>
<!-- QSHFELKG -->
<g id="node37" class="node">
<title>QSHFELKG</title>
<ellipse fill="none" stroke="black" cx="1296.5" cy="-19.5" rx="18" ry="18"/>
<text text-anchor="middle" x="1296.5" y="-15.8" font-family="Times,serif" font-size="14.00">2</text>
</g>
<!-- YLFGTCJY&#45;&gt;QSHFELKG -->
<g id="edge36" class="edge">
<title>YLFGTCJY&#45;&gt;QSHFELKG</title>
<path fill="none" stroke="black" d="M1274.85,-75.77C1278.29,-67 1282.61,-55.96 1286.49,-46.05"/>
<polygon fill="black" stroke="black" points="1289.78,-47.25 1290.17,-36.66 1283.26,-44.69 1289.78,-47.25"/>
</g>
<!-- TIASLOLV -->
<g id="node38" class="node">
<title>TIASLOLV</title>
<ellipse fill="none" stroke="black" cx="1351.5" cy="-19.5" rx="19.5" ry="19.5"/>
<text text-anchor="middle" x="1351.5" y="-15.8" font-family="Times,serif" font-size="14.00">11</text>
</g>
<!-- YLFGTCJY&#45;&gt;TIASLOLV -->
<g id="edge37" class="edge">
<title>YLFGTCJY&#45;&gt;TIASLOLV</title>
<path fill="none" stroke="black" d="M1281.83,-80.51C1294.59,-69.52 1314.08,-52.73 1329.2,-39.71"/>
<polygon fill="black" stroke="black" points="1331.79,-42.1 1337.08,-32.92 1327.22,-36.79 1331.79,-42.1"/>
</g>
<!-- AHMOXQZR -->
<g id="node40" class="node">
<title>AHMOXQZR</title>
<ellipse fill="none" stroke="black" cx="1715.5" cy="-165" rx="18" ry="18"/>
</g>
<!-- AYMDWEME&#45;&gt;AHMOXQZR -->
<g id="edge39" class="edge">
<title>AYMDWEME&#45;&gt;AHMOXQZR</title>
<path fill="none" stroke="black" d="M1890.8,-229.91C1857.39,-217.73 1782.12,-190.29 1741.94,-175.64"/>
<polygon fill="black" stroke="black" points="1742.89,-172.26 1732.3,-172.12 1740.5,-178.84 1742.89,-172.26"/>
</g>
<!-- JTZNQEGP -->
<g id="node54" class="node">
<title>JTZNQEGP</title>
<ellipse fill="none" stroke="black" cx="2017.5" cy="-165" rx="18" ry="18"/>
</g>
<!-- AYMDWEME&#45;&gt;JTZNQEGP -->
<g id="edge53" class="edge">
<title>AYMDWEME&#45;&gt;JTZNQEGP</title>
<path fill="none" stroke="black" d="M1922.33,-226.56C1940.7,-214.87 1972.22,-194.81 1993.92,-181"/>
<polygon fill="black" stroke="black" points="1995.99,-183.83 2002.55,-175.51 1992.23,-177.93 1995.99,-183.83"/>
</g>
<!-- OYPBKFCC -->
<g id="node64" class="node">
<title>OYPBKFCC</title>
<ellipse fill="none" stroke="black" cx="2397.5" cy="-165" rx="18" ry="18"/>
</g>
<!-- AYMDWEME&#45;&gt;OYPBKFCC -->
<g id="edge63" class="edge">
<title>AYMDWEME&#45;&gt;OYPBKFCC</title>
<path fill="none" stroke="black" d="M1925.23,-233.46C1998.76,-222.96 2280.1,-182.77 2369.83,-169.95"/>
<polygon fill="black" stroke="black" points="2370.39,-173.4 2379.79,-168.53 2369.4,-166.48 2370.39,-173.4"/>
</g>
<!-- GKSCRMZP -->
<g id="node41" class="node">
<title>GKSCRMZP</title>
<ellipse fill="none" stroke="black" cx="1465.5" cy="-93" rx="18" ry="18"/>
</g>
<!-- AHMOXQZR&#45;&gt;GKSCRMZP -->
<g id="edge40" class="edge">
<title>AHMOXQZR&#45;&gt;GKSCRMZP</title>
<path fill="none" stroke="black" d="M1698.31,-159.19C1655.59,-147.22 1544.27,-116.05 1492.59,-101.58"/>
<polygon fill="black" stroke="black" points="1493.38,-98.17 1482.8,-98.84 1491.49,-104.91 1493.38,-98.17"/>
</g>
<!-- AZQSJYVL -->
<g id="node44" class="node">
<title>AZQSJYVL</title>
<ellipse fill="none" stroke="black" cx="1632.5" cy="-93" rx="18" ry="18"/>
</g>
<!-- AHMOXQZR&#45;&gt;AZQSJYVL -->
<g id="edge43" class="edge">
<title>AHMOXQZR&#45;&gt;AZQSJYVL</title>
<path fill="none" stroke="black" d="M1702.16,-152.75C1689.09,-141.73 1668.97,-124.76 1653.71,-111.88"/>
<polygon fill="black" stroke="black" points="1655.7,-108.99 1645.8,-105.22 1651.19,-114.34 1655.7,-108.99"/>
</g>
<!-- GFDXKIVI -->
<g id="node49" class="node">
<title>GFDXKIVI</title>
<ellipse fill="none" stroke="black" cx="1799.5" cy="-93" rx="18" ry="18"/>
</g>
<!-- AHMOXQZR&#45;&gt;GFDXKIVI -->
<g id="edge48" class="edge">
<title>AHMOXQZR&#45;&gt;GFDXKIVI</title>
<path fill="none" stroke="black" d="M1728.99,-152.75C1742.22,-141.73 1762.59,-124.76 1778.04,-111.88"/>
<polygon fill="black" stroke="black" points="1780.59,-114.31 1786.04,-105.22 1776.11,-108.93 1780.59,-114.31"/>
</g>
<!-- OWWOUFBQ -->
<g id="node42" class="node">
<title>OWWOUFBQ</title>
<ellipse fill="none" stroke="black" cx="1408.5" cy="-19.5" rx="19.5" ry="19.5"/>
<text text-anchor="middle" x="1408.5" y="-15.8" font-family="Times,serif" font-size="14.00">11</text>
</g>
<!-- GKSCRMZP&#45;&gt;OWWOUFBQ -->
<g id="edge41" class="edge">
<title>GKSCRMZP&#45;&gt;OWWOUFBQ</title>
<path fill="none" stroke="black" d="M1454.51,-78.21C1446.59,-68.28 1435.74,-54.67 1426.56,-43.16"/>
<polygon fill="black" stroke="black" points="1429.21,-40.86 1420.24,-35.23 1423.74,-45.23 1429.21,-40.86"/>
</g>
<!-- GAMJMEJX -->
<g id="node43" class="node">
<title>GAMJMEJX</title>
<ellipse fill="none" stroke="black" cx="1465.5" cy="-19.5" rx="19.5" ry="19.5"/>
<text text-anchor="middle" x="1465.5" y="-15.8" font-family="Times,serif" font-size="14.00">14</text>
</g>
<!-- GKSCRMZP&#45;&gt;GAMJMEJX -->
<g id="edge42" class="edge">
<title>GKSCRMZP&#45;&gt;GAMJMEJX</title>
<path fill="none" stroke="black" d="M1465.5,-74.69C1465.5,-67.05 1465.5,-57.86 1465.5,-49.24"/>
<polygon fill="black" stroke="black" points="1469,-49.15 1465.5,-39.15 1462,-49.15 1469,-49.15"/>
</g>
<!-- CVKBTADG -->
<g id="node45" class="node">
<title>CVKBTADG</title>
<ellipse fill="none" stroke="black" cx="1522.5" cy="-19.5" rx="19.5" ry="19.5"/>
<text text-anchor="middle" x="1522.5" y="-15.8" font-family="Times,serif" font-size="14.00">15</text>
</g>
<!-- AZQSJYVL&#45;&gt;CVKBTADG -->
<g id="edge44" class="edge">
<title>AZQSJYVL&#45;&gt;CVKBTADG</title>
<path fill="none" stroke="black" d="M1617.66,-82.47C1601.21,-71.89 1573.91,-54.3 1550.5,-39 1549.4,-38.28 1548.28,-37.55 1547.15,-36.8"/>
<polygon fill="black" stroke="black" points="1548.75,-33.67 1538.47,-31.09 1544.9,-39.51 1548.75,-33.67"/>
</g>
<!-- SMDQKVGZ -->
<g id="node46" class="node">
<title>SMDQKVGZ</title>
<ellipse fill="none" stroke="black" cx="1577.5" cy="-19.5" rx="18" ry="18"/>
<text text-anchor="middle" x="1577.5" y="-15.8" font-family="Times,serif" font-size="14.00">3</text>
</g>
<!-- AZQSJYVL&#45;&gt;SMDQKVGZ -->
<g id="edge45" class="edge">
<title>AZQSJYVL&#45;&gt;SMDQKVGZ</title>
<path fill="none" stroke="black" d="M1621.89,-78.21C1614.06,-68.02 1603.23,-53.95 1594.23,-42.25"/>
<polygon fill="black" stroke="black" points="1596.94,-40.03 1588.07,-34.24 1591.39,-44.3 1596.94,-40.03"/>
</g>
<!-- UKSILIWV -->
<g id="node47" class="node">
<title>UKSILIWV</title>
<ellipse fill="none" stroke="black" cx="1632.5" cy="-19.5" rx="19.5" ry="19.5"/>
<text text-anchor="middle" x="1632.5" y="-15.8" font-family="Times,serif" font-size="14.00">14</text>
</g>
<!-- AZQSJYVL&#45;&gt;UKSILIWV -->
<g id="edge46" class="edge">
<title>AZQSJYVL&#45;&gt;UKSILIWV</title>
<path fill="none" stroke="black" d="M1632.5,-74.69C1632.5,-67.05 1632.5,-57.86 1632.5,-49.24"/>
<polygon fill="black" stroke="black" points="1636,-49.15 1632.5,-39.15 1629,-49.15 1636,-49.15"/>
</g>
<!-- SEEBDRIS -->
<g id="node48" class="node">
<title>SEEBDRIS</title>
<ellipse fill="none" stroke="black" cx="1689.5" cy="-19.5" rx="19.5" ry="19.5"/>
<text text-anchor="middle" x="1689.5" y="-15.8" font-family="Times,serif" font-size="14.00">13</text>
</g>
<!-- AZQSJYVL&#45;&gt;SEEBDRIS -->
<g id="edge47" class="edge">
<title>AZQSJYVL&#45;&gt;SEEBDRIS</title>
<path fill="none" stroke="black" d="M1643.49,-78.21C1651.4,-68.28 1662.26,-54.67 1671.44,-43.16"/>
<polygon fill="black" stroke="black" points="1674.26,-45.23 1677.76,-35.23 1668.79,-40.86 1674.26,-45.23"/>
</g>
<!-- QTRMRBDD -->
<g id="node50" class="node">
<title>QTRMRBDD</title>
<ellipse fill="none" stroke="black" cx="1744.5" cy="-19.5" rx="18" ry="18"/>
<text text-anchor="middle" x="1744.5" y="-15.8" font-family="Times,serif" font-size="14.00">3</text>
</g>
<!-- GFDXKIVI&#45;&gt;QTRMRBDD -->
<g id="edge49" class="edge">
<title>GFDXKIVI&#45;&gt;QTRMRBDD</title>
<path fill="none" stroke="black" d="M1788.89,-78.21C1781.06,-68.02 1770.23,-53.95 1761.23,-42.25"/>
<polygon fill="black" stroke="black" points="1763.94,-40.03 1755.07,-34.24 1758.39,-44.3 1763.94,-40.03"/>
</g>
<!-- YWFMLUOX -->
<g id="node51" class="node">
<title>YWFMLUOX</title>
<ellipse fill="none" stroke="black" cx="1799.5" cy="-19.5" rx="19.5" ry="19.5"/>
<text text-anchor="middle" x="1799.5" y="-15.8" font-family="Times,serif" font-size="14.00">12</text>
</g>
<!-- GFDXKIVI&#45;&gt;YWFMLUOX -->
<g id="edge50" class="edge">
<title>GFDXKIVI&#45;&gt;YWFMLUOX</title>
<path fill="none" stroke="black" d="M1799.5,-74.69C1799.5,-67.05 1799.5,-57.86 1799.5,-49.24"/>
<polygon fill="black" stroke="black" points="1803,-49.15 1799.5,-39.15 1796,-49.15 1803,-49.15"/>
</g>
<!-- LPBSJOCJ -->
<g id="node52" class="node">
<title>LPBSJOCJ</title>
<ellipse fill="none" stroke="black" cx="1854.5" cy="-19.5" rx="18" ry="18"/>
<text text-anchor="middle" x="1854.5" y="-15.8" font-family="Times,serif" font-size="14.00">3</text>
</g>
<!-- GFDXKIVI&#45;&gt;LPBSJOCJ -->
<g id="edge51" class="edge">
<title>GFDXKIVI&#45;&gt;LPBSJOCJ</title>
<path fill="none" stroke="black" d="M1810.1,-78.21C1817.94,-68.02 1828.77,-53.95 1837.77,-42.25"/>
<polygon fill="black" stroke="black" points="1840.6,-44.3 1843.93,-34.24 1835.05,-40.03 1840.6,-44.3"/>
</g>
<!-- NAGJZKVA -->
<g id="node53" class="node">
<title>NAGJZKVA</title>
<ellipse fill="none" stroke="black" cx="1908.5" cy="-19.5" rx="18" ry="18"/>
<text text-anchor="middle" x="1908.5" y="-15.8" font-family="Times,serif" font-size="14.00">1</text>
</g>
<!-- GFDXKIVI&#45;&gt;NAGJZKVA -->
<g id="edge52" class="edge">
<title>GFDXKIVI&#45;&gt;NAGJZKVA</title>
<path fill="none" stroke="black" d="M1814.39,-82.54C1830.88,-72.03 1858.21,-54.49 1881.5,-39 1882.77,-38.15 1884.07,-37.28 1885.38,-36.39"/>
<polygon fill="black" stroke="black" points="1887.67,-39.07 1893.97,-30.55 1883.74,-33.28 1887.67,-39.07"/>
</g>
<!-- CBOJCGVR -->
<g id="node55" class="node">
<title>CBOJCGVR</title>
<ellipse fill="none" stroke="black" cx="2017.5" cy="-93" rx="18" ry="18"/>
</g>
<!-- JTZNQEGP&#45;&gt;CBOJCGVR -->
<g id="edge54" class="edge">
<title>JTZNQEGP&#45;&gt;CBOJCGVR</title>
<path fill="none" stroke="black" d="M2017.5,-146.69C2017.5,-138.98 2017.5,-129.71 2017.5,-121.11"/>
<polygon fill="black" stroke="black" points="2021,-121.1 2017.5,-111.1 2014,-121.1 2021,-121.1"/>
</g>
<!-- OFICVEZP -->
<g id="node59" class="node">
<title>OFICVEZP</title>
<ellipse fill="none" stroke="black" cx="2180.5" cy="-93" rx="18" ry="18"/>
</g>
<!-- JTZNQEGP&#45;&gt;OFICVEZP -->
<g id="edge58" class="edge">
<title>JTZNQEGP&#45;&gt;OFICVEZP</title>
<path fill="none" stroke="black" d="M2033.72,-157.03C2062.16,-144.82 2121.19,-119.46 2155.09,-104.91"/>
<polygon fill="black" stroke="black" points="2156.53,-108.1 2164.34,-100.94 2153.77,-101.67 2156.53,-108.1"/>
</g>
<!-- NAQFDAHO -->
<g id="node56" class="node">
<title>NAQFDAHO</title>
<ellipse fill="none" stroke="black" cx="1962.5" cy="-19.5" rx="18" ry="18"/>
<text text-anchor="middle" x="1962.5" y="-15.8" font-family="Times,serif" font-size="14.00">8</text>
</g>
<!-- CBOJCGVR&#45;&gt;NAQFDAHO -->
<g id="edge55" class="edge">
<title>CBOJCGVR&#45;&gt;NAQFDAHO</title>
<path fill="none" stroke="black" d="M2006.89,-78.21C1999.06,-68.02 1988.23,-53.95 1979.23,-42.25"/>
<polygon fill="black" stroke="black" points="1981.94,-40.03 1973.07,-34.24 1976.39,-44.3 1981.94,-40.03"/>
</g>
<!-- LFXAQIHH -->
<g id="node57" class="node">
<title>LFXAQIHH</title>
<ellipse fill="none" stroke="black" cx="2017.5" cy="-19.5" rx="19.5" ry="19.5"/>
<text text-anchor="middle" x="2017.5" y="-15.8" font-family="Times,serif" font-size="14.00">14</text>
</g>
<!-- CBOJCGVR&#45;&gt;LFXAQIHH -->
<g id="edge56" class="edge">
<title>CBOJCGVR&#45;&gt;LFXAQIHH</title>
<path fill="none" stroke="black" d="M2017.5,-74.69C2017.5,-67.05 2017.5,-57.86 2017.5,-49.24"/>
<polygon fill="black" stroke="black" points="2021,-49.15 2017.5,-39.15 2014,-49.15 2021,-49.15"/>
</g>
<!-- EWXHODGI -->
<g id="node58" class="node">
<title>EWXHODGI</title>
<ellipse fill="none" stroke="black" cx="2072.5" cy="-19.5" rx="18" ry="18"/>
<text text-anchor="middle" x="2072.5" y="-15.8" font-family="Times,serif" font-size="14.00">6</text>
</g>
<!-- CBOJCGVR&#45;&gt;EWXHODGI -->
<g id="edge57" class="edge">
<title>CBOJCGVR&#45;&gt;EWXHODGI</title>
<path fill="none" stroke="black" d="M2028.1,-78.21C2035.94,-68.02 2046.77,-53.95 2055.77,-42.25"/>
<polygon fill="black" stroke="black" points="2058.6,-44.3 2061.93,-34.24 2053.05,-40.03 2058.6,-44.3"/>
</g>
<!-- TXZKYBLY -->
<g id="node60" class="node">
<title>TXZKYBLY</title>
<ellipse fill="none" stroke="black" cx="2126.5" cy="-19.5" rx="18" ry="18"/>
<text text-anchor="middle" x="2126.5" y="-15.8" font-family="Times,serif" font-size="14.00">9</text>
</g>
<!-- OFICVEZP&#45;&gt;TXZKYBLY -->
<g id="edge59" class="edge">
<title>OFICVEZP&#45;&gt;TXZKYBLY</title>
<path fill="none" stroke="black" d="M2170.09,-78.21C2162.39,-68.02 2151.76,-53.95 2142.93,-42.25"/>
<polygon fill="black" stroke="black" points="2145.7,-40.11 2136.88,-34.24 2140.11,-44.33 2145.7,-40.11"/>
</g>
<!-- JUDGRVFI -->
<g id="node61" class="node">
<title>JUDGRVFI</title>
<ellipse fill="none" stroke="black" cx="2180.5" cy="-19.5" rx="18" ry="18"/>
<text text-anchor="middle" x="2180.5" y="-15.8" font-family="Times,serif" font-size="14.00">0</text>
</g>
<!-- OFICVEZP&#45;&gt;JUDGRVFI -->
<g id="edge60" class="edge">
<title>OFICVEZP&#45;&gt;JUDGRVFI</title>
<path fill="none" stroke="black" d="M2180.5,-74.69C2180.5,-66.61 2180.5,-56.8 2180.5,-47.76"/>
<polygon fill="black" stroke="black" points="2184,-47.65 2180.5,-37.65 2177,-47.65 2184,-47.65"/>
</g>
<!-- OEQOAJNY -->
<g id="node62" class="node">
<title>OEQOAJNY</title>
<ellipse fill="none" stroke="black" cx="2234.5" cy="-19.5" rx="18" ry="18"/>
<text text-anchor="middle" x="2234.5" y="-15.8" font-family="Times,serif" font-size="14.00">5</text>
</g>
<!-- OFICVEZP&#45;&gt;OEQOAJNY -->
<g id="edge61" class="edge">
<title>OFICVEZP&#45;&gt;OEQOAJNY</title>
<path fill="none" stroke="black" d="M2190.91,-78.21C2198.6,-68.02 2209.23,-53.95 2218.07,-42.25"/>
<polygon fill="black" stroke="black" points="2220.88,-44.33 2224.12,-34.24 2215.3,-40.11 2220.88,-44.33"/>
</g>
<!-- NDTVWIAZ -->
<g id="node63" class="node">
<title>NDTVWIAZ</title>
<ellipse fill="none" stroke="black" cx="2288.5" cy="-19.5" rx="18" ry="18"/>
<text text-anchor="middle" x="2288.5" y="-15.8" font-family="Times,serif" font-size="14.00">0</text>
</g>
<!-- OFICVEZP&#45;&gt;NDTVWIAZ -->
<g id="edge62" class="edge">
<title>OFICVEZP&#45;&gt;NDTVWIAZ</title>
<path fill="none" stroke="black" d="M2195.19,-82.52C2211.47,-71.98 2238.46,-54.42 2261.5,-39 2262.77,-38.15 2264.07,-37.27 2265.38,-36.39"/>
<polygon fill="black" stroke="black" points="2267.67,-39.06 2273.96,-30.54 2263.73,-33.27 2267.67,-39.06"/>
</g>
<!-- FJTKOQSV -->
<g id="node65" class="node">
<title>FJTKOQSV</title>
<ellipse fill="none" stroke="black" cx="2397.5" cy="-93" rx="18" ry="18"/>
</g>
<!-- OYPBKFCC&#45;&gt;FJTKOQSV -->
<g id="edge64" class="edge">
<title>OYPBKFCC&#45;&gt;FJTKOQSV</title>
<path fill="none" stroke="black" d="M2397.5,-146.69C2397.5,-138.98 2397.5,-129.71 2397.5,-121.11"/>
<polygon fill="black" stroke="black" points="2401,-121.1 2397.5,-111.1 2394,-121.1 2401,-121.1"/>
</g>
<!-- XVAZXVNA -->
<g id="node69" class="node">
<title>XVAZXVNA</title>
<ellipse fill="none" stroke="black" cx="2560.5" cy="-93" rx="18" ry="18"/>
</g>
<!-- OYPBKFCC&#45;&gt;XVAZXVNA -->
<g id="edge68" class="edge">
<title>OYPBKFCC&#45;&gt;XVAZXVNA</title>
<path fill="none" stroke="black" d="M2413.72,-157.03C2442.16,-144.82 2501.19,-119.46 2535.09,-104.91"/>
<polygon fill="black" stroke="black" points="2536.53,-108.1 2544.34,-100.94 2533.77,-101.67 2536.53,-108.1"/>
</g>
<!-- YDFSHNXZ -->
<g id="node66" class="node">
<title>YDFSHNXZ</title>
<ellipse fill="none" stroke="black" cx="2342.5" cy="-19.5" rx="18" ry="18"/>
<text text-anchor="middle" x="2342.5" y="-15.8" font-family="Times,serif" font-size="14.00">8</text>
</g>
<!-- FJTKOQSV&#45;&gt;YDFSHNXZ -->
<g id="edge65" class="edge">
<title>FJTKOQSV&#45;&gt;YDFSHNXZ</title>
<path fill="none" stroke="black" d="M2386.89,-78.21C2379.06,-68.02 2368.23,-53.95 2359.23,-42.25"/>
<polygon fill="black" stroke="black" points="2361.94,-40.03 2353.07,-34.24 2356.39,-44.3 2361.94,-40.03"/>
</g>
<!-- XEHGQCUG -->
<g id="node67" class="node">
<title>XEHGQCUG</title>
<ellipse fill="none" stroke="black" cx="2397.5" cy="-19.5" rx="19.5" ry="19.5"/>
<text text-anchor="middle" x="2397.5" y="-15.8" font-family="Times,serif" font-size="14.00">11</text>
</g>
<!-- FJTKOQSV&#45;&gt;XEHGQCUG -->
<g id="edge66" class="edge">
<title>FJTKOQSV&#45;&gt;XEHGQCUG</title>
<path fill="none" stroke="black" d="M2397.5,-74.69C2397.5,-67.05 2397.5,-57.86 2397.5,-49.24"/>
<polygon fill="black" stroke="black" points="2401,-49.15 2397.5,-39.15 2394,-49.15 2401,-49.15"/>
</g>
<!-- YFACBBPZ -->
<g id="node68" class="node">
<title>YFACBBPZ</title>
<ellipse fill="none" stroke="black" cx="2452.5" cy="-19.5" rx="18" ry="18"/>
<text text-anchor="middle" x="2452.5" y="-15.8" font-family="Times,serif" font-size="14.00">5</text>
</g>
<!-- FJTKOQSV&#45;&gt;YFACBBPZ -->
<g id="edge67" class="edge">
<title>FJTKOQSV&#45;&gt;YFACBBPZ</title>
<path fill="none" stroke="black" d="M2408.1,-78.21C2415.94,-68.02 2426.77,-53.95 2435.77,-42.25"/>
<polygon fill="black" stroke="black" points="2438.6,-44.3 2441.93,-34.24 2433.05,-40.03 2438.6,-44.3"/>
</g>
<!-- UJATNETT -->
<g id="node70" class="node">
<title>UJATNETT</title>
<ellipse fill="none" stroke="black" cx="2506.5" cy="-19.5" rx="18" ry="18"/>
<text text-anchor="middle" x="2506.5" y="-15.8" font-family="Times,serif" font-size="14.00">3</text>
</g>
<!-- XVAZXVNA&#45;&gt;UJATNETT -->
<g id="edge69" class="edge">
<title>XVAZXVNA&#45;&gt;UJATNETT</title>
<path fill="none" stroke="black" d="M2550.09,-78.21C2542.39,-68.02 2531.76,-53.95 2522.93,-42.25"/>
<polygon fill="black" stroke="black" points="2525.7,-40.11 2516.88,-34.24 2520.11,-44.33 2525.7,-40.11"/>
</g>
<!-- IUYDIQUG -->
<g id="node71" class="node">
<title>IUYDIQUG</title>
<ellipse fill="none" stroke="black" cx="2560.5" cy="-19.5" rx="18" ry="18"/>
<text text-anchor="middle" x="2560.5" y="-15.8" font-family="Times,serif" font-size="14.00">1</text>
</g>
<!-- XVAZXVNA&#45;&gt;IUYDIQUG -->
<g id="edge70" class="edge">
<title>XVAZXVNA&#45;&gt;IUYDIQUG</title>
<path fill="none" stroke="black" d="M2560.5,-74.69C2560.5,-66.61 2560.5,-56.8 2560.5,-47.76"/>
<polygon fill="black" stroke="black" points="2564,-47.65 2560.5,-37.65 2557,-47.65 2564,-47.65"/>
</g>
<!-- PNYOGSSY -->
<g id="node72" class="node">
<title>PNYOGSSY</title>
<ellipse fill="none" stroke="black" cx="2614.5" cy="-19.5" rx="18" ry="18"/>
<text text-anchor="middle" x="2614.5" y="-15.8" font-family="Times,serif" font-size="14.00">7</text>
</g>
<!-- XVAZXVNA&#45;&gt;PNYOGSSY -->
<g id="edge71" class="edge">
<title>XVAZXVNA&#45;&gt;PNYOGSSY</title>
<path fill="none" stroke="black" d="M2570.91,-78.21C2578.6,-68.02 2589.23,-53.95 2598.07,-42.25"/>
<polygon fill="black" stroke="black" points="2600.88,-44.33 2604.12,-34.24 2595.3,-40.11 2600.88,-44.33"/>
</g>
<!-- YXCHQWXE -->
<g id="node73" class="node">
<title>YXCHQWXE</title>
<ellipse fill="none" stroke="black" cx="2669.5" cy="-19.5" rx="19.5" ry="19.5"/>
<text text-anchor="middle" x="2669.5" y="-15.8" font-family="Times,serif" font-size="14.00">11</text>
</g>
<!-- XVAZXVNA&#45;&gt;YXCHQWXE -->
<g id="edge72" class="edge">
<title>XVAZXVNA&#45;&gt;YXCHQWXE</title>
<path fill="none" stroke="black" d="M2575.14,-82.44C2591.38,-71.84 2618.33,-54.23 2641.5,-39 2642.59,-38.28 2643.71,-37.54 2644.84,-36.8"/>
<polygon fill="black" stroke="black" points="2647.09,-39.5 2653.51,-31.08 2643.24,-33.66 2647.09,-39.5"/>
</g>
</g>
</svg>
