<?xml version="1.0" encoding="UTF-8" standalone="no"?>
<!DOCTYPE svg PUBLIC "-//W3C//DTD SVG 1.1//EN"
 "http://www.w3.org/Graphics/SVG/1.1/DTD/svg11.dtd">
<!-- Generated by graphviz version 2.46.1 (20210213.1702)
 -->
<!-- Title: D Pages: 1 -->
<svg width="2468pt" height="335pt"
 viewBox="0.00 0.00 2468.00 335.00" xmlns="http://www.w3.org/2000/svg" xmlns:xlink="http://www.w3.org/1999/xlink">
<g id="graph0" class="graph" transform="scale(1 1) rotate(0) translate(4 331)">
<title>D</title>
<polygon fill="white" stroke="transparent" points="-4,4 -4,-331 2464,-331 2464,4 -4,4"/>
<!-- ZLWLGLFL -->
<g id="node1" class="node">
<title>ZLWLGLFL</title>
<ellipse fill="none" stroke="black" cx="1114" cy="-309" rx="18" ry="18"/>
</g>
<!-- ZIPMIYRE -->
<g id="node2" class="node">
<title>ZIPMIYRE</title>
<ellipse fill="none" stroke="black" cx="840" cy="-237" rx="18" ry="18"/>
</g>
<!-- ZLWLGLFL&#45;&gt;ZIPMIYRE -->
<g id="edge1" class="edge">
<title>ZLWLGLFL&#45;&gt;ZIPMIYRE</title>
<path fill="none" stroke="black" d="M1096.44,-303.51C1049.95,-291.63 923.37,-259.3 867.33,-244.98"/>
<polygon fill="black" stroke="black" points="867.97,-241.53 857.41,-242.44 866.23,-248.31 867.97,-241.53"/>
</g>
<!-- ZQRDPQJD -->
<g id="node30" class="node">
<title>ZQRDPQJD</title>
<ellipse fill="none" stroke="black" cx="1391" cy="-237" rx="18" ry="18"/>
</g>
<!-- ZLWLGLFL&#45;&gt;ZQRDPQJD -->
<g id="edge29" class="edge">
<title>ZLWLGLFL&#45;&gt;ZQRDPQJD</title>
<path fill="none" stroke="black" d="M1131.33,-303.62C1178.06,-291.81 1306.98,-259.23 1363.66,-244.91"/>
<polygon fill="black" stroke="black" points="1364.84,-248.22 1373.68,-242.37 1363.13,-241.43 1364.84,-248.22"/>
</g>
<!-- DINTKYKF -->
<g id="node3" class="node">
<title>DINTKYKF</title>
<ellipse fill="none" stroke="black" cx="401" cy="-165" rx="18" ry="18"/>
</g>
<!-- ZIPMIYRE&#45;&gt;DINTKYKF -->
<g id="edge2" class="edge">
<title>ZIPMIYRE&#45;&gt;DINTKYKF</title>
<path fill="none" stroke="black" d="M822.25,-233.17C754.48,-222.36 511.73,-183.65 428.91,-170.45"/>
<polygon fill="black" stroke="black" points="429.4,-166.98 418.97,-168.86 428.3,-173.89 429.4,-166.98"/>
</g>
<!-- VANQJVHB -->
<g id="node20" class="node">
<title>VANQJVHB</title>
<ellipse fill="none" stroke="black" cx="840" cy="-165" rx="18" ry="18"/>
</g>
<!-- ZIPMIYRE&#45;&gt;VANQJVHB -->
<g id="edge19" class="edge">
<title>ZIPMIYRE&#45;&gt;VANQJVHB</title>
<path fill="none" stroke="black" d="M840,-218.69C840,-210.98 840,-201.71 840,-193.11"/>
<polygon fill="black" stroke="black" points="843.5,-193.1 840,-183.1 836.5,-193.1 843.5,-193.1"/>
</g>
<!-- XGEAEEDU -->
<g id="node4" class="node">
<title>XGEAEEDU</title>
<ellipse fill="none" stroke="black" cx="72" cy="-93" rx="18" ry="18"/>
</g>
<!-- DINTKYKF&#45;&gt;XGEAEEDU -->
<g id="edge3" class="edge">
<title>DINTKYKF&#45;&gt;XGEAEEDU</title>
<path fill="none" stroke="black" d="M383.31,-160.23C329.07,-148.69 164.82,-113.74 99.35,-99.82"/>
<polygon fill="black" stroke="black" points="99.89,-96.35 89.38,-97.69 98.43,-103.2 99.89,-96.35"/>
</g>
<!-- MMJKEXKQ -->
<g id="node7" class="node">
<title>MMJKEXKQ</title>
<ellipse fill="none" stroke="black" cx="239" cy="-93" rx="18" ry="18"/>
</g>
<!-- DINTKYKF&#45;&gt;MMJKEXKQ -->
<g id="edge6" class="edge">
<title>DINTKYKF&#45;&gt;MMJKEXKQ</title>
<path fill="none" stroke="black" d="M384.58,-156.9C356.31,-144.69 298.3,-119.62 264.66,-105.09"/>
<polygon fill="black" stroke="black" points="266.04,-101.87 255.47,-101.11 263.26,-108.29 266.04,-101.87"/>
</g>
<!-- WPZNGOHC -->
<g id="node12" class="node">
<title>WPZNGOHC</title>
<ellipse fill="none" stroke="black" cx="401" cy="-93" rx="18" ry="18"/>
</g>
<!-- DINTKYKF&#45;&gt;WPZNGOHC -->
<g id="edge11" class="edge">
<title>DINTKYKF&#45;&gt;WPZNGOHC</title>
<path fill="none" stroke="black" d="M401,-146.69C401,-138.98 401,-129.71 401,-121.11"/>
<polygon fill="black" stroke="black" points="404.5,-121.1 401,-111.1 397.5,-121.1 404.5,-121.1"/>
</g>
<!-- ZTQKFBJP -->
<g id="node16" class="node">
<title>ZTQKFBJP</title>
<ellipse fill="none" stroke="black" cx="538" cy="-93" rx="18" ry="18"/>
</g>
<!-- DINTKYKF&#45;&gt;ZTQKFBJP -->
<g id="edge15" class="edge">
<title>DINTKYKF&#45;&gt;ZTQKFBJP</title>
<path fill="none" stroke="black" d="M416.72,-155.97C440.23,-143.95 484.8,-121.18 512.87,-106.84"/>
<polygon fill="black" stroke="black" points="514.73,-109.82 522.05,-102.15 511.55,-103.58 514.73,-109.82"/>
</g>
<!-- XOAARCDX -->
<g id="node5" class="node">
<title>XOAARCDX</title>
<ellipse fill="none" stroke="black" cx="18" cy="-19.5" rx="18" ry="18"/>
<text text-anchor="middle" x="18" y="-15.8" font-family="Times,serif" font-size="14.00">9</text>
</g>
<!-- XGEAEEDU&#45;&gt;XOAARCDX -->
<g id="edge4" class="edge">
<title>XGEAEEDU&#45;&gt;XOAARCDX</title>
<path fill="none" stroke="black" d="M61.59,-78.21C53.89,-68.02 43.26,-53.95 34.43,-42.25"/>
<polygon fill="black" stroke="black" points="37.2,-40.11 28.38,-34.24 31.61,-44.33 37.2,-40.11"/>
</g>
<!-- OIPJYPTZ -->
<g id="node6" class="node">
<title>OIPJYPTZ</title>
<ellipse fill="none" stroke="black" cx="72" cy="-19.5" rx="18" ry="18"/>
<text text-anchor="middle" x="72" y="-15.8" font-family="Times,serif" font-size="14.00">6</text>
</g>
<!-- XGEAEEDU&#45;&gt;OIPJYPTZ -->
<g id="edge5" class="edge">
<title>XGEAEEDU&#45;&gt;OIPJYPTZ</title>
<path fill="none" stroke="black" d="M72,-74.69C72,-66.61 72,-56.8 72,-47.76"/>
<polygon fill="black" stroke="black" points="75.5,-47.65 72,-37.65 68.5,-47.65 75.5,-47.65"/>
</g>
<!-- YFSXSYLN -->
<g id="node8" class="node">
<title>YFSXSYLN</title>
<ellipse fill="none" stroke="black" cx="127" cy="-19.5" rx="19.5" ry="19.5"/>
<text text-anchor="middle" x="127" y="-15.8" font-family="Times,serif" font-size="14.00">12</text>
</g>
<!-- MMJKEXKQ&#45;&gt;YFSXSYLN -->
<g id="edge7" class="edge">
<title>MMJKEXKQ&#45;&gt;YFSXSYLN</title>
<path fill="none" stroke="black" d="M223.9,-82.35C205.42,-70.56 173.9,-50.44 151.84,-36.35"/>
<polygon fill="black" stroke="black" points="153.63,-33.34 143.32,-30.91 149.86,-39.24 153.63,-33.34"/>
</g>
<!-- WLMUMUMZ -->
<g id="node9" class="node">
<title>WLMUMUMZ</title>
<ellipse fill="none" stroke="black" cx="184" cy="-19.5" rx="19.5" ry="19.5"/>
<text text-anchor="middle" x="184" y="-15.8" font-family="Times,serif" font-size="14.00">13</text>
</g>
<!-- MMJKEXKQ&#45;&gt;WLMUMUMZ -->
<g id="edge8" class="edge">
<title>MMJKEXKQ&#45;&gt;WLMUMUMZ</title>
<path fill="none" stroke="black" d="M228.4,-78.21C220.88,-68.45 210.62,-55.11 201.86,-43.72"/>
<polygon fill="black" stroke="black" points="204.39,-41.27 195.52,-35.48 198.84,-45.54 204.39,-41.27"/>
</g>
<!-- BUSFHGRP -->
<g id="node10" class="node">
<title>BUSFHGRP</title>
<ellipse fill="none" stroke="black" cx="239" cy="-19.5" rx="18" ry="18"/>
<text text-anchor="middle" x="239" y="-15.8" font-family="Times,serif" font-size="14.00">2</text>
</g>
<!-- MMJKEXKQ&#45;&gt;BUSFHGRP -->
<g id="edge9" class="edge">
<title>MMJKEXKQ&#45;&gt;BUSFHGRP</title>
<path fill="none" stroke="black" d="M239,-74.69C239,-66.61 239,-56.8 239,-47.76"/>
<polygon fill="black" stroke="black" points="242.5,-47.65 239,-37.65 235.5,-47.65 242.5,-47.65"/>
</g>
<!-- AXKCCRSL -->
<g id="node11" class="node">
<title>AXKCCRSL</title>
<ellipse fill="none" stroke="black" cx="293" cy="-19.5" rx="18" ry="18"/>
<text text-anchor="middle" x="293" y="-15.8" font-family="Times,serif" font-size="14.00">2</text>
</g>
<!-- MMJKEXKQ&#45;&gt;AXKCCRSL -->
<g id="edge10" class="edge">
<title>MMJKEXKQ&#45;&gt;AXKCCRSL</title>
<path fill="none" stroke="black" d="M249.41,-78.21C257.11,-68.02 267.74,-53.95 276.57,-42.25"/>
<polygon fill="black" stroke="black" points="279.39,-44.33 282.62,-34.24 273.8,-40.11 279.39,-44.33"/>
</g>
<!-- FVTWMYUF -->
<g id="node13" class="node">
<title>FVTWMYUF</title>
<ellipse fill="none" stroke="black" cx="347" cy="-19.5" rx="18" ry="18"/>
<text text-anchor="middle" x="347" y="-15.8" font-family="Times,serif" font-size="14.00">2</text>
</g>
<!-- WPZNGOHC&#45;&gt;FVTWMYUF -->
<g id="edge12" class="edge">
<title>WPZNGOHC&#45;&gt;FVTWMYUF</title>
<path fill="none" stroke="black" d="M390.59,-78.21C382.89,-68.02 372.26,-53.95 363.43,-42.25"/>
<polygon fill="black" stroke="black" points="366.2,-40.11 357.38,-34.24 360.61,-44.33 366.2,-40.11"/>
</g>
<!-- TSKWLWTC -->
<g id="node14" class="node">
<title>TSKWLWTC</title>
<ellipse fill="none" stroke="black" cx="401" cy="-19.5" rx="18" ry="18"/>
<text text-anchor="middle" x="401" y="-15.8" font-family="Times,serif" font-size="14.00">4</text>
</g>
<!-- WPZNGOHC&#45;&gt;TSKWLWTC -->
<g id="edge13" class="edge">
<title>WPZNGOHC&#45;&gt;TSKWLWTC</title>
<path fill="none" stroke="black" d="M401,-74.69C401,-66.61 401,-56.8 401,-47.76"/>
<polygon fill="black" stroke="black" points="404.5,-47.65 401,-37.65 397.5,-47.65 404.5,-47.65"/>
</g>
<!-- LZMYNNLN -->
<g id="node15" class="node">
<title>LZMYNNLN</title>
<ellipse fill="none" stroke="black" cx="456" cy="-19.5" rx="19.5" ry="19.5"/>
<text text-anchor="middle" x="456" y="-15.8" font-family="Times,serif" font-size="14.00">12</text>
</g>
<!-- WPZNGOHC&#45;&gt;LZMYNNLN -->
<g id="edge14" class="edge">
<title>WPZNGOHC&#45;&gt;LZMYNNLN</title>
<path fill="none" stroke="black" d="M411.6,-78.21C419.12,-68.45 429.38,-55.11 438.14,-43.72"/>
<polygon fill="black" stroke="black" points="441.16,-45.54 444.48,-35.48 435.61,-41.27 441.16,-45.54"/>
</g>
<!-- WJTVHCCM -->
<g id="node17" class="node">
<title>WJTVHCCM</title>
<ellipse fill="none" stroke="black" cx="511" cy="-19.5" rx="18" ry="18"/>
<text text-anchor="middle" x="511" y="-15.8" font-family="Times,serif" font-size="14.00">7</text>
</g>
<!-- ZTQKFBJP&#45;&gt;WJTVHCCM -->
<g id="edge16" class="edge">
<title>ZTQKFBJP&#45;&gt;WJTVHCCM</title>
<path fill="none" stroke="black" d="M531.87,-75.77C528.56,-67 524.39,-55.96 520.65,-46.05"/>
<polygon fill="black" stroke="black" points="523.91,-44.78 517.1,-36.66 517.36,-47.25 523.91,-44.78"/>
</g>
<!-- UDJXEQBV -->
<g id="node18" class="node">
<title>UDJXEQBV</title>
<ellipse fill="none" stroke="black" cx="565" cy="-19.5" rx="18" ry="18"/>
<text text-anchor="middle" x="565" y="-15.8" font-family="Times,serif" font-size="14.00">3</text>
</g>
<!-- ZTQKFBJP&#45;&gt;UDJXEQBV -->
<g id="edge17" class="edge">
<title>ZTQKFBJP&#45;&gt;UDJXEQBV</title>
<path fill="none" stroke="black" d="M544.13,-75.77C547.44,-67 551.61,-55.96 555.35,-46.05"/>
<polygon fill="black" stroke="black" points="558.64,-47.25 558.9,-36.66 552.09,-44.78 558.64,-47.25"/>
</g>
<!-- XRRYWCHZ -->
<g id="node19" class="node">
<title>XRRYWCHZ</title>
<ellipse fill="none" stroke="black" cx="620" cy="-19.5" rx="19.5" ry="19.5"/>
<text text-anchor="middle" x="620" y="-15.8" font-family="Times,serif" font-size="14.00">15</text>
</g>
<!-- ZTQKFBJP&#45;&gt;XRRYWCHZ -->
<g id="edge18" class="edge">
<title>ZTQKFBJP&#45;&gt;XRRYWCHZ</title>
<path fill="none" stroke="black" d="M551.17,-80.51C563.78,-69.52 583.03,-52.73 597.97,-39.71"/>
<polygon fill="black" stroke="black" points="600.52,-42.13 605.76,-32.92 595.92,-36.85 600.52,-42.13"/>
</g>
<!-- JBFLSABC -->
<g id="node21" class="node">
<title>JBFLSABC</title>
<ellipse fill="none" stroke="black" cx="786" cy="-93" rx="18" ry="18"/>
</g>
<!-- VANQJVHB&#45;&gt;JBFLSABC -->
<g id="edge20" class="edge">
<title>VANQJVHB&#45;&gt;JBFLSABC</title>
<path fill="none" stroke="black" d="M829.33,-150.17C821.79,-140.39 811.52,-127.08 802.87,-115.87"/>
<polygon fill="black" stroke="black" points="805.53,-113.58 796.65,-107.8 799.98,-117.85 805.53,-113.58"/>
</g>
<!-- TIUNBXKC -->
<g id="node26" class="node">
<title>TIUNBXKC</title>
<ellipse fill="none" stroke="black" cx="922" cy="-93" rx="18" ry="18"/>
</g>
<!-- VANQJVHB&#45;&gt;TIUNBXKC -->
<g id="edge25" class="edge">
<title>VANQJVHB&#45;&gt;TIUNBXKC</title>
<path fill="none" stroke="black" d="M853.54,-152.44C866.44,-141.43 886.04,-124.69 900.97,-111.95"/>
<polygon fill="black" stroke="black" points="903.38,-114.5 908.71,-105.34 898.83,-109.17 903.38,-114.5"/>
</g>
<!-- XIUUOYFL -->
<g id="node22" class="node">
<title>XIUUOYFL</title>
<ellipse fill="none" stroke="black" cx="677" cy="-19.5" rx="19.5" ry="19.5"/>
<text text-anchor="middle" x="677" y="-15.8" font-family="Times,serif" font-size="14.00">10</text>
</g>
<!-- JBFLSABC&#45;&gt;XIUUOYFL -->
<g id="edge21" class="edge">
<title>JBFLSABC&#45;&gt;XIUUOYFL</title>
<path fill="none" stroke="black" d="M771.35,-82.44C755.12,-71.84 728.17,-54.23 705,-39 703.9,-38.28 702.79,-37.54 701.66,-36.8"/>
<polygon fill="black" stroke="black" points="703.26,-33.66 692.98,-31.08 699.4,-39.5 703.26,-33.66"/>
</g>
<!-- SQJIPOAJ -->
<g id="node23" class="node">
<title>SQJIPOAJ</title>
<ellipse fill="none" stroke="black" cx="732" cy="-19.5" rx="18" ry="18"/>
<text text-anchor="middle" x="732" y="-15.8" font-family="Times,serif" font-size="14.00">9</text>
</g>
<!-- JBFLSABC&#45;&gt;SQJIPOAJ -->
<g id="edge22" class="edge">
<title>JBFLSABC&#45;&gt;SQJIPOAJ</title>
<path fill="none" stroke="black" d="M775.59,-78.21C767.89,-68.02 757.26,-53.95 748.43,-42.25"/>
<polygon fill="black" stroke="black" points="751.2,-40.11 742.38,-34.24 745.61,-44.33 751.2,-40.11"/>
</g>
<!-- YRBIJUFP -->
<g id="node24" class="node">
<title>YRBIJUFP</title>
<ellipse fill="none" stroke="black" cx="786" cy="-19.5" rx="18" ry="18"/>
<text text-anchor="middle" x="786" y="-15.8" font-family="Times,serif" font-size="14.00">5</text>
</g>
<!-- JBFLSABC&#45;&gt;YRBIJUFP -->
<g id="edge23" class="edge">
<title>JBFLSABC&#45;&gt;YRBIJUFP</title>
<path fill="none" stroke="black" d="M786,-74.69C786,-66.61 786,-56.8 786,-47.76"/>
<polygon fill="black" stroke="black" points="789.5,-47.65 786,-37.65 782.5,-47.65 789.5,-47.65"/>
</g>
<!-- DGIIXRIQ -->
<g id="node25" class="node">
<title>DGIIXRIQ</title>
<ellipse fill="none" stroke="black" cx="840" cy="-19.5" rx="18" ry="18"/>
<text text-anchor="middle" x="840" y="-15.8" font-family="Times,serif" font-size="14.00">8</text>
</g>
<!-- JBFLSABC&#45;&gt;DGIIXRIQ -->
<g id="edge24" class="edge">
<title>JBFLSABC&#45;&gt;DGIIXRIQ</title>
<path fill="none" stroke="black" d="M796.41,-78.21C804.11,-68.02 814.74,-53.95 823.57,-42.25"/>
<polygon fill="black" stroke="black" points="826.39,-44.33 829.62,-34.24 820.8,-40.11 826.39,-44.33"/>
</g>
<!-- DBRXUPCV -->
<g id="node27" class="node">
<title>DBRXUPCV</title>
<ellipse fill="none" stroke="black" cx="895" cy="-19.5" rx="19.5" ry="19.5"/>
<text text-anchor="middle" x="895" y="-15.8" font-family="Times,serif" font-size="14.00">10</text>
</g>
<!-- TIUNBXKC&#45;&gt;DBRXUPCV -->
<g id="edge26" class="edge">
<title>TIUNBXKC&#45;&gt;DBRXUPCV</title>
<path fill="none" stroke="black" d="M915.87,-75.77C912.71,-67.39 908.77,-56.95 905.16,-47.41"/>
<polygon fill="black" stroke="black" points="908.38,-46.03 901.57,-37.91 901.83,-48.5 908.38,-46.03"/>
</g>
<!-- WXJLJBPL -->
<g id="node28" class="node">
<title>WXJLJBPL</title>
<ellipse fill="none" stroke="black" cx="950" cy="-19.5" rx="18" ry="18"/>
<text text-anchor="middle" x="950" y="-15.8" font-family="Times,serif" font-size="14.00">4</text>
</g>
<!-- TIUNBXKC&#45;&gt;WXJLJBPL -->
<g id="edge27" class="edge">
<title>TIUNBXKC&#45;&gt;WXJLJBPL</title>
<path fill="none" stroke="black" d="M928.35,-75.77C931.79,-67 936.11,-55.96 939.99,-46.05"/>
<polygon fill="black" stroke="black" points="943.28,-47.25 943.67,-36.66 936.77,-44.69 943.28,-47.25"/>
</g>
<!-- MKYJPYKL -->
<g id="node29" class="node">
<title>MKYJPYKL</title>
<ellipse fill="none" stroke="black" cx="1005" cy="-19.5" rx="19.5" ry="19.5"/>
<text text-anchor="middle" x="1005" y="-15.8" font-family="Times,serif" font-size="14.00">15</text>
</g>
<!-- TIUNBXKC&#45;&gt;MKYJPYKL -->
<g id="edge28" class="edge">
<title>TIUNBXKC&#45;&gt;MKYJPYKL</title>
<path fill="none" stroke="black" d="M935.34,-80.51C948.09,-69.52 967.58,-52.73 982.7,-39.71"/>
<polygon fill="black" stroke="black" points="985.29,-42.1 990.58,-32.92 980.72,-36.79 985.29,-42.1"/>
</g>
<!-- GGXTBZLP -->
<g id="node31" class="node">
<title>GGXTBZLP</title>
<ellipse fill="none" stroke="black" cx="1391" cy="-165" rx="18" ry="18"/>
</g>
<!-- ZQRDPQJD&#45;&gt;GGXTBZLP -->
<g id="edge30" class="edge">
<title>ZQRDPQJD&#45;&gt;GGXTBZLP</title>
<path fill="none" stroke="black" d="M1391,-218.69C1391,-210.98 1391,-201.71 1391,-193.11"/>
<polygon fill="black" stroke="black" points="1394.5,-193.1 1391,-183.1 1387.5,-193.1 1394.5,-193.1"/>
</g>
<!-- DZTUFOSW -->
<g id="node48" class="node">
<title>DZTUFOSW</title>
<ellipse fill="none" stroke="black" cx="1946" cy="-165" rx="18" ry="18"/>
</g>
<!-- ZQRDPQJD&#45;&gt;DZTUFOSW -->
<g id="edge47" class="edge">
<title>ZQRDPQJD&#45;&gt;DZTUFOSW</title>
<path fill="none" stroke="black" d="M1408.84,-233.75C1489.4,-223.59 1819.67,-181.93 1918.16,-169.51"/>
<polygon fill="black" stroke="black" points="1918.75,-172.96 1928.23,-168.24 1917.87,-166.02 1918.75,-172.96"/>
</g>
<!-- UTMPARXY -->
<g id="node32" class="node">
<title>UTMPARXY</title>
<ellipse fill="none" stroke="black" cx="1141" cy="-93" rx="18" ry="18"/>
</g>
<!-- GGXTBZLP&#45;&gt;UTMPARXY -->
<g id="edge31" class="edge">
<title>GGXTBZLP&#45;&gt;UTMPARXY</title>
<path fill="none" stroke="black" d="M1373.82,-159.19C1331.09,-147.22 1219.78,-116.05 1168.09,-101.58"/>
<polygon fill="black" stroke="black" points="1168.88,-98.17 1158.3,-98.84 1166.99,-104.91 1168.88,-98.17"/>
</g>
<!-- LIYTRUAV -->
<g id="node36" class="node">
<title>LIYTRUAV</title>
<ellipse fill="none" stroke="black" cx="1335" cy="-93" rx="18" ry="18"/>
</g>
<!-- GGXTBZLP&#45;&gt;LIYTRUAV -->
<g id="edge35" class="edge">
<title>GGXTBZLP&#45;&gt;LIYTRUAV</title>
<path fill="none" stroke="black" d="M1380.2,-150.5C1372.22,-140.53 1361.2,-126.75 1352.04,-115.29"/>
<polygon fill="black" stroke="black" points="1354.74,-113.07 1345.76,-107.45 1349.28,-117.45 1354.74,-113.07"/>
</g>
<!-- ESHFIPBS -->
<g id="node41" class="node">
<title>ESHFIPBS</title>
<ellipse fill="none" stroke="black" cx="1447" cy="-93" rx="18" ry="18"/>
</g>
<!-- GGXTBZLP&#45;&gt;ESHFIPBS -->
<g id="edge40" class="edge">
<title>GGXTBZLP&#45;&gt;ESHFIPBS</title>
<path fill="none" stroke="black" d="M1401.8,-150.5C1409.78,-140.53 1420.8,-126.75 1429.96,-115.29"/>
<polygon fill="black" stroke="black" points="1432.72,-117.45 1436.24,-107.45 1427.26,-113.07 1432.72,-117.45"/>
</g>
<!-- SEGEZGHE -->
<g id="node44" class="node">
<title>SEGEZGHE</title>
<ellipse fill="none" stroke="black" cx="1585" cy="-93" rx="18" ry="18"/>
</g>
<!-- GGXTBZLP&#45;&gt;SEGEZGHE -->
<g id="edge43" class="edge">
<title>GGXTBZLP&#45;&gt;SEGEZGHE</title>
<path fill="none" stroke="black" d="M1407.88,-157.91C1441.79,-145.67 1518.39,-118.03 1558.84,-103.43"/>
<polygon fill="black" stroke="black" points="1560.08,-106.71 1568.3,-100.02 1557.71,-100.12 1560.08,-106.71"/>
</g>
<!-- DELNWLAC -->
<g id="node33" class="node">
<title>DELNWLAC</title>
<ellipse fill="none" stroke="black" cx="1060" cy="-19.5" rx="18" ry="18"/>
<text text-anchor="middle" x="1060" y="-15.8" font-family="Times,serif" font-size="14.00">6</text>
</g>
<!-- UTMPARXY&#45;&gt;DELNWLAC -->
<g id="edge32" class="edge">
<title>UTMPARXY&#45;&gt;DELNWLAC</title>
<path fill="none" stroke="black" d="M1127.99,-80.51C1115.31,-69.32 1095.83,-52.12 1080.96,-39"/>
<polygon fill="black" stroke="black" points="1083.06,-36.19 1073.25,-32.19 1078.43,-41.44 1083.06,-36.19"/>
</g>
<!-- RGOZEPOL -->
<g id="node34" class="node">
<title>RGOZEPOL</title>
<ellipse fill="none" stroke="black" cx="1114" cy="-19.5" rx="18" ry="18"/>
<text text-anchor="middle" x="1114" y="-15.8" font-family="Times,serif" font-size="14.00">9</text>
</g>
<!-- UTMPARXY&#45;&gt;RGOZEPOL -->
<g id="edge33" class="edge">
<title>UTMPARXY&#45;&gt;RGOZEPOL</title>
<path fill="none" stroke="black" d="M1134.87,-75.77C1131.56,-67 1127.39,-55.96 1123.65,-46.05"/>
<polygon fill="black" stroke="black" points="1126.91,-44.78 1120.1,-36.66 1120.36,-47.25 1126.91,-44.78"/>
</g>
<!-- HVSAYSQW -->
<g id="node35" class="node">
<title>HVSAYSQW</title>
<ellipse fill="none" stroke="black" cx="1168" cy="-19.5" rx="18" ry="18"/>
<text text-anchor="middle" x="1168" y="-15.8" font-family="Times,serif" font-size="14.00">5</text>
</g>
<!-- UTMPARXY&#45;&gt;HVSAYSQW -->
<g id="edge34" class="edge">
<title>UTMPARXY&#45;&gt;HVSAYSQW</title>
<path fill="none" stroke="black" d="M1147.13,-75.77C1150.44,-67 1154.61,-55.96 1158.35,-46.05"/>
<polygon fill="black" stroke="black" points="1161.64,-47.25 1161.9,-36.66 1155.09,-44.78 1161.64,-47.25"/>
</g>
<!-- IXEEEEBP -->
<g id="node37" class="node">
<title>IXEEEEBP</title>
<ellipse fill="none" stroke="black" cx="1223" cy="-19.5" rx="19.5" ry="19.5"/>
<text text-anchor="middle" x="1223" y="-15.8" font-family="Times,serif" font-size="14.00">13</text>
</g>
<!-- LIYTRUAV&#45;&gt;IXEEEEBP -->
<g id="edge36" class="edge">
<title>LIYTRUAV&#45;&gt;IXEEEEBP</title>
<path fill="none" stroke="black" d="M1319.9,-82.35C1301.42,-70.56 1269.9,-50.44 1247.84,-36.35"/>
<polygon fill="black" stroke="black" points="1249.63,-33.34 1239.32,-30.91 1245.86,-39.24 1249.63,-33.34"/>
</g>
<!-- GFVXZGVU -->
<g id="node38" class="node">
<title>GFVXZGVU</title>
<ellipse fill="none" stroke="black" cx="1280" cy="-19.5" rx="19.5" ry="19.5"/>
<text text-anchor="middle" x="1280" y="-15.8" font-family="Times,serif" font-size="14.00">13</text>
</g>
<!-- LIYTRUAV&#45;&gt;GFVXZGVU -->
<g id="edge37" class="edge">
<title>LIYTRUAV&#45;&gt;GFVXZGVU</title>
<path fill="none" stroke="black" d="M1324.4,-78.21C1316.88,-68.45 1306.62,-55.11 1297.86,-43.72"/>
<polygon fill="black" stroke="black" points="1300.39,-41.27 1291.52,-35.48 1294.84,-45.54 1300.39,-41.27"/>
</g>
<!-- CQSTSOSO -->
<g id="node39" class="node">
<title>CQSTSOSO</title>
<ellipse fill="none" stroke="black" cx="1335" cy="-19.5" rx="18" ry="18"/>
<text text-anchor="middle" x="1335" y="-15.8" font-family="Times,serif" font-size="14.00">0</text>
</g>
<!-- LIYTRUAV&#45;&gt;CQSTSOSO -->
<g id="edge38" class="edge">
<title>LIYTRUAV&#45;&gt;CQSTSOSO</title>
<path fill="none" stroke="black" d="M1335,-74.69C1335,-66.61 1335,-56.8 1335,-47.76"/>
<polygon fill="black" stroke="black" points="1338.5,-47.65 1335,-37.65 1331.5,-47.65 1338.5,-47.65"/>
</g>
<!-- YXFIEOTZ -->
<g id="node40" class="node">
<title>YXFIEOTZ</title>
<ellipse fill="none" stroke="black" cx="1390" cy="-19.5" rx="19.5" ry="19.5"/>
<text text-anchor="middle" x="1390" y="-15.8" font-family="Times,serif" font-size="14.00">14</text>
</g>
<!-- LIYTRUAV&#45;&gt;YXFIEOTZ -->
<g id="edge39" class="edge">
<title>LIYTRUAV&#45;&gt;YXFIEOTZ</title>
<path fill="none" stroke="black" d="M1345.6,-78.21C1353.12,-68.45 1363.38,-55.11 1372.14,-43.72"/>
<polygon fill="black" stroke="black" points="1375.16,-45.54 1378.48,-35.48 1369.61,-41.27 1375.16,-45.54"/>
</g>
<!-- ABJFQBDH -->
<g id="node42" class="node">
<title>ABJFQBDH</title>
<ellipse fill="none" stroke="black" cx="1447" cy="-19.5" rx="19.5" ry="19.5"/>
<text text-anchor="middle" x="1447" y="-15.8" font-family="Times,serif" font-size="14.00">10</text>
</g>
<!-- ESHFIPBS&#45;&gt;ABJFQBDH -->
<g id="edge41" class="edge">
<title>ESHFIPBS&#45;&gt;ABJFQBDH</title>
<path fill="none" stroke="black" d="M1447,-74.69C1447,-67.05 1447,-57.86 1447,-49.24"/>
<polygon fill="black" stroke="black" points="1450.5,-49.15 1447,-39.15 1443.5,-49.15 1450.5,-49.15"/>
</g>
<!-- XWQPMBBB -->
<g id="node43" class="node">
<title>XWQPMBBB</title>
<ellipse fill="none" stroke="black" cx="1502" cy="-19.5" rx="18" ry="18"/>
<text text-anchor="middle" x="1502" y="-15.8" font-family="Times,serif" font-size="14.00">3</text>
</g>
<!-- ESHFIPBS&#45;&gt;XWQPMBBB -->
<g id="edge42" class="edge">
<title>ESHFIPBS&#45;&gt;XWQPMBBB</title>
<path fill="none" stroke="black" d="M1457.6,-78.21C1465.44,-68.02 1476.27,-53.95 1485.27,-42.25"/>
<polygon fill="black" stroke="black" points="1488.1,-44.3 1491.43,-34.24 1482.56,-40.03 1488.1,-44.3"/>
</g>
<!-- BMNJORTB -->
<g id="node45" class="node">
<title>BMNJORTB</title>
<ellipse fill="none" stroke="black" cx="1557" cy="-19.5" rx="19.5" ry="19.5"/>
<text text-anchor="middle" x="1557" y="-15.8" font-family="Times,serif" font-size="14.00">12</text>
</g>
<!-- SEGEZGHE&#45;&gt;BMNJORTB -->
<g id="edge44" class="edge">
<title>SEGEZGHE&#45;&gt;BMNJORTB</title>
<path fill="none" stroke="black" d="M1578.65,-75.77C1575.37,-67.39 1571.28,-56.95 1567.54,-47.41"/>
<polygon fill="black" stroke="black" points="1570.72,-45.94 1563.82,-37.91 1564.21,-48.5 1570.72,-45.94"/>
</g>
<!-- KLKCCUPC -->
<g id="node46" class="node">
<title>KLKCCUPC</title>
<ellipse fill="none" stroke="black" cx="1614" cy="-19.5" rx="19.5" ry="19.5"/>
<text text-anchor="middle" x="1614" y="-15.8" font-family="Times,serif" font-size="14.00">14</text>
</g>
<!-- SEGEZGHE&#45;&gt;KLKCCUPC -->
<g id="edge45" class="edge">
<title>SEGEZGHE&#45;&gt;KLKCCUPC</title>
<path fill="none" stroke="black" d="M1591.44,-76.13C1594.89,-67.61 1599.24,-56.89 1603.2,-47.14"/>
<polygon fill="black" stroke="black" points="1606.46,-48.41 1606.97,-37.82 1599.97,-45.77 1606.46,-48.41"/>
</g>
<!-- JVCNWXJT -->
<g id="node47" class="node">
<title>JVCNWXJT</title>
<ellipse fill="none" stroke="black" cx="1669" cy="-19.5" rx="18" ry="18"/>
<text text-anchor="middle" x="1669" y="-15.8" font-family="Times,serif" font-size="14.00">6</text>
</g>
<!-- SEGEZGHE&#45;&gt;JVCNWXJT -->
<g id="edge46" class="edge">
<title>SEGEZGHE&#45;&gt;JVCNWXJT</title>
<path fill="none" stroke="black" d="M1598.5,-80.51C1611.72,-69.25 1632.09,-51.92 1647.54,-38.77"/>
<polygon fill="black" stroke="black" points="1650.19,-41.1 1655.54,-31.96 1645.65,-35.77 1650.19,-41.1"/>
</g>
<!-- TVCYHWAI -->
<g id="node49" class="node">
<title>TVCYHWAI</title>
<ellipse fill="none" stroke="black" cx="1806" cy="-93" rx="18" ry="18"/>
</g>
<!-- DZTUFOSW&#45;&gt;TVCYHWAI -->
<g id="edge48" class="edge">
<title>DZTUFOSW&#45;&gt;TVCYHWAI</title>
<path fill="none" stroke="black" d="M1930.21,-156.1C1906.06,-144.02 1859.7,-120.85 1830.96,-106.48"/>
<polygon fill="black" stroke="black" points="1832.45,-103.31 1821.94,-101.97 1829.32,-109.57 1832.45,-103.31"/>
</g>
<!-- HSZUPYRN -->
<g id="node53" class="node">
<title>HSZUPYRN</title>
<ellipse fill="none" stroke="black" cx="1946" cy="-93" rx="18" ry="18"/>
</g>
<!-- DZTUFOSW&#45;&gt;HSZUPYRN -->
<g id="edge52" class="edge">
<title>DZTUFOSW&#45;&gt;HSZUPYRN</title>
<path fill="none" stroke="black" d="M1946,-146.69C1946,-138.98 1946,-129.71 1946,-121.11"/>
<polygon fill="black" stroke="black" points="1949.5,-121.1 1946,-111.1 1942.5,-121.1 1949.5,-121.1"/>
</g>
<!-- UBDFHTDU -->
<g id="node57" class="node">
<title>UBDFHTDU</title>
<ellipse fill="none" stroke="black" cx="2115" cy="-93" rx="18" ry="18"/>
</g>
<!-- DZTUFOSW&#45;&gt;UBDFHTDU -->
<g id="edge56" class="edge">
<title>DZTUFOSW&#45;&gt;UBDFHTDU</title>
<path fill="none" stroke="black" d="M1962.51,-157.16C1991.99,-144.95 2053.89,-119.31 2089.08,-104.73"/>
<polygon fill="black" stroke="black" points="2090.77,-107.82 2098.67,-100.76 2088.09,-101.35 2090.77,-107.82"/>
</g>
<!-- QCHEUVHR -->
<g id="node62" class="node">
<title>QCHEUVHR</title>
<ellipse fill="none" stroke="black" cx="2332" cy="-93" rx="18" ry="18"/>
</g>
<!-- DZTUFOSW&#45;&gt;QCHEUVHR -->
<g id="edge61" class="edge">
<title>DZTUFOSW&#45;&gt;QCHEUVHR</title>
<path fill="none" stroke="black" d="M1963.59,-160.81C2024.88,-149.69 2229.37,-112.61 2304.24,-99.03"/>
<polygon fill="black" stroke="black" points="2305.09,-102.43 2314.31,-97.2 2303.84,-95.55 2305.09,-102.43"/>
</g>
<!-- KYNZRINY -->
<g id="node50" class="node">
<title>KYNZRINY</title>
<ellipse fill="none" stroke="black" cx="1724" cy="-19.5" rx="19.5" ry="19.5"/>
<text text-anchor="middle" x="1724" y="-15.8" font-family="Times,serif" font-size="14.00">14</text>
</g>
<!-- TVCYHWAI&#45;&gt;KYNZRINY -->
<g id="edge49" class="edge">
<title>TVCYHWAI&#45;&gt;KYNZRINY</title>
<path fill="none" stroke="black" d="M1792.83,-80.51C1780.22,-69.52 1760.97,-52.73 1746.03,-39.71"/>
<polygon fill="black" stroke="black" points="1748.08,-36.85 1738.24,-32.92 1743.48,-42.13 1748.08,-36.85"/>
</g>
<!-- SCRNWLIS -->
<g id="node51" class="node">
<title>SCRNWLIS</title>
<ellipse fill="none" stroke="black" cx="1779" cy="-19.5" rx="18" ry="18"/>
<text text-anchor="middle" x="1779" y="-15.8" font-family="Times,serif" font-size="14.00">2</text>
</g>
<!-- TVCYHWAI&#45;&gt;SCRNWLIS -->
<g id="edge50" class="edge">
<title>TVCYHWAI&#45;&gt;SCRNWLIS</title>
<path fill="none" stroke="black" d="M1799.87,-75.77C1796.56,-67 1792.39,-55.96 1788.65,-46.05"/>
<polygon fill="black" stroke="black" points="1791.91,-44.78 1785.1,-36.66 1785.36,-47.25 1791.91,-44.78"/>
</g>
<!-- VEWXFZMY -->
<g id="node52" class="node">
<title>VEWXFZMY</title>
<ellipse fill="none" stroke="black" cx="1834" cy="-19.5" rx="19.5" ry="19.5"/>
<text text-anchor="middle" x="1834" y="-15.8" font-family="Times,serif" font-size="14.00">12</text>
</g>
<!-- TVCYHWAI&#45;&gt;VEWXFZMY -->
<g id="edge51" class="edge">
<title>TVCYHWAI&#45;&gt;VEWXFZMY</title>
<path fill="none" stroke="black" d="M1812.35,-75.77C1815.63,-67.39 1819.72,-56.95 1823.46,-47.41"/>
<polygon fill="black" stroke="black" points="1826.79,-48.5 1827.18,-37.91 1820.28,-45.94 1826.79,-48.5"/>
</g>
<!-- QLXMZDWP -->
<g id="node54" class="node">
<title>QLXMZDWP</title>
<ellipse fill="none" stroke="black" cx="1891" cy="-19.5" rx="19.5" ry="19.5"/>
<text text-anchor="middle" x="1891" y="-15.8" font-family="Times,serif" font-size="14.00">10</text>
</g>
<!-- HSZUPYRN&#45;&gt;QLXMZDWP -->
<g id="edge53" class="edge">
<title>HSZUPYRN&#45;&gt;QLXMZDWP</title>
<path fill="none" stroke="black" d="M1935.4,-78.21C1927.88,-68.45 1917.62,-55.11 1908.86,-43.72"/>
<polygon fill="black" stroke="black" points="1911.39,-41.27 1902.52,-35.48 1905.84,-45.54 1911.39,-41.27"/>
</g>
<!-- OABLPFVF -->
<g id="node55" class="node">
<title>OABLPFVF</title>
<ellipse fill="none" stroke="black" cx="1946" cy="-19.5" rx="18" ry="18"/>
<text text-anchor="middle" x="1946" y="-15.8" font-family="Times,serif" font-size="14.00">3</text>
</g>
<!-- HSZUPYRN&#45;&gt;OABLPFVF -->
<g id="edge54" class="edge">
<title>HSZUPYRN&#45;&gt;OABLPFVF</title>
<path fill="none" stroke="black" d="M1946,-74.69C1946,-66.61 1946,-56.8 1946,-47.76"/>
<polygon fill="black" stroke="black" points="1949.5,-47.65 1946,-37.65 1942.5,-47.65 1949.5,-47.65"/>
</g>
<!-- XTUVVMGH -->
<g id="node56" class="node">
<title>XTUVVMGH</title>
<ellipse fill="none" stroke="black" cx="2001" cy="-19.5" rx="19.5" ry="19.5"/>
<text text-anchor="middle" x="2001" y="-15.8" font-family="Times,serif" font-size="14.00">14</text>
</g>
<!-- HSZUPYRN&#45;&gt;XTUVVMGH -->
<g id="edge55" class="edge">
<title>HSZUPYRN&#45;&gt;XTUVVMGH</title>
<path fill="none" stroke="black" d="M1956.6,-78.21C1964.12,-68.45 1974.38,-55.11 1983.14,-43.72"/>
<polygon fill="black" stroke="black" points="1986.16,-45.54 1989.48,-35.48 1980.61,-41.27 1986.16,-45.54"/>
</g>
<!-- PMWXREYJ -->
<g id="node58" class="node">
<title>PMWXREYJ</title>
<ellipse fill="none" stroke="black" cx="2058" cy="-19.5" rx="19.5" ry="19.5"/>
<text text-anchor="middle" x="2058" y="-15.8" font-family="Times,serif" font-size="14.00">12</text>
</g>
<!-- UBDFHTDU&#45;&gt;PMWXREYJ -->
<g id="edge57" class="edge">
<title>UBDFHTDU&#45;&gt;PMWXREYJ</title>
<path fill="none" stroke="black" d="M2104.01,-78.21C2096.1,-68.28 2085.24,-54.67 2076.06,-43.16"/>
<polygon fill="black" stroke="black" points="2078.71,-40.86 2069.74,-35.23 2073.24,-45.23 2078.71,-40.86"/>
</g>
<!-- MBHUFFFF -->
<g id="node59" class="node">
<title>MBHUFFFF</title>
<ellipse fill="none" stroke="black" cx="2115" cy="-19.5" rx="19.5" ry="19.5"/>
<text text-anchor="middle" x="2115" y="-15.8" font-family="Times,serif" font-size="14.00">15</text>
</g>
<!-- UBDFHTDU&#45;&gt;MBHUFFFF -->
<g id="edge58" class="edge">
<title>UBDFHTDU&#45;&gt;MBHUFFFF</title>
<path fill="none" stroke="black" d="M2115,-74.69C2115,-67.05 2115,-57.86 2115,-49.24"/>
<polygon fill="black" stroke="black" points="2118.5,-49.15 2115,-39.15 2111.5,-49.15 2118.5,-49.15"/>
</g>
<!-- BZWXRHJM -->
<g id="node60" class="node">
<title>BZWXRHJM</title>
<ellipse fill="none" stroke="black" cx="2170" cy="-19.5" rx="18" ry="18"/>
<text text-anchor="middle" x="2170" y="-15.8" font-family="Times,serif" font-size="14.00">2</text>
</g>
<!-- UBDFHTDU&#45;&gt;BZWXRHJM -->
<g id="edge59" class="edge">
<title>UBDFHTDU&#45;&gt;BZWXRHJM</title>
<path fill="none" stroke="black" d="M2125.6,-78.21C2133.44,-68.02 2144.27,-53.95 2153.27,-42.25"/>
<polygon fill="black" stroke="black" points="2156.1,-44.3 2159.43,-34.24 2150.56,-40.03 2156.1,-44.3"/>
</g>
<!-- SDUSUFPX -->
<g id="node61" class="node">
<title>SDUSUFPX</title>
<ellipse fill="none" stroke="black" cx="2224" cy="-19.5" rx="18" ry="18"/>
<text text-anchor="middle" x="2224" y="-15.8" font-family="Times,serif" font-size="14.00">3</text>
</g>
<!-- UBDFHTDU&#45;&gt;SDUSUFPX -->
<g id="edge60" class="edge">
<title>UBDFHTDU&#45;&gt;SDUSUFPX</title>
<path fill="none" stroke="black" d="M2129.89,-82.54C2146.38,-72.03 2173.72,-54.49 2197,-39 2198.27,-38.15 2199.57,-37.28 2200.89,-36.39"/>
<polygon fill="black" stroke="black" points="2203.17,-39.07 2209.48,-30.55 2199.24,-33.28 2203.17,-39.07"/>
</g>
<!-- NXOMDXCR -->
<g id="node63" class="node">
<title>NXOMDXCR</title>
<ellipse fill="none" stroke="black" cx="2278" cy="-19.5" rx="18" ry="18"/>
<text text-anchor="middle" x="2278" y="-15.8" font-family="Times,serif" font-size="14.00">5</text>
</g>
<!-- QCHEUVHR&#45;&gt;NXOMDXCR -->
<g id="edge62" class="edge">
<title>QCHEUVHR&#45;&gt;NXOMDXCR</title>
<path fill="none" stroke="black" d="M2321.59,-78.21C2313.89,-68.02 2303.26,-53.95 2294.43,-42.25"/>
<polygon fill="black" stroke="black" points="2297.2,-40.11 2288.38,-34.24 2291.61,-44.33 2297.2,-40.11"/>
</g>
<!-- JTQLPWNP -->
<g id="node64" class="node">
<title>JTQLPWNP</title>
<ellipse fill="none" stroke="black" cx="2332" cy="-19.5" rx="18" ry="18"/>
<text text-anchor="middle" x="2332" y="-15.8" font-family="Times,serif" font-size="14.00">1</text>
</g>
<!-- QCHEUVHR&#45;&gt;JTQLPWNP -->
<g id="edge63" class="edge">
<title>QCHEUVHR&#45;&gt;JTQLPWNP</title>
<path fill="none" stroke="black" d="M2332,-74.69C2332,-66.61 2332,-56.8 2332,-47.76"/>
<polygon fill="black" stroke="black" points="2335.5,-47.65 2332,-37.65 2328.5,-47.65 2335.5,-47.65"/>
</g>
<!-- BFIIBIHF -->
<g id="node65" class="node">
<title>BFIIBIHF</title>
<ellipse fill="none" stroke="black" cx="2387" cy="-19.5" rx="19.5" ry="19.5"/>
<text text-anchor="middle" x="2387" y="-15.8" font-family="Times,serif" font-size="14.00">11</text>
</g>
<!-- QCHEUVHR&#45;&gt;BFIIBIHF -->
<g id="edge64" class="edge">
<title>QCHEUVHR&#45;&gt;BFIIBIHF</title>
<path fill="none" stroke="black" d="M2342.6,-78.21C2350.12,-68.45 2360.38,-55.11 2369.14,-43.72"/>
<polygon fill="black" stroke="black" points="2372.16,-45.54 2375.48,-35.48 2366.61,-41.27 2372.16,-45.54"/>
</g>
<!-- YNGPWBWV -->
<g id="node66" class="node">
<title>YNGPWBWV</title>
<ellipse fill="none" stroke="black" cx="2442" cy="-19.5" rx="18" ry="18"/>
<text text-anchor="middle" x="2442" y="-15.8" font-family="Times,serif" font-size="14.00">6</text>
</g>
<!-- QCHEUVHR&#45;&gt;YNGPWBWV -->
<g id="edge65" class="edge">
<title>QCHEUVHR&#45;&gt;YNGPWBWV</title>
<path fill="none" stroke="black" d="M2347.09,-82.57C2363.79,-72.08 2391.47,-54.56 2415,-39 2416.27,-38.15 2417.58,-37.28 2418.89,-36.4"/>
<polygon fill="black" stroke="black" points="2421.18,-39.08 2427.49,-30.57 2417.25,-33.29 2421.18,-39.08"/>
</g>
</g>
</svg>
