digraph D {
WRSNBQAU [shape=circle, label=""]
XJWBUMUU [shape=circle, label=""]
TCZBPMUQ [shape=circle, label=""]
PTMGSIEF [shape=circle, label=""]
IWYRKWHU [shape=circle, label="10"]
MPOURAYC [shape=circle, label="4"]
BRCLYJMC [shape=circle, label="9"]
KNSXDHXM [shape=circle, label=""]
SEJKLCZL [shape=circle, label="3"]
GXYWBSCQ [shape=circle, label="1"]
YUAYOVUP [shape=circle, label="0"]
MAQSZVGK [shape=circle, label="6"]
JRCPMIVF [shape=circle, label=""]
ZYQDHRYN [shape=circle, label=""]
PDUFMJRU [shape=circle, label="3"]
CSQLRXDT [shape=circle, label="13"]
EXEKKJRL [shape=circle, label="1"]
ZMHOZCJS [shape=circle, label="6"]
UVOLWLNC [shape=circle, label=""]
SNPXBQZO [shape=circle, label="0"]
YLKAWUGR [shape=circle, label="15"]
CFKLIEPW [shape=circle, label="4"]
JMGMLMKR [shape=circle, label="2"]
VBSDKWPH [shape=circle, label=""]
CUHILMJZ [shape=circle, label="12"]
IEYREDYY [shape=circle, label="11"]
FRCIEENP [shape=circle, label=""]
ABUPRWSN [shape=circle, label="5"]
VKITBVMJ [shape=circle, label="6"]
OJOLMEGG [shape=circle, label="2"]
TJRPSOAV [shape=circle, label=""]
GUOZNDQE [shape=circle, label=""]
XGJUQWBI [shape=circle, label=""]
DKVPEMHV [shape=circle, label="11"]
CHPWFBCZ [shape=circle, label="6"]
GMSREDET [shape=circle, label=""]
RKJDVTVF [shape=circle, label="0"]
KCCBFKWG [shape=circle, label="10"]
LJOLJTKE [shape=circle, label="4"]
ILLKTCVE [shape=circle, label="11"]
OKVFXBCQ [shape=circle, label=""]
GWOWIUVU [shape=circle, label="7"]
PEHPOFYF [shape=circle, label="3"]
HPALUFSP [shape=circle, label="2"]
QJTYAXEZ [shape=circle, label=""]
DOQVQTMH [shape=circle, label=""]
ZSCUUWNE [shape=circle, label="11"]
SDKQXGXF [shape=circle, label="9"]
KCPPNDQN [shape=circle, label="9"]
AQSSFCGS [shape=circle, label=""]
LCBAYPBN [shape=circle, label="1"]
ALKTRHZN [shape=circle, label="4"]
CVQCEEYW [shape=circle, label="3"]
NCNYDPZC [shape=circle, label=""]
CGMNOPYE [shape=circle, label=""]
JMJRSYZJ [shape=circle, label="4"]
EZYRXHVQ [shape=circle, label="12"]
FMGKHYZB [shape=circle, label="5"]
ORSBYWTA [shape=circle, label="1"]
PVMLCRXJ [shape=circle, label=""]
KLOYUNEV [shape=circle, label="4"]
TKLHZWLV [shape=circle, label="8"]
DSUGDBNW [shape=circle, label="3"]
VSTIMFBK [shape=circle, label="6"]
MALFASAX [shape=circle, label=""]
HVCJLFQV [shape=circle, label="13"]
JEZRVQBA [shape=circle, label="2"]
MEXCJLHX [shape=circle, label="3"]
FSPFSMWY [shape=circle, label="4"]
UHSBQQXD [shape=circle, label=""]
INWZROKU [shape=circle, label="8"]
QTZZLPTO [shape=circle, label="11"]
YZPSXHCY [shape=circle, label="15"]
HZLBHTUS [shape=circle, label="13"]
YBDLHSRM [shape=circle, label=""]
WNKMPMYV [shape=circle, label=""]
KHDSBSWS [shape=circle, label="7"]
QHCQDUXX [shape=circle, label="4"]
EWKYSEXH [shape=circle, label=""]
PCEFBYPE [shape=circle, label="12"]
IWSEZZDY [shape=circle, label="9"]
HVAWSJXL [shape=circle, label="9"]
LRUFDHVY [shape=circle, label="13"]

WRSNBQAU -> XJWBUMUU
XJWBUMUU -> TCZBPMUQ
TCZBPMUQ -> PTMGSIEF
PTMGSIEF -> IWYRKWHU
PTMGSIEF -> MPOURAYC
PTMGSIEF -> BRCLYJMC
TCZBPMUQ -> KNSXDHXM
KNSXDHXM -> SEJKLCZL
KNSXDHXM -> GXYWBSCQ
KNSXDHXM -> YUAYOVUP
KNSXDHXM -> MAQSZVGK
XJWBUMUU -> JRCPMIVF
JRCPMIVF -> ZYQDHRYN
ZYQDHRYN -> PDUFMJRU
ZYQDHRYN -> CSQLRXDT
ZYQDHRYN -> EXEKKJRL
ZYQDHRYN -> ZMHOZCJS
JRCPMIVF -> UVOLWLNC
UVOLWLNC -> SNPXBQZO
UVOLWLNC -> YLKAWUGR
UVOLWLNC -> CFKLIEPW
UVOLWLNC -> JMGMLMKR
JRCPMIVF -> VBSDKWPH
VBSDKWPH -> CUHILMJZ
VBSDKWPH -> IEYREDYY
JRCPMIVF -> FRCIEENP
FRCIEENP -> ABUPRWSN
FRCIEENP -> VKITBVMJ
FRCIEENP -> OJOLMEGG
WRSNBQAU -> TJRPSOAV
TJRPSOAV -> GUOZNDQE
GUOZNDQE -> XGJUQWBI
XGJUQWBI -> DKVPEMHV
XGJUQWBI -> CHPWFBCZ
GUOZNDQE -> GMSREDET
GMSREDET -> RKJDVTVF
GMSREDET -> KCCBFKWG
GMSREDET -> LJOLJTKE
GMSREDET -> ILLKTCVE
GUOZNDQE -> OKVFXBCQ
OKVFXBCQ -> GWOWIUVU
OKVFXBCQ -> PEHPOFYF
OKVFXBCQ -> HPALUFSP
TJRPSOAV -> QJTYAXEZ
QJTYAXEZ -> DOQVQTMH
DOQVQTMH -> ZSCUUWNE
DOQVQTMH -> SDKQXGXF
DOQVQTMH -> KCPPNDQN
QJTYAXEZ -> AQSSFCGS
AQSSFCGS -> LCBAYPBN
AQSSFCGS -> ALKTRHZN
AQSSFCGS -> CVQCEEYW
TJRPSOAV -> NCNYDPZC
NCNYDPZC -> CGMNOPYE
CGMNOPYE -> JMJRSYZJ
CGMNOPYE -> EZYRXHVQ
CGMNOPYE -> FMGKHYZB
CGMNOPYE -> ORSBYWTA
NCNYDPZC -> PVMLCRXJ
PVMLCRXJ -> KLOYUNEV
PVMLCRXJ -> TKLHZWLV
PVMLCRXJ -> DSUGDBNW
PVMLCRXJ -> VSTIMFBK
NCNYDPZC -> MALFASAX
MALFASAX -> HVCJLFQV
MALFASAX -> JEZRVQBA
MALFASAX -> MEXCJLHX
MALFASAX -> FSPFSMWY
NCNYDPZC -> UHSBQQXD
UHSBQQXD -> INWZROKU
UHSBQQXD -> QTZZLPTO
UHSBQQXD -> YZPSXHCY
UHSBQQXD -> HZLBHTUS
TJRPSOAV -> YBDLHSRM
YBDLHSRM -> WNKMPMYV
WNKMPMYV -> KHDSBSWS
WNKMPMYV -> QHCQDUXX
YBDLHSRM -> EWKYSEXH
EWKYSEXH -> PCEFBYPE
EWKYSEXH -> IWSEZZDY
EWKYSEXH -> HVAWSJXL
EWKYSEXH -> LRUFDHVY

}