<?xml version="1.0" encoding="UTF-8" standalone="no"?>
<!DOCTYPE svg PUBLIC "-//W3C//DTD SVG 1.1//EN"
 "http://www.w3.org/Graphics/SVG/1.1/DTD/svg11.dtd">
<!-- Generated by graphviz version 2.46.1 (20210213.1702)
 -->
<!-- Title: D Pages: 1 -->
<svg width="1851pt" height="335pt"
 viewBox="0.00 0.00 1851.00 335.00" xmlns="http://www.w3.org/2000/svg" xmlns:xlink="http://www.w3.org/1999/xlink">
<g id="graph0" class="graph" transform="scale(1 1) rotate(0) translate(4 331)">
<title>D</title>
<polygon fill="white" stroke="transparent" points="-4,4 -4,-331 1847,-331 1847,4 -4,4"/>
<!-- CQRTXKXP -->
<g id="node1" class="node">
<title>CQRTXKXP</title>
<ellipse fill="none" stroke="black" cx="868" cy="-309" rx="18" ry="18"/>
</g>
<!-- GGVWUIUZ -->
<g id="node2" class="node">
<title>GGVWUIUZ</title>
<ellipse fill="none" stroke="black" cx="619" cy="-237" rx="18" ry="18"/>
</g>
<!-- CQRTXKXP&#45;&gt;GGVWUIUZ -->
<g id="edge1" class="edge">
<title>CQRTXKXP&#45;&gt;GGVWUIUZ</title>
<path fill="none" stroke="black" d="M850.89,-303.19C808.33,-291.22 697.46,-260.05 645.99,-245.58"/>
<polygon fill="black" stroke="black" points="646.81,-242.18 636.23,-242.84 644.91,-248.92 646.81,-242.18"/>
</g>
<!-- UIONNLGA -->
<g id="node27" class="node">
<title>UIONNLGA</title>
<ellipse fill="none" stroke="black" cx="1254" cy="-237" rx="18" ry="18"/>
</g>
<!-- CQRTXKXP&#45;&gt;UIONNLGA -->
<g id="edge26" class="edge">
<title>CQRTXKXP&#45;&gt;UIONNLGA</title>
<path fill="none" stroke="black" d="M885.59,-304.81C946.88,-293.69 1151.37,-256.61 1226.24,-243.03"/>
<polygon fill="black" stroke="black" points="1227.09,-246.43 1236.31,-241.2 1225.84,-239.55 1227.09,-246.43"/>
</g>
<!-- UZVJXMIH -->
<g id="node3" class="node">
<title>UZVJXMIH</title>
<ellipse fill="none" stroke="black" cx="263" cy="-165" rx="18" ry="18"/>
</g>
<!-- GGVWUIUZ&#45;&gt;UZVJXMIH -->
<g id="edge2" class="edge">
<title>GGVWUIUZ&#45;&gt;UZVJXMIH</title>
<path fill="none" stroke="black" d="M601.35,-232.53C543.7,-221.19 360.66,-185.2 290.62,-171.43"/>
<polygon fill="black" stroke="black" points="291.25,-167.98 280.76,-169.49 289.9,-174.85 291.25,-167.98"/>
</g>
<!-- LAJVOCAP -->
<g id="node13" class="node">
<title>LAJVOCAP</title>
<ellipse fill="none" stroke="black" cx="619" cy="-165" rx="18" ry="18"/>
</g>
<!-- GGVWUIUZ&#45;&gt;LAJVOCAP -->
<g id="edge12" class="edge">
<title>GGVWUIUZ&#45;&gt;LAJVOCAP</title>
<path fill="none" stroke="black" d="M619,-218.69C619,-210.98 619,-201.71 619,-193.11"/>
<polygon fill="black" stroke="black" points="622.5,-193.1 619,-183.1 615.5,-193.1 622.5,-193.1"/>
</g>
<!-- FWZKUJUH -->
<g id="node4" class="node">
<title>FWZKUJUH</title>
<ellipse fill="none" stroke="black" cx="99" cy="-93" rx="18" ry="18"/>
</g>
<!-- UZVJXMIH&#45;&gt;FWZKUJUH -->
<g id="edge3" class="edge">
<title>UZVJXMIH&#45;&gt;FWZKUJUH</title>
<path fill="none" stroke="black" d="M246.68,-157.03C218.06,-144.82 158.67,-119.46 124.56,-104.91"/>
<polygon fill="black" stroke="black" points="125.83,-101.64 115.26,-100.94 123.08,-108.08 125.83,-101.64"/>
</g>
<!-- HUYWKPDD -->
<g id="node8" class="node">
<title>HUYWKPDD</title>
<ellipse fill="none" stroke="black" cx="263" cy="-93" rx="18" ry="18"/>
</g>
<!-- UZVJXMIH&#45;&gt;HUYWKPDD -->
<g id="edge7" class="edge">
<title>UZVJXMIH&#45;&gt;HUYWKPDD</title>
<path fill="none" stroke="black" d="M263,-146.69C263,-138.98 263,-129.71 263,-121.11"/>
<polygon fill="black" stroke="black" points="266.5,-121.1 263,-111.1 259.5,-121.1 266.5,-121.1"/>
</g>
<!-- PVSTLTNT -->
<g id="node5" class="node">
<title>PVSTLTNT</title>
<ellipse fill="none" stroke="black" cx="18" cy="-19.5" rx="18" ry="18"/>
<text text-anchor="middle" x="18" y="-15.8" font-family="Times,serif" font-size="14.00">9</text>
</g>
<!-- FWZKUJUH&#45;&gt;PVSTLTNT -->
<g id="edge4" class="edge">
<title>FWZKUJUH&#45;&gt;PVSTLTNT</title>
<path fill="none" stroke="black" d="M85.99,-80.51C73.31,-69.32 53.83,-52.12 38.96,-39"/>
<polygon fill="black" stroke="black" points="41.06,-36.19 31.25,-32.19 36.43,-41.44 41.06,-36.19"/>
</g>
<!-- JBFTURFN -->
<g id="node6" class="node">
<title>JBFTURFN</title>
<ellipse fill="none" stroke="black" cx="72" cy="-19.5" rx="18" ry="18"/>
<text text-anchor="middle" x="72" y="-15.8" font-family="Times,serif" font-size="14.00">7</text>
</g>
<!-- FWZKUJUH&#45;&gt;JBFTURFN -->
<g id="edge5" class="edge">
<title>FWZKUJUH&#45;&gt;JBFTURFN</title>
<path fill="none" stroke="black" d="M92.87,-75.77C89.56,-67 85.39,-55.96 81.65,-46.05"/>
<polygon fill="black" stroke="black" points="84.91,-44.78 78.1,-36.66 78.36,-47.25 84.91,-44.78"/>
</g>
<!-- JJQZBGKO -->
<g id="node7" class="node">
<title>JJQZBGKO</title>
<ellipse fill="none" stroke="black" cx="126" cy="-19.5" rx="18" ry="18"/>
<text text-anchor="middle" x="126" y="-15.8" font-family="Times,serif" font-size="14.00">5</text>
</g>
<!-- FWZKUJUH&#45;&gt;JJQZBGKO -->
<g id="edge6" class="edge">
<title>FWZKUJUH&#45;&gt;JJQZBGKO</title>
<path fill="none" stroke="black" d="M105.13,-75.77C108.44,-67 112.61,-55.96 116.35,-46.05"/>
<polygon fill="black" stroke="black" points="119.64,-47.25 119.9,-36.66 113.09,-44.78 119.64,-47.25"/>
</g>
<!-- KTVETQGY -->
<g id="node9" class="node">
<title>KTVETQGY</title>
<ellipse fill="none" stroke="black" cx="180" cy="-19.5" rx="18" ry="18"/>
<text text-anchor="middle" x="180" y="-15.8" font-family="Times,serif" font-size="14.00">9</text>
</g>
<!-- HUYWKPDD&#45;&gt;KTVETQGY -->
<g id="edge8" class="edge">
<title>HUYWKPDD&#45;&gt;KTVETQGY</title>
<path fill="none" stroke="black" d="M249.66,-80.51C236.6,-69.25 216.47,-51.92 201.21,-38.77"/>
<polygon fill="black" stroke="black" points="203.16,-35.83 193.3,-31.96 198.59,-41.14 203.16,-35.83"/>
</g>
<!-- YIWQQYQS -->
<g id="node10" class="node">
<title>YIWQQYQS</title>
<ellipse fill="none" stroke="black" cx="235" cy="-19.5" rx="19.5" ry="19.5"/>
<text text-anchor="middle" x="235" y="-15.8" font-family="Times,serif" font-size="14.00">15</text>
</g>
<!-- HUYWKPDD&#45;&gt;YIWQQYQS -->
<g id="edge9" class="edge">
<title>HUYWKPDD&#45;&gt;YIWQQYQS</title>
<path fill="none" stroke="black" d="M256.65,-75.77C253.37,-67.39 249.28,-56.95 245.54,-47.41"/>
<polygon fill="black" stroke="black" points="248.72,-45.94 241.82,-37.91 242.21,-48.5 248.72,-45.94"/>
</g>
<!-- VZTMQVLX -->
<g id="node11" class="node">
<title>VZTMQVLX</title>
<ellipse fill="none" stroke="black" cx="290" cy="-19.5" rx="18" ry="18"/>
<text text-anchor="middle" x="290" y="-15.8" font-family="Times,serif" font-size="14.00">8</text>
</g>
<!-- HUYWKPDD&#45;&gt;VZTMQVLX -->
<g id="edge10" class="edge">
<title>HUYWKPDD&#45;&gt;VZTMQVLX</title>
<path fill="none" stroke="black" d="M269.13,-75.77C272.44,-67 276.61,-55.96 280.35,-46.05"/>
<polygon fill="black" stroke="black" points="283.64,-47.25 283.9,-36.66 277.09,-44.78 283.64,-47.25"/>
</g>
<!-- DDPLSHUI -->
<g id="node12" class="node">
<title>DDPLSHUI</title>
<ellipse fill="none" stroke="black" cx="345" cy="-19.5" rx="19.5" ry="19.5"/>
<text text-anchor="middle" x="345" y="-15.8" font-family="Times,serif" font-size="14.00">12</text>
</g>
<!-- HUYWKPDD&#45;&gt;DDPLSHUI -->
<g id="edge11" class="edge">
<title>HUYWKPDD&#45;&gt;DDPLSHUI</title>
<path fill="none" stroke="black" d="M276.17,-80.51C288.78,-69.52 308.03,-52.73 322.97,-39.71"/>
<polygon fill="black" stroke="black" points="325.52,-42.13 330.76,-32.92 320.92,-36.85 325.52,-42.13"/>
</g>
<!-- KTEXCXGR -->
<g id="node14" class="node">
<title>KTEXCXGR</title>
<ellipse fill="none" stroke="black" cx="481" cy="-93" rx="18" ry="18"/>
</g>
<!-- LAJVOCAP&#45;&gt;KTEXCXGR -->
<g id="edge13" class="edge">
<title>LAJVOCAP&#45;&gt;KTEXCXGR</title>
<path fill="none" stroke="black" d="M603.17,-155.97C579.36,-143.89 534.11,-120.94 505.86,-106.61"/>
<polygon fill="black" stroke="black" points="507.15,-103.34 496.65,-101.93 503.98,-109.58 507.15,-103.34"/>
</g>
<!-- KHCWGHVI -->
<g id="node18" class="node">
<title>KHCWGHVI</title>
<ellipse fill="none" stroke="black" cx="619" cy="-93" rx="18" ry="18"/>
</g>
<!-- LAJVOCAP&#45;&gt;KHCWGHVI -->
<g id="edge17" class="edge">
<title>LAJVOCAP&#45;&gt;KHCWGHVI</title>
<path fill="none" stroke="black" d="M619,-146.69C619,-138.98 619,-129.71 619,-121.11"/>
<polygon fill="black" stroke="black" points="622.5,-121.1 619,-111.1 615.5,-121.1 622.5,-121.1"/>
</g>
<!-- TBMZBAPI -->
<g id="node22" class="node">
<title>TBMZBAPI</title>
<ellipse fill="none" stroke="black" cx="786" cy="-93" rx="18" ry="18"/>
</g>
<!-- LAJVOCAP&#45;&gt;TBMZBAPI -->
<g id="edge21" class="edge">
<title>LAJVOCAP&#45;&gt;TBMZBAPI</title>
<path fill="none" stroke="black" d="M635.32,-157.16C664.3,-145.01 724.99,-119.57 759.85,-104.96"/>
<polygon fill="black" stroke="black" points="761.5,-108.06 769.37,-100.97 758.79,-101.61 761.5,-108.06"/>
</g>
<!-- TETZSNDN -->
<g id="node15" class="node">
<title>TETZSNDN</title>
<ellipse fill="none" stroke="black" cx="400" cy="-19.5" rx="18" ry="18"/>
<text text-anchor="middle" x="400" y="-15.8" font-family="Times,serif" font-size="14.00">0</text>
</g>
<!-- KTEXCXGR&#45;&gt;TETZSNDN -->
<g id="edge14" class="edge">
<title>KTEXCXGR&#45;&gt;TETZSNDN</title>
<path fill="none" stroke="black" d="M467.99,-80.51C455.31,-69.32 435.83,-52.12 420.96,-39"/>
<polygon fill="black" stroke="black" points="423.06,-36.19 413.25,-32.19 418.43,-41.44 423.06,-36.19"/>
</g>
<!-- HIJPXMCB -->
<g id="node16" class="node">
<title>HIJPXMCB</title>
<ellipse fill="none" stroke="black" cx="454" cy="-19.5" rx="18" ry="18"/>
<text text-anchor="middle" x="454" y="-15.8" font-family="Times,serif" font-size="14.00">3</text>
</g>
<!-- KTEXCXGR&#45;&gt;HIJPXMCB -->
<g id="edge15" class="edge">
<title>KTEXCXGR&#45;&gt;HIJPXMCB</title>
<path fill="none" stroke="black" d="M474.87,-75.77C471.56,-67 467.39,-55.96 463.65,-46.05"/>
<polygon fill="black" stroke="black" points="466.91,-44.78 460.1,-36.66 460.36,-47.25 466.91,-44.78"/>
</g>
<!-- NGSBHVSJ -->
<g id="node17" class="node">
<title>NGSBHVSJ</title>
<ellipse fill="none" stroke="black" cx="509" cy="-19.5" rx="19.5" ry="19.5"/>
<text text-anchor="middle" x="509" y="-15.8" font-family="Times,serif" font-size="14.00">14</text>
</g>
<!-- KTEXCXGR&#45;&gt;NGSBHVSJ -->
<g id="edge16" class="edge">
<title>KTEXCXGR&#45;&gt;NGSBHVSJ</title>
<path fill="none" stroke="black" d="M487.35,-75.77C490.63,-67.39 494.72,-56.95 498.46,-47.41"/>
<polygon fill="black" stroke="black" points="501.79,-48.5 502.18,-37.91 495.28,-45.94 501.79,-48.5"/>
</g>
<!-- DDHYDPBO -->
<g id="node19" class="node">
<title>DDHYDPBO</title>
<ellipse fill="none" stroke="black" cx="564" cy="-19.5" rx="18" ry="18"/>
<text text-anchor="middle" x="564" y="-15.8" font-family="Times,serif" font-size="14.00">8</text>
</g>
<!-- KHCWGHVI&#45;&gt;DDHYDPBO -->
<g id="edge18" class="edge">
<title>KHCWGHVI&#45;&gt;DDHYDPBO</title>
<path fill="none" stroke="black" d="M608.4,-78.21C600.56,-68.02 589.73,-53.95 580.73,-42.25"/>
<polygon fill="black" stroke="black" points="583.44,-40.03 574.57,-34.24 577.9,-44.3 583.44,-40.03"/>
</g>
<!-- QABQNMXC -->
<g id="node20" class="node">
<title>QABQNMXC</title>
<ellipse fill="none" stroke="black" cx="619" cy="-19.5" rx="19.5" ry="19.5"/>
<text text-anchor="middle" x="619" y="-15.8" font-family="Times,serif" font-size="14.00">15</text>
</g>
<!-- KHCWGHVI&#45;&gt;QABQNMXC -->
<g id="edge19" class="edge">
<title>KHCWGHVI&#45;&gt;QABQNMXC</title>
<path fill="none" stroke="black" d="M619,-74.69C619,-67.05 619,-57.86 619,-49.24"/>
<polygon fill="black" stroke="black" points="622.5,-49.15 619,-39.15 615.5,-49.15 622.5,-49.15"/>
</g>
<!-- PUPIFAQB -->
<g id="node21" class="node">
<title>PUPIFAQB</title>
<ellipse fill="none" stroke="black" cx="676" cy="-19.5" rx="19.5" ry="19.5"/>
<text text-anchor="middle" x="676" y="-15.8" font-family="Times,serif" font-size="14.00">12</text>
</g>
<!-- KHCWGHVI&#45;&gt;PUPIFAQB -->
<g id="edge20" class="edge">
<title>KHCWGHVI&#45;&gt;PUPIFAQB</title>
<path fill="none" stroke="black" d="M629.99,-78.21C637.9,-68.28 648.76,-54.67 657.94,-43.16"/>
<polygon fill="black" stroke="black" points="660.76,-45.23 664.26,-35.23 655.29,-40.86 660.76,-45.23"/>
</g>
<!-- QDGYWHTQ -->
<g id="node23" class="node">
<title>QDGYWHTQ</title>
<ellipse fill="none" stroke="black" cx="731" cy="-19.5" rx="18" ry="18"/>
<text text-anchor="middle" x="731" y="-15.8" font-family="Times,serif" font-size="14.00">1</text>
</g>
<!-- TBMZBAPI&#45;&gt;QDGYWHTQ -->
<g id="edge22" class="edge">
<title>TBMZBAPI&#45;&gt;QDGYWHTQ</title>
<path fill="none" stroke="black" d="M775.4,-78.21C767.56,-68.02 756.73,-53.95 747.73,-42.25"/>
<polygon fill="black" stroke="black" points="750.44,-40.03 741.57,-34.24 744.9,-44.3 750.44,-40.03"/>
</g>
<!-- TBBJOGMV -->
<g id="node24" class="node">
<title>TBBJOGMV</title>
<ellipse fill="none" stroke="black" cx="786" cy="-19.5" rx="19.5" ry="19.5"/>
<text text-anchor="middle" x="786" y="-15.8" font-family="Times,serif" font-size="14.00">12</text>
</g>
<!-- TBMZBAPI&#45;&gt;TBBJOGMV -->
<g id="edge23" class="edge">
<title>TBMZBAPI&#45;&gt;TBBJOGMV</title>
<path fill="none" stroke="black" d="M786,-74.69C786,-67.05 786,-57.86 786,-49.24"/>
<polygon fill="black" stroke="black" points="789.5,-49.15 786,-39.15 782.5,-49.15 789.5,-49.15"/>
</g>
<!-- TOYLADIC -->
<g id="node25" class="node">
<title>TOYLADIC</title>
<ellipse fill="none" stroke="black" cx="843" cy="-19.5" rx="19.5" ry="19.5"/>
<text text-anchor="middle" x="843" y="-15.8" font-family="Times,serif" font-size="14.00">13</text>
</g>
<!-- TBMZBAPI&#45;&gt;TOYLADIC -->
<g id="edge24" class="edge">
<title>TBMZBAPI&#45;&gt;TOYLADIC</title>
<path fill="none" stroke="black" d="M796.99,-78.21C804.9,-68.28 815.76,-54.67 824.94,-43.16"/>
<polygon fill="black" stroke="black" points="827.76,-45.23 831.26,-35.23 822.29,-40.86 827.76,-45.23"/>
</g>
<!-- ILOIJTKC -->
<g id="node26" class="node">
<title>ILOIJTKC</title>
<ellipse fill="none" stroke="black" cx="900" cy="-19.5" rx="19.5" ry="19.5"/>
<text text-anchor="middle" x="900" y="-15.8" font-family="Times,serif" font-size="14.00">13</text>
</g>
<!-- TBMZBAPI&#45;&gt;ILOIJTKC -->
<g id="edge25" class="edge">
<title>TBMZBAPI&#45;&gt;ILOIJTKC</title>
<path fill="none" stroke="black" d="M801.08,-82.66C818.09,-72.11 846.58,-54.4 871,-39 872.29,-38.18 873.62,-37.34 874.96,-36.49"/>
<polygon fill="black" stroke="black" points="877.2,-39.22 883.76,-30.9 873.44,-33.31 877.2,-39.22"/>
</g>
<!-- MAHDESXL -->
<g id="node28" class="node">
<title>MAHDESXL</title>
<ellipse fill="none" stroke="black" cx="1145" cy="-165" rx="18" ry="18"/>
</g>
<!-- UIONNLGA&#45;&gt;MAHDESXL -->
<g id="edge27" class="edge">
<title>UIONNLGA&#45;&gt;MAHDESXL</title>
<path fill="none" stroke="black" d="M1239.3,-226.56C1221.1,-214.87 1189.87,-194.81 1168.37,-181"/>
<polygon fill="black" stroke="black" points="1170.12,-177.97 1159.82,-175.51 1166.34,-183.86 1170.12,-177.97"/>
</g>
<!-- MGSDWZDY -->
<g id="node37" class="node">
<title>MGSDWZDY</title>
<ellipse fill="none" stroke="black" cx="1364" cy="-165" rx="18" ry="18"/>
</g>
<!-- UIONNLGA&#45;&gt;MGSDWZDY -->
<g id="edge36" class="edge">
<title>UIONNLGA&#45;&gt;MGSDWZDY</title>
<path fill="none" stroke="black" d="M1268.84,-226.56C1287.21,-214.87 1318.72,-194.81 1340.42,-181"/>
<polygon fill="black" stroke="black" points="1342.49,-183.83 1349.05,-175.51 1338.73,-177.93 1342.49,-183.83"/>
</g>
<!-- HHDBIEEY -->
<g id="node46" class="node">
<title>HHDBIEEY</title>
<ellipse fill="none" stroke="black" cx="1634" cy="-165" rx="18" ry="18"/>
</g>
<!-- UIONNLGA&#45;&gt;HHDBIEEY -->
<g id="edge45" class="edge">
<title>UIONNLGA&#45;&gt;HHDBIEEY</title>
<path fill="none" stroke="black" d="M1271.57,-232.76C1332.08,-221.61 1532.26,-184.74 1606.22,-171.11"/>
<polygon fill="black" stroke="black" points="1606.98,-174.53 1616.18,-169.28 1605.71,-167.65 1606.98,-174.53"/>
</g>
<!-- WFBUNUJX -->
<g id="node29" class="node">
<title>WFBUNUJX</title>
<ellipse fill="none" stroke="black" cx="1009" cy="-93" rx="18" ry="18"/>
</g>
<!-- MAHDESXL&#45;&gt;WFBUNUJX -->
<g id="edge28" class="edge">
<title>MAHDESXL&#45;&gt;WFBUNUJX</title>
<path fill="none" stroke="black" d="M1129.4,-155.97C1106.06,-143.95 1061.81,-121.18 1033.95,-106.84"/>
<polygon fill="black" stroke="black" points="1035.33,-103.61 1024.84,-102.15 1032.13,-109.84 1035.33,-103.61"/>
</g>
<!-- THCGDGAS -->
<g id="node32" class="node">
<title>THCGDGAS</title>
<ellipse fill="none" stroke="black" cx="1145" cy="-93" rx="18" ry="18"/>
</g>
<!-- MAHDESXL&#45;&gt;THCGDGAS -->
<g id="edge31" class="edge">
<title>MAHDESXL&#45;&gt;THCGDGAS</title>
<path fill="none" stroke="black" d="M1145,-146.69C1145,-138.98 1145,-129.71 1145,-121.11"/>
<polygon fill="black" stroke="black" points="1148.5,-121.1 1145,-111.1 1141.5,-121.1 1148.5,-121.1"/>
</g>
<!-- QVCOATSD -->
<g id="node30" class="node">
<title>QVCOATSD</title>
<ellipse fill="none" stroke="black" cx="955" cy="-19.5" rx="18" ry="18"/>
<text text-anchor="middle" x="955" y="-15.8" font-family="Times,serif" font-size="14.00">2</text>
</g>
<!-- WFBUNUJX&#45;&gt;QVCOATSD -->
<g id="edge29" class="edge">
<title>WFBUNUJX&#45;&gt;QVCOATSD</title>
<path fill="none" stroke="black" d="M998.59,-78.21C990.89,-68.02 980.26,-53.95 971.43,-42.25"/>
<polygon fill="black" stroke="black" points="974.2,-40.11 965.38,-34.24 968.61,-44.33 974.2,-40.11"/>
</g>
<!-- PFUMZOLE -->
<g id="node31" class="node">
<title>PFUMZOLE</title>
<ellipse fill="none" stroke="black" cx="1009" cy="-19.5" rx="18" ry="18"/>
<text text-anchor="middle" x="1009" y="-15.8" font-family="Times,serif" font-size="14.00">7</text>
</g>
<!-- WFBUNUJX&#45;&gt;PFUMZOLE -->
<g id="edge30" class="edge">
<title>WFBUNUJX&#45;&gt;PFUMZOLE</title>
<path fill="none" stroke="black" d="M1009,-74.69C1009,-66.61 1009,-56.8 1009,-47.76"/>
<polygon fill="black" stroke="black" points="1012.5,-47.65 1009,-37.65 1005.5,-47.65 1012.5,-47.65"/>
</g>
<!-- KIMEXPED -->
<g id="node33" class="node">
<title>KIMEXPED</title>
<ellipse fill="none" stroke="black" cx="1063" cy="-19.5" rx="18" ry="18"/>
<text text-anchor="middle" x="1063" y="-15.8" font-family="Times,serif" font-size="14.00">5</text>
</g>
<!-- THCGDGAS&#45;&gt;KIMEXPED -->
<g id="edge32" class="edge">
<title>THCGDGAS&#45;&gt;KIMEXPED</title>
<path fill="none" stroke="black" d="M1131.83,-80.51C1118.91,-69.25 1099.03,-51.92 1083.95,-38.77"/>
<polygon fill="black" stroke="black" points="1085.98,-35.89 1076.14,-31.96 1081.38,-41.17 1085.98,-35.89"/>
</g>
<!-- YLBYCKBX -->
<g id="node34" class="node">
<title>YLBYCKBX</title>
<ellipse fill="none" stroke="black" cx="1118" cy="-19.5" rx="19.5" ry="19.5"/>
<text text-anchor="middle" x="1118" y="-15.8" font-family="Times,serif" font-size="14.00">14</text>
</g>
<!-- THCGDGAS&#45;&gt;YLBYCKBX -->
<g id="edge33" class="edge">
<title>THCGDGAS&#45;&gt;YLBYCKBX</title>
<path fill="none" stroke="black" d="M1138.87,-75.77C1135.71,-67.39 1131.77,-56.95 1128.16,-47.41"/>
<polygon fill="black" stroke="black" points="1131.38,-46.03 1124.57,-37.91 1124.83,-48.5 1131.38,-46.03"/>
</g>
<!-- ZVRECQLW -->
<g id="node35" class="node">
<title>ZVRECQLW</title>
<ellipse fill="none" stroke="black" cx="1173" cy="-19.5" rx="18" ry="18"/>
<text text-anchor="middle" x="1173" y="-15.8" font-family="Times,serif" font-size="14.00">5</text>
</g>
<!-- THCGDGAS&#45;&gt;ZVRECQLW -->
<g id="edge34" class="edge">
<title>THCGDGAS&#45;&gt;ZVRECQLW</title>
<path fill="none" stroke="black" d="M1151.35,-75.77C1154.79,-67 1159.11,-55.96 1162.99,-46.05"/>
<polygon fill="black" stroke="black" points="1166.28,-47.25 1166.67,-36.66 1159.77,-44.69 1166.28,-47.25"/>
</g>
<!-- AVFQBNRY -->
<g id="node36" class="node">
<title>AVFQBNRY</title>
<ellipse fill="none" stroke="black" cx="1228" cy="-19.5" rx="19.5" ry="19.5"/>
<text text-anchor="middle" x="1228" y="-15.8" font-family="Times,serif" font-size="14.00">10</text>
</g>
<!-- THCGDGAS&#45;&gt;AVFQBNRY -->
<g id="edge35" class="edge">
<title>THCGDGAS&#45;&gt;AVFQBNRY</title>
<path fill="none" stroke="black" d="M1158.34,-80.51C1171.09,-69.52 1190.58,-52.73 1205.7,-39.71"/>
<polygon fill="black" stroke="black" points="1208.29,-42.1 1213.58,-32.92 1203.72,-36.79 1208.29,-42.1"/>
</g>
<!-- XLTRLEZD -->
<g id="node38" class="node">
<title>XLTRLEZD</title>
<ellipse fill="none" stroke="black" cx="1364" cy="-93" rx="18" ry="18"/>
</g>
<!-- MGSDWZDY&#45;&gt;XLTRLEZD -->
<g id="edge37" class="edge">
<title>MGSDWZDY&#45;&gt;XLTRLEZD</title>
<path fill="none" stroke="black" d="M1364,-146.69C1364,-138.98 1364,-129.71 1364,-121.11"/>
<polygon fill="black" stroke="black" points="1367.5,-121.1 1364,-111.1 1360.5,-121.1 1367.5,-121.1"/>
</g>
<!-- UUTTSUUS -->
<g id="node43" class="node">
<title>UUTTSUUS</title>
<ellipse fill="none" stroke="black" cx="1499" cy="-93" rx="18" ry="18"/>
</g>
<!-- MGSDWZDY&#45;&gt;UUTTSUUS -->
<g id="edge42" class="edge">
<title>MGSDWZDY&#45;&gt;UUTTSUUS</title>
<path fill="none" stroke="black" d="M1379.75,-155.83C1403.02,-143.76 1446.8,-121.07 1474.34,-106.78"/>
<polygon fill="black" stroke="black" points="1476.08,-109.82 1483.35,-102.11 1472.86,-103.61 1476.08,-109.82"/>
</g>
<!-- OJNOJNBA -->
<g id="node39" class="node">
<title>OJNOJNBA</title>
<ellipse fill="none" stroke="black" cx="1283" cy="-19.5" rx="18" ry="18"/>
<text text-anchor="middle" x="1283" y="-15.8" font-family="Times,serif" font-size="14.00">4</text>
</g>
<!-- XLTRLEZD&#45;&gt;OJNOJNBA -->
<g id="edge38" class="edge">
<title>XLTRLEZD&#45;&gt;OJNOJNBA</title>
<path fill="none" stroke="black" d="M1350.99,-80.51C1338.31,-69.32 1318.83,-52.12 1303.96,-39"/>
<polygon fill="black" stroke="black" points="1306.06,-36.19 1296.25,-32.19 1301.43,-41.44 1306.06,-36.19"/>
</g>
<!-- URGNEBQY -->
<g id="node40" class="node">
<title>URGNEBQY</title>
<ellipse fill="none" stroke="black" cx="1337" cy="-19.5" rx="18" ry="18"/>
<text text-anchor="middle" x="1337" y="-15.8" font-family="Times,serif" font-size="14.00">6</text>
</g>
<!-- XLTRLEZD&#45;&gt;URGNEBQY -->
<g id="edge39" class="edge">
<title>XLTRLEZD&#45;&gt;URGNEBQY</title>
<path fill="none" stroke="black" d="M1357.87,-75.77C1354.56,-67 1350.39,-55.96 1346.65,-46.05"/>
<polygon fill="black" stroke="black" points="1349.91,-44.78 1343.1,-36.66 1343.36,-47.25 1349.91,-44.78"/>
</g>
<!-- CCJUYVWB -->
<g id="node41" class="node">
<title>CCJUYVWB</title>
<ellipse fill="none" stroke="black" cx="1391" cy="-19.5" rx="18" ry="18"/>
<text text-anchor="middle" x="1391" y="-15.8" font-family="Times,serif" font-size="14.00">8</text>
</g>
<!-- XLTRLEZD&#45;&gt;CCJUYVWB -->
<g id="edge40" class="edge">
<title>XLTRLEZD&#45;&gt;CCJUYVWB</title>
<path fill="none" stroke="black" d="M1370.13,-75.77C1373.44,-67 1377.61,-55.96 1381.35,-46.05"/>
<polygon fill="black" stroke="black" points="1384.64,-47.25 1384.9,-36.66 1378.09,-44.78 1384.64,-47.25"/>
</g>
<!-- VTQYVTNF -->
<g id="node42" class="node">
<title>VTQYVTNF</title>
<ellipse fill="none" stroke="black" cx="1445" cy="-19.5" rx="18" ry="18"/>
<text text-anchor="middle" x="1445" y="-15.8" font-family="Times,serif" font-size="14.00">4</text>
</g>
<!-- XLTRLEZD&#45;&gt;VTQYVTNF -->
<g id="edge41" class="edge">
<title>XLTRLEZD&#45;&gt;VTQYVTNF</title>
<path fill="none" stroke="black" d="M1377.01,-80.51C1389.69,-69.32 1409.17,-52.12 1424.04,-39"/>
<polygon fill="black" stroke="black" points="1426.57,-41.44 1431.75,-32.19 1421.94,-36.19 1426.57,-41.44"/>
</g>
<!-- UOMLWUMX -->
<g id="node44" class="node">
<title>UOMLWUMX</title>
<ellipse fill="none" stroke="black" cx="1499" cy="-19.5" rx="18" ry="18"/>
<text text-anchor="middle" x="1499" y="-15.8" font-family="Times,serif" font-size="14.00">4</text>
</g>
<!-- UUTTSUUS&#45;&gt;UOMLWUMX -->
<g id="edge43" class="edge">
<title>UUTTSUUS&#45;&gt;UOMLWUMX</title>
<path fill="none" stroke="black" d="M1499,-74.69C1499,-66.61 1499,-56.8 1499,-47.76"/>
<polygon fill="black" stroke="black" points="1502.5,-47.65 1499,-37.65 1495.5,-47.65 1502.5,-47.65"/>
</g>
<!-- YASUNFKA -->
<g id="node45" class="node">
<title>YASUNFKA</title>
<ellipse fill="none" stroke="black" cx="1553" cy="-19.5" rx="18" ry="18"/>
<text text-anchor="middle" x="1553" y="-15.8" font-family="Times,serif" font-size="14.00">3</text>
</g>
<!-- UUTTSUUS&#45;&gt;YASUNFKA -->
<g id="edge44" class="edge">
<title>UUTTSUUS&#45;&gt;YASUNFKA</title>
<path fill="none" stroke="black" d="M1509.41,-78.21C1517.11,-68.02 1527.74,-53.95 1536.57,-42.25"/>
<polygon fill="black" stroke="black" points="1539.39,-44.33 1542.62,-34.24 1533.8,-40.11 1539.39,-44.33"/>
</g>
<!-- MAGYAOXR -->
<g id="node47" class="node">
<title>MAGYAOXR</title>
<ellipse fill="none" stroke="black" cx="1634" cy="-93" rx="18" ry="18"/>
</g>
<!-- HHDBIEEY&#45;&gt;MAGYAOXR -->
<g id="edge46" class="edge">
<title>HHDBIEEY&#45;&gt;MAGYAOXR</title>
<path fill="none" stroke="black" d="M1634,-146.69C1634,-138.98 1634,-129.71 1634,-121.11"/>
<polygon fill="black" stroke="black" points="1637.5,-121.1 1634,-111.1 1630.5,-121.1 1637.5,-121.1"/>
</g>
<!-- MMBXPMDW -->
<g id="node50" class="node">
<title>MMBXPMDW</title>
<ellipse fill="none" stroke="black" cx="1743" cy="-93" rx="18" ry="18"/>
</g>
<!-- HHDBIEEY&#45;&gt;MMBXPMDW -->
<g id="edge49" class="edge">
<title>HHDBIEEY&#45;&gt;MMBXPMDW</title>
<path fill="none" stroke="black" d="M1648.7,-154.56C1666.9,-142.87 1698.13,-122.81 1719.63,-109"/>
<polygon fill="black" stroke="black" points="1721.66,-111.86 1728.18,-103.51 1717.88,-105.97 1721.66,-111.86"/>
</g>
<!-- BVPCPWMF -->
<g id="node48" class="node">
<title>BVPCPWMF</title>
<ellipse fill="none" stroke="black" cx="1607" cy="-19.5" rx="18" ry="18"/>
<text text-anchor="middle" x="1607" y="-15.8" font-family="Times,serif" font-size="14.00">6</text>
</g>
<!-- MAGYAOXR&#45;&gt;BVPCPWMF -->
<g id="edge47" class="edge">
<title>MAGYAOXR&#45;&gt;BVPCPWMF</title>
<path fill="none" stroke="black" d="M1627.87,-75.77C1624.56,-67 1620.39,-55.96 1616.65,-46.05"/>
<polygon fill="black" stroke="black" points="1619.91,-44.78 1613.1,-36.66 1613.36,-47.25 1619.91,-44.78"/>
</g>
<!-- CDISLWWA -->
<g id="node49" class="node">
<title>CDISLWWA</title>
<ellipse fill="none" stroke="black" cx="1661" cy="-19.5" rx="18" ry="18"/>
<text text-anchor="middle" x="1661" y="-15.8" font-family="Times,serif" font-size="14.00">4</text>
</g>
<!-- MAGYAOXR&#45;&gt;CDISLWWA -->
<g id="edge48" class="edge">
<title>MAGYAOXR&#45;&gt;CDISLWWA</title>
<path fill="none" stroke="black" d="M1640.13,-75.77C1643.44,-67 1647.61,-55.96 1651.35,-46.05"/>
<polygon fill="black" stroke="black" points="1654.64,-47.25 1654.9,-36.66 1648.09,-44.78 1654.64,-47.25"/>
</g>
<!-- HARXPROD -->
<g id="node51" class="node">
<title>HARXPROD</title>
<ellipse fill="none" stroke="black" cx="1716" cy="-19.5" rx="19.5" ry="19.5"/>
<text text-anchor="middle" x="1716" y="-15.8" font-family="Times,serif" font-size="14.00">15</text>
</g>
<!-- MMBXPMDW&#45;&gt;HARXPROD -->
<g id="edge50" class="edge">
<title>MMBXPMDW&#45;&gt;HARXPROD</title>
<path fill="none" stroke="black" d="M1736.87,-75.77C1733.71,-67.39 1729.77,-56.95 1726.16,-47.41"/>
<polygon fill="black" stroke="black" points="1729.38,-46.03 1722.57,-37.91 1722.83,-48.5 1729.38,-46.03"/>
</g>
<!-- TVPLUXSO -->
<g id="node52" class="node">
<title>TVPLUXSO</title>
<ellipse fill="none" stroke="black" cx="1771" cy="-19.5" rx="18" ry="18"/>
<text text-anchor="middle" x="1771" y="-15.8" font-family="Times,serif" font-size="14.00">2</text>
</g>
<!-- MMBXPMDW&#45;&gt;TVPLUXSO -->
<g id="edge51" class="edge">
<title>MMBXPMDW&#45;&gt;TVPLUXSO</title>
<path fill="none" stroke="black" d="M1749.35,-75.77C1752.79,-67 1757.11,-55.96 1760.99,-46.05"/>
<polygon fill="black" stroke="black" points="1764.28,-47.25 1764.67,-36.66 1757.77,-44.69 1764.28,-47.25"/>
</g>
<!-- TNWCSIJI -->
<g id="node53" class="node">
<title>TNWCSIJI</title>
<ellipse fill="none" stroke="black" cx="1825" cy="-19.5" rx="18" ry="18"/>
<text text-anchor="middle" x="1825" y="-15.8" font-family="Times,serif" font-size="14.00">2</text>
</g>
<!-- MMBXPMDW&#45;&gt;TNWCSIJI -->
<g id="edge52" class="edge">
<title>MMBXPMDW&#45;&gt;TNWCSIJI</title>
<path fill="none" stroke="black" d="M1756.17,-80.51C1769.09,-69.25 1788.97,-51.92 1804.05,-38.77"/>
<polygon fill="black" stroke="black" points="1806.62,-41.17 1811.86,-31.96 1802.02,-35.89 1806.62,-41.17"/>
</g>
</g>
</svg>
