<?xml version="1.0" encoding="UTF-8" standalone="no"?>
<!DOCTYPE svg PUBLIC "-//W3C//DTD SVG 1.1//EN"
 "http://www.w3.org/Graphics/SVG/1.1/DTD/svg11.dtd">
<!-- Generated by graphviz version 2.46.1 (20210213.1702)
 -->
<!-- Title: D Pages: 1 -->
<svg width="2228pt" height="335pt"
 viewBox="0.00 0.00 2228.50 335.00" xmlns="http://www.w3.org/2000/svg" xmlns:xlink="http://www.w3.org/1999/xlink">
<g id="graph0" class="graph" transform="scale(1 1) rotate(0) translate(4 331)">
<title>D</title>
<polygon fill="white" stroke="transparent" points="-4,4 -4,-331 2224.5,-331 2224.5,4 -4,4"/>
<!-- UYMVAKQP -->
<g id="node1" class="node">
<title>UYMVAKQP</title>
<ellipse fill="none" stroke="black" cx="1053" cy="-309" rx="18" ry="18"/>
</g>
<!-- NJYDLAGT -->
<g id="node2" class="node">
<title>NJYDLAGT</title>
<ellipse fill="none" stroke="black" cx="863" cy="-237" rx="18" ry="18"/>
</g>
<!-- UYMVAKQP&#45;&gt;NJYDLAGT -->
<g id="edge1" class="edge">
<title>UYMVAKQP&#45;&gt;NJYDLAGT</title>
<path fill="none" stroke="black" d="M1036.14,-301.78C1002.89,-289.53 928.65,-262.19 889.06,-247.6"/>
<polygon fill="black" stroke="black" points="890.15,-244.27 879.55,-244.09 887.73,-250.84 890.15,-244.27"/>
</g>
<!-- LZRTNKZU -->
<g id="node31" class="node">
<title>LZRTNKZU</title>
<ellipse fill="none" stroke="black" cx="1324" cy="-237" rx="18" ry="18"/>
</g>
<!-- UYMVAKQP&#45;&gt;LZRTNKZU -->
<g id="edge30" class="edge">
<title>UYMVAKQP&#45;&gt;LZRTNKZU</title>
<path fill="none" stroke="black" d="M1070.36,-303.51C1116.35,-291.63 1241.54,-259.3 1296.97,-244.98"/>
<polygon fill="black" stroke="black" points="1297.97,-248.33 1306.78,-242.44 1296.22,-241.56 1297.97,-248.33"/>
</g>
<!-- FEVYQKHG -->
<g id="node3" class="node">
<title>FEVYQKHG</title>
<ellipse fill="none" stroke="black" cx="400" cy="-165" rx="18" ry="18"/>
</g>
<!-- NJYDLAGT&#45;&gt;FEVYQKHG -->
<g id="edge2" class="edge">
<title>NJYDLAGT&#45;&gt;FEVYQKHG</title>
<path fill="none" stroke="black" d="M845.13,-233.3C774.45,-222.61 514.04,-183.24 427.88,-170.21"/>
<polygon fill="black" stroke="black" points="428.22,-166.72 417.81,-168.69 427.18,-173.65 428.22,-166.72"/>
</g>
<!-- RRBRRNAF -->
<g id="node18" class="node">
<title>RRBRRNAF</title>
<ellipse fill="none" stroke="black" cx="863" cy="-165" rx="18" ry="18"/>
</g>
<!-- NJYDLAGT&#45;&gt;RRBRRNAF -->
<g id="edge17" class="edge">
<title>NJYDLAGT&#45;&gt;RRBRRNAF</title>
<path fill="none" stroke="black" d="M863,-218.69C863,-210.98 863,-201.71 863,-193.11"/>
<polygon fill="black" stroke="black" points="866.5,-193.1 863,-183.1 859.5,-193.1 866.5,-193.1"/>
</g>
<!-- KTDNXBEP -->
<g id="node4" class="node">
<title>KTDNXBEP</title>
<ellipse fill="none" stroke="black" cx="128" cy="-93" rx="18" ry="18"/>
</g>
<!-- FEVYQKHG&#45;&gt;KTDNXBEP -->
<g id="edge3" class="edge">
<title>FEVYQKHG&#45;&gt;KTDNXBEP</title>
<path fill="none" stroke="black" d="M382.57,-159.51C336.42,-147.63 210.76,-115.3 155.13,-100.98"/>
<polygon fill="black" stroke="black" points="155.84,-97.55 145.28,-98.44 154.1,-104.33 155.84,-97.55"/>
</g>
<!-- EPOVSLWL -->
<g id="node9" class="node">
<title>EPOVSLWL</title>
<ellipse fill="none" stroke="black" cx="319" cy="-93" rx="18" ry="18"/>
</g>
<!-- FEVYQKHG&#45;&gt;EPOVSLWL -->
<g id="edge8" class="edge">
<title>FEVYQKHG&#45;&gt;EPOVSLWL</title>
<path fill="none" stroke="black" d="M386.62,-152.44C373.89,-141.43 354.52,-124.69 339.77,-111.95"/>
<polygon fill="black" stroke="black" points="341.98,-109.23 332.13,-105.34 337.4,-114.53 341.98,-109.23"/>
</g>
<!-- PHPUXLKF -->
<g id="node13" class="node">
<title>PHPUXLKF</title>
<ellipse fill="none" stroke="black" cx="454" cy="-93" rx="18" ry="18"/>
</g>
<!-- FEVYQKHG&#45;&gt;PHPUXLKF -->
<g id="edge12" class="edge">
<title>FEVYQKHG&#45;&gt;PHPUXLKF</title>
<path fill="none" stroke="black" d="M410.67,-150.17C418.21,-140.39 428.48,-127.08 437.13,-115.87"/>
<polygon fill="black" stroke="black" points="440.02,-117.85 443.35,-107.8 434.47,-113.58 440.02,-117.85"/>
</g>
<!-- NCMFFZGA -->
<g id="node5" class="node">
<title>NCMFFZGA</title>
<ellipse fill="none" stroke="black" cx="18" cy="-19.5" rx="18" ry="18"/>
<text text-anchor="middle" x="18" y="-15.8" font-family="Times,serif" font-size="14.00">9</text>
</g>
<!-- KTDNXBEP&#45;&gt;NCMFFZGA -->
<g id="edge4" class="edge">
<title>KTDNXBEP&#45;&gt;NCMFFZGA</title>
<path fill="none" stroke="black" d="M112.91,-82.57C96.21,-72.08 68.53,-54.56 45,-39 43.73,-38.15 42.42,-37.28 41.11,-36.4"/>
<polygon fill="black" stroke="black" points="42.75,-33.29 32.51,-30.57 38.82,-39.08 42.75,-33.29"/>
</g>
<!-- DDABKSUQ -->
<g id="node6" class="node">
<title>DDABKSUQ</title>
<ellipse fill="none" stroke="black" cx="73" cy="-19.5" rx="19.5" ry="19.5"/>
<text text-anchor="middle" x="73" y="-15.8" font-family="Times,serif" font-size="14.00">13</text>
</g>
<!-- KTDNXBEP&#45;&gt;DDABKSUQ -->
<g id="edge5" class="edge">
<title>KTDNXBEP&#45;&gt;DDABKSUQ</title>
<path fill="none" stroke="black" d="M117.4,-78.21C109.88,-68.45 99.62,-55.11 90.86,-43.72"/>
<polygon fill="black" stroke="black" points="93.39,-41.27 84.52,-35.48 87.84,-45.54 93.39,-41.27"/>
</g>
<!-- AQOABKZY -->
<g id="node7" class="node">
<title>AQOABKZY</title>
<ellipse fill="none" stroke="black" cx="128" cy="-19.5" rx="18" ry="18"/>
<text text-anchor="middle" x="128" y="-15.8" font-family="Times,serif" font-size="14.00">7</text>
</g>
<!-- KTDNXBEP&#45;&gt;AQOABKZY -->
<g id="edge6" class="edge">
<title>KTDNXBEP&#45;&gt;AQOABKZY</title>
<path fill="none" stroke="black" d="M128,-74.69C128,-66.61 128,-56.8 128,-47.76"/>
<polygon fill="black" stroke="black" points="131.5,-47.65 128,-37.65 124.5,-47.65 131.5,-47.65"/>
</g>
<!-- SSXMFJXY -->
<g id="node8" class="node">
<title>SSXMFJXY</title>
<ellipse fill="none" stroke="black" cx="183" cy="-19.5" rx="19.5" ry="19.5"/>
<text text-anchor="middle" x="183" y="-15.8" font-family="Times,serif" font-size="14.00">13</text>
</g>
<!-- KTDNXBEP&#45;&gt;SSXMFJXY -->
<g id="edge7" class="edge">
<title>KTDNXBEP&#45;&gt;SSXMFJXY</title>
<path fill="none" stroke="black" d="M138.6,-78.21C146.12,-68.45 156.38,-55.11 165.14,-43.72"/>
<polygon fill="black" stroke="black" points="168.16,-45.54 171.48,-35.48 162.61,-41.27 168.16,-45.54"/>
</g>
<!-- WLYUAVCR -->
<g id="node10" class="node">
<title>WLYUAVCR</title>
<ellipse fill="none" stroke="black" cx="238" cy="-19.5" rx="18" ry="18"/>
<text text-anchor="middle" x="238" y="-15.8" font-family="Times,serif" font-size="14.00">4</text>
</g>
<!-- EPOVSLWL&#45;&gt;WLYUAVCR -->
<g id="edge9" class="edge">
<title>EPOVSLWL&#45;&gt;WLYUAVCR</title>
<path fill="none" stroke="black" d="M305.99,-80.51C293.31,-69.32 273.83,-52.12 258.96,-39"/>
<polygon fill="black" stroke="black" points="261.06,-36.19 251.25,-32.19 256.43,-41.44 261.06,-36.19"/>
</g>
<!-- INXYVMRV -->
<g id="node11" class="node">
<title>INXYVMRV</title>
<ellipse fill="none" stroke="black" cx="292" cy="-19.5" rx="18" ry="18"/>
<text text-anchor="middle" x="292" y="-15.8" font-family="Times,serif" font-size="14.00">4</text>
</g>
<!-- EPOVSLWL&#45;&gt;INXYVMRV -->
<g id="edge10" class="edge">
<title>EPOVSLWL&#45;&gt;INXYVMRV</title>
<path fill="none" stroke="black" d="M312.87,-75.77C309.56,-67 305.39,-55.96 301.65,-46.05"/>
<polygon fill="black" stroke="black" points="304.91,-44.78 298.1,-36.66 298.36,-47.25 304.91,-44.78"/>
</g>
<!-- RWZKWZJJ -->
<g id="node12" class="node">
<title>RWZKWZJJ</title>
<ellipse fill="none" stroke="black" cx="346" cy="-19.5" rx="18" ry="18"/>
<text text-anchor="middle" x="346" y="-15.8" font-family="Times,serif" font-size="14.00">8</text>
</g>
<!-- EPOVSLWL&#45;&gt;RWZKWZJJ -->
<g id="edge11" class="edge">
<title>EPOVSLWL&#45;&gt;RWZKWZJJ</title>
<path fill="none" stroke="black" d="M325.13,-75.77C328.44,-67 332.61,-55.96 336.35,-46.05"/>
<polygon fill="black" stroke="black" points="339.64,-47.25 339.9,-36.66 333.09,-44.78 339.64,-47.25"/>
</g>
<!-- ODVQZIRV -->
<g id="node14" class="node">
<title>ODVQZIRV</title>
<ellipse fill="none" stroke="black" cx="400" cy="-19.5" rx="18" ry="18"/>
<text text-anchor="middle" x="400" y="-15.8" font-family="Times,serif" font-size="14.00">6</text>
</g>
<!-- PHPUXLKF&#45;&gt;ODVQZIRV -->
<g id="edge13" class="edge">
<title>PHPUXLKF&#45;&gt;ODVQZIRV</title>
<path fill="none" stroke="black" d="M443.59,-78.21C435.89,-68.02 425.26,-53.95 416.43,-42.25"/>
<polygon fill="black" stroke="black" points="419.2,-40.11 410.38,-34.24 413.61,-44.33 419.2,-40.11"/>
</g>
<!-- XVBSLTQU -->
<g id="node15" class="node">
<title>XVBSLTQU</title>
<ellipse fill="none" stroke="black" cx="454" cy="-19.5" rx="18" ry="18"/>
<text text-anchor="middle" x="454" y="-15.8" font-family="Times,serif" font-size="14.00">8</text>
</g>
<!-- PHPUXLKF&#45;&gt;XVBSLTQU -->
<g id="edge14" class="edge">
<title>PHPUXLKF&#45;&gt;XVBSLTQU</title>
<path fill="none" stroke="black" d="M454,-74.69C454,-66.61 454,-56.8 454,-47.76"/>
<polygon fill="black" stroke="black" points="457.5,-47.65 454,-37.65 450.5,-47.65 457.5,-47.65"/>
</g>
<!-- KOIPJRGB -->
<g id="node16" class="node">
<title>KOIPJRGB</title>
<ellipse fill="none" stroke="black" cx="509" cy="-19.5" rx="19.5" ry="19.5"/>
<text text-anchor="middle" x="509" y="-15.8" font-family="Times,serif" font-size="14.00">14</text>
</g>
<!-- PHPUXLKF&#45;&gt;KOIPJRGB -->
<g id="edge15" class="edge">
<title>PHPUXLKF&#45;&gt;KOIPJRGB</title>
<path fill="none" stroke="black" d="M464.6,-78.21C472.12,-68.45 482.38,-55.11 491.14,-43.72"/>
<polygon fill="black" stroke="black" points="494.16,-45.54 497.48,-35.48 488.61,-41.27 494.16,-45.54"/>
</g>
<!-- GMQQOTWH -->
<g id="node17" class="node">
<title>GMQQOTWH</title>
<ellipse fill="none" stroke="black" cx="564" cy="-19.5" rx="18" ry="18"/>
<text text-anchor="middle" x="564" y="-15.8" font-family="Times,serif" font-size="14.00">6</text>
</g>
<!-- PHPUXLKF&#45;&gt;GMQQOTWH -->
<g id="edge16" class="edge">
<title>PHPUXLKF&#45;&gt;GMQQOTWH</title>
<path fill="none" stroke="black" d="M469.09,-82.57C485.79,-72.08 513.47,-54.56 537,-39 538.27,-38.15 539.58,-37.28 540.89,-36.4"/>
<polygon fill="black" stroke="black" points="543.18,-39.08 549.49,-30.57 539.25,-33.29 543.18,-39.08"/>
</g>
<!-- SABAWQKO -->
<g id="node19" class="node">
<title>SABAWQKO</title>
<ellipse fill="none" stroke="black" cx="701" cy="-93" rx="18" ry="18"/>
</g>
<!-- RRBRRNAF&#45;&gt;SABAWQKO -->
<g id="edge18" class="edge">
<title>RRBRRNAF&#45;&gt;SABAWQKO</title>
<path fill="none" stroke="black" d="M846.58,-156.9C818.31,-144.69 760.3,-119.62 726.66,-105.09"/>
<polygon fill="black" stroke="black" points="728.04,-101.87 717.47,-101.11 725.26,-108.29 728.04,-101.87"/>
</g>
<!-- DQNCVBZT -->
<g id="node23" class="node">
<title>DQNCVBZT</title>
<ellipse fill="none" stroke="black" cx="863" cy="-93" rx="18" ry="18"/>
</g>
<!-- RRBRRNAF&#45;&gt;DQNCVBZT -->
<g id="edge22" class="edge">
<title>RRBRRNAF&#45;&gt;DQNCVBZT</title>
<path fill="none" stroke="black" d="M863,-146.69C863,-138.98 863,-129.71 863,-121.11"/>
<polygon fill="black" stroke="black" points="866.5,-121.1 863,-111.1 859.5,-121.1 866.5,-121.1"/>
</g>
<!-- VMDHKQYC -->
<g id="node28" class="node">
<title>VMDHKQYC</title>
<ellipse fill="none" stroke="black" cx="1000" cy="-93" rx="18" ry="18"/>
</g>
<!-- RRBRRNAF&#45;&gt;VMDHKQYC -->
<g id="edge27" class="edge">
<title>RRBRRNAF&#45;&gt;VMDHKQYC</title>
<path fill="none" stroke="black" d="M878.72,-155.97C902.23,-143.95 946.8,-121.18 974.87,-106.84"/>
<polygon fill="black" stroke="black" points="976.73,-109.82 984.05,-102.15 973.55,-103.58 976.73,-109.82"/>
</g>
<!-- SRHWSRME -->
<g id="node20" class="node">
<title>SRHWSRME</title>
<ellipse fill="none" stroke="black" cx="619" cy="-19.5" rx="19.5" ry="19.5"/>
<text text-anchor="middle" x="619" y="-15.8" font-family="Times,serif" font-size="14.00">13</text>
</g>
<!-- SABAWQKO&#45;&gt;SRHWSRME -->
<g id="edge19" class="edge">
<title>SABAWQKO&#45;&gt;SRHWSRME</title>
<path fill="none" stroke="black" d="M687.83,-80.51C675.22,-69.52 655.97,-52.73 641.03,-39.71"/>
<polygon fill="black" stroke="black" points="643.08,-36.85 633.24,-32.92 638.48,-42.13 643.08,-36.85"/>
</g>
<!-- NMVPVZCJ -->
<g id="node21" class="node">
<title>NMVPVZCJ</title>
<ellipse fill="none" stroke="black" cx="674" cy="-19.5" rx="18" ry="18"/>
<text text-anchor="middle" x="674" y="-15.8" font-family="Times,serif" font-size="14.00">7</text>
</g>
<!-- SABAWQKO&#45;&gt;NMVPVZCJ -->
<g id="edge20" class="edge">
<title>SABAWQKO&#45;&gt;NMVPVZCJ</title>
<path fill="none" stroke="black" d="M694.87,-75.77C691.56,-67 687.39,-55.96 683.65,-46.05"/>
<polygon fill="black" stroke="black" points="686.91,-44.78 680.1,-36.66 680.36,-47.25 686.91,-44.78"/>
</g>
<!-- UDUMWNRG -->
<g id="node22" class="node">
<title>UDUMWNRG</title>
<ellipse fill="none" stroke="black" cx="728" cy="-19.5" rx="18" ry="18"/>
<text text-anchor="middle" x="728" y="-15.8" font-family="Times,serif" font-size="14.00">1</text>
</g>
<!-- SABAWQKO&#45;&gt;UDUMWNRG -->
<g id="edge21" class="edge">
<title>SABAWQKO&#45;&gt;UDUMWNRG</title>
<path fill="none" stroke="black" d="M707.13,-75.77C710.44,-67 714.61,-55.96 718.35,-46.05"/>
<polygon fill="black" stroke="black" points="721.64,-47.25 721.9,-36.66 715.09,-44.78 721.64,-47.25"/>
</g>
<!-- AFMFSZJR -->
<g id="node24" class="node">
<title>AFMFSZJR</title>
<ellipse fill="none" stroke="black" cx="782" cy="-19.5" rx="18" ry="18"/>
<text text-anchor="middle" x="782" y="-15.8" font-family="Times,serif" font-size="14.00">6</text>
</g>
<!-- DQNCVBZT&#45;&gt;AFMFSZJR -->
<g id="edge23" class="edge">
<title>DQNCVBZT&#45;&gt;AFMFSZJR</title>
<path fill="none" stroke="black" d="M849.99,-80.51C837.31,-69.32 817.83,-52.12 802.96,-39"/>
<polygon fill="black" stroke="black" points="805.06,-36.19 795.25,-32.19 800.43,-41.44 805.06,-36.19"/>
</g>
<!-- TPECWMPJ -->
<g id="node25" class="node">
<title>TPECWMPJ</title>
<ellipse fill="none" stroke="black" cx="836" cy="-19.5" rx="18" ry="18"/>
<text text-anchor="middle" x="836" y="-15.8" font-family="Times,serif" font-size="14.00">2</text>
</g>
<!-- DQNCVBZT&#45;&gt;TPECWMPJ -->
<g id="edge24" class="edge">
<title>DQNCVBZT&#45;&gt;TPECWMPJ</title>
<path fill="none" stroke="black" d="M856.87,-75.77C853.56,-67 849.39,-55.96 845.65,-46.05"/>
<polygon fill="black" stroke="black" points="848.91,-44.78 842.1,-36.66 842.36,-47.25 848.91,-44.78"/>
</g>
<!-- IFHQVRZQ -->
<g id="node26" class="node">
<title>IFHQVRZQ</title>
<ellipse fill="none" stroke="black" cx="891" cy="-19.5" rx="19.5" ry="19.5"/>
<text text-anchor="middle" x="891" y="-15.8" font-family="Times,serif" font-size="14.00">10</text>
</g>
<!-- DQNCVBZT&#45;&gt;IFHQVRZQ -->
<g id="edge25" class="edge">
<title>DQNCVBZT&#45;&gt;IFHQVRZQ</title>
<path fill="none" stroke="black" d="M869.35,-75.77C872.63,-67.39 876.72,-56.95 880.46,-47.41"/>
<polygon fill="black" stroke="black" points="883.79,-48.5 884.18,-37.91 877.28,-45.94 883.79,-48.5"/>
</g>
<!-- IQKJPXJJ -->
<g id="node27" class="node">
<title>IQKJPXJJ</title>
<ellipse fill="none" stroke="black" cx="946" cy="-19.5" rx="18" ry="18"/>
<text text-anchor="middle" x="946" y="-15.8" font-family="Times,serif" font-size="14.00">7</text>
</g>
<!-- DQNCVBZT&#45;&gt;IQKJPXJJ -->
<g id="edge26" class="edge">
<title>DQNCVBZT&#45;&gt;IQKJPXJJ</title>
<path fill="none" stroke="black" d="M876.34,-80.51C889.4,-69.25 909.53,-51.92 924.79,-38.77"/>
<polygon fill="black" stroke="black" points="927.41,-41.14 932.7,-31.96 922.84,-35.83 927.41,-41.14"/>
</g>
<!-- QCCPUIBL -->
<g id="node29" class="node">
<title>QCCPUIBL</title>
<ellipse fill="none" stroke="black" cx="1000" cy="-19.5" rx="18" ry="18"/>
<text text-anchor="middle" x="1000" y="-15.8" font-family="Times,serif" font-size="14.00">7</text>
</g>
<!-- VMDHKQYC&#45;&gt;QCCPUIBL -->
<g id="edge28" class="edge">
<title>VMDHKQYC&#45;&gt;QCCPUIBL</title>
<path fill="none" stroke="black" d="M1000,-74.69C1000,-66.61 1000,-56.8 1000,-47.76"/>
<polygon fill="black" stroke="black" points="1003.5,-47.65 1000,-37.65 996.5,-47.65 1003.5,-47.65"/>
</g>
<!-- PJGLMJMM -->
<g id="node30" class="node">
<title>PJGLMJMM</title>
<ellipse fill="none" stroke="black" cx="1054" cy="-19.5" rx="18" ry="18"/>
<text text-anchor="middle" x="1054" y="-15.8" font-family="Times,serif" font-size="14.00">7</text>
</g>
<!-- VMDHKQYC&#45;&gt;PJGLMJMM -->
<g id="edge29" class="edge">
<title>VMDHKQYC&#45;&gt;PJGLMJMM</title>
<path fill="none" stroke="black" d="M1010.41,-78.21C1018.11,-68.02 1028.74,-53.95 1037.57,-42.25"/>
<polygon fill="black" stroke="black" points="1040.39,-44.33 1043.62,-34.24 1034.8,-40.11 1040.39,-44.33"/>
</g>
<!-- MWBTFAYB -->
<g id="node32" class="node">
<title>MWBTFAYB</title>
<ellipse fill="none" stroke="black" cx="1243" cy="-165" rx="18" ry="18"/>
</g>
<!-- LZRTNKZU&#45;&gt;MWBTFAYB -->
<g id="edge31" class="edge">
<title>LZRTNKZU&#45;&gt;MWBTFAYB</title>
<path fill="none" stroke="black" d="M1310.62,-224.44C1297.89,-213.43 1278.52,-196.69 1263.77,-183.95"/>
<polygon fill="black" stroke="black" points="1265.98,-181.23 1256.13,-177.34 1261.4,-186.53 1265.98,-181.23"/>
</g>
<!-- BCKJKPJS -->
<g id="node39" class="node">
<title>BCKJKPJS</title>
<ellipse fill="none" stroke="black" cx="1378" cy="-165" rx="18" ry="18"/>
</g>
<!-- LZRTNKZU&#45;&gt;BCKJKPJS -->
<g id="edge38" class="edge">
<title>LZRTNKZU&#45;&gt;BCKJKPJS</title>
<path fill="none" stroke="black" d="M1334.67,-222.17C1342.21,-212.39 1352.48,-199.08 1361.13,-187.87"/>
<polygon fill="black" stroke="black" points="1364.02,-189.85 1367.35,-179.8 1358.47,-185.58 1364.02,-189.85"/>
</g>
<!-- LWVZRWPD -->
<g id="node48" class="node">
<title>LWVZRWPD</title>
<ellipse fill="none" stroke="black" cx="1785" cy="-165" rx="18" ry="18"/>
</g>
<!-- LZRTNKZU&#45;&gt;LWVZRWPD -->
<g id="edge47" class="edge">
<title>LZRTNKZU&#45;&gt;LWVZRWPD</title>
<path fill="none" stroke="black" d="M1341.79,-233.3C1412.17,-222.61 1671.45,-183.24 1757.24,-170.21"/>
<polygon fill="black" stroke="black" points="1757.9,-173.65 1767.26,-168.69 1756.85,-166.73 1757.9,-173.65"/>
</g>
<!-- WASVFSPP -->
<g id="node33" class="node">
<title>WASVFSPP</title>
<ellipse fill="none" stroke="black" cx="1162" cy="-93" rx="18" ry="18"/>
</g>
<!-- MWBTFAYB&#45;&gt;WASVFSPP -->
<g id="edge32" class="edge">
<title>MWBTFAYB&#45;&gt;WASVFSPP</title>
<path fill="none" stroke="black" d="M1229.62,-152.44C1216.89,-141.43 1197.52,-124.69 1182.77,-111.95"/>
<polygon fill="black" stroke="black" points="1184.98,-109.23 1175.13,-105.34 1180.4,-114.53 1184.98,-109.23"/>
</g>
<!-- JPWPFIYR -->
<g id="node36" class="node">
<title>JPWPFIYR</title>
<ellipse fill="none" stroke="black" cx="1243" cy="-93" rx="18" ry="18"/>
</g>
<!-- MWBTFAYB&#45;&gt;JPWPFIYR -->
<g id="edge35" class="edge">
<title>MWBTFAYB&#45;&gt;JPWPFIYR</title>
<path fill="none" stroke="black" d="M1243,-146.69C1243,-138.98 1243,-129.71 1243,-121.11"/>
<polygon fill="black" stroke="black" points="1246.5,-121.1 1243,-111.1 1239.5,-121.1 1246.5,-121.1"/>
</g>
<!-- VQEUDWGY -->
<g id="node34" class="node">
<title>VQEUDWGY</title>
<ellipse fill="none" stroke="black" cx="1108" cy="-19.5" rx="18" ry="18"/>
<text text-anchor="middle" x="1108" y="-15.8" font-family="Times,serif" font-size="14.00">8</text>
</g>
<!-- WASVFSPP&#45;&gt;VQEUDWGY -->
<g id="edge33" class="edge">
<title>WASVFSPP&#45;&gt;VQEUDWGY</title>
<path fill="none" stroke="black" d="M1151.59,-78.21C1143.89,-68.02 1133.26,-53.95 1124.43,-42.25"/>
<polygon fill="black" stroke="black" points="1127.2,-40.11 1118.38,-34.24 1121.61,-44.33 1127.2,-40.11"/>
</g>
<!-- YFMVPRLL -->
<g id="node35" class="node">
<title>YFMVPRLL</title>
<ellipse fill="none" stroke="black" cx="1162" cy="-19.5" rx="18" ry="18"/>
<text text-anchor="middle" x="1162" y="-15.8" font-family="Times,serif" font-size="14.00">6</text>
</g>
<!-- WASVFSPP&#45;&gt;YFMVPRLL -->
<g id="edge34" class="edge">
<title>WASVFSPP&#45;&gt;YFMVPRLL</title>
<path fill="none" stroke="black" d="M1162,-74.69C1162,-66.61 1162,-56.8 1162,-47.76"/>
<polygon fill="black" stroke="black" points="1165.5,-47.65 1162,-37.65 1158.5,-47.65 1165.5,-47.65"/>
</g>
<!-- EUDHZUHY -->
<g id="node37" class="node">
<title>EUDHZUHY</title>
<ellipse fill="none" stroke="black" cx="1216" cy="-19.5" rx="18" ry="18"/>
<text text-anchor="middle" x="1216" y="-15.8" font-family="Times,serif" font-size="14.00">6</text>
</g>
<!-- JPWPFIYR&#45;&gt;EUDHZUHY -->
<g id="edge36" class="edge">
<title>JPWPFIYR&#45;&gt;EUDHZUHY</title>
<path fill="none" stroke="black" d="M1236.87,-75.77C1233.56,-67 1229.39,-55.96 1225.65,-46.05"/>
<polygon fill="black" stroke="black" points="1228.91,-44.78 1222.1,-36.66 1222.36,-47.25 1228.91,-44.78"/>
</g>
<!-- LPYPRPLZ -->
<g id="node38" class="node">
<title>LPYPRPLZ</title>
<ellipse fill="none" stroke="black" cx="1270" cy="-19.5" rx="18" ry="18"/>
<text text-anchor="middle" x="1270" y="-15.8" font-family="Times,serif" font-size="14.00">9</text>
</g>
<!-- JPWPFIYR&#45;&gt;LPYPRPLZ -->
<g id="edge37" class="edge">
<title>JPWPFIYR&#45;&gt;LPYPRPLZ</title>
<path fill="none" stroke="black" d="M1249.13,-75.77C1252.44,-67 1256.61,-55.96 1260.35,-46.05"/>
<polygon fill="black" stroke="black" points="1263.64,-47.25 1263.9,-36.66 1257.09,-44.78 1263.64,-47.25"/>
</g>
<!-- QVBNRCJN -->
<g id="node40" class="node">
<title>QVBNRCJN</title>
<ellipse fill="none" stroke="black" cx="1378" cy="-93" rx="18" ry="18"/>
</g>
<!-- BCKJKPJS&#45;&gt;QVBNRCJN -->
<g id="edge39" class="edge">
<title>BCKJKPJS&#45;&gt;QVBNRCJN</title>
<path fill="none" stroke="black" d="M1378,-146.69C1378,-138.98 1378,-129.71 1378,-121.11"/>
<polygon fill="black" stroke="black" points="1381.5,-121.1 1378,-111.1 1374.5,-121.1 1381.5,-121.1"/>
</g>
<!-- IZBWEQXO -->
<g id="node44" class="node">
<title>IZBWEQXO</title>
<ellipse fill="none" stroke="black" cx="1513" cy="-93" rx="18" ry="18"/>
</g>
<!-- BCKJKPJS&#45;&gt;IZBWEQXO -->
<g id="edge43" class="edge">
<title>BCKJKPJS&#45;&gt;IZBWEQXO</title>
<path fill="none" stroke="black" d="M1393.75,-155.83C1417.02,-143.76 1460.8,-121.07 1488.34,-106.78"/>
<polygon fill="black" stroke="black" points="1490.08,-109.82 1497.35,-102.11 1486.86,-103.61 1490.08,-109.82"/>
</g>
<!-- TVYEILIB -->
<g id="node41" class="node">
<title>TVYEILIB</title>
<ellipse fill="none" stroke="black" cx="1324" cy="-19.5" rx="18" ry="18"/>
<text text-anchor="middle" x="1324" y="-15.8" font-family="Times,serif" font-size="14.00">1</text>
</g>
<!-- QVBNRCJN&#45;&gt;TVYEILIB -->
<g id="edge40" class="edge">
<title>QVBNRCJN&#45;&gt;TVYEILIB</title>
<path fill="none" stroke="black" d="M1367.59,-78.21C1359.89,-68.02 1349.26,-53.95 1340.43,-42.25"/>
<polygon fill="black" stroke="black" points="1343.2,-40.11 1334.38,-34.24 1337.61,-44.33 1343.2,-40.11"/>
</g>
<!-- MSFRGSQJ -->
<g id="node42" class="node">
<title>MSFRGSQJ</title>
<ellipse fill="none" stroke="black" cx="1378" cy="-19.5" rx="18" ry="18"/>
<text text-anchor="middle" x="1378" y="-15.8" font-family="Times,serif" font-size="14.00">2</text>
</g>
<!-- QVBNRCJN&#45;&gt;MSFRGSQJ -->
<g id="edge41" class="edge">
<title>QVBNRCJN&#45;&gt;MSFRGSQJ</title>
<path fill="none" stroke="black" d="M1378,-74.69C1378,-66.61 1378,-56.8 1378,-47.76"/>
<polygon fill="black" stroke="black" points="1381.5,-47.65 1378,-37.65 1374.5,-47.65 1381.5,-47.65"/>
</g>
<!-- VQFEJQEB -->
<g id="node43" class="node">
<title>VQFEJQEB</title>
<ellipse fill="none" stroke="black" cx="1432" cy="-19.5" rx="18" ry="18"/>
<text text-anchor="middle" x="1432" y="-15.8" font-family="Times,serif" font-size="14.00">6</text>
</g>
<!-- QVBNRCJN&#45;&gt;VQFEJQEB -->
<g id="edge42" class="edge">
<title>QVBNRCJN&#45;&gt;VQFEJQEB</title>
<path fill="none" stroke="black" d="M1388.41,-78.21C1396.11,-68.02 1406.74,-53.95 1415.57,-42.25"/>
<polygon fill="black" stroke="black" points="1418.39,-44.33 1421.62,-34.24 1412.8,-40.11 1418.39,-44.33"/>
</g>
<!-- KALIZFRD -->
<g id="node45" class="node">
<title>KALIZFRD</title>
<ellipse fill="none" stroke="black" cx="1486" cy="-19.5" rx="18" ry="18"/>
<text text-anchor="middle" x="1486" y="-15.8" font-family="Times,serif" font-size="14.00">4</text>
</g>
<!-- IZBWEQXO&#45;&gt;KALIZFRD -->
<g id="edge44" class="edge">
<title>IZBWEQXO&#45;&gt;KALIZFRD</title>
<path fill="none" stroke="black" d="M1506.87,-75.77C1503.56,-67 1499.39,-55.96 1495.65,-46.05"/>
<polygon fill="black" stroke="black" points="1498.91,-44.78 1492.1,-36.66 1492.36,-47.25 1498.91,-44.78"/>
</g>
<!-- EKOPRXKN -->
<g id="node46" class="node">
<title>EKOPRXKN</title>
<ellipse fill="none" stroke="black" cx="1540" cy="-19.5" rx="18" ry="18"/>
<text text-anchor="middle" x="1540" y="-15.8" font-family="Times,serif" font-size="14.00">2</text>
</g>
<!-- IZBWEQXO&#45;&gt;EKOPRXKN -->
<g id="edge45" class="edge">
<title>IZBWEQXO&#45;&gt;EKOPRXKN</title>
<path fill="none" stroke="black" d="M1519.13,-75.77C1522.44,-67 1526.61,-55.96 1530.35,-46.05"/>
<polygon fill="black" stroke="black" points="1533.64,-47.25 1533.9,-36.66 1527.09,-44.78 1533.64,-47.25"/>
</g>
<!-- STHSFPEG -->
<g id="node47" class="node">
<title>STHSFPEG</title>
<ellipse fill="none" stroke="black" cx="1594" cy="-19.5" rx="18" ry="18"/>
<text text-anchor="middle" x="1594" y="-15.8" font-family="Times,serif" font-size="14.00">8</text>
</g>
<!-- IZBWEQXO&#45;&gt;STHSFPEG -->
<g id="edge46" class="edge">
<title>IZBWEQXO&#45;&gt;STHSFPEG</title>
<path fill="none" stroke="black" d="M1526.01,-80.51C1538.69,-69.32 1558.17,-52.12 1573.04,-39"/>
<polygon fill="black" stroke="black" points="1575.57,-41.44 1580.75,-32.19 1570.94,-36.19 1575.57,-41.44"/>
</g>
<!-- VNMQRHIS -->
<g id="node49" class="node">
<title>VNMQRHIS</title>
<ellipse fill="none" stroke="black" cx="1703" cy="-93" rx="18" ry="18"/>
</g>
<!-- LWVZRWPD&#45;&gt;VNMQRHIS -->
<g id="edge48" class="edge">
<title>LWVZRWPD&#45;&gt;VNMQRHIS</title>
<path fill="none" stroke="black" d="M1771.46,-152.44C1758.56,-141.43 1738.96,-124.69 1724.03,-111.95"/>
<polygon fill="black" stroke="black" points="1726.17,-109.17 1716.29,-105.34 1721.62,-114.5 1726.17,-109.17"/>
</g>
<!-- LRJBABJZ -->
<g id="node52" class="node">
<title>LRJBABJZ</title>
<ellipse fill="none" stroke="black" cx="1785" cy="-93" rx="18" ry="18"/>
</g>
<!-- LWVZRWPD&#45;&gt;LRJBABJZ -->
<g id="edge51" class="edge">
<title>LWVZRWPD&#45;&gt;LRJBABJZ</title>
<path fill="none" stroke="black" d="M1785,-146.69C1785,-138.98 1785,-129.71 1785,-121.11"/>
<polygon fill="black" stroke="black" points="1788.5,-121.1 1785,-111.1 1781.5,-121.1 1788.5,-121.1"/>
</g>
<!-- XJNATHWU -->
<g id="node55" class="node">
<title>XJNATHWU</title>
<ellipse fill="none" stroke="black" cx="1895" cy="-93" rx="18" ry="18"/>
</g>
<!-- LWVZRWPD&#45;&gt;XJNATHWU -->
<g id="edge54" class="edge">
<title>LWVZRWPD&#45;&gt;XJNATHWU</title>
<path fill="none" stroke="black" d="M1799.84,-154.56C1818.21,-142.87 1849.72,-122.81 1871.42,-109"/>
<polygon fill="black" stroke="black" points="1873.49,-111.83 1880.05,-103.51 1869.73,-105.93 1873.49,-111.83"/>
</g>
<!-- RFGBXADV -->
<g id="node59" class="node">
<title>RFGBXADV</title>
<ellipse fill="none" stroke="black" cx="2087" cy="-93" rx="18" ry="18"/>
</g>
<!-- LWVZRWPD&#45;&gt;RFGBXADV -->
<g id="edge58" class="edge">
<title>LWVZRWPD&#45;&gt;RFGBXADV</title>
<path fill="none" stroke="black" d="M1802.54,-159.93C1852.9,-148.26 1998.18,-114.58 2059.34,-100.41"/>
<polygon fill="black" stroke="black" points="2060.46,-103.74 2069.41,-98.07 2058.88,-96.92 2060.46,-103.74"/>
</g>
<!-- TZKBCSGM -->
<g id="node50" class="node">
<title>TZKBCSGM</title>
<ellipse fill="none" stroke="black" cx="1648" cy="-19.5" rx="18" ry="18"/>
<text text-anchor="middle" x="1648" y="-15.8" font-family="Times,serif" font-size="14.00">6</text>
</g>
<!-- VNMQRHIS&#45;&gt;TZKBCSGM -->
<g id="edge49" class="edge">
<title>VNMQRHIS&#45;&gt;TZKBCSGM</title>
<path fill="none" stroke="black" d="M1692.4,-78.21C1684.56,-68.02 1673.73,-53.95 1664.73,-42.25"/>
<polygon fill="black" stroke="black" points="1667.44,-40.03 1658.57,-34.24 1661.9,-44.3 1667.44,-40.03"/>
</g>
<!-- JUZKJOKC -->
<g id="node51" class="node">
<title>JUZKJOKC</title>
<ellipse fill="none" stroke="black" cx="1703" cy="-19.5" rx="19.5" ry="19.5"/>
<text text-anchor="middle" x="1703" y="-15.8" font-family="Times,serif" font-size="14.00">13</text>
</g>
<!-- VNMQRHIS&#45;&gt;JUZKJOKC -->
<g id="edge50" class="edge">
<title>VNMQRHIS&#45;&gt;JUZKJOKC</title>
<path fill="none" stroke="black" d="M1703,-74.69C1703,-67.05 1703,-57.86 1703,-49.24"/>
<polygon fill="black" stroke="black" points="1706.5,-49.15 1703,-39.15 1699.5,-49.15 1706.5,-49.15"/>
</g>
<!-- JAKAGXKL -->
<g id="node53" class="node">
<title>JAKAGXKL</title>
<ellipse fill="none" stroke="black" cx="1758" cy="-19.5" rx="18" ry="18"/>
<text text-anchor="middle" x="1758" y="-15.8" font-family="Times,serif" font-size="14.00">6</text>
</g>
<!-- LRJBABJZ&#45;&gt;JAKAGXKL -->
<g id="edge52" class="edge">
<title>LRJBABJZ&#45;&gt;JAKAGXKL</title>
<path fill="none" stroke="black" d="M1778.87,-75.77C1775.56,-67 1771.39,-55.96 1767.65,-46.05"/>
<polygon fill="black" stroke="black" points="1770.91,-44.78 1764.1,-36.66 1764.36,-47.25 1770.91,-44.78"/>
</g>
<!-- CMQFLKGH -->
<g id="node54" class="node">
<title>CMQFLKGH</title>
<ellipse fill="none" stroke="black" cx="1813" cy="-19.5" rx="19.5" ry="19.5"/>
<text text-anchor="middle" x="1813" y="-15.8" font-family="Times,serif" font-size="14.00">14</text>
</g>
<!-- LRJBABJZ&#45;&gt;CMQFLKGH -->
<g id="edge53" class="edge">
<title>LRJBABJZ&#45;&gt;CMQFLKGH</title>
<path fill="none" stroke="black" d="M1791.35,-75.77C1794.63,-67.39 1798.72,-56.95 1802.46,-47.41"/>
<polygon fill="black" stroke="black" points="1805.79,-48.5 1806.18,-37.91 1799.28,-45.94 1805.79,-48.5"/>
</g>
<!-- EUGBXXUL -->
<g id="node56" class="node">
<title>EUGBXXUL</title>
<ellipse fill="none" stroke="black" cx="1868" cy="-19.5" rx="18" ry="18"/>
<text text-anchor="middle" x="1868" y="-15.8" font-family="Times,serif" font-size="14.00">3</text>
</g>
<!-- XJNATHWU&#45;&gt;EUGBXXUL -->
<g id="edge55" class="edge">
<title>XJNATHWU&#45;&gt;EUGBXXUL</title>
<path fill="none" stroke="black" d="M1888.87,-75.77C1885.56,-67 1881.39,-55.96 1877.65,-46.05"/>
<polygon fill="black" stroke="black" points="1880.91,-44.78 1874.1,-36.66 1874.36,-47.25 1880.91,-44.78"/>
</g>
<!-- NLXHWZZD -->
<g id="node57" class="node">
<title>NLXHWZZD</title>
<ellipse fill="none" stroke="black" cx="1922" cy="-19.5" rx="18" ry="18"/>
<text text-anchor="middle" x="1922" y="-15.8" font-family="Times,serif" font-size="14.00">7</text>
</g>
<!-- XJNATHWU&#45;&gt;NLXHWZZD -->
<g id="edge56" class="edge">
<title>XJNATHWU&#45;&gt;NLXHWZZD</title>
<path fill="none" stroke="black" d="M1901.13,-75.77C1904.44,-67 1908.61,-55.96 1912.35,-46.05"/>
<polygon fill="black" stroke="black" points="1915.64,-47.25 1915.9,-36.66 1909.09,-44.78 1915.64,-47.25"/>
</g>
<!-- FVEEWFDH -->
<g id="node58" class="node">
<title>FVEEWFDH</title>
<ellipse fill="none" stroke="black" cx="1977" cy="-19.5" rx="19.5" ry="19.5"/>
<text text-anchor="middle" x="1977" y="-15.8" font-family="Times,serif" font-size="14.00">10</text>
</g>
<!-- XJNATHWU&#45;&gt;FVEEWFDH -->
<g id="edge57" class="edge">
<title>XJNATHWU&#45;&gt;FVEEWFDH</title>
<path fill="none" stroke="black" d="M1908.17,-80.51C1920.78,-69.52 1940.03,-52.73 1954.97,-39.71"/>
<polygon fill="black" stroke="black" points="1957.52,-42.13 1962.76,-32.92 1952.92,-36.85 1957.52,-42.13"/>
</g>
<!-- AZLKUIQG -->
<g id="node60" class="node">
<title>AZLKUIQG</title>
<ellipse fill="none" stroke="black" cx="2032" cy="-19.5" rx="18" ry="18"/>
<text text-anchor="middle" x="2032" y="-15.8" font-family="Times,serif" font-size="14.00">4</text>
</g>
<!-- RFGBXADV&#45;&gt;AZLKUIQG -->
<g id="edge59" class="edge">
<title>RFGBXADV&#45;&gt;AZLKUIQG</title>
<path fill="none" stroke="black" d="M2076.4,-78.21C2068.56,-68.02 2057.73,-53.95 2048.73,-42.25"/>
<polygon fill="black" stroke="black" points="2051.44,-40.03 2042.57,-34.24 2045.9,-44.3 2051.44,-40.03"/>
</g>
<!-- YIODSAZT -->
<g id="node61" class="node">
<title>YIODSAZT</title>
<ellipse fill="none" stroke="black" cx="2087" cy="-19.5" rx="19.5" ry="19.5"/>
<text text-anchor="middle" x="2087" y="-15.8" font-family="Times,serif" font-size="14.00">14</text>
</g>
<!-- RFGBXADV&#45;&gt;YIODSAZT -->
<g id="edge60" class="edge">
<title>RFGBXADV&#45;&gt;YIODSAZT</title>
<path fill="none" stroke="black" d="M2087,-74.69C2087,-67.05 2087,-57.86 2087,-49.24"/>
<polygon fill="black" stroke="black" points="2090.5,-49.15 2087,-39.15 2083.5,-49.15 2090.5,-49.15"/>
</g>
<!-- RQNDVTGJ -->
<g id="node62" class="node">
<title>RQNDVTGJ</title>
<ellipse fill="none" stroke="black" cx="2144" cy="-19.5" rx="19.5" ry="19.5"/>
<text text-anchor="middle" x="2144" y="-15.8" font-family="Times,serif" font-size="14.00">11</text>
</g>
<!-- RFGBXADV&#45;&gt;RQNDVTGJ -->
<g id="edge61" class="edge">
<title>RFGBXADV&#45;&gt;RQNDVTGJ</title>
<path fill="none" stroke="black" d="M2097.99,-78.21C2105.9,-68.28 2116.76,-54.67 2125.94,-43.16"/>
<polygon fill="black" stroke="black" points="2128.76,-45.23 2132.26,-35.23 2123.29,-40.86 2128.76,-45.23"/>
</g>
<!-- OQDFNCCS -->
<g id="node63" class="node">
<title>OQDFNCCS</title>
<ellipse fill="none" stroke="black" cx="2201" cy="-19.5" rx="19.5" ry="19.5"/>
<text text-anchor="middle" x="2201" y="-15.8" font-family="Times,serif" font-size="14.00">13</text>
</g>
<!-- RFGBXADV&#45;&gt;OQDFNCCS -->
<g id="edge62" class="edge">
<title>RFGBXADV&#45;&gt;OQDFNCCS</title>
<path fill="none" stroke="black" d="M2102.08,-82.66C2119.09,-72.11 2147.58,-54.4 2172,-39 2173.29,-38.18 2174.62,-37.34 2175.96,-36.49"/>
<polygon fill="black" stroke="black" points="2178.2,-39.22 2184.76,-30.9 2174.44,-33.31 2178.2,-39.22"/>
</g>
</g>
</svg>
