digraph D {
YZHYYWVX [shape=circle, label=""]
AEILAVCJ [shape=circle, label=""]
FRBWUYOW [shape=circle, label=""]
YDRTYQXN [shape=circle, label=""]
EHMTFCLZ [shape=circle, label="8"]
PGNAFBXC [shape=circle, label="10"]
LJWQWUYU [shape=circle, label="14"]
KMGRULQQ [shape=circle, label="3"]
FZWOJKRV [shape=circle, label=""]
INFMPMQW [shape=circle, label="6"]
TRDZVOGL [shape=circle, label="1"]
XPLZKDRX [shape=circle, label="8"]
JVPIIDUC [shape=circle, label="3"]
WHLCEVDP [shape=circle, label=""]
QODLNKFT [shape=circle, label=""]
UQRLGNDV [shape=circle, label="1"]
FLMIGKAU [shape=circle, label="12"]
FXAZADFB [shape=circle, label="3"]
SDFTFCWI [shape=circle, label=""]
MCOYTKRR [shape=circle, label="13"]
IULGVATI [shape=circle, label="9"]
UWPQWDLL [shape=circle, label=""]
XRLKAGEA [shape=circle, label="5"]
QFFJHPXR [shape=circle, label="0"]
WXYEVUWG [shape=circle, label=""]
KVPRDVPH [shape=circle, label="1"]
FFEKBBHP [shape=circle, label="13"]
ISHZNFEP [shape=circle, label=""]
SZYALDMJ [shape=circle, label=""]
MRFXRTSQ [shape=circle, label="4"]
WZKCIUQO [shape=circle, label="4"]
WGPGPOML [shape=circle, label="2"]
RLYPYSNX [shape=circle, label="14"]
XRUKBULG [shape=circle, label=""]
OMSVMHKP [shape=circle, label="10"]
AZMCNWNB [shape=circle, label="2"]
EMQFAOGD [shape=circle, label="10"]
MVWADMWU [shape=circle, label="0"]
WCTHOWPE [shape=circle, label=""]
VMHCXCLM [shape=circle, label="2"]
GEITKNYY [shape=circle, label="3"]
XDPJSZQZ [shape=circle, label="4"]
CMNKYBJH [shape=circle, label="13"]
WATVOLUJ [shape=circle, label=""]
UJYKRMTY [shape=circle, label="4"]
HNNHJKXL [shape=circle, label="5"]
PRQKAEMC [shape=circle, label="1"]
IRJTHIDF [shape=circle, label="0"]
LFVAXGLM [shape=circle, label=""]
IMOUFGCY [shape=circle, label=""]
YRXZUVIQ [shape=circle, label=""]
YHSZGJEM [shape=circle, label="6"]
ETQJEIDJ [shape=circle, label="8"]
PXYYBMVN [shape=circle, label=""]
MNWLYZKL [shape=circle, label="15"]
MEGNNUAP [shape=circle, label="14"]
PGLNCDKO [shape=circle, label=""]
QCROOLHF [shape=circle, label="0"]
UZYUBMNH [shape=circle, label="11"]
JJTDTLHR [shape=circle, label=""]
XPRLKZUW [shape=circle, label=""]
OKRXZPPO [shape=circle, label="9"]
RTVUYMBK [shape=circle, label="2"]
LJNNDHAF [shape=circle, label="11"]
YRBMAXCF [shape=circle, label="9"]
WPFDPVCK [shape=circle, label=""]
SSHAPHIH [shape=circle, label="12"]
ZHIVYUSF [shape=circle, label="10"]
TLCZLBSD [shape=circle, label="2"]
QXGJTWAP [shape=circle, label=""]
BKKIVUUE [shape=circle, label="8"]
OBWXFNQC [shape=circle, label="15"]
GHRYTFJN [shape=circle, label=""]
JFIMVIOP [shape=circle, label=""]
AATGWVOX [shape=circle, label="1"]
SJIFJZMV [shape=circle, label="2"]
MFWNIYLW [shape=circle, label="9"]
GMBFTIYM [shape=circle, label=""]
QMUCNHSD [shape=circle, label="0"]
LGEXBTQA [shape=circle, label="3"]
LNDRCSFY [shape=circle, label="13"]
RQIXJYEX [shape=circle, label="4"]

YZHYYWVX -> AEILAVCJ
AEILAVCJ -> FRBWUYOW
FRBWUYOW -> YDRTYQXN
YDRTYQXN -> EHMTFCLZ
YDRTYQXN -> PGNAFBXC
YDRTYQXN -> LJWQWUYU
YDRTYQXN -> KMGRULQQ
FRBWUYOW -> FZWOJKRV
FZWOJKRV -> INFMPMQW
FZWOJKRV -> TRDZVOGL
FZWOJKRV -> XPLZKDRX
FZWOJKRV -> JVPIIDUC
AEILAVCJ -> WHLCEVDP
WHLCEVDP -> QODLNKFT
QODLNKFT -> UQRLGNDV
QODLNKFT -> FLMIGKAU
QODLNKFT -> FXAZADFB
WHLCEVDP -> SDFTFCWI
SDFTFCWI -> MCOYTKRR
SDFTFCWI -> IULGVATI
WHLCEVDP -> UWPQWDLL
UWPQWDLL -> XRLKAGEA
UWPQWDLL -> QFFJHPXR
WHLCEVDP -> WXYEVUWG
WXYEVUWG -> KVPRDVPH
WXYEVUWG -> FFEKBBHP
AEILAVCJ -> ISHZNFEP
ISHZNFEP -> SZYALDMJ
SZYALDMJ -> MRFXRTSQ
SZYALDMJ -> WZKCIUQO
SZYALDMJ -> WGPGPOML
SZYALDMJ -> RLYPYSNX
ISHZNFEP -> XRUKBULG
XRUKBULG -> OMSVMHKP
XRUKBULG -> AZMCNWNB
XRUKBULG -> EMQFAOGD
XRUKBULG -> MVWADMWU
ISHZNFEP -> WCTHOWPE
WCTHOWPE -> VMHCXCLM
WCTHOWPE -> GEITKNYY
WCTHOWPE -> XDPJSZQZ
WCTHOWPE -> CMNKYBJH
ISHZNFEP -> WATVOLUJ
WATVOLUJ -> UJYKRMTY
WATVOLUJ -> HNNHJKXL
WATVOLUJ -> PRQKAEMC
WATVOLUJ -> IRJTHIDF
YZHYYWVX -> LFVAXGLM
LFVAXGLM -> IMOUFGCY
IMOUFGCY -> YRXZUVIQ
YRXZUVIQ -> YHSZGJEM
YRXZUVIQ -> ETQJEIDJ
IMOUFGCY -> PXYYBMVN
PXYYBMVN -> MNWLYZKL
PXYYBMVN -> MEGNNUAP
IMOUFGCY -> PGLNCDKO
PGLNCDKO -> QCROOLHF
PGLNCDKO -> UZYUBMNH
LFVAXGLM -> JJTDTLHR
JJTDTLHR -> XPRLKZUW
XPRLKZUW -> OKRXZPPO
XPRLKZUW -> RTVUYMBK
XPRLKZUW -> LJNNDHAF
XPRLKZUW -> YRBMAXCF
JJTDTLHR -> WPFDPVCK
WPFDPVCK -> SSHAPHIH
WPFDPVCK -> ZHIVYUSF
WPFDPVCK -> TLCZLBSD
JJTDTLHR -> QXGJTWAP
QXGJTWAP -> BKKIVUUE
QXGJTWAP -> OBWXFNQC
LFVAXGLM -> GHRYTFJN
GHRYTFJN -> JFIMVIOP
JFIMVIOP -> AATGWVOX
JFIMVIOP -> SJIFJZMV
JFIMVIOP -> MFWNIYLW
GHRYTFJN -> GMBFTIYM
GMBFTIYM -> QMUCNHSD
GMBFTIYM -> LGEXBTQA
GMBFTIYM -> LNDRCSFY
GMBFTIYM -> RQIXJYEX

}