digraph D {
WEPIWKFV [shape=circle, label=""]
DSVTYHBK [shape=circle, label=""]
XELQNCHL [shape=circle, label=""]
VFJMPGUZ [shape=circle, label=""]
MQYZIJFB [shape=circle, label="1"]
IEWCEXND [shape=circle, label="4"]
OAAXQXDS [shape=circle, label=""]
MZDAJQOX [shape=circle, label="2"]
ROACQEXB [shape=circle, label="2"]
WJRCUYUG [shape=circle, label="0"]
UPTPOLGV [shape=circle, label=""]
SQFCFORN [shape=circle, label=""]
KCUGKQWT [shape=circle, label="6"]
VFRQHSTC [shape=circle, label="10"]
ATPEOVWP [shape=circle, label=""]
CTBGURHG [shape=circle, label="7"]
UFYEKCWE [shape=circle, label="0"]
AIMXAOHA [shape=circle, label=""]
XGBCBXXZ [shape=circle, label=""]
PUIXGKPS [shape=circle, label=""]
UMAWBYJM [shape=circle, label="2"]
EDIWROBO [shape=circle, label="1"]
MZXAFJLI [shape=circle, label="3"]
PELHSOJI [shape=circle, label="5"]
HBBCGYTF [shape=circle, label=""]
HRNFTAHE [shape=circle, label="6"]
DTHPKQCJ [shape=circle, label="13"]
TTDVOWSR [shape=circle, label="15"]
NNBMKUNP [shape=circle, label="14"]
PRNCSRRW [shape=circle, label=""]
VOEODYFN [shape=circle, label="13"]
RULZTRFZ [shape=circle, label="2"]
GNKPVDNG [shape=circle, label="5"]
ILCFMSVD [shape=circle, label=""]
FBMVIQHW [shape=circle, label="15"]
IAHMDVQO [shape=circle, label="7"]
XMAGWJCB [shape=circle, label=""]
RSJVLFPB [shape=circle, label=""]
FTVXTXZE [shape=circle, label="5"]
SVQOTGFR [shape=circle, label="6"]
FPYRPAEW [shape=circle, label="6"]
AJRPBMGF [shape=circle, label="2"]
WWAADKDZ [shape=circle, label=""]
EXWUEQTG [shape=circle, label="6"]
PHNLJFLA [shape=circle, label="10"]
NTDXRTOO [shape=circle, label="14"]
AFZFLQZI [shape=circle, label="14"]
ANLCANET [shape=circle, label=""]
HBUKFYVY [shape=circle, label="4"]
JLWXDYEN [shape=circle, label="7"]
GLVJQVSD [shape=circle, label=""]
VRNOKAAV [shape=circle, label="7"]
TLLTJKPT [shape=circle, label="7"]
YPSRJLQH [shape=circle, label="8"]

WEPIWKFV -> DSVTYHBK
DSVTYHBK -> XELQNCHL
XELQNCHL -> VFJMPGUZ
VFJMPGUZ -> MQYZIJFB
VFJMPGUZ -> IEWCEXND
XELQNCHL -> OAAXQXDS
OAAXQXDS -> MZDAJQOX
OAAXQXDS -> ROACQEXB
OAAXQXDS -> WJRCUYUG
DSVTYHBK -> UPTPOLGV
UPTPOLGV -> SQFCFORN
SQFCFORN -> KCUGKQWT
SQFCFORN -> VFRQHSTC
UPTPOLGV -> ATPEOVWP
ATPEOVWP -> CTBGURHG
ATPEOVWP -> UFYEKCWE
WEPIWKFV -> AIMXAOHA
AIMXAOHA -> XGBCBXXZ
XGBCBXXZ -> PUIXGKPS
PUIXGKPS -> UMAWBYJM
PUIXGKPS -> EDIWROBO
PUIXGKPS -> MZXAFJLI
PUIXGKPS -> PELHSOJI
XGBCBXXZ -> HBBCGYTF
HBBCGYTF -> HRNFTAHE
HBBCGYTF -> DTHPKQCJ
HBBCGYTF -> TTDVOWSR
HBBCGYTF -> NNBMKUNP
XGBCBXXZ -> PRNCSRRW
PRNCSRRW -> VOEODYFN
PRNCSRRW -> RULZTRFZ
PRNCSRRW -> GNKPVDNG
XGBCBXXZ -> ILCFMSVD
ILCFMSVD -> FBMVIQHW
ILCFMSVD -> IAHMDVQO
AIMXAOHA -> XMAGWJCB
XMAGWJCB -> RSJVLFPB
RSJVLFPB -> FTVXTXZE
RSJVLFPB -> SVQOTGFR
RSJVLFPB -> FPYRPAEW
RSJVLFPB -> AJRPBMGF
XMAGWJCB -> WWAADKDZ
WWAADKDZ -> EXWUEQTG
WWAADKDZ -> PHNLJFLA
WWAADKDZ -> NTDXRTOO
WWAADKDZ -> AFZFLQZI
XMAGWJCB -> ANLCANET
ANLCANET -> HBUKFYVY
ANLCANET -> JLWXDYEN
XMAGWJCB -> GLVJQVSD
GLVJQVSD -> VRNOKAAV
GLVJQVSD -> TLLTJKPT
GLVJQVSD -> YPSRJLQH

}