<?xml version="1.0" encoding="UTF-8" standalone="no"?>
<!DOCTYPE svg PUBLIC "-//W3C//DTD SVG 1.1//EN"
 "http://www.w3.org/Graphics/SVG/1.1/DTD/svg11.dtd">
<!-- Generated by graphviz version 2.46.1 (20210213.1702)
 -->
<!-- Title: D Pages: 1 -->
<svg width="3613pt" height="335pt"
 viewBox="0.00 0.00 3613.00 335.00" xmlns="http://www.w3.org/2000/svg" xmlns:xlink="http://www.w3.org/1999/xlink">
<g id="graph0" class="graph" transform="scale(1 1) rotate(0) translate(4 331)">
<title>D</title>
<polygon fill="white" stroke="transparent" points="-4,4 -4,-331 3609,-331 3609,4 -4,4"/>
<!-- ATVBNIDM -->
<g id="node1" class="node">
<title>ATVBNIDM</title>
<ellipse fill="none" stroke="black" cx="1307" cy="-309" rx="18" ry="18"/>
</g>
<!-- OIXGUROO -->
<g id="node2" class="node">
<title>OIXGUROO</title>
<ellipse fill="none" stroke="black" cx="869" cy="-237" rx="18" ry="18"/>
</g>
<!-- ATVBNIDM&#45;&gt;OIXGUROO -->
<g id="edge1" class="edge">
<title>ATVBNIDM&#45;&gt;OIXGUROO</title>
<path fill="none" stroke="black" d="M1289.29,-305.17C1221.67,-294.36 979.47,-255.65 896.85,-242.45"/>
<polygon fill="black" stroke="black" points="897.36,-238.98 886.93,-240.86 896.26,-245.9 897.36,-238.98"/>
</g>
<!-- ZQITZJJX -->
<g id="node42" class="node">
<title>ZQITZJJX</title>
<ellipse fill="none" stroke="black" cx="2240" cy="-237" rx="18" ry="18"/>
</g>
<!-- ATVBNIDM&#45;&gt;ZQITZJJX -->
<g id="edge41" class="edge">
<title>ATVBNIDM&#45;&gt;ZQITZJJX</title>
<path fill="none" stroke="black" d="M1325.22,-306.63C1440.75,-297.96 2071.12,-250.67 2212.05,-240.09"/>
<polygon fill="black" stroke="black" points="2212.34,-243.58 2222.05,-239.34 2211.81,-236.6 2212.34,-243.58"/>
</g>
<!-- WNNFYEWU -->
<g id="node3" class="node">
<title>WNNFYEWU</title>
<ellipse fill="none" stroke="black" cx="236" cy="-165" rx="18" ry="18"/>
</g>
<!-- OIXGUROO&#45;&gt;WNNFYEWU -->
<g id="edge2" class="edge">
<title>OIXGUROO&#45;&gt;WNNFYEWU</title>
<path fill="none" stroke="black" d="M851.08,-234.01C762.57,-224.23 372.12,-181.05 263.9,-169.08"/>
<polygon fill="black" stroke="black" points="264.09,-165.58 253.77,-167.96 263.32,-172.54 264.09,-165.58"/>
</g>
<!-- UVQIBMCN -->
<g id="node12" class="node">
<title>UVQIBMCN</title>
<ellipse fill="none" stroke="black" cx="702" cy="-165" rx="18" ry="18"/>
</g>
<!-- OIXGUROO&#45;&gt;UVQIBMCN -->
<g id="edge11" class="edge">
<title>OIXGUROO&#45;&gt;UVQIBMCN</title>
<path fill="none" stroke="black" d="M852.68,-229.16C823.7,-217.01 763.01,-191.57 728.15,-176.96"/>
<polygon fill="black" stroke="black" points="729.21,-173.61 718.63,-172.97 726.5,-180.06 729.21,-173.61"/>
</g>
<!-- IRLKJPJO -->
<g id="node29" class="node">
<title>IRLKJPJO</title>
<ellipse fill="none" stroke="black" cx="1172" cy="-165" rx="18" ry="18"/>
</g>
<!-- OIXGUROO&#45;&gt;IRLKJPJO -->
<g id="edge28" class="edge">
<title>OIXGUROO&#45;&gt;IRLKJPJO</title>
<path fill="none" stroke="black" d="M886.6,-231.93C937.12,-220.26 1082.89,-186.58 1144.25,-172.41"/>
<polygon fill="black" stroke="black" points="1145.4,-175.74 1154.35,-170.07 1143.82,-168.91 1145.4,-175.74"/>
</g>
<!-- OICRJMDV -->
<g id="node4" class="node">
<title>OICRJMDV</title>
<ellipse fill="none" stroke="black" cx="99" cy="-93" rx="18" ry="18"/>
</g>
<!-- WNNFYEWU&#45;&gt;OICRJMDV -->
<g id="edge3" class="edge">
<title>WNNFYEWU&#45;&gt;OICRJMDV</title>
<path fill="none" stroke="black" d="M220.28,-155.97C196.77,-143.95 152.2,-121.18 124.13,-106.84"/>
<polygon fill="black" stroke="black" points="125.45,-103.58 114.95,-102.15 122.27,-109.82 125.45,-103.58"/>
</g>
<!-- YGANOMSN -->
<g id="node8" class="node">
<title>YGANOMSN</title>
<ellipse fill="none" stroke="black" cx="236" cy="-93" rx="18" ry="18"/>
</g>
<!-- WNNFYEWU&#45;&gt;YGANOMSN -->
<g id="edge7" class="edge">
<title>WNNFYEWU&#45;&gt;YGANOMSN</title>
<path fill="none" stroke="black" d="M236,-146.69C236,-138.98 236,-129.71 236,-121.11"/>
<polygon fill="black" stroke="black" points="239.5,-121.1 236,-111.1 232.5,-121.1 239.5,-121.1"/>
</g>
<!-- ZJCWBJTT -->
<g id="node5" class="node">
<title>ZJCWBJTT</title>
<ellipse fill="none" stroke="black" cx="18" cy="-19.5" rx="18" ry="18"/>
<text text-anchor="middle" x="18" y="-15.8" font-family="Times,serif" font-size="14.00">2</text>
</g>
<!-- OICRJMDV&#45;&gt;ZJCWBJTT -->
<g id="edge4" class="edge">
<title>OICRJMDV&#45;&gt;ZJCWBJTT</title>
<path fill="none" stroke="black" d="M85.99,-80.51C73.31,-69.32 53.83,-52.12 38.96,-39"/>
<polygon fill="black" stroke="black" points="41.06,-36.19 31.25,-32.19 36.43,-41.44 41.06,-36.19"/>
</g>
<!-- JCVDBRGO -->
<g id="node6" class="node">
<title>JCVDBRGO</title>
<ellipse fill="none" stroke="black" cx="72" cy="-19.5" rx="18" ry="18"/>
<text text-anchor="middle" x="72" y="-15.8" font-family="Times,serif" font-size="14.00">4</text>
</g>
<!-- OICRJMDV&#45;&gt;JCVDBRGO -->
<g id="edge5" class="edge">
<title>OICRJMDV&#45;&gt;JCVDBRGO</title>
<path fill="none" stroke="black" d="M92.87,-75.77C89.56,-67 85.39,-55.96 81.65,-46.05"/>
<polygon fill="black" stroke="black" points="84.91,-44.78 78.1,-36.66 78.36,-47.25 84.91,-44.78"/>
</g>
<!-- TMYVZEZX -->
<g id="node7" class="node">
<title>TMYVZEZX</title>
<ellipse fill="none" stroke="black" cx="126" cy="-19.5" rx="18" ry="18"/>
<text text-anchor="middle" x="126" y="-15.8" font-family="Times,serif" font-size="14.00">4</text>
</g>
<!-- OICRJMDV&#45;&gt;TMYVZEZX -->
<g id="edge6" class="edge">
<title>OICRJMDV&#45;&gt;TMYVZEZX</title>
<path fill="none" stroke="black" d="M105.13,-75.77C108.44,-67 112.61,-55.96 116.35,-46.05"/>
<polygon fill="black" stroke="black" points="119.64,-47.25 119.9,-36.66 113.09,-44.78 119.64,-47.25"/>
</g>
<!-- RGOLISTY -->
<g id="node9" class="node">
<title>RGOLISTY</title>
<ellipse fill="none" stroke="black" cx="181" cy="-19.5" rx="19.5" ry="19.5"/>
<text text-anchor="middle" x="181" y="-15.8" font-family="Times,serif" font-size="14.00">12</text>
</g>
<!-- YGANOMSN&#45;&gt;RGOLISTY -->
<g id="edge8" class="edge">
<title>YGANOMSN&#45;&gt;RGOLISTY</title>
<path fill="none" stroke="black" d="M225.4,-78.21C217.88,-68.45 207.62,-55.11 198.86,-43.72"/>
<polygon fill="black" stroke="black" points="201.39,-41.27 192.52,-35.48 195.84,-45.54 201.39,-41.27"/>
</g>
<!-- IDMNXWWN -->
<g id="node10" class="node">
<title>IDMNXWWN</title>
<ellipse fill="none" stroke="black" cx="236" cy="-19.5" rx="18" ry="18"/>
<text text-anchor="middle" x="236" y="-15.8" font-family="Times,serif" font-size="14.00">8</text>
</g>
<!-- YGANOMSN&#45;&gt;IDMNXWWN -->
<g id="edge9" class="edge">
<title>YGANOMSN&#45;&gt;IDMNXWWN</title>
<path fill="none" stroke="black" d="M236,-74.69C236,-66.61 236,-56.8 236,-47.76"/>
<polygon fill="black" stroke="black" points="239.5,-47.65 236,-37.65 232.5,-47.65 239.5,-47.65"/>
</g>
<!-- LLBAIVLN -->
<g id="node11" class="node">
<title>LLBAIVLN</title>
<ellipse fill="none" stroke="black" cx="291" cy="-19.5" rx="19.5" ry="19.5"/>
<text text-anchor="middle" x="291" y="-15.8" font-family="Times,serif" font-size="14.00">11</text>
</g>
<!-- YGANOMSN&#45;&gt;LLBAIVLN -->
<g id="edge10" class="edge">
<title>YGANOMSN&#45;&gt;LLBAIVLN</title>
<path fill="none" stroke="black" d="M246.6,-78.21C254.12,-68.45 264.38,-55.11 273.14,-43.72"/>
<polygon fill="black" stroke="black" points="276.16,-45.54 279.48,-35.48 270.61,-41.27 276.16,-45.54"/>
</g>
<!-- ABJBYPBS -->
<g id="node13" class="node">
<title>ABJBYPBS</title>
<ellipse fill="none" stroke="black" cx="427" cy="-93" rx="18" ry="18"/>
</g>
<!-- UVQIBMCN&#45;&gt;ABJBYPBS -->
<g id="edge12" class="edge">
<title>UVQIBMCN&#45;&gt;ABJBYPBS</title>
<path fill="none" stroke="black" d="M684.8,-159.62C638.4,-147.81 510.41,-115.23 454.14,-100.91"/>
<polygon fill="black" stroke="black" points="454.75,-97.45 444.2,-98.37 453.02,-104.23 454.75,-97.45"/>
</g>
<!-- OVMBZTFZ -->
<g id="node17" class="node">
<title>OVMBZTFZ</title>
<ellipse fill="none" stroke="black" cx="591" cy="-93" rx="18" ry="18"/>
</g>
<!-- UVQIBMCN&#45;&gt;OVMBZTFZ -->
<g id="edge16" class="edge">
<title>UVQIBMCN&#45;&gt;OVMBZTFZ</title>
<path fill="none" stroke="black" d="M687.03,-154.56C668.49,-142.87 636.69,-122.81 614.8,-109"/>
<polygon fill="black" stroke="black" points="616.41,-105.88 606.09,-103.51 612.68,-111.81 616.41,-105.88"/>
</g>
<!-- BBVJTIKK -->
<g id="node21" class="node">
<title>BBVJTIKK</title>
<ellipse fill="none" stroke="black" cx="702" cy="-93" rx="18" ry="18"/>
</g>
<!-- UVQIBMCN&#45;&gt;BBVJTIKK -->
<g id="edge20" class="edge">
<title>UVQIBMCN&#45;&gt;BBVJTIKK</title>
<path fill="none" stroke="black" d="M702,-146.69C702,-138.98 702,-129.71 702,-121.11"/>
<polygon fill="black" stroke="black" points="705.5,-121.1 702,-111.1 698.5,-121.1 705.5,-121.1"/>
</g>
<!-- IJWJNZMV -->
<g id="node24" class="node">
<title>IJWJNZMV</title>
<ellipse fill="none" stroke="black" cx="840" cy="-93" rx="18" ry="18"/>
</g>
<!-- UVQIBMCN&#45;&gt;IJWJNZMV -->
<g id="edge23" class="edge">
<title>UVQIBMCN&#45;&gt;IJWJNZMV</title>
<path fill="none" stroke="black" d="M717.83,-155.97C741.64,-143.89 786.89,-120.94 815.14,-106.61"/>
<polygon fill="black" stroke="black" points="817.02,-109.58 824.35,-101.93 813.85,-103.34 817.02,-109.58"/>
</g>
<!-- ZZAXNAFQ -->
<g id="node14" class="node">
<title>ZZAXNAFQ</title>
<ellipse fill="none" stroke="black" cx="346" cy="-19.5" rx="18" ry="18"/>
<text text-anchor="middle" x="346" y="-15.8" font-family="Times,serif" font-size="14.00">6</text>
</g>
<!-- ABJBYPBS&#45;&gt;ZZAXNAFQ -->
<g id="edge13" class="edge">
<title>ABJBYPBS&#45;&gt;ZZAXNAFQ</title>
<path fill="none" stroke="black" d="M413.99,-80.51C401.31,-69.32 381.83,-52.12 366.96,-39"/>
<polygon fill="black" stroke="black" points="369.06,-36.19 359.25,-32.19 364.43,-41.44 369.06,-36.19"/>
</g>
<!-- STGSEIRS -->
<g id="node15" class="node">
<title>STGSEIRS</title>
<ellipse fill="none" stroke="black" cx="400" cy="-19.5" rx="18" ry="18"/>
<text text-anchor="middle" x="400" y="-15.8" font-family="Times,serif" font-size="14.00">2</text>
</g>
<!-- ABJBYPBS&#45;&gt;STGSEIRS -->
<g id="edge14" class="edge">
<title>ABJBYPBS&#45;&gt;STGSEIRS</title>
<path fill="none" stroke="black" d="M420.87,-75.77C417.56,-67 413.39,-55.96 409.65,-46.05"/>
<polygon fill="black" stroke="black" points="412.91,-44.78 406.1,-36.66 406.36,-47.25 412.91,-44.78"/>
</g>
<!-- YSOCHKQW -->
<g id="node16" class="node">
<title>YSOCHKQW</title>
<ellipse fill="none" stroke="black" cx="454" cy="-19.5" rx="18" ry="18"/>
<text text-anchor="middle" x="454" y="-15.8" font-family="Times,serif" font-size="14.00">9</text>
</g>
<!-- ABJBYPBS&#45;&gt;YSOCHKQW -->
<g id="edge15" class="edge">
<title>ABJBYPBS&#45;&gt;YSOCHKQW</title>
<path fill="none" stroke="black" d="M433.13,-75.77C436.44,-67 440.61,-55.96 444.35,-46.05"/>
<polygon fill="black" stroke="black" points="447.64,-47.25 447.9,-36.66 441.09,-44.78 447.64,-47.25"/>
</g>
<!-- UZDVEDZC -->
<g id="node18" class="node">
<title>UZDVEDZC</title>
<ellipse fill="none" stroke="black" cx="508" cy="-19.5" rx="18" ry="18"/>
<text text-anchor="middle" x="508" y="-15.8" font-family="Times,serif" font-size="14.00">7</text>
</g>
<!-- OVMBZTFZ&#45;&gt;UZDVEDZC -->
<g id="edge17" class="edge">
<title>OVMBZTFZ&#45;&gt;UZDVEDZC</title>
<path fill="none" stroke="black" d="M577.66,-80.51C564.6,-69.25 544.47,-51.92 529.21,-38.77"/>
<polygon fill="black" stroke="black" points="531.16,-35.83 521.3,-31.96 526.59,-41.14 531.16,-35.83"/>
</g>
<!-- ITHVFFXV -->
<g id="node19" class="node">
<title>ITHVFFXV</title>
<ellipse fill="none" stroke="black" cx="563" cy="-19.5" rx="19.5" ry="19.5"/>
<text text-anchor="middle" x="563" y="-15.8" font-family="Times,serif" font-size="14.00">10</text>
</g>
<!-- OVMBZTFZ&#45;&gt;ITHVFFXV -->
<g id="edge18" class="edge">
<title>OVMBZTFZ&#45;&gt;ITHVFFXV</title>
<path fill="none" stroke="black" d="M584.65,-75.77C581.37,-67.39 577.28,-56.95 573.54,-47.41"/>
<polygon fill="black" stroke="black" points="576.72,-45.94 569.82,-37.91 570.21,-48.5 576.72,-45.94"/>
</g>
<!-- QMCTKPRY -->
<g id="node20" class="node">
<title>QMCTKPRY</title>
<ellipse fill="none" stroke="black" cx="620" cy="-19.5" rx="19.5" ry="19.5"/>
<text text-anchor="middle" x="620" y="-15.8" font-family="Times,serif" font-size="14.00">13</text>
</g>
<!-- OVMBZTFZ&#45;&gt;QMCTKPRY -->
<g id="edge19" class="edge">
<title>OVMBZTFZ&#45;&gt;QMCTKPRY</title>
<path fill="none" stroke="black" d="M597.44,-76.13C600.89,-67.61 605.24,-56.89 609.2,-47.14"/>
<polygon fill="black" stroke="black" points="612.46,-48.41 612.97,-37.82 605.97,-45.77 612.46,-48.41"/>
</g>
<!-- VBEJSDNA -->
<g id="node22" class="node">
<title>VBEJSDNA</title>
<ellipse fill="none" stroke="black" cx="675" cy="-19.5" rx="18" ry="18"/>
<text text-anchor="middle" x="675" y="-15.8" font-family="Times,serif" font-size="14.00">6</text>
</g>
<!-- BBVJTIKK&#45;&gt;VBEJSDNA -->
<g id="edge21" class="edge">
<title>BBVJTIKK&#45;&gt;VBEJSDNA</title>
<path fill="none" stroke="black" d="M695.87,-75.77C692.56,-67 688.39,-55.96 684.65,-46.05"/>
<polygon fill="black" stroke="black" points="687.91,-44.78 681.1,-36.66 681.36,-47.25 687.91,-44.78"/>
</g>
<!-- INFLWGWG -->
<g id="node23" class="node">
<title>INFLWGWG</title>
<ellipse fill="none" stroke="black" cx="730" cy="-19.5" rx="19.5" ry="19.5"/>
<text text-anchor="middle" x="730" y="-15.8" font-family="Times,serif" font-size="14.00">13</text>
</g>
<!-- BBVJTIKK&#45;&gt;INFLWGWG -->
<g id="edge22" class="edge">
<title>BBVJTIKK&#45;&gt;INFLWGWG</title>
<path fill="none" stroke="black" d="M708.35,-75.77C711.63,-67.39 715.72,-56.95 719.46,-47.41"/>
<polygon fill="black" stroke="black" points="722.79,-48.5 723.18,-37.91 716.28,-45.94 722.79,-48.5"/>
</g>
<!-- JWAAWESH -->
<g id="node25" class="node">
<title>JWAAWESH</title>
<ellipse fill="none" stroke="black" cx="785" cy="-19.5" rx="18" ry="18"/>
<text text-anchor="middle" x="785" y="-15.8" font-family="Times,serif" font-size="14.00">9</text>
</g>
<!-- IJWJNZMV&#45;&gt;JWAAWESH -->
<g id="edge24" class="edge">
<title>IJWJNZMV&#45;&gt;JWAAWESH</title>
<path fill="none" stroke="black" d="M829.4,-78.21C821.56,-68.02 810.73,-53.95 801.73,-42.25"/>
<polygon fill="black" stroke="black" points="804.44,-40.03 795.57,-34.24 798.9,-44.3 804.44,-40.03"/>
</g>
<!-- PONNTKUG -->
<g id="node26" class="node">
<title>PONNTKUG</title>
<ellipse fill="none" stroke="black" cx="840" cy="-19.5" rx="19.5" ry="19.5"/>
<text text-anchor="middle" x="840" y="-15.8" font-family="Times,serif" font-size="14.00">12</text>
</g>
<!-- IJWJNZMV&#45;&gt;PONNTKUG -->
<g id="edge25" class="edge">
<title>IJWJNZMV&#45;&gt;PONNTKUG</title>
<path fill="none" stroke="black" d="M840,-74.69C840,-67.05 840,-57.86 840,-49.24"/>
<polygon fill="black" stroke="black" points="843.5,-49.15 840,-39.15 836.5,-49.15 843.5,-49.15"/>
</g>
<!-- AQTDSZRD -->
<g id="node27" class="node">
<title>AQTDSZRD</title>
<ellipse fill="none" stroke="black" cx="897" cy="-19.5" rx="19.5" ry="19.5"/>
<text text-anchor="middle" x="897" y="-15.8" font-family="Times,serif" font-size="14.00">10</text>
</g>
<!-- IJWJNZMV&#45;&gt;AQTDSZRD -->
<g id="edge26" class="edge">
<title>IJWJNZMV&#45;&gt;AQTDSZRD</title>
<path fill="none" stroke="black" d="M850.99,-78.21C858.9,-68.28 869.76,-54.67 878.94,-43.16"/>
<polygon fill="black" stroke="black" points="881.76,-45.23 885.26,-35.23 876.29,-40.86 881.76,-45.23"/>
</g>
<!-- KFLOUKJN -->
<g id="node28" class="node">
<title>KFLOUKJN</title>
<ellipse fill="none" stroke="black" cx="954" cy="-19.5" rx="19.5" ry="19.5"/>
<text text-anchor="middle" x="954" y="-15.8" font-family="Times,serif" font-size="14.00">12</text>
</g>
<!-- IJWJNZMV&#45;&gt;KFLOUKJN -->
<g id="edge27" class="edge">
<title>IJWJNZMV&#45;&gt;KFLOUKJN</title>
<path fill="none" stroke="black" d="M855.08,-82.66C872.09,-72.11 900.58,-54.4 925,-39 926.29,-38.18 927.62,-37.34 928.96,-36.49"/>
<polygon fill="black" stroke="black" points="931.2,-39.22 937.76,-30.9 927.44,-33.31 931.2,-39.22"/>
</g>
<!-- WQGBQHHF -->
<g id="node30" class="node">
<title>WQGBQHHF</title>
<ellipse fill="none" stroke="black" cx="1117" cy="-93" rx="18" ry="18"/>
</g>
<!-- IRLKJPJO&#45;&gt;WQGBQHHF -->
<g id="edge29" class="edge">
<title>IRLKJPJO&#45;&gt;WQGBQHHF</title>
<path fill="none" stroke="black" d="M1161.13,-150.17C1153.45,-140.39 1142.99,-127.08 1134.18,-115.87"/>
<polygon fill="black" stroke="black" points="1136.77,-113.5 1127.84,-107.8 1131.27,-117.82 1136.77,-113.5"/>
</g>
<!-- BFEKSYQK -->
<g id="node35" class="node">
<title>BFEKSYQK</title>
<ellipse fill="none" stroke="black" cx="1254" cy="-93" rx="18" ry="18"/>
</g>
<!-- IRLKJPJO&#45;&gt;BFEKSYQK -->
<g id="edge34" class="edge">
<title>IRLKJPJO&#45;&gt;BFEKSYQK</title>
<path fill="none" stroke="black" d="M1185.54,-152.44C1198.44,-141.43 1218.04,-124.69 1232.97,-111.95"/>
<polygon fill="black" stroke="black" points="1235.38,-114.5 1240.71,-105.34 1230.83,-109.17 1235.38,-114.5"/>
</g>
<!-- KFWDEZON -->
<g id="node39" class="node">
<title>KFWDEZON</title>
<ellipse fill="none" stroke="black" cx="1391" cy="-93" rx="18" ry="18"/>
</g>
<!-- IRLKJPJO&#45;&gt;KFWDEZON -->
<g id="edge38" class="edge">
<title>IRLKJPJO&#45;&gt;KFWDEZON</title>
<path fill="none" stroke="black" d="M1189.18,-158.5C1227.16,-146.36 1318.49,-117.17 1364.11,-102.59"/>
<polygon fill="black" stroke="black" points="1365.44,-105.84 1373.9,-99.46 1363.3,-99.17 1365.44,-105.84"/>
</g>
<!-- OLDRZHYA -->
<g id="node31" class="node">
<title>OLDRZHYA</title>
<ellipse fill="none" stroke="black" cx="1009" cy="-19.5" rx="18" ry="18"/>
<text text-anchor="middle" x="1009" y="-15.8" font-family="Times,serif" font-size="14.00">1</text>
</g>
<!-- WQGBQHHF&#45;&gt;OLDRZHYA -->
<g id="edge30" class="edge">
<title>WQGBQHHF&#45;&gt;OLDRZHYA</title>
<path fill="none" stroke="black" d="M1102.31,-82.52C1086.03,-71.98 1059.04,-54.42 1036,-39 1034.73,-38.15 1033.43,-37.27 1032.12,-36.39"/>
<polygon fill="black" stroke="black" points="1033.77,-33.27 1023.53,-30.54 1029.83,-39.06 1033.77,-33.27"/>
</g>
<!-- WQHTQLOK -->
<g id="node32" class="node">
<title>WQHTQLOK</title>
<ellipse fill="none" stroke="black" cx="1063" cy="-19.5" rx="18" ry="18"/>
<text text-anchor="middle" x="1063" y="-15.8" font-family="Times,serif" font-size="14.00">8</text>
</g>
<!-- WQGBQHHF&#45;&gt;WQHTQLOK -->
<g id="edge31" class="edge">
<title>WQGBQHHF&#45;&gt;WQHTQLOK</title>
<path fill="none" stroke="black" d="M1106.59,-78.21C1098.89,-68.02 1088.26,-53.95 1079.43,-42.25"/>
<polygon fill="black" stroke="black" points="1082.2,-40.11 1073.38,-34.24 1076.61,-44.33 1082.2,-40.11"/>
</g>
<!-- WEOHEUUH -->
<g id="node33" class="node">
<title>WEOHEUUH</title>
<ellipse fill="none" stroke="black" cx="1117" cy="-19.5" rx="18" ry="18"/>
<text text-anchor="middle" x="1117" y="-15.8" font-family="Times,serif" font-size="14.00">9</text>
</g>
<!-- WQGBQHHF&#45;&gt;WEOHEUUH -->
<g id="edge32" class="edge">
<title>WQGBQHHF&#45;&gt;WEOHEUUH</title>
<path fill="none" stroke="black" d="M1117,-74.69C1117,-66.61 1117,-56.8 1117,-47.76"/>
<polygon fill="black" stroke="black" points="1120.5,-47.65 1117,-37.65 1113.5,-47.65 1120.5,-47.65"/>
</g>
<!-- ZZXUITBQ -->
<g id="node34" class="node">
<title>ZZXUITBQ</title>
<ellipse fill="none" stroke="black" cx="1171" cy="-19.5" rx="18" ry="18"/>
<text text-anchor="middle" x="1171" y="-15.8" font-family="Times,serif" font-size="14.00">7</text>
</g>
<!-- WQGBQHHF&#45;&gt;ZZXUITBQ -->
<g id="edge33" class="edge">
<title>WQGBQHHF&#45;&gt;ZZXUITBQ</title>
<path fill="none" stroke="black" d="M1127.41,-78.21C1135.11,-68.02 1145.74,-53.95 1154.57,-42.25"/>
<polygon fill="black" stroke="black" points="1157.39,-44.33 1160.62,-34.24 1151.8,-40.11 1157.39,-44.33"/>
</g>
<!-- WVZMRGHV -->
<g id="node36" class="node">
<title>WVZMRGHV</title>
<ellipse fill="none" stroke="black" cx="1226" cy="-19.5" rx="19.5" ry="19.5"/>
<text text-anchor="middle" x="1226" y="-15.8" font-family="Times,serif" font-size="14.00">10</text>
</g>
<!-- BFEKSYQK&#45;&gt;WVZMRGHV -->
<g id="edge35" class="edge">
<title>BFEKSYQK&#45;&gt;WVZMRGHV</title>
<path fill="none" stroke="black" d="M1247.65,-75.77C1244.37,-67.39 1240.28,-56.95 1236.54,-47.41"/>
<polygon fill="black" stroke="black" points="1239.72,-45.94 1232.82,-37.91 1233.21,-48.5 1239.72,-45.94"/>
</g>
<!-- QMKIEVBB -->
<g id="node37" class="node">
<title>QMKIEVBB</title>
<ellipse fill="none" stroke="black" cx="1281" cy="-19.5" rx="18" ry="18"/>
<text text-anchor="middle" x="1281" y="-15.8" font-family="Times,serif" font-size="14.00">1</text>
</g>
<!-- BFEKSYQK&#45;&gt;QMKIEVBB -->
<g id="edge36" class="edge">
<title>BFEKSYQK&#45;&gt;QMKIEVBB</title>
<path fill="none" stroke="black" d="M1260.13,-75.77C1263.44,-67 1267.61,-55.96 1271.35,-46.05"/>
<polygon fill="black" stroke="black" points="1274.64,-47.25 1274.9,-36.66 1268.09,-44.78 1274.64,-47.25"/>
</g>
<!-- SXIBYFXV -->
<g id="node38" class="node">
<title>SXIBYFXV</title>
<ellipse fill="none" stroke="black" cx="1336" cy="-19.5" rx="19.5" ry="19.5"/>
<text text-anchor="middle" x="1336" y="-15.8" font-family="Times,serif" font-size="14.00">10</text>
</g>
<!-- BFEKSYQK&#45;&gt;SXIBYFXV -->
<g id="edge37" class="edge">
<title>BFEKSYQK&#45;&gt;SXIBYFXV</title>
<path fill="none" stroke="black" d="M1267.17,-80.51C1279.78,-69.52 1299.03,-52.73 1313.97,-39.71"/>
<polygon fill="black" stroke="black" points="1316.52,-42.13 1321.76,-32.92 1311.92,-36.85 1316.52,-42.13"/>
</g>
<!-- ALHJQOAN -->
<g id="node40" class="node">
<title>ALHJQOAN</title>
<ellipse fill="none" stroke="black" cx="1391" cy="-19.5" rx="18" ry="18"/>
<text text-anchor="middle" x="1391" y="-15.8" font-family="Times,serif" font-size="14.00">6</text>
</g>
<!-- KFWDEZON&#45;&gt;ALHJQOAN -->
<g id="edge39" class="edge">
<title>KFWDEZON&#45;&gt;ALHJQOAN</title>
<path fill="none" stroke="black" d="M1391,-74.69C1391,-66.61 1391,-56.8 1391,-47.76"/>
<polygon fill="black" stroke="black" points="1394.5,-47.65 1391,-37.65 1387.5,-47.65 1394.5,-47.65"/>
</g>
<!-- SQTYHJGO -->
<g id="node41" class="node">
<title>SQTYHJGO</title>
<ellipse fill="none" stroke="black" cx="1445" cy="-19.5" rx="18" ry="18"/>
<text text-anchor="middle" x="1445" y="-15.8" font-family="Times,serif" font-size="14.00">9</text>
</g>
<!-- KFWDEZON&#45;&gt;SQTYHJGO -->
<g id="edge40" class="edge">
<title>KFWDEZON&#45;&gt;SQTYHJGO</title>
<path fill="none" stroke="black" d="M1401.41,-78.21C1409.11,-68.02 1419.74,-53.95 1428.57,-42.25"/>
<polygon fill="black" stroke="black" points="1431.39,-44.33 1434.62,-34.24 1425.8,-40.11 1431.39,-44.33"/>
</g>
<!-- RXURMBAF -->
<g id="node43" class="node">
<title>RXURMBAF</title>
<ellipse fill="none" stroke="black" cx="1777" cy="-165" rx="18" ry="18"/>
</g>
<!-- ZQITZJJX&#45;&gt;RXURMBAF -->
<g id="edge42" class="edge">
<title>ZQITZJJX&#45;&gt;RXURMBAF</title>
<path fill="none" stroke="black" d="M2222.13,-233.3C2151.45,-222.61 1891.04,-183.24 1804.88,-170.21"/>
<polygon fill="black" stroke="black" points="1805.22,-166.72 1794.81,-168.69 1804.18,-173.65 1805.22,-166.72"/>
</g>
<!-- DARTIIUW -->
<g id="node53" class="node">
<title>DARTIIUW</title>
<ellipse fill="none" stroke="black" cx="2240" cy="-165" rx="18" ry="18"/>
</g>
<!-- ZQITZJJX&#45;&gt;DARTIIUW -->
<g id="edge52" class="edge">
<title>ZQITZJJX&#45;&gt;DARTIIUW</title>
<path fill="none" stroke="black" d="M2240,-218.69C2240,-210.98 2240,-201.71 2240,-193.11"/>
<polygon fill="black" stroke="black" points="2243.5,-193.1 2240,-183.1 2236.5,-193.1 2243.5,-193.1"/>
</g>
<!-- KXVFRGUJ -->
<g id="node71" class="node">
<title>KXVFRGUJ</title>
<ellipse fill="none" stroke="black" cx="2873" cy="-165" rx="18" ry="18"/>
</g>
<!-- ZQITZJJX&#45;&gt;KXVFRGUJ -->
<g id="edge70" class="edge">
<title>ZQITZJJX&#45;&gt;KXVFRGUJ</title>
<path fill="none" stroke="black" d="M2257.92,-234.01C2346.43,-224.23 2736.88,-181.05 2845.1,-169.08"/>
<polygon fill="black" stroke="black" points="2845.68,-172.54 2855.23,-167.96 2844.91,-165.58 2845.68,-172.54"/>
</g>
<!-- WCOYIVGH -->
<g id="node89" class="node">
<title>WCOYIVGH</title>
<ellipse fill="none" stroke="black" cx="3390" cy="-165" rx="18" ry="18"/>
</g>
<!-- ZQITZJJX&#45;&gt;WCOYIVGH -->
<g id="edge88" class="edge">
<title>ZQITZJJX&#45;&gt;WCOYIVGH</title>
<path fill="none" stroke="black" d="M2258.06,-234.9C2389.63,-226.89 3199.93,-177.57 3361.86,-167.71"/>
<polygon fill="black" stroke="black" points="3362.21,-171.19 3371.98,-167.09 3361.78,-164.21 3362.21,-171.19"/>
</g>
<!-- FQPGPELQ -->
<g id="node44" class="node">
<title>FQPGPELQ</title>
<ellipse fill="none" stroke="black" cx="1608" cy="-93" rx="18" ry="18"/>
</g>
<!-- RXURMBAF&#45;&gt;FQPGPELQ -->
<g id="edge43" class="edge">
<title>RXURMBAF&#45;&gt;FQPGPELQ</title>
<path fill="none" stroke="black" d="M1760.49,-157.16C1731.01,-144.95 1669.11,-119.31 1633.92,-104.73"/>
<polygon fill="black" stroke="black" points="1634.91,-101.35 1624.33,-100.76 1632.23,-107.82 1634.91,-101.35"/>
</g>
<!-- XZJHILCS -->
<g id="node49" class="node">
<title>XZJHILCS</title>
<ellipse fill="none" stroke="black" cx="1777" cy="-93" rx="18" ry="18"/>
</g>
<!-- RXURMBAF&#45;&gt;XZJHILCS -->
<g id="edge48" class="edge">
<title>RXURMBAF&#45;&gt;XZJHILCS</title>
<path fill="none" stroke="black" d="M1777,-146.69C1777,-138.98 1777,-129.71 1777,-121.11"/>
<polygon fill="black" stroke="black" points="1780.5,-121.1 1777,-111.1 1773.5,-121.1 1780.5,-121.1"/>
</g>
<!-- BIZCNNFB -->
<g id="node45" class="node">
<title>BIZCNNFB</title>
<ellipse fill="none" stroke="black" cx="1499" cy="-19.5" rx="18" ry="18"/>
<text text-anchor="middle" x="1499" y="-15.8" font-family="Times,serif" font-size="14.00">2</text>
</g>
<!-- FQPGPELQ&#45;&gt;BIZCNNFB -->
<g id="edge44" class="edge">
<title>FQPGPELQ&#45;&gt;BIZCNNFB</title>
<path fill="none" stroke="black" d="M1593.11,-82.54C1576.62,-72.03 1549.28,-54.49 1526,-39 1524.73,-38.15 1523.43,-37.28 1522.11,-36.39"/>
<polygon fill="black" stroke="black" points="1523.76,-33.28 1513.52,-30.55 1519.83,-39.07 1523.76,-33.28"/>
</g>
<!-- MCTKICKV -->
<g id="node46" class="node">
<title>MCTKICKV</title>
<ellipse fill="none" stroke="black" cx="1553" cy="-19.5" rx="18" ry="18"/>
<text text-anchor="middle" x="1553" y="-15.8" font-family="Times,serif" font-size="14.00">4</text>
</g>
<!-- FQPGPELQ&#45;&gt;MCTKICKV -->
<g id="edge45" class="edge">
<title>FQPGPELQ&#45;&gt;MCTKICKV</title>
<path fill="none" stroke="black" d="M1597.4,-78.21C1589.56,-68.02 1578.73,-53.95 1569.73,-42.25"/>
<polygon fill="black" stroke="black" points="1572.44,-40.03 1563.57,-34.24 1566.9,-44.3 1572.44,-40.03"/>
</g>
<!-- DBZOJXBV -->
<g id="node47" class="node">
<title>DBZOJXBV</title>
<ellipse fill="none" stroke="black" cx="1608" cy="-19.5" rx="19.5" ry="19.5"/>
<text text-anchor="middle" x="1608" y="-15.8" font-family="Times,serif" font-size="14.00">15</text>
</g>
<!-- FQPGPELQ&#45;&gt;DBZOJXBV -->
<g id="edge46" class="edge">
<title>FQPGPELQ&#45;&gt;DBZOJXBV</title>
<path fill="none" stroke="black" d="M1608,-74.69C1608,-67.05 1608,-57.86 1608,-49.24"/>
<polygon fill="black" stroke="black" points="1611.5,-49.15 1608,-39.15 1604.5,-49.15 1611.5,-49.15"/>
</g>
<!-- FTZOOFAR -->
<g id="node48" class="node">
<title>FTZOOFAR</title>
<ellipse fill="none" stroke="black" cx="1665" cy="-19.5" rx="19.5" ry="19.5"/>
<text text-anchor="middle" x="1665" y="-15.8" font-family="Times,serif" font-size="14.00">10</text>
</g>
<!-- FQPGPELQ&#45;&gt;FTZOOFAR -->
<g id="edge47" class="edge">
<title>FQPGPELQ&#45;&gt;FTZOOFAR</title>
<path fill="none" stroke="black" d="M1618.99,-78.21C1626.9,-68.28 1637.76,-54.67 1646.94,-43.16"/>
<polygon fill="black" stroke="black" points="1649.76,-45.23 1653.26,-35.23 1644.29,-40.86 1649.76,-45.23"/>
</g>
<!-- YGGAHLVE -->
<g id="node50" class="node">
<title>YGGAHLVE</title>
<ellipse fill="none" stroke="black" cx="1722" cy="-19.5" rx="19.5" ry="19.5"/>
<text text-anchor="middle" x="1722" y="-15.8" font-family="Times,serif" font-size="14.00">11</text>
</g>
<!-- XZJHILCS&#45;&gt;YGGAHLVE -->
<g id="edge49" class="edge">
<title>XZJHILCS&#45;&gt;YGGAHLVE</title>
<path fill="none" stroke="black" d="M1766.4,-78.21C1758.88,-68.45 1748.62,-55.11 1739.86,-43.72"/>
<polygon fill="black" stroke="black" points="1742.39,-41.27 1733.52,-35.48 1736.84,-45.54 1742.39,-41.27"/>
</g>
<!-- ABLVFDYB -->
<g id="node51" class="node">
<title>ABLVFDYB</title>
<ellipse fill="none" stroke="black" cx="1777" cy="-19.5" rx="18" ry="18"/>
<text text-anchor="middle" x="1777" y="-15.8" font-family="Times,serif" font-size="14.00">8</text>
</g>
<!-- XZJHILCS&#45;&gt;ABLVFDYB -->
<g id="edge50" class="edge">
<title>XZJHILCS&#45;&gt;ABLVFDYB</title>
<path fill="none" stroke="black" d="M1777,-74.69C1777,-66.61 1777,-56.8 1777,-47.76"/>
<polygon fill="black" stroke="black" points="1780.5,-47.65 1777,-37.65 1773.5,-47.65 1780.5,-47.65"/>
</g>
<!-- NEFRVSUP -->
<g id="node52" class="node">
<title>NEFRVSUP</title>
<ellipse fill="none" stroke="black" cx="1831" cy="-19.5" rx="18" ry="18"/>
<text text-anchor="middle" x="1831" y="-15.8" font-family="Times,serif" font-size="14.00">4</text>
</g>
<!-- XZJHILCS&#45;&gt;NEFRVSUP -->
<g id="edge51" class="edge">
<title>XZJHILCS&#45;&gt;NEFRVSUP</title>
<path fill="none" stroke="black" d="M1787.41,-78.21C1795.11,-68.02 1805.74,-53.95 1814.57,-42.25"/>
<polygon fill="black" stroke="black" points="1817.39,-44.33 1820.62,-34.24 1811.8,-40.11 1817.39,-44.33"/>
</g>
<!-- DYJMJKBL -->
<g id="node54" class="node">
<title>DYJMJKBL</title>
<ellipse fill="none" stroke="black" cx="1995" cy="-93" rx="18" ry="18"/>
</g>
<!-- DARTIIUW&#45;&gt;DYJMJKBL -->
<g id="edge53" class="edge">
<title>DARTIIUW&#45;&gt;DYJMJKBL</title>
<path fill="none" stroke="black" d="M2222.77,-159.07C2180.78,-147.08 2072.86,-116.24 2022.12,-101.75"/>
<polygon fill="black" stroke="black" points="2022.79,-98.3 2012.21,-98.91 2020.86,-105.03 2022.79,-98.3"/>
</g>
<!-- KCNKRFFT -->
<g id="node59" class="node">
<title>KCNKRFFT</title>
<ellipse fill="none" stroke="black" cx="2185" cy="-93" rx="18" ry="18"/>
</g>
<!-- DARTIIUW&#45;&gt;KCNKRFFT -->
<g id="edge58" class="edge">
<title>DARTIIUW&#45;&gt;KCNKRFFT</title>
<path fill="none" stroke="black" d="M2229.13,-150.17C2221.45,-140.39 2210.99,-127.08 2202.18,-115.87"/>
<polygon fill="black" stroke="black" points="2204.77,-113.5 2195.84,-107.8 2199.27,-117.82 2204.77,-113.5"/>
</g>
<!-- FYXQWAKP -->
<g id="node63" class="node">
<title>FYXQWAKP</title>
<ellipse fill="none" stroke="black" cx="2268" cy="-93" rx="18" ry="18"/>
</g>
<!-- DARTIIUW&#45;&gt;FYXQWAKP -->
<g id="edge62" class="edge">
<title>DARTIIUW&#45;&gt;FYXQWAKP</title>
<path fill="none" stroke="black" d="M2246.35,-148.11C2249.71,-139.73 2253.9,-129.24 2257.71,-119.73"/>
<polygon fill="black" stroke="black" points="2261.01,-120.89 2261.48,-110.3 2254.51,-118.29 2261.01,-120.89"/>
</g>
<!-- OKFJUMDW -->
<g id="node66" class="node">
<title>OKFJUMDW</title>
<ellipse fill="none" stroke="black" cx="2432" cy="-93" rx="18" ry="18"/>
</g>
<!-- DARTIIUW&#45;&gt;OKFJUMDW -->
<g id="edge65" class="edge">
<title>DARTIIUW&#45;&gt;OKFJUMDW</title>
<path fill="none" stroke="black" d="M2256.7,-157.91C2290.11,-145.73 2365.38,-118.29 2405.56,-103.64"/>
<polygon fill="black" stroke="black" points="2407,-106.84 2415.2,-100.12 2404.61,-100.26 2407,-106.84"/>
</g>
<!-- SREDNVYN -->
<g id="node55" class="node">
<title>SREDNVYN</title>
<ellipse fill="none" stroke="black" cx="1885" cy="-19.5" rx="18" ry="18"/>
<text text-anchor="middle" x="1885" y="-15.8" font-family="Times,serif" font-size="14.00">9</text>
</g>
<!-- DYJMJKBL&#45;&gt;SREDNVYN -->
<g id="edge54" class="edge">
<title>DYJMJKBL&#45;&gt;SREDNVYN</title>
<path fill="none" stroke="black" d="M1979.91,-82.57C1963.21,-72.08 1935.53,-54.56 1912,-39 1910.73,-38.15 1909.42,-37.28 1908.11,-36.4"/>
<polygon fill="black" stroke="black" points="1909.75,-33.29 1899.51,-30.57 1905.82,-39.08 1909.75,-33.29"/>
</g>
<!-- QNDRQQUI -->
<g id="node56" class="node">
<title>QNDRQQUI</title>
<ellipse fill="none" stroke="black" cx="1940" cy="-19.5" rx="19.5" ry="19.5"/>
<text text-anchor="middle" x="1940" y="-15.8" font-family="Times,serif" font-size="14.00">10</text>
</g>
<!-- DYJMJKBL&#45;&gt;QNDRQQUI -->
<g id="edge55" class="edge">
<title>DYJMJKBL&#45;&gt;QNDRQQUI</title>
<path fill="none" stroke="black" d="M1984.4,-78.21C1976.88,-68.45 1966.62,-55.11 1957.86,-43.72"/>
<polygon fill="black" stroke="black" points="1960.39,-41.27 1951.52,-35.48 1954.84,-45.54 1960.39,-41.27"/>
</g>
<!-- WFLPPIZN -->
<g id="node57" class="node">
<title>WFLPPIZN</title>
<ellipse fill="none" stroke="black" cx="1995" cy="-19.5" rx="18" ry="18"/>
<text text-anchor="middle" x="1995" y="-15.8" font-family="Times,serif" font-size="14.00">0</text>
</g>
<!-- DYJMJKBL&#45;&gt;WFLPPIZN -->
<g id="edge56" class="edge">
<title>DYJMJKBL&#45;&gt;WFLPPIZN</title>
<path fill="none" stroke="black" d="M1995,-74.69C1995,-66.61 1995,-56.8 1995,-47.76"/>
<polygon fill="black" stroke="black" points="1998.5,-47.65 1995,-37.65 1991.5,-47.65 1998.5,-47.65"/>
</g>
<!-- BFPENFWC -->
<g id="node58" class="node">
<title>BFPENFWC</title>
<ellipse fill="none" stroke="black" cx="2049" cy="-19.5" rx="18" ry="18"/>
<text text-anchor="middle" x="2049" y="-15.8" font-family="Times,serif" font-size="14.00">0</text>
</g>
<!-- DYJMJKBL&#45;&gt;BFPENFWC -->
<g id="edge57" class="edge">
<title>DYJMJKBL&#45;&gt;BFPENFWC</title>
<path fill="none" stroke="black" d="M2005.41,-78.21C2013.11,-68.02 2023.74,-53.95 2032.57,-42.25"/>
<polygon fill="black" stroke="black" points="2035.39,-44.33 2038.62,-34.24 2029.8,-40.11 2035.39,-44.33"/>
</g>
<!-- WDRQBMQG -->
<g id="node60" class="node">
<title>WDRQBMQG</title>
<ellipse fill="none" stroke="black" cx="2103" cy="-19.5" rx="18" ry="18"/>
<text text-anchor="middle" x="2103" y="-15.8" font-family="Times,serif" font-size="14.00">4</text>
</g>
<!-- KCNKRFFT&#45;&gt;WDRQBMQG -->
<g id="edge59" class="edge">
<title>KCNKRFFT&#45;&gt;WDRQBMQG</title>
<path fill="none" stroke="black" d="M2171.83,-80.51C2158.91,-69.25 2139.03,-51.92 2123.95,-38.77"/>
<polygon fill="black" stroke="black" points="2125.98,-35.89 2116.14,-31.96 2121.38,-41.17 2125.98,-35.89"/>
</g>
<!-- GIRQIEVI -->
<g id="node61" class="node">
<title>GIRQIEVI</title>
<ellipse fill="none" stroke="black" cx="2158" cy="-19.5" rx="19.5" ry="19.5"/>
<text text-anchor="middle" x="2158" y="-15.8" font-family="Times,serif" font-size="14.00">12</text>
</g>
<!-- KCNKRFFT&#45;&gt;GIRQIEVI -->
<g id="edge60" class="edge">
<title>KCNKRFFT&#45;&gt;GIRQIEVI</title>
<path fill="none" stroke="black" d="M2178.87,-75.77C2175.71,-67.39 2171.77,-56.95 2168.16,-47.41"/>
<polygon fill="black" stroke="black" points="2171.38,-46.03 2164.57,-37.91 2164.83,-48.5 2171.38,-46.03"/>
</g>
<!-- LJDPOIQD -->
<g id="node62" class="node">
<title>LJDPOIQD</title>
<ellipse fill="none" stroke="black" cx="2213" cy="-19.5" rx="18" ry="18"/>
<text text-anchor="middle" x="2213" y="-15.8" font-family="Times,serif" font-size="14.00">8</text>
</g>
<!-- KCNKRFFT&#45;&gt;LJDPOIQD -->
<g id="edge61" class="edge">
<title>KCNKRFFT&#45;&gt;LJDPOIQD</title>
<path fill="none" stroke="black" d="M2191.35,-75.77C2194.79,-67 2199.11,-55.96 2202.99,-46.05"/>
<polygon fill="black" stroke="black" points="2206.28,-47.25 2206.67,-36.66 2199.77,-44.69 2206.28,-47.25"/>
</g>
<!-- UUCHZBQO -->
<g id="node64" class="node">
<title>UUCHZBQO</title>
<ellipse fill="none" stroke="black" cx="2268" cy="-19.5" rx="19.5" ry="19.5"/>
<text text-anchor="middle" x="2268" y="-15.8" font-family="Times,serif" font-size="14.00">12</text>
</g>
<!-- FYXQWAKP&#45;&gt;UUCHZBQO -->
<g id="edge63" class="edge">
<title>FYXQWAKP&#45;&gt;UUCHZBQO</title>
<path fill="none" stroke="black" d="M2268,-74.69C2268,-67.05 2268,-57.86 2268,-49.24"/>
<polygon fill="black" stroke="black" points="2271.5,-49.15 2268,-39.15 2264.5,-49.15 2271.5,-49.15"/>
</g>
<!-- GBBCTVOU -->
<g id="node65" class="node">
<title>GBBCTVOU</title>
<ellipse fill="none" stroke="black" cx="2323" cy="-19.5" rx="18" ry="18"/>
<text text-anchor="middle" x="2323" y="-15.8" font-family="Times,serif" font-size="14.00">5</text>
</g>
<!-- FYXQWAKP&#45;&gt;GBBCTVOU -->
<g id="edge64" class="edge">
<title>FYXQWAKP&#45;&gt;GBBCTVOU</title>
<path fill="none" stroke="black" d="M2278.6,-78.21C2286.44,-68.02 2297.27,-53.95 2306.27,-42.25"/>
<polygon fill="black" stroke="black" points="2309.1,-44.3 2312.43,-34.24 2303.56,-40.03 2309.1,-44.3"/>
</g>
<!-- IYDQCXHU -->
<g id="node67" class="node">
<title>IYDQCXHU</title>
<ellipse fill="none" stroke="black" cx="2377" cy="-19.5" rx="18" ry="18"/>
<text text-anchor="middle" x="2377" y="-15.8" font-family="Times,serif" font-size="14.00">3</text>
</g>
<!-- OKFJUMDW&#45;&gt;IYDQCXHU -->
<g id="edge66" class="edge">
<title>OKFJUMDW&#45;&gt;IYDQCXHU</title>
<path fill="none" stroke="black" d="M2421.4,-78.21C2413.56,-68.02 2402.73,-53.95 2393.73,-42.25"/>
<polygon fill="black" stroke="black" points="2396.44,-40.03 2387.57,-34.24 2390.9,-44.3 2396.44,-40.03"/>
</g>
<!-- ACQXAFRG -->
<g id="node68" class="node">
<title>ACQXAFRG</title>
<ellipse fill="none" stroke="black" cx="2432" cy="-19.5" rx="19.5" ry="19.5"/>
<text text-anchor="middle" x="2432" y="-15.8" font-family="Times,serif" font-size="14.00">12</text>
</g>
<!-- OKFJUMDW&#45;&gt;ACQXAFRG -->
<g id="edge67" class="edge">
<title>OKFJUMDW&#45;&gt;ACQXAFRG</title>
<path fill="none" stroke="black" d="M2432,-74.69C2432,-67.05 2432,-57.86 2432,-49.24"/>
<polygon fill="black" stroke="black" points="2435.5,-49.15 2432,-39.15 2428.5,-49.15 2435.5,-49.15"/>
</g>
<!-- EBVOORZZ -->
<g id="node69" class="node">
<title>EBVOORZZ</title>
<ellipse fill="none" stroke="black" cx="2489" cy="-19.5" rx="19.5" ry="19.5"/>
<text text-anchor="middle" x="2489" y="-15.8" font-family="Times,serif" font-size="14.00">12</text>
</g>
<!-- OKFJUMDW&#45;&gt;EBVOORZZ -->
<g id="edge68" class="edge">
<title>OKFJUMDW&#45;&gt;EBVOORZZ</title>
<path fill="none" stroke="black" d="M2442.99,-78.21C2450.9,-68.28 2461.76,-54.67 2470.94,-43.16"/>
<polygon fill="black" stroke="black" points="2473.76,-45.23 2477.26,-35.23 2468.29,-40.86 2473.76,-45.23"/>
</g>
<!-- NAIULKHF -->
<g id="node70" class="node">
<title>NAIULKHF</title>
<ellipse fill="none" stroke="black" cx="2544" cy="-19.5" rx="18" ry="18"/>
<text text-anchor="middle" x="2544" y="-15.8" font-family="Times,serif" font-size="14.00">7</text>
</g>
<!-- OKFJUMDW&#45;&gt;NAIULKHF -->
<g id="edge69" class="edge">
<title>OKFJUMDW&#45;&gt;NAIULKHF</title>
<path fill="none" stroke="black" d="M2447.17,-82.81C2464.27,-72.39 2492.84,-54.8 2517,-39 2518.28,-38.16 2519.59,-37.3 2520.9,-36.42"/>
<polygon fill="black" stroke="black" points="2523.18,-39.1 2529.5,-30.6 2519.26,-33.3 2523.18,-39.1"/>
</g>
<!-- GFLPOCNZ -->
<g id="node72" class="node">
<title>GFLPOCNZ</title>
<ellipse fill="none" stroke="black" cx="2708" cy="-93" rx="18" ry="18"/>
</g>
<!-- KXVFRGUJ&#45;&gt;GFLPOCNZ -->
<g id="edge71" class="edge">
<title>KXVFRGUJ&#45;&gt;GFLPOCNZ</title>
<path fill="none" stroke="black" d="M2856.58,-157.03C2827.79,-144.82 2768.03,-119.46 2733.72,-104.91"/>
<polygon fill="black" stroke="black" points="2734.93,-101.62 2724.36,-100.94 2732.2,-108.06 2734.93,-101.62"/>
</g>
<!-- BZDPYIZZ -->
<g id="node77" class="node">
<title>BZDPYIZZ</title>
<ellipse fill="none" stroke="black" cx="2873" cy="-93" rx="18" ry="18"/>
</g>
<!-- KXVFRGUJ&#45;&gt;BZDPYIZZ -->
<g id="edge76" class="edge">
<title>KXVFRGUJ&#45;&gt;BZDPYIZZ</title>
<path fill="none" stroke="black" d="M2873,-146.69C2873,-138.98 2873,-129.71 2873,-121.11"/>
<polygon fill="black" stroke="black" points="2876.5,-121.1 2873,-111.1 2869.5,-121.1 2876.5,-121.1"/>
</g>
<!-- HRIFYHFK -->
<g id="node81" class="node">
<title>HRIFYHFK</title>
<ellipse fill="none" stroke="black" cx="3012" cy="-93" rx="18" ry="18"/>
</g>
<!-- KXVFRGUJ&#45;&gt;HRIFYHFK -->
<g id="edge80" class="edge">
<title>KXVFRGUJ&#45;&gt;HRIFYHFK</title>
<path fill="none" stroke="black" d="M2888.67,-156.1C2912.66,-144.02 2958.68,-120.85 2987.22,-106.48"/>
<polygon fill="black" stroke="black" points="2988.81,-109.59 2996.17,-101.97 2985.66,-103.34 2988.81,-109.59"/>
</g>
<!-- NTUJDNEX -->
<g id="node85" class="node">
<title>NTUJDNEX</title>
<ellipse fill="none" stroke="black" cx="3174" cy="-93" rx="18" ry="18"/>
</g>
<!-- KXVFRGUJ&#45;&gt;NTUJDNEX -->
<g id="edge84" class="edge">
<title>KXVFRGUJ&#45;&gt;NTUJDNEX</title>
<path fill="none" stroke="black" d="M2890.48,-159.93C2940.67,-148.26 3085.47,-114.58 3146.43,-100.41"/>
<polygon fill="black" stroke="black" points="3147.52,-103.75 3156.47,-98.07 3145.93,-96.93 3147.52,-103.75"/>
</g>
<!-- UUKCPPFT -->
<g id="node73" class="node">
<title>UUKCPPFT</title>
<ellipse fill="none" stroke="black" cx="2599" cy="-19.5" rx="19.5" ry="19.5"/>
<text text-anchor="middle" x="2599" y="-15.8" font-family="Times,serif" font-size="14.00">10</text>
</g>
<!-- GFLPOCNZ&#45;&gt;UUKCPPFT -->
<g id="edge72" class="edge">
<title>GFLPOCNZ&#45;&gt;UUKCPPFT</title>
<path fill="none" stroke="black" d="M2693.35,-82.44C2677.12,-71.84 2650.17,-54.23 2627,-39 2625.9,-38.28 2624.79,-37.54 2623.66,-36.8"/>
<polygon fill="black" stroke="black" points="2625.26,-33.66 2614.98,-31.08 2621.4,-39.5 2625.26,-33.66"/>
</g>
<!-- AGDZHDVP -->
<g id="node74" class="node">
<title>AGDZHDVP</title>
<ellipse fill="none" stroke="black" cx="2654" cy="-19.5" rx="18" ry="18"/>
<text text-anchor="middle" x="2654" y="-15.8" font-family="Times,serif" font-size="14.00">0</text>
</g>
<!-- GFLPOCNZ&#45;&gt;AGDZHDVP -->
<g id="edge73" class="edge">
<title>GFLPOCNZ&#45;&gt;AGDZHDVP</title>
<path fill="none" stroke="black" d="M2697.59,-78.21C2689.89,-68.02 2679.26,-53.95 2670.43,-42.25"/>
<polygon fill="black" stroke="black" points="2673.2,-40.11 2664.38,-34.24 2667.61,-44.33 2673.2,-40.11"/>
</g>
<!-- OUFLMUMF -->
<g id="node75" class="node">
<title>OUFLMUMF</title>
<ellipse fill="none" stroke="black" cx="2708" cy="-19.5" rx="18" ry="18"/>
<text text-anchor="middle" x="2708" y="-15.8" font-family="Times,serif" font-size="14.00">8</text>
</g>
<!-- GFLPOCNZ&#45;&gt;OUFLMUMF -->
<g id="edge74" class="edge">
<title>GFLPOCNZ&#45;&gt;OUFLMUMF</title>
<path fill="none" stroke="black" d="M2708,-74.69C2708,-66.61 2708,-56.8 2708,-47.76"/>
<polygon fill="black" stroke="black" points="2711.5,-47.65 2708,-37.65 2704.5,-47.65 2711.5,-47.65"/>
</g>
<!-- UOIYSSUG -->
<g id="node76" class="node">
<title>UOIYSSUG</title>
<ellipse fill="none" stroke="black" cx="2763" cy="-19.5" rx="19.5" ry="19.5"/>
<text text-anchor="middle" x="2763" y="-15.8" font-family="Times,serif" font-size="14.00">10</text>
</g>
<!-- GFLPOCNZ&#45;&gt;UOIYSSUG -->
<g id="edge75" class="edge">
<title>GFLPOCNZ&#45;&gt;UOIYSSUG</title>
<path fill="none" stroke="black" d="M2718.6,-78.21C2726.12,-68.45 2736.38,-55.11 2745.14,-43.72"/>
<polygon fill="black" stroke="black" points="2748.16,-45.54 2751.48,-35.48 2742.61,-41.27 2748.16,-45.54"/>
</g>
<!-- EDKSPRZD -->
<g id="node78" class="node">
<title>EDKSPRZD</title>
<ellipse fill="none" stroke="black" cx="2818" cy="-19.5" rx="18" ry="18"/>
<text text-anchor="middle" x="2818" y="-15.8" font-family="Times,serif" font-size="14.00">2</text>
</g>
<!-- BZDPYIZZ&#45;&gt;EDKSPRZD -->
<g id="edge77" class="edge">
<title>BZDPYIZZ&#45;&gt;EDKSPRZD</title>
<path fill="none" stroke="black" d="M2862.4,-78.21C2854.56,-68.02 2843.73,-53.95 2834.73,-42.25"/>
<polygon fill="black" stroke="black" points="2837.44,-40.03 2828.57,-34.24 2831.9,-44.3 2837.44,-40.03"/>
</g>
<!-- VVUPVZQC -->
<g id="node79" class="node">
<title>VVUPVZQC</title>
<ellipse fill="none" stroke="black" cx="2873" cy="-19.5" rx="19.5" ry="19.5"/>
<text text-anchor="middle" x="2873" y="-15.8" font-family="Times,serif" font-size="14.00">10</text>
</g>
<!-- BZDPYIZZ&#45;&gt;VVUPVZQC -->
<g id="edge78" class="edge">
<title>BZDPYIZZ&#45;&gt;VVUPVZQC</title>
<path fill="none" stroke="black" d="M2873,-74.69C2873,-67.05 2873,-57.86 2873,-49.24"/>
<polygon fill="black" stroke="black" points="2876.5,-49.15 2873,-39.15 2869.5,-49.15 2876.5,-49.15"/>
</g>
<!-- WIQQUFFM -->
<g id="node80" class="node">
<title>WIQQUFFM</title>
<ellipse fill="none" stroke="black" cx="2930" cy="-19.5" rx="19.5" ry="19.5"/>
<text text-anchor="middle" x="2930" y="-15.8" font-family="Times,serif" font-size="14.00">13</text>
</g>
<!-- BZDPYIZZ&#45;&gt;WIQQUFFM -->
<g id="edge79" class="edge">
<title>BZDPYIZZ&#45;&gt;WIQQUFFM</title>
<path fill="none" stroke="black" d="M2883.99,-78.21C2891.9,-68.28 2902.76,-54.67 2911.94,-43.16"/>
<polygon fill="black" stroke="black" points="2914.76,-45.23 2918.26,-35.23 2909.29,-40.86 2914.76,-45.23"/>
</g>
<!-- GSUYNKVU -->
<g id="node82" class="node">
<title>GSUYNKVU</title>
<ellipse fill="none" stroke="black" cx="2985" cy="-19.5" rx="18" ry="18"/>
<text text-anchor="middle" x="2985" y="-15.8" font-family="Times,serif" font-size="14.00">5</text>
</g>
<!-- HRIFYHFK&#45;&gt;GSUYNKVU -->
<g id="edge81" class="edge">
<title>HRIFYHFK&#45;&gt;GSUYNKVU</title>
<path fill="none" stroke="black" d="M3005.87,-75.77C3002.56,-67 2998.39,-55.96 2994.65,-46.05"/>
<polygon fill="black" stroke="black" points="2997.91,-44.78 2991.1,-36.66 2991.36,-47.25 2997.91,-44.78"/>
</g>
<!-- DHYKIUTD -->
<g id="node83" class="node">
<title>DHYKIUTD</title>
<ellipse fill="none" stroke="black" cx="3039" cy="-19.5" rx="18" ry="18"/>
<text text-anchor="middle" x="3039" y="-15.8" font-family="Times,serif" font-size="14.00">3</text>
</g>
<!-- HRIFYHFK&#45;&gt;DHYKIUTD -->
<g id="edge82" class="edge">
<title>HRIFYHFK&#45;&gt;DHYKIUTD</title>
<path fill="none" stroke="black" d="M3018.13,-75.77C3021.44,-67 3025.61,-55.96 3029.35,-46.05"/>
<polygon fill="black" stroke="black" points="3032.64,-47.25 3032.9,-36.66 3026.09,-44.78 3032.64,-47.25"/>
</g>
<!-- TRSOUTUL -->
<g id="node84" class="node">
<title>TRSOUTUL</title>
<ellipse fill="none" stroke="black" cx="3093" cy="-19.5" rx="18" ry="18"/>
<text text-anchor="middle" x="3093" y="-15.8" font-family="Times,serif" font-size="14.00">6</text>
</g>
<!-- HRIFYHFK&#45;&gt;TRSOUTUL -->
<g id="edge83" class="edge">
<title>HRIFYHFK&#45;&gt;TRSOUTUL</title>
<path fill="none" stroke="black" d="M3025.01,-80.51C3037.69,-69.32 3057.17,-52.12 3072.04,-39"/>
<polygon fill="black" stroke="black" points="3074.57,-41.44 3079.75,-32.19 3069.94,-36.19 3074.57,-41.44"/>
</g>
<!-- VHYPEYUT -->
<g id="node86" class="node">
<title>VHYPEYUT</title>
<ellipse fill="none" stroke="black" cx="3147" cy="-19.5" rx="18" ry="18"/>
<text text-anchor="middle" x="3147" y="-15.8" font-family="Times,serif" font-size="14.00">8</text>
</g>
<!-- NTUJDNEX&#45;&gt;VHYPEYUT -->
<g id="edge85" class="edge">
<title>NTUJDNEX&#45;&gt;VHYPEYUT</title>
<path fill="none" stroke="black" d="M3167.87,-75.77C3164.56,-67 3160.39,-55.96 3156.65,-46.05"/>
<polygon fill="black" stroke="black" points="3159.91,-44.78 3153.1,-36.66 3153.36,-47.25 3159.91,-44.78"/>
</g>
<!-- OFSSYDCJ -->
<g id="node87" class="node">
<title>OFSSYDCJ</title>
<ellipse fill="none" stroke="black" cx="3201" cy="-19.5" rx="18" ry="18"/>
<text text-anchor="middle" x="3201" y="-15.8" font-family="Times,serif" font-size="14.00">5</text>
</g>
<!-- NTUJDNEX&#45;&gt;OFSSYDCJ -->
<g id="edge86" class="edge">
<title>NTUJDNEX&#45;&gt;OFSSYDCJ</title>
<path fill="none" stroke="black" d="M3180.13,-75.77C3183.44,-67 3187.61,-55.96 3191.35,-46.05"/>
<polygon fill="black" stroke="black" points="3194.64,-47.25 3194.9,-36.66 3188.09,-44.78 3194.64,-47.25"/>
</g>
<!-- NWCQTEWW -->
<g id="node88" class="node">
<title>NWCQTEWW</title>
<ellipse fill="none" stroke="black" cx="3255" cy="-19.5" rx="18" ry="18"/>
<text text-anchor="middle" x="3255" y="-15.8" font-family="Times,serif" font-size="14.00">0</text>
</g>
<!-- NTUJDNEX&#45;&gt;NWCQTEWW -->
<g id="edge87" class="edge">
<title>NTUJDNEX&#45;&gt;NWCQTEWW</title>
<path fill="none" stroke="black" d="M3187.01,-80.51C3199.69,-69.32 3219.17,-52.12 3234.04,-39"/>
<polygon fill="black" stroke="black" points="3236.57,-41.44 3241.75,-32.19 3231.94,-36.19 3236.57,-41.44"/>
</g>
<!-- MFDDZJTA -->
<g id="node90" class="node">
<title>MFDDZJTA</title>
<ellipse fill="none" stroke="black" cx="3390" cy="-93" rx="18" ry="18"/>
</g>
<!-- WCOYIVGH&#45;&gt;MFDDZJTA -->
<g id="edge89" class="edge">
<title>WCOYIVGH&#45;&gt;MFDDZJTA</title>
<path fill="none" stroke="black" d="M3390,-146.69C3390,-138.98 3390,-129.71 3390,-121.11"/>
<polygon fill="black" stroke="black" points="3393.5,-121.1 3390,-111.1 3386.5,-121.1 3393.5,-121.1"/>
</g>
<!-- MYGDYEQS -->
<g id="node95" class="node">
<title>MYGDYEQS</title>
<ellipse fill="none" stroke="black" cx="3532" cy="-93" rx="18" ry="18"/>
</g>
<!-- WCOYIVGH&#45;&gt;MYGDYEQS -->
<g id="edge94" class="edge">
<title>WCOYIVGH&#45;&gt;MYGDYEQS</title>
<path fill="none" stroke="black" d="M3405.74,-156.24C3430.26,-144.15 3477.8,-120.71 3507.04,-106.3"/>
<polygon fill="black" stroke="black" points="3508.77,-109.35 3516.19,-101.79 3505.67,-103.07 3508.77,-109.35"/>
</g>
<!-- HRADNFQJ -->
<g id="node91" class="node">
<title>HRADNFQJ</title>
<ellipse fill="none" stroke="black" cx="3309" cy="-19.5" rx="18" ry="18"/>
<text text-anchor="middle" x="3309" y="-15.8" font-family="Times,serif" font-size="14.00">0</text>
</g>
<!-- MFDDZJTA&#45;&gt;HRADNFQJ -->
<g id="edge90" class="edge">
<title>MFDDZJTA&#45;&gt;HRADNFQJ</title>
<path fill="none" stroke="black" d="M3376.99,-80.51C3364.31,-69.32 3344.83,-52.12 3329.96,-39"/>
<polygon fill="black" stroke="black" points="3332.06,-36.19 3322.25,-32.19 3327.43,-41.44 3332.06,-36.19"/>
</g>
<!-- FMVVAMNZ -->
<g id="node92" class="node">
<title>FMVVAMNZ</title>
<ellipse fill="none" stroke="black" cx="3363" cy="-19.5" rx="18" ry="18"/>
<text text-anchor="middle" x="3363" y="-15.8" font-family="Times,serif" font-size="14.00">4</text>
</g>
<!-- MFDDZJTA&#45;&gt;FMVVAMNZ -->
<g id="edge91" class="edge">
<title>MFDDZJTA&#45;&gt;FMVVAMNZ</title>
<path fill="none" stroke="black" d="M3383.87,-75.77C3380.56,-67 3376.39,-55.96 3372.65,-46.05"/>
<polygon fill="black" stroke="black" points="3375.91,-44.78 3369.1,-36.66 3369.36,-47.25 3375.91,-44.78"/>
</g>
<!-- DUDGGIOP -->
<g id="node93" class="node">
<title>DUDGGIOP</title>
<ellipse fill="none" stroke="black" cx="3418" cy="-19.5" rx="19.5" ry="19.5"/>
<text text-anchor="middle" x="3418" y="-15.8" font-family="Times,serif" font-size="14.00">10</text>
</g>
<!-- MFDDZJTA&#45;&gt;DUDGGIOP -->
<g id="edge92" class="edge">
<title>MFDDZJTA&#45;&gt;DUDGGIOP</title>
<path fill="none" stroke="black" d="M3396.35,-75.77C3399.63,-67.39 3403.72,-56.95 3407.46,-47.41"/>
<polygon fill="black" stroke="black" points="3410.79,-48.5 3411.18,-37.91 3404.28,-45.94 3410.79,-48.5"/>
</g>
<!-- GKCUKPAZ -->
<g id="node94" class="node">
<title>GKCUKPAZ</title>
<ellipse fill="none" stroke="black" cx="3475" cy="-19.5" rx="19.5" ry="19.5"/>
<text text-anchor="middle" x="3475" y="-15.8" font-family="Times,serif" font-size="14.00">12</text>
</g>
<!-- MFDDZJTA&#45;&gt;GKCUKPAZ -->
<g id="edge93" class="edge">
<title>MFDDZJTA&#45;&gt;GKCUKPAZ</title>
<path fill="none" stroke="black" d="M3403.28,-80.82C3416.48,-69.72 3436.97,-52.49 3452.68,-39.28"/>
<polygon fill="black" stroke="black" points="3454.99,-41.9 3460.39,-32.79 3450.48,-36.55 3454.99,-41.9"/>
</g>
<!-- YVZPCTFR -->
<g id="node96" class="node">
<title>YVZPCTFR</title>
<ellipse fill="none" stroke="black" cx="3532" cy="-19.5" rx="19.5" ry="19.5"/>
<text text-anchor="middle" x="3532" y="-15.8" font-family="Times,serif" font-size="14.00">10</text>
</g>
<!-- MYGDYEQS&#45;&gt;YVZPCTFR -->
<g id="edge95" class="edge">
<title>MYGDYEQS&#45;&gt;YVZPCTFR</title>
<path fill="none" stroke="black" d="M3532,-74.69C3532,-67.05 3532,-57.86 3532,-49.24"/>
<polygon fill="black" stroke="black" points="3535.5,-49.15 3532,-39.15 3528.5,-49.15 3535.5,-49.15"/>
</g>
<!-- NMJADUJB -->
<g id="node97" class="node">
<title>NMJADUJB</title>
<ellipse fill="none" stroke="black" cx="3587" cy="-19.5" rx="18" ry="18"/>
<text text-anchor="middle" x="3587" y="-15.8" font-family="Times,serif" font-size="14.00">2</text>
</g>
<!-- MYGDYEQS&#45;&gt;NMJADUJB -->
<g id="edge96" class="edge">
<title>MYGDYEQS&#45;&gt;NMJADUJB</title>
<path fill="none" stroke="black" d="M3542.6,-78.21C3550.44,-68.02 3561.27,-53.95 3570.27,-42.25"/>
<polygon fill="black" stroke="black" points="3573.1,-44.3 3576.43,-34.24 3567.56,-40.03 3573.1,-44.3"/>
</g>
</g>
</svg>
