<?xml version="1.0" encoding="UTF-8" standalone="no"?>
<!DOCTYPE svg PUBLIC "-//W3C//DTD SVG 1.1//EN"
 "http://www.w3.org/Graphics/SVG/1.1/DTD/svg11.dtd">
<!-- Generated by graphviz version 2.46.1 (20210213.1702)
 -->
<!-- Title: D Pages: 1 -->
<svg width="2073pt" height="335pt"
 viewBox="0.00 0.00 2073.50 335.00" xmlns="http://www.w3.org/2000/svg" xmlns:xlink="http://www.w3.org/1999/xlink">
<g id="graph0" class="graph" transform="scale(1 1) rotate(0) translate(4 331)">
<title>D</title>
<polygon fill="white" stroke="transparent" points="-4,4 -4,-331 2069.5,-331 2069.5,4 -4,4"/>
<!-- VWIWFWII -->
<g id="node1" class="node">
<title>VWIWFWII</title>
<ellipse fill="none" stroke="black" cx="1251.5" cy="-309" rx="18" ry="18"/>
</g>
<!-- LGBMSZWA -->
<g id="node2" class="node">
<title>LGBMSZWA</title>
<ellipse fill="none" stroke="black" cx="1029.5" cy="-237" rx="18" ry="18"/>
</g>
<!-- VWIWFWII&#45;&gt;LGBMSZWA -->
<g id="edge1" class="edge">
<title>VWIWFWII&#45;&gt;LGBMSZWA</title>
<path fill="none" stroke="black" d="M1234.45,-302.62C1196.03,-290.51 1102.46,-261 1056.24,-246.43"/>
<polygon fill="black" stroke="black" points="1057.2,-243.06 1046.61,-243.39 1055.09,-249.74 1057.2,-243.06"/>
</g>
<!-- IHIPAOTJ -->
<g id="node35" class="node">
<title>IHIPAOTJ</title>
<ellipse fill="none" stroke="black" cx="1446.5" cy="-237" rx="18" ry="18"/>
</g>
<!-- VWIWFWII&#45;&gt;IHIPAOTJ -->
<g id="edge34" class="edge">
<title>VWIWFWII&#45;&gt;IHIPAOTJ</title>
<path fill="none" stroke="black" d="M1268.12,-302.03C1302,-289.87 1379.27,-262.13 1420.09,-247.48"/>
<polygon fill="black" stroke="black" points="1421.41,-250.72 1429.64,-244.05 1419.04,-244.13 1421.41,-250.72"/>
</g>
<!-- OQXTGGQX -->
<g id="node3" class="node">
<title>OQXTGGQX</title>
<ellipse fill="none" stroke="black" cx="487.5" cy="-165" rx="18" ry="18"/>
</g>
<!-- LGBMSZWA&#45;&gt;OQXTGGQX -->
<g id="edge2" class="edge">
<title>LGBMSZWA&#45;&gt;OQXTGGQX</title>
<path fill="none" stroke="black" d="M1011.77,-233.71C932.81,-223.51 612.69,-182.17 515.57,-169.62"/>
<polygon fill="black" stroke="black" points="515.73,-166.11 505.36,-168.3 514.83,-173.06 515.73,-166.11"/>
</g>
<!-- CPKYXTVY -->
<g id="node22" class="node">
<title>CPKYXTVY</title>
<ellipse fill="none" stroke="black" cx="1029.5" cy="-165" rx="18" ry="18"/>
</g>
<!-- LGBMSZWA&#45;&gt;CPKYXTVY -->
<g id="edge21" class="edge">
<title>LGBMSZWA&#45;&gt;CPKYXTVY</title>
<path fill="none" stroke="black" d="M1029.5,-218.69C1029.5,-210.98 1029.5,-201.71 1029.5,-193.11"/>
<polygon fill="black" stroke="black" points="1033,-193.1 1029.5,-183.1 1026,-193.1 1033,-193.1"/>
</g>
<!-- HMQJTPGU -->
<g id="node4" class="node">
<title>HMQJTPGU</title>
<ellipse fill="none" stroke="black" cx="129.5" cy="-93" rx="18" ry="18"/>
</g>
<!-- OQXTGGQX&#45;&gt;HMQJTPGU -->
<g id="edge3" class="edge">
<title>OQXTGGQX&#45;&gt;HMQJTPGU</title>
<path fill="none" stroke="black" d="M469.74,-160.53C411.77,-149.19 227.7,-113.2 157.27,-99.43"/>
<polygon fill="black" stroke="black" points="157.84,-95.97 147.36,-97.49 156.5,-102.84 157.84,-95.97"/>
</g>
<!-- HYQKKKNL -->
<g id="node9" class="node">
<title>HYQKKKNL</title>
<ellipse fill="none" stroke="black" cx="352.5" cy="-93" rx="18" ry="18"/>
</g>
<!-- OQXTGGQX&#45;&gt;HYQKKKNL -->
<g id="edge8" class="edge">
<title>OQXTGGQX&#45;&gt;HYQKKKNL</title>
<path fill="none" stroke="black" d="M471.75,-155.83C448.48,-143.76 404.7,-121.07 377.16,-106.78"/>
<polygon fill="black" stroke="black" points="378.64,-103.61 368.15,-102.11 375.41,-109.82 378.64,-103.61"/>
</g>
<!-- ODISKFSH -->
<g id="node14" class="node">
<title>ODISKFSH</title>
<ellipse fill="none" stroke="black" cx="487.5" cy="-93" rx="18" ry="18"/>
</g>
<!-- OQXTGGQX&#45;&gt;ODISKFSH -->
<g id="edge13" class="edge">
<title>OQXTGGQX&#45;&gt;ODISKFSH</title>
<path fill="none" stroke="black" d="M487.5,-146.69C487.5,-138.98 487.5,-129.71 487.5,-121.11"/>
<polygon fill="black" stroke="black" points="491,-121.1 487.5,-111.1 484,-121.1 491,-121.1"/>
</g>
<!-- ZJJWHRSV -->
<g id="node17" class="node">
<title>ZJJWHRSV</title>
<ellipse fill="none" stroke="black" cx="622.5" cy="-93" rx="18" ry="18"/>
</g>
<!-- OQXTGGQX&#45;&gt;ZJJWHRSV -->
<g id="edge16" class="edge">
<title>OQXTGGQX&#45;&gt;ZJJWHRSV</title>
<path fill="none" stroke="black" d="M503.25,-155.83C526.52,-143.76 570.29,-121.07 597.84,-106.78"/>
<polygon fill="black" stroke="black" points="599.58,-109.82 606.85,-102.11 596.36,-103.61 599.58,-109.82"/>
</g>
<!-- GTWVEAEB -->
<g id="node5" class="node">
<title>GTWVEAEB</title>
<ellipse fill="none" stroke="black" cx="19.5" cy="-19.5" rx="19.5" ry="19.5"/>
<text text-anchor="middle" x="19.5" y="-15.8" font-family="Times,serif" font-size="14.00">15</text>
</g>
<!-- HMQJTPGU&#45;&gt;GTWVEAEB -->
<g id="edge4" class="edge">
<title>HMQJTPGU&#45;&gt;GTWVEAEB</title>
<path fill="none" stroke="black" d="M114.66,-82.47C98.21,-71.89 70.91,-54.3 47.5,-39 46.4,-38.28 45.28,-37.55 44.15,-36.8"/>
<polygon fill="black" stroke="black" points="45.75,-33.67 35.47,-31.09 41.9,-39.51 45.75,-33.67"/>
</g>
<!-- QZNKXNYW -->
<g id="node6" class="node">
<title>QZNKXNYW</title>
<ellipse fill="none" stroke="black" cx="74.5" cy="-19.5" rx="18" ry="18"/>
<text text-anchor="middle" x="74.5" y="-15.8" font-family="Times,serif" font-size="14.00">1</text>
</g>
<!-- HMQJTPGU&#45;&gt;QZNKXNYW -->
<g id="edge5" class="edge">
<title>HMQJTPGU&#45;&gt;QZNKXNYW</title>
<path fill="none" stroke="black" d="M118.89,-78.21C111.06,-68.02 100.23,-53.95 91.23,-42.25"/>
<polygon fill="black" stroke="black" points="93.94,-40.03 85.07,-34.24 88.39,-44.3 93.94,-40.03"/>
</g>
<!-- EYCTPBCO -->
<g id="node7" class="node">
<title>EYCTPBCO</title>
<ellipse fill="none" stroke="black" cx="129.5" cy="-19.5" rx="19.5" ry="19.5"/>
<text text-anchor="middle" x="129.5" y="-15.8" font-family="Times,serif" font-size="14.00">10</text>
</g>
<!-- HMQJTPGU&#45;&gt;EYCTPBCO -->
<g id="edge6" class="edge">
<title>HMQJTPGU&#45;&gt;EYCTPBCO</title>
<path fill="none" stroke="black" d="M129.5,-74.69C129.5,-67.05 129.5,-57.86 129.5,-49.24"/>
<polygon fill="black" stroke="black" points="133,-49.15 129.5,-39.15 126,-49.15 133,-49.15"/>
</g>
<!-- ICOKZMIC -->
<g id="node8" class="node">
<title>ICOKZMIC</title>
<ellipse fill="none" stroke="black" cx="186.5" cy="-19.5" rx="19.5" ry="19.5"/>
<text text-anchor="middle" x="186.5" y="-15.8" font-family="Times,serif" font-size="14.00">10</text>
</g>
<!-- HMQJTPGU&#45;&gt;ICOKZMIC -->
<g id="edge7" class="edge">
<title>HMQJTPGU&#45;&gt;ICOKZMIC</title>
<path fill="none" stroke="black" d="M140.49,-78.21C148.4,-68.28 159.26,-54.67 168.44,-43.16"/>
<polygon fill="black" stroke="black" points="171.26,-45.23 174.76,-35.23 165.79,-40.86 171.26,-45.23"/>
</g>
<!-- SFTPCFSS -->
<g id="node10" class="node">
<title>SFTPCFSS</title>
<ellipse fill="none" stroke="black" cx="243.5" cy="-19.5" rx="19.5" ry="19.5"/>
<text text-anchor="middle" x="243.5" y="-15.8" font-family="Times,serif" font-size="14.00">15</text>
</g>
<!-- HYQKKKNL&#45;&gt;SFTPCFSS -->
<g id="edge9" class="edge">
<title>HYQKKKNL&#45;&gt;SFTPCFSS</title>
<path fill="none" stroke="black" d="M337.85,-82.44C321.62,-71.84 294.67,-54.23 271.5,-39 270.4,-38.28 269.28,-37.54 268.15,-36.8"/>
<polygon fill="black" stroke="black" points="269.76,-33.66 259.48,-31.08 265.9,-39.5 269.76,-33.66"/>
</g>
<!-- XTMDSDLK -->
<g id="node11" class="node">
<title>XTMDSDLK</title>
<ellipse fill="none" stroke="black" cx="298.5" cy="-19.5" rx="18" ry="18"/>
<text text-anchor="middle" x="298.5" y="-15.8" font-family="Times,serif" font-size="14.00">6</text>
</g>
<!-- HYQKKKNL&#45;&gt;XTMDSDLK -->
<g id="edge10" class="edge">
<title>HYQKKKNL&#45;&gt;XTMDSDLK</title>
<path fill="none" stroke="black" d="M342.09,-78.21C334.39,-68.02 323.76,-53.95 314.93,-42.25"/>
<polygon fill="black" stroke="black" points="317.7,-40.11 308.88,-34.24 312.11,-44.33 317.7,-40.11"/>
</g>
<!-- FIQXBOPQ -->
<g id="node12" class="node">
<title>FIQXBOPQ</title>
<ellipse fill="none" stroke="black" cx="352.5" cy="-19.5" rx="18" ry="18"/>
<text text-anchor="middle" x="352.5" y="-15.8" font-family="Times,serif" font-size="14.00">6</text>
</g>
<!-- HYQKKKNL&#45;&gt;FIQXBOPQ -->
<g id="edge11" class="edge">
<title>HYQKKKNL&#45;&gt;FIQXBOPQ</title>
<path fill="none" stroke="black" d="M352.5,-74.69C352.5,-66.61 352.5,-56.8 352.5,-47.76"/>
<polygon fill="black" stroke="black" points="356,-47.65 352.5,-37.65 349,-47.65 356,-47.65"/>
</g>
<!-- FLJJNJTW -->
<g id="node13" class="node">
<title>FLJJNJTW</title>
<ellipse fill="none" stroke="black" cx="406.5" cy="-19.5" rx="18" ry="18"/>
<text text-anchor="middle" x="406.5" y="-15.8" font-family="Times,serif" font-size="14.00">1</text>
</g>
<!-- HYQKKKNL&#45;&gt;FLJJNJTW -->
<g id="edge12" class="edge">
<title>HYQKKKNL&#45;&gt;FLJJNJTW</title>
<path fill="none" stroke="black" d="M362.91,-78.21C370.6,-68.02 381.23,-53.95 390.07,-42.25"/>
<polygon fill="black" stroke="black" points="392.88,-44.33 396.12,-34.24 387.3,-40.11 392.88,-44.33"/>
</g>
<!-- NXHSVYLB -->
<g id="node15" class="node">
<title>NXHSVYLB</title>
<ellipse fill="none" stroke="black" cx="460.5" cy="-19.5" rx="18" ry="18"/>
<text text-anchor="middle" x="460.5" y="-15.8" font-family="Times,serif" font-size="14.00">3</text>
</g>
<!-- ODISKFSH&#45;&gt;NXHSVYLB -->
<g id="edge14" class="edge">
<title>ODISKFSH&#45;&gt;NXHSVYLB</title>
<path fill="none" stroke="black" d="M481.37,-75.77C478.06,-67 473.89,-55.96 470.15,-46.05"/>
<polygon fill="black" stroke="black" points="473.41,-44.78 466.6,-36.66 466.86,-47.25 473.41,-44.78"/>
</g>
<!-- IYUPVYJP -->
<g id="node16" class="node">
<title>IYUPVYJP</title>
<ellipse fill="none" stroke="black" cx="514.5" cy="-19.5" rx="18" ry="18"/>
<text text-anchor="middle" x="514.5" y="-15.8" font-family="Times,serif" font-size="14.00">0</text>
</g>
<!-- ODISKFSH&#45;&gt;IYUPVYJP -->
<g id="edge15" class="edge">
<title>ODISKFSH&#45;&gt;IYUPVYJP</title>
<path fill="none" stroke="black" d="M493.62,-75.77C496.94,-67 501.11,-55.96 504.85,-46.05"/>
<polygon fill="black" stroke="black" points="508.14,-47.25 508.4,-36.66 501.59,-44.78 508.14,-47.25"/>
</g>
<!-- IDCUVYWG -->
<g id="node18" class="node">
<title>IDCUVYWG</title>
<ellipse fill="none" stroke="black" cx="568.5" cy="-19.5" rx="18" ry="18"/>
<text text-anchor="middle" x="568.5" y="-15.8" font-family="Times,serif" font-size="14.00">0</text>
</g>
<!-- ZJJWHRSV&#45;&gt;IDCUVYWG -->
<g id="edge17" class="edge">
<title>ZJJWHRSV&#45;&gt;IDCUVYWG</title>
<path fill="none" stroke="black" d="M612.09,-78.21C604.39,-68.02 593.76,-53.95 584.93,-42.25"/>
<polygon fill="black" stroke="black" points="587.7,-40.11 578.88,-34.24 582.11,-44.33 587.7,-40.11"/>
</g>
<!-- LVVLIJFZ -->
<g id="node19" class="node">
<title>LVVLIJFZ</title>
<ellipse fill="none" stroke="black" cx="622.5" cy="-19.5" rx="18" ry="18"/>
<text text-anchor="middle" x="622.5" y="-15.8" font-family="Times,serif" font-size="14.00">1</text>
</g>
<!-- ZJJWHRSV&#45;&gt;LVVLIJFZ -->
<g id="edge18" class="edge">
<title>ZJJWHRSV&#45;&gt;LVVLIJFZ</title>
<path fill="none" stroke="black" d="M622.5,-74.69C622.5,-66.61 622.5,-56.8 622.5,-47.76"/>
<polygon fill="black" stroke="black" points="626,-47.65 622.5,-37.65 619,-47.65 626,-47.65"/>
</g>
<!-- SMKROLYW -->
<g id="node20" class="node">
<title>SMKROLYW</title>
<ellipse fill="none" stroke="black" cx="676.5" cy="-19.5" rx="18" ry="18"/>
<text text-anchor="middle" x="676.5" y="-15.8" font-family="Times,serif" font-size="14.00">6</text>
</g>
<!-- ZJJWHRSV&#45;&gt;SMKROLYW -->
<g id="edge19" class="edge">
<title>ZJJWHRSV&#45;&gt;SMKROLYW</title>
<path fill="none" stroke="black" d="M632.91,-78.21C640.6,-68.02 651.23,-53.95 660.07,-42.25"/>
<polygon fill="black" stroke="black" points="662.88,-44.33 666.12,-34.24 657.3,-40.11 662.88,-44.33"/>
</g>
<!-- HBZHIPAL -->
<g id="node21" class="node">
<title>HBZHIPAL</title>
<ellipse fill="none" stroke="black" cx="730.5" cy="-19.5" rx="18" ry="18"/>
<text text-anchor="middle" x="730.5" y="-15.8" font-family="Times,serif" font-size="14.00">1</text>
</g>
<!-- ZJJWHRSV&#45;&gt;HBZHIPAL -->
<g id="edge20" class="edge">
<title>ZJJWHRSV&#45;&gt;HBZHIPAL</title>
<path fill="none" stroke="black" d="M637.19,-82.52C653.47,-71.98 680.46,-54.42 703.5,-39 704.77,-38.15 706.07,-37.27 707.38,-36.39"/>
<polygon fill="black" stroke="black" points="709.67,-39.06 715.96,-30.54 705.73,-33.27 709.67,-39.06"/>
</g>
<!-- YHWRFDTS -->
<g id="node23" class="node">
<title>YHWRFDTS</title>
<ellipse fill="none" stroke="black" cx="865.5" cy="-93" rx="18" ry="18"/>
</g>
<!-- CPKYXTVY&#45;&gt;YHWRFDTS -->
<g id="edge22" class="edge">
<title>CPKYXTVY&#45;&gt;YHWRFDTS</title>
<path fill="none" stroke="black" d="M1013.17,-157.03C984.56,-144.82 925.17,-119.46 891.06,-104.91"/>
<polygon fill="black" stroke="black" points="892.33,-101.64 881.76,-100.94 889.58,-108.08 892.33,-101.64"/>
</g>
<!-- HHSJELTK -->
<g id="node27" class="node">
<title>HHSJELTK</title>
<ellipse fill="none" stroke="black" cx="1029.5" cy="-93" rx="18" ry="18"/>
</g>
<!-- CPKYXTVY&#45;&gt;HHSJELTK -->
<g id="edge26" class="edge">
<title>CPKYXTVY&#45;&gt;HHSJELTK</title>
<path fill="none" stroke="black" d="M1029.5,-146.69C1029.5,-138.98 1029.5,-129.71 1029.5,-121.11"/>
<polygon fill="black" stroke="black" points="1033,-121.1 1029.5,-111.1 1026,-121.1 1033,-121.1"/>
</g>
<!-- YLLXZYKH -->
<g id="node32" class="node">
<title>YLLXZYKH</title>
<ellipse fill="none" stroke="black" cx="1171.5" cy="-93" rx="18" ry="18"/>
</g>
<!-- CPKYXTVY&#45;&gt;YLLXZYKH -->
<g id="edge31" class="edge">
<title>CPKYXTVY&#45;&gt;YLLXZYKH</title>
<path fill="none" stroke="black" d="M1045.24,-156.24C1069.76,-144.15 1117.3,-120.71 1146.54,-106.3"/>
<polygon fill="black" stroke="black" points="1148.27,-109.35 1155.69,-101.79 1145.17,-103.07 1148.27,-109.35"/>
</g>
<!-- NRLFNBZH -->
<g id="node24" class="node">
<title>NRLFNBZH</title>
<ellipse fill="none" stroke="black" cx="784.5" cy="-19.5" rx="18" ry="18"/>
<text text-anchor="middle" x="784.5" y="-15.8" font-family="Times,serif" font-size="14.00">3</text>
</g>
<!-- YHWRFDTS&#45;&gt;NRLFNBZH -->
<g id="edge23" class="edge">
<title>YHWRFDTS&#45;&gt;NRLFNBZH</title>
<path fill="none" stroke="black" d="M852.48,-80.51C839.81,-69.32 820.32,-52.12 805.46,-39"/>
<polygon fill="black" stroke="black" points="807.56,-36.19 797.75,-32.19 802.93,-41.44 807.56,-36.19"/>
</g>
<!-- WWRGSDMI -->
<g id="node25" class="node">
<title>WWRGSDMI</title>
<ellipse fill="none" stroke="black" cx="838.5" cy="-19.5" rx="18" ry="18"/>
<text text-anchor="middle" x="838.5" y="-15.8" font-family="Times,serif" font-size="14.00">6</text>
</g>
<!-- YHWRFDTS&#45;&gt;WWRGSDMI -->
<g id="edge24" class="edge">
<title>YHWRFDTS&#45;&gt;WWRGSDMI</title>
<path fill="none" stroke="black" d="M859.37,-75.77C856.06,-67 851.89,-55.96 848.15,-46.05"/>
<polygon fill="black" stroke="black" points="851.41,-44.78 844.6,-36.66 844.86,-47.25 851.41,-44.78"/>
</g>
<!-- GGXOIDXG -->
<g id="node26" class="node">
<title>GGXOIDXG</title>
<ellipse fill="none" stroke="black" cx="892.5" cy="-19.5" rx="18" ry="18"/>
<text text-anchor="middle" x="892.5" y="-15.8" font-family="Times,serif" font-size="14.00">4</text>
</g>
<!-- YHWRFDTS&#45;&gt;GGXOIDXG -->
<g id="edge25" class="edge">
<title>YHWRFDTS&#45;&gt;GGXOIDXG</title>
<path fill="none" stroke="black" d="M871.62,-75.77C874.94,-67 879.11,-55.96 882.85,-46.05"/>
<polygon fill="black" stroke="black" points="886.14,-47.25 886.4,-36.66 879.59,-44.78 886.14,-47.25"/>
</g>
<!-- VSGIUADQ -->
<g id="node28" class="node">
<title>VSGIUADQ</title>
<ellipse fill="none" stroke="black" cx="947.5" cy="-19.5" rx="19.5" ry="19.5"/>
<text text-anchor="middle" x="947.5" y="-15.8" font-family="Times,serif" font-size="14.00">14</text>
</g>
<!-- HHSJELTK&#45;&gt;VSGIUADQ -->
<g id="edge27" class="edge">
<title>HHSJELTK&#45;&gt;VSGIUADQ</title>
<path fill="none" stroke="black" d="M1016.32,-80.51C1003.72,-69.52 984.47,-52.73 969.53,-39.71"/>
<polygon fill="black" stroke="black" points="971.58,-36.85 961.74,-32.92 966.98,-42.13 971.58,-36.85"/>
</g>
<!-- EYAJVZLX -->
<g id="node29" class="node">
<title>EYAJVZLX</title>
<ellipse fill="none" stroke="black" cx="1002.5" cy="-19.5" rx="18" ry="18"/>
<text text-anchor="middle" x="1002.5" y="-15.8" font-family="Times,serif" font-size="14.00">4</text>
</g>
<!-- HHSJELTK&#45;&gt;EYAJVZLX -->
<g id="edge28" class="edge">
<title>HHSJELTK&#45;&gt;EYAJVZLX</title>
<path fill="none" stroke="black" d="M1023.37,-75.77C1020.06,-67 1015.89,-55.96 1012.15,-46.05"/>
<polygon fill="black" stroke="black" points="1015.41,-44.78 1008.6,-36.66 1008.86,-47.25 1015.41,-44.78"/>
</g>
<!-- BDJMJNIF -->
<g id="node30" class="node">
<title>BDJMJNIF</title>
<ellipse fill="none" stroke="black" cx="1057.5" cy="-19.5" rx="19.5" ry="19.5"/>
<text text-anchor="middle" x="1057.5" y="-15.8" font-family="Times,serif" font-size="14.00">10</text>
</g>
<!-- HHSJELTK&#45;&gt;BDJMJNIF -->
<g id="edge29" class="edge">
<title>HHSJELTK&#45;&gt;BDJMJNIF</title>
<path fill="none" stroke="black" d="M1035.85,-75.77C1039.13,-67.39 1043.22,-56.95 1046.96,-47.41"/>
<polygon fill="black" stroke="black" points="1050.29,-48.5 1050.68,-37.91 1043.77,-45.94 1050.29,-48.5"/>
</g>
<!-- GTPTRRNO -->
<g id="node31" class="node">
<title>GTPTRRNO</title>
<ellipse fill="none" stroke="black" cx="1114.5" cy="-19.5" rx="19.5" ry="19.5"/>
<text text-anchor="middle" x="1114.5" y="-15.8" font-family="Times,serif" font-size="14.00">11</text>
</g>
<!-- HHSJELTK&#45;&gt;GTPTRRNO -->
<g id="edge30" class="edge">
<title>HHSJELTK&#45;&gt;GTPTRRNO</title>
<path fill="none" stroke="black" d="M1042.78,-80.82C1055.98,-69.72 1076.47,-52.49 1092.17,-39.28"/>
<polygon fill="black" stroke="black" points="1094.49,-41.9 1099.89,-32.79 1089.98,-36.55 1094.49,-41.9"/>
</g>
<!-- VDMSWVXU -->
<g id="node33" class="node">
<title>VDMSWVXU</title>
<ellipse fill="none" stroke="black" cx="1171.5" cy="-19.5" rx="19.5" ry="19.5"/>
<text text-anchor="middle" x="1171.5" y="-15.8" font-family="Times,serif" font-size="14.00">11</text>
</g>
<!-- YLLXZYKH&#45;&gt;VDMSWVXU -->
<g id="edge32" class="edge">
<title>YLLXZYKH&#45;&gt;VDMSWVXU</title>
<path fill="none" stroke="black" d="M1171.5,-74.69C1171.5,-67.05 1171.5,-57.86 1171.5,-49.24"/>
<polygon fill="black" stroke="black" points="1175,-49.15 1171.5,-39.15 1168,-49.15 1175,-49.15"/>
</g>
<!-- RMCPDFBZ -->
<g id="node34" class="node">
<title>RMCPDFBZ</title>
<ellipse fill="none" stroke="black" cx="1228.5" cy="-19.5" rx="19.5" ry="19.5"/>
<text text-anchor="middle" x="1228.5" y="-15.8" font-family="Times,serif" font-size="14.00">14</text>
</g>
<!-- YLLXZYKH&#45;&gt;RMCPDFBZ -->
<g id="edge33" class="edge">
<title>YLLXZYKH&#45;&gt;RMCPDFBZ</title>
<path fill="none" stroke="black" d="M1182.49,-78.21C1190.4,-68.28 1201.26,-54.67 1210.44,-43.16"/>
<polygon fill="black" stroke="black" points="1213.26,-45.23 1216.76,-35.23 1207.79,-40.86 1213.26,-45.23"/>
</g>
<!-- EQVWSBPP -->
<g id="node36" class="node">
<title>EQVWSBPP</title>
<ellipse fill="none" stroke="black" cx="1446.5" cy="-165" rx="18" ry="18"/>
</g>
<!-- IHIPAOTJ&#45;&gt;EQVWSBPP -->
<g id="edge35" class="edge">
<title>IHIPAOTJ&#45;&gt;EQVWSBPP</title>
<path fill="none" stroke="black" d="M1446.5,-218.69C1446.5,-210.98 1446.5,-201.71 1446.5,-193.11"/>
<polygon fill="black" stroke="black" points="1450,-193.1 1446.5,-183.1 1443,-193.1 1450,-193.1"/>
</g>
<!-- AFEOKOFD -->
<g id="node49" class="node">
<title>AFEOKOFD</title>
<ellipse fill="none" stroke="black" cx="1827.5" cy="-165" rx="18" ry="18"/>
</g>
<!-- IHIPAOTJ&#45;&gt;AFEOKOFD -->
<g id="edge48" class="edge">
<title>IHIPAOTJ&#45;&gt;AFEOKOFD</title>
<path fill="none" stroke="black" d="M1464.11,-232.76C1524.79,-221.61 1725.49,-184.74 1799.64,-171.11"/>
<polygon fill="black" stroke="black" points="1800.43,-174.53 1809.63,-169.28 1799.17,-167.64 1800.43,-174.53"/>
</g>
<!-- YACLRZPD -->
<g id="node37" class="node">
<title>YACLRZPD</title>
<ellipse fill="none" stroke="black" cx="1337.5" cy="-93" rx="18" ry="18"/>
</g>
<!-- EQVWSBPP&#45;&gt;YACLRZPD -->
<g id="edge36" class="edge">
<title>EQVWSBPP&#45;&gt;YACLRZPD</title>
<path fill="none" stroke="black" d="M1431.8,-154.56C1413.6,-142.87 1382.37,-122.81 1360.87,-109"/>
<polygon fill="black" stroke="black" points="1362.62,-105.97 1352.31,-103.51 1358.84,-111.86 1362.62,-105.97"/>
</g>
<!-- OJRZXVDT -->
<g id="node40" class="node">
<title>OJRZXVDT</title>
<ellipse fill="none" stroke="black" cx="1446.5" cy="-93" rx="18" ry="18"/>
</g>
<!-- EQVWSBPP&#45;&gt;OJRZXVDT -->
<g id="edge39" class="edge">
<title>EQVWSBPP&#45;&gt;OJRZXVDT</title>
<path fill="none" stroke="black" d="M1446.5,-146.69C1446.5,-138.98 1446.5,-129.71 1446.5,-121.11"/>
<polygon fill="black" stroke="black" points="1450,-121.1 1446.5,-111.1 1443,-121.1 1450,-121.1"/>
</g>
<!-- ZXJTOWUW -->
<g id="node44" class="node">
<title>ZXJTOWUW</title>
<ellipse fill="none" stroke="black" cx="1610.5" cy="-93" rx="18" ry="18"/>
</g>
<!-- EQVWSBPP&#45;&gt;ZXJTOWUW -->
<g id="edge43" class="edge">
<title>EQVWSBPP&#45;&gt;ZXJTOWUW</title>
<path fill="none" stroke="black" d="M1462.82,-157.03C1491.43,-144.82 1550.83,-119.46 1584.93,-104.91"/>
<polygon fill="black" stroke="black" points="1586.42,-108.08 1594.24,-100.94 1583.67,-101.64 1586.42,-108.08"/>
</g>
<!-- CPBBHMRN -->
<g id="node38" class="node">
<title>CPBBHMRN</title>
<ellipse fill="none" stroke="black" cx="1283.5" cy="-19.5" rx="18" ry="18"/>
<text text-anchor="middle" x="1283.5" y="-15.8" font-family="Times,serif" font-size="14.00">9</text>
</g>
<!-- YACLRZPD&#45;&gt;CPBBHMRN -->
<g id="edge37" class="edge">
<title>YACLRZPD&#45;&gt;CPBBHMRN</title>
<path fill="none" stroke="black" d="M1327.09,-78.21C1319.39,-68.02 1308.76,-53.95 1299.93,-42.25"/>
<polygon fill="black" stroke="black" points="1302.7,-40.11 1293.88,-34.24 1297.11,-44.33 1302.7,-40.11"/>
</g>
<!-- WUBGQZFK -->
<g id="node39" class="node">
<title>WUBGQZFK</title>
<ellipse fill="none" stroke="black" cx="1337.5" cy="-19.5" rx="18" ry="18"/>
<text text-anchor="middle" x="1337.5" y="-15.8" font-family="Times,serif" font-size="14.00">1</text>
</g>
<!-- YACLRZPD&#45;&gt;WUBGQZFK -->
<g id="edge38" class="edge">
<title>YACLRZPD&#45;&gt;WUBGQZFK</title>
<path fill="none" stroke="black" d="M1337.5,-74.69C1337.5,-66.61 1337.5,-56.8 1337.5,-47.76"/>
<polygon fill="black" stroke="black" points="1341,-47.65 1337.5,-37.65 1334,-47.65 1341,-47.65"/>
</g>
<!-- SGFCCJBN -->
<g id="node41" class="node">
<title>SGFCCJBN</title>
<ellipse fill="none" stroke="black" cx="1391.5" cy="-19.5" rx="18" ry="18"/>
<text text-anchor="middle" x="1391.5" y="-15.8" font-family="Times,serif" font-size="14.00">4</text>
</g>
<!-- OJRZXVDT&#45;&gt;SGFCCJBN -->
<g id="edge40" class="edge">
<title>OJRZXVDT&#45;&gt;SGFCCJBN</title>
<path fill="none" stroke="black" d="M1435.89,-78.21C1428.06,-68.02 1417.23,-53.95 1408.23,-42.25"/>
<polygon fill="black" stroke="black" points="1410.94,-40.03 1402.07,-34.24 1405.39,-44.3 1410.94,-40.03"/>
</g>
<!-- VGTBLJGI -->
<g id="node42" class="node">
<title>VGTBLJGI</title>
<ellipse fill="none" stroke="black" cx="1446.5" cy="-19.5" rx="19.5" ry="19.5"/>
<text text-anchor="middle" x="1446.5" y="-15.8" font-family="Times,serif" font-size="14.00">13</text>
</g>
<!-- OJRZXVDT&#45;&gt;VGTBLJGI -->
<g id="edge41" class="edge">
<title>OJRZXVDT&#45;&gt;VGTBLJGI</title>
<path fill="none" stroke="black" d="M1446.5,-74.69C1446.5,-67.05 1446.5,-57.86 1446.5,-49.24"/>
<polygon fill="black" stroke="black" points="1450,-49.15 1446.5,-39.15 1443,-49.15 1450,-49.15"/>
</g>
<!-- APHRJHPB -->
<g id="node43" class="node">
<title>APHRJHPB</title>
<ellipse fill="none" stroke="black" cx="1501.5" cy="-19.5" rx="18" ry="18"/>
<text text-anchor="middle" x="1501.5" y="-15.8" font-family="Times,serif" font-size="14.00">6</text>
</g>
<!-- OJRZXVDT&#45;&gt;APHRJHPB -->
<g id="edge42" class="edge">
<title>OJRZXVDT&#45;&gt;APHRJHPB</title>
<path fill="none" stroke="black" d="M1457.1,-78.21C1464.94,-68.02 1475.77,-53.95 1484.77,-42.25"/>
<polygon fill="black" stroke="black" points="1487.6,-44.3 1490.93,-34.24 1482.05,-40.03 1487.6,-44.3"/>
</g>
<!-- MHEGPHFB -->
<g id="node45" class="node">
<title>MHEGPHFB</title>
<ellipse fill="none" stroke="black" cx="1555.5" cy="-19.5" rx="18" ry="18"/>
<text text-anchor="middle" x="1555.5" y="-15.8" font-family="Times,serif" font-size="14.00">1</text>
</g>
<!-- ZXJTOWUW&#45;&gt;MHEGPHFB -->
<g id="edge44" class="edge">
<title>ZXJTOWUW&#45;&gt;MHEGPHFB</title>
<path fill="none" stroke="black" d="M1599.89,-78.21C1592.06,-68.02 1581.23,-53.95 1572.23,-42.25"/>
<polygon fill="black" stroke="black" points="1574.94,-40.03 1566.07,-34.24 1569.39,-44.3 1574.94,-40.03"/>
</g>
<!-- HNLMLGAY -->
<g id="node46" class="node">
<title>HNLMLGAY</title>
<ellipse fill="none" stroke="black" cx="1610.5" cy="-19.5" rx="19.5" ry="19.5"/>
<text text-anchor="middle" x="1610.5" y="-15.8" font-family="Times,serif" font-size="14.00">11</text>
</g>
<!-- ZXJTOWUW&#45;&gt;HNLMLGAY -->
<g id="edge45" class="edge">
<title>ZXJTOWUW&#45;&gt;HNLMLGAY</title>
<path fill="none" stroke="black" d="M1610.5,-74.69C1610.5,-67.05 1610.5,-57.86 1610.5,-49.24"/>
<polygon fill="black" stroke="black" points="1614,-49.15 1610.5,-39.15 1607,-49.15 1614,-49.15"/>
</g>
<!-- KEKDKHRW -->
<g id="node47" class="node">
<title>KEKDKHRW</title>
<ellipse fill="none" stroke="black" cx="1665.5" cy="-19.5" rx="18" ry="18"/>
<text text-anchor="middle" x="1665.5" y="-15.8" font-family="Times,serif" font-size="14.00">2</text>
</g>
<!-- ZXJTOWUW&#45;&gt;KEKDKHRW -->
<g id="edge46" class="edge">
<title>ZXJTOWUW&#45;&gt;KEKDKHRW</title>
<path fill="none" stroke="black" d="M1621.1,-78.21C1628.94,-68.02 1639.77,-53.95 1648.77,-42.25"/>
<polygon fill="black" stroke="black" points="1651.6,-44.3 1654.93,-34.24 1646.05,-40.03 1651.6,-44.3"/>
</g>
<!-- TAMHRHSJ -->
<g id="node48" class="node">
<title>TAMHRHSJ</title>
<ellipse fill="none" stroke="black" cx="1719.5" cy="-19.5" rx="18" ry="18"/>
<text text-anchor="middle" x="1719.5" y="-15.8" font-family="Times,serif" font-size="14.00">8</text>
</g>
<!-- ZXJTOWUW&#45;&gt;TAMHRHSJ -->
<g id="edge47" class="edge">
<title>ZXJTOWUW&#45;&gt;TAMHRHSJ</title>
<path fill="none" stroke="black" d="M1625.39,-82.54C1641.88,-72.03 1669.21,-54.49 1692.5,-39 1693.77,-38.15 1695.07,-37.28 1696.38,-36.39"/>
<polygon fill="black" stroke="black" points="1698.67,-39.07 1704.97,-30.55 1694.74,-33.28 1698.67,-39.07"/>
</g>
<!-- ICFJRVYL -->
<g id="node50" class="node">
<title>ICFJRVYL</title>
<ellipse fill="none" stroke="black" cx="1827.5" cy="-93" rx="18" ry="18"/>
</g>
<!-- AFEOKOFD&#45;&gt;ICFJRVYL -->
<g id="edge49" class="edge">
<title>AFEOKOFD&#45;&gt;ICFJRVYL</title>
<path fill="none" stroke="black" d="M1827.5,-146.69C1827.5,-138.98 1827.5,-129.71 1827.5,-121.11"/>
<polygon fill="black" stroke="black" points="1831,-121.1 1827.5,-111.1 1824,-121.1 1831,-121.1"/>
</g>
<!-- MISYMXEP -->
<g id="node54" class="node">
<title>MISYMXEP</title>
<ellipse fill="none" stroke="black" cx="1964.5" cy="-93" rx="18" ry="18"/>
</g>
<!-- AFEOKOFD&#45;&gt;MISYMXEP -->
<g id="edge53" class="edge">
<title>AFEOKOFD&#45;&gt;MISYMXEP</title>
<path fill="none" stroke="black" d="M1843.21,-155.97C1866.73,-143.95 1911.3,-121.18 1939.37,-106.84"/>
<polygon fill="black" stroke="black" points="1941.23,-109.82 1948.54,-102.15 1938.05,-103.58 1941.23,-109.82"/>
</g>
<!-- KNFVMZSR -->
<g id="node51" class="node">
<title>KNFVMZSR</title>
<ellipse fill="none" stroke="black" cx="1773.5" cy="-19.5" rx="18" ry="18"/>
<text text-anchor="middle" x="1773.5" y="-15.8" font-family="Times,serif" font-size="14.00">8</text>
</g>
<!-- ICFJRVYL&#45;&gt;KNFVMZSR -->
<g id="edge50" class="edge">
<title>ICFJRVYL&#45;&gt;KNFVMZSR</title>
<path fill="none" stroke="black" d="M1817.09,-78.21C1809.39,-68.02 1798.76,-53.95 1789.93,-42.25"/>
<polygon fill="black" stroke="black" points="1792.7,-40.11 1783.88,-34.24 1787.11,-44.33 1792.7,-40.11"/>
</g>
<!-- KJCMPXYB -->
<g id="node52" class="node">
<title>KJCMPXYB</title>
<ellipse fill="none" stroke="black" cx="1827.5" cy="-19.5" rx="18" ry="18"/>
<text text-anchor="middle" x="1827.5" y="-15.8" font-family="Times,serif" font-size="14.00">0</text>
</g>
<!-- ICFJRVYL&#45;&gt;KJCMPXYB -->
<g id="edge51" class="edge">
<title>ICFJRVYL&#45;&gt;KJCMPXYB</title>
<path fill="none" stroke="black" d="M1827.5,-74.69C1827.5,-66.61 1827.5,-56.8 1827.5,-47.76"/>
<polygon fill="black" stroke="black" points="1831,-47.65 1827.5,-37.65 1824,-47.65 1831,-47.65"/>
</g>
<!-- WNQPTVON -->
<g id="node53" class="node">
<title>WNQPTVON</title>
<ellipse fill="none" stroke="black" cx="1882.5" cy="-19.5" rx="19.5" ry="19.5"/>
<text text-anchor="middle" x="1882.5" y="-15.8" font-family="Times,serif" font-size="14.00">12</text>
</g>
<!-- ICFJRVYL&#45;&gt;WNQPTVON -->
<g id="edge52" class="edge">
<title>ICFJRVYL&#45;&gt;WNQPTVON</title>
<path fill="none" stroke="black" d="M1838.1,-78.21C1845.62,-68.45 1855.87,-55.11 1864.64,-43.72"/>
<polygon fill="black" stroke="black" points="1867.65,-45.54 1870.98,-35.48 1862.11,-41.27 1867.65,-45.54"/>
</g>
<!-- SKDMETFM -->
<g id="node55" class="node">
<title>SKDMETFM</title>
<ellipse fill="none" stroke="black" cx="1937.5" cy="-19.5" rx="18" ry="18"/>
<text text-anchor="middle" x="1937.5" y="-15.8" font-family="Times,serif" font-size="14.00">8</text>
</g>
<!-- MISYMXEP&#45;&gt;SKDMETFM -->
<g id="edge54" class="edge">
<title>MISYMXEP&#45;&gt;SKDMETFM</title>
<path fill="none" stroke="black" d="M1958.37,-75.77C1955.06,-67 1950.89,-55.96 1947.15,-46.05"/>
<polygon fill="black" stroke="black" points="1950.41,-44.78 1943.6,-36.66 1943.86,-47.25 1950.41,-44.78"/>
</g>
<!-- RVKBVDYR -->
<g id="node56" class="node">
<title>RVKBVDYR</title>
<ellipse fill="none" stroke="black" cx="1992.5" cy="-19.5" rx="19.5" ry="19.5"/>
<text text-anchor="middle" x="1992.5" y="-15.8" font-family="Times,serif" font-size="14.00">14</text>
</g>
<!-- MISYMXEP&#45;&gt;RVKBVDYR -->
<g id="edge55" class="edge">
<title>MISYMXEP&#45;&gt;RVKBVDYR</title>
<path fill="none" stroke="black" d="M1970.85,-75.77C1974.13,-67.39 1978.22,-56.95 1981.96,-47.41"/>
<polygon fill="black" stroke="black" points="1985.29,-48.5 1985.68,-37.91 1978.77,-45.94 1985.29,-48.5"/>
</g>
<!-- XLATCKLC -->
<g id="node57" class="node">
<title>XLATCKLC</title>
<ellipse fill="none" stroke="black" cx="2047.5" cy="-19.5" rx="18" ry="18"/>
<text text-anchor="middle" x="2047.5" y="-15.8" font-family="Times,serif" font-size="14.00">4</text>
</g>
<!-- MISYMXEP&#45;&gt;XLATCKLC -->
<g id="edge56" class="edge">
<title>MISYMXEP&#45;&gt;XLATCKLC</title>
<path fill="none" stroke="black" d="M1977.83,-80.51C1990.9,-69.25 2011.03,-51.92 2026.29,-38.77"/>
<polygon fill="black" stroke="black" points="2028.9,-41.14 2034.2,-31.96 2024.34,-35.83 2028.9,-41.14"/>
</g>
</g>
</svg>
