digraph D {
UNQIZIIY [shape=circle, label=""]
BUBQSQMB [shape=circle, label=""]
IZBZWZXV [shape=circle, label=""]
TKQZCQVR [shape=circle, label=""]
IAGSCJSD [shape=circle, label="4"]
AGRWNKZV [shape=circle, label="4"]
PKHXIEJM [shape=circle, label=""]
QTFTIQEB [shape=circle, label="3"]
CHKCRMPJ [shape=circle, label="3"]
YYUVQQOT [shape=circle, label="8"]
APOUMHUC [shape=circle, label=""]
NLKMXEWO [shape=circle, label="11"]
HDZLMOKX [shape=circle, label="6"]
YPTAKKOM [shape=circle, label="7"]
AYTQQVFY [shape=circle, label="11"]
QQWWUKHM [shape=circle, label=""]
QVPJKVVW [shape=circle, label="13"]
RXCYAOLX [shape=circle, label="10"]
ETPJIMYL [shape=circle, label="2"]
EPVLRCYN [shape=circle, label="10"]
DOFSZOTR [shape=circle, label=""]
TZTGGLGQ [shape=circle, label=""]
HCFKDSNT [shape=circle, label="11"]
XSIVIZFR [shape=circle, label="9"]
XOCLHKEJ [shape=circle, label=""]
KTMLPZED [shape=circle, label="0"]
UDDKJUYH [shape=circle, label="6"]
ZVIDEQGD [shape=circle, label="1"]
YUAMTIFG [shape=circle, label="13"]
WTWPRRYZ [shape=circle, label=""]
JBOCOPVY [shape=circle, label="5"]
LQZLPPPC [shape=circle, label="9"]
HRJKXQTC [shape=circle, label=""]
EAKFUVJD [shape=circle, label=""]
EKPZSEGR [shape=circle, label=""]
KMOVFXHL [shape=circle, label="0"]
MWSAXPPI [shape=circle, label="7"]
DTBNRGWP [shape=circle, label="11"]
EERKRZOP [shape=circle, label="0"]
FLQVXNAP [shape=circle, label=""]
SYZEPOTU [shape=circle, label="10"]
RVMJJBST [shape=circle, label="12"]
AVVOEMGU [shape=circle, label=""]
LYOIZUOS [shape=circle, label="10"]
PBOLFOOU [shape=circle, label="2"]
AELPLLPL [shape=circle, label=""]
SJBKMQIU [shape=circle, label="12"]
HSGZPRKR [shape=circle, label="13"]
BCJDLXIX [shape=circle, label="14"]
UNTNVURB [shape=circle, label="2"]
SHYFYVMZ [shape=circle, label=""]
OJXQMJJV [shape=circle, label=""]
BACSBLVO [shape=circle, label="0"]
DUUQLYIK [shape=circle, label="9"]
FBESBYWV [shape=circle, label="10"]
GQXBJURI [shape=circle, label=""]
JHGMOEUV [shape=circle, label="7"]
JMHLYWNR [shape=circle, label="0"]
OGVRFJGW [shape=circle, label="14"]
KLBNGKUF [shape=circle, label="15"]
IHBSPJKA [shape=circle, label=""]
RRSROUOD [shape=circle, label=""]
LTFCDUGP [shape=circle, label="2"]
APGEESMC [shape=circle, label="9"]
WFISZDSB [shape=circle, label="7"]
TYCCJSLP [shape=circle, label=""]
RPHZDRNF [shape=circle, label="0"]
OWAAJJAM [shape=circle, label="15"]
FZUPGWKE [shape=circle, label="11"]
TWHUKINE [shape=circle, label=""]
UYYJKDRN [shape=circle, label=""]
KTCAFLVJ [shape=circle, label="5"]
TVVNPTOX [shape=circle, label="14"]
ZQYBCLJF [shape=circle, label="10"]
OXKZFCBO [shape=circle, label=""]
HKCDSJWI [shape=circle, label="3"]
GNBKTPXN [shape=circle, label="6"]
UZKNHOLZ [shape=circle, label="1"]
MNCTBDPA [shape=circle, label=""]
LOYXTBDI [shape=circle, label="1"]
SFNCTRUX [shape=circle, label="11"]
JBHCEPHN [shape=circle, label=""]
YSZKFQLL [shape=circle, label="5"]
MLUYYOJD [shape=circle, label="13"]
KYPLQGTV [shape=circle, label="5"]

UNQIZIIY -> BUBQSQMB
BUBQSQMB -> IZBZWZXV
IZBZWZXV -> TKQZCQVR
TKQZCQVR -> IAGSCJSD
TKQZCQVR -> AGRWNKZV
IZBZWZXV -> PKHXIEJM
PKHXIEJM -> QTFTIQEB
PKHXIEJM -> CHKCRMPJ
PKHXIEJM -> YYUVQQOT
IZBZWZXV -> APOUMHUC
APOUMHUC -> NLKMXEWO
APOUMHUC -> HDZLMOKX
APOUMHUC -> YPTAKKOM
APOUMHUC -> AYTQQVFY
IZBZWZXV -> QQWWUKHM
QQWWUKHM -> QVPJKVVW
QQWWUKHM -> RXCYAOLX
QQWWUKHM -> ETPJIMYL
QQWWUKHM -> EPVLRCYN
BUBQSQMB -> DOFSZOTR
DOFSZOTR -> TZTGGLGQ
TZTGGLGQ -> HCFKDSNT
TZTGGLGQ -> XSIVIZFR
DOFSZOTR -> XOCLHKEJ
XOCLHKEJ -> KTMLPZED
XOCLHKEJ -> UDDKJUYH
XOCLHKEJ -> ZVIDEQGD
XOCLHKEJ -> YUAMTIFG
DOFSZOTR -> WTWPRRYZ
WTWPRRYZ -> JBOCOPVY
WTWPRRYZ -> LQZLPPPC
UNQIZIIY -> HRJKXQTC
HRJKXQTC -> EAKFUVJD
EAKFUVJD -> EKPZSEGR
EKPZSEGR -> KMOVFXHL
EKPZSEGR -> MWSAXPPI
EKPZSEGR -> DTBNRGWP
EKPZSEGR -> EERKRZOP
EAKFUVJD -> FLQVXNAP
FLQVXNAP -> SYZEPOTU
FLQVXNAP -> RVMJJBST
EAKFUVJD -> AVVOEMGU
AVVOEMGU -> LYOIZUOS
AVVOEMGU -> PBOLFOOU
EAKFUVJD -> AELPLLPL
AELPLLPL -> SJBKMQIU
AELPLLPL -> HSGZPRKR
AELPLLPL -> BCJDLXIX
AELPLLPL -> UNTNVURB
HRJKXQTC -> SHYFYVMZ
SHYFYVMZ -> OJXQMJJV
OJXQMJJV -> BACSBLVO
OJXQMJJV -> DUUQLYIK
OJXQMJJV -> FBESBYWV
SHYFYVMZ -> GQXBJURI
GQXBJURI -> JHGMOEUV
GQXBJURI -> JMHLYWNR
GQXBJURI -> OGVRFJGW
GQXBJURI -> KLBNGKUF
HRJKXQTC -> IHBSPJKA
IHBSPJKA -> RRSROUOD
RRSROUOD -> LTFCDUGP
RRSROUOD -> APGEESMC
RRSROUOD -> WFISZDSB
IHBSPJKA -> TYCCJSLP
TYCCJSLP -> RPHZDRNF
TYCCJSLP -> OWAAJJAM
TYCCJSLP -> FZUPGWKE
HRJKXQTC -> TWHUKINE
TWHUKINE -> UYYJKDRN
UYYJKDRN -> KTCAFLVJ
UYYJKDRN -> TVVNPTOX
UYYJKDRN -> ZQYBCLJF
TWHUKINE -> OXKZFCBO
OXKZFCBO -> HKCDSJWI
OXKZFCBO -> GNBKTPXN
OXKZFCBO -> UZKNHOLZ
TWHUKINE -> MNCTBDPA
MNCTBDPA -> LOYXTBDI
MNCTBDPA -> SFNCTRUX
TWHUKINE -> JBHCEPHN
JBHCEPHN -> YSZKFQLL
JBHCEPHN -> MLUYYOJD
JBHCEPHN -> KYPLQGTV

}