<?xml version="1.0" encoding="UTF-8" standalone="no"?>
<!DOCTYPE svg PUBLIC "-//W3C//DTD SVG 1.1//EN"
 "http://www.w3.org/Graphics/SVG/1.1/DTD/svg11.dtd">
<!-- Generated by graphviz version 2.46.1 (20210213.1702)
 -->
<!-- Title: D Pages: 1 -->
<svg width="3380pt" height="335pt"
 viewBox="0.00 0.00 3380.00 335.00" xmlns="http://www.w3.org/2000/svg" xmlns:xlink="http://www.w3.org/1999/xlink">
<g id="graph0" class="graph" transform="scale(1 1) rotate(0) translate(4 331)">
<title>D</title>
<polygon fill="white" stroke="transparent" points="-4,4 -4,-331 3376,-331 3376,4 -4,4"/>
<!-- BBENXSPB -->
<g id="node1" class="node">
<title>BBENXSPB</title>
<ellipse fill="none" stroke="black" cx="1735" cy="-309" rx="18" ry="18"/>
</g>
<!-- PPKFVNOT -->
<g id="node2" class="node">
<title>PPKFVNOT</title>
<ellipse fill="none" stroke="black" cx="1158" cy="-237" rx="18" ry="18"/>
</g>
<!-- BBENXSPB&#45;&gt;PPKFVNOT -->
<g id="edge1" class="edge">
<title>BBENXSPB&#45;&gt;PPKFVNOT</title>
<path fill="none" stroke="black" d="M1717.1,-305.82C1634.23,-295.77 1287.64,-253.72 1186.08,-241.4"/>
<polygon fill="black" stroke="black" points="1186.33,-237.91 1175.98,-240.18 1185.48,-244.86 1186.33,-237.91"/>
</g>
<!-- GIJZIDLN -->
<g id="node52" class="node">
<title>GIJZIDLN</title>
<ellipse fill="none" stroke="black" cx="2421" cy="-237" rx="18" ry="18"/>
</g>
<!-- BBENXSPB&#45;&gt;GIJZIDLN -->
<g id="edge51" class="edge">
<title>BBENXSPB&#45;&gt;GIJZIDLN</title>
<path fill="none" stroke="black" d="M1753,-306.16C1846.69,-296.6 2278.72,-252.51 2393.13,-240.84"/>
<polygon fill="black" stroke="black" points="2393.6,-244.31 2403.19,-239.81 2392.89,-237.35 2393.6,-244.31"/>
</g>
<!-- HSKHSEQL -->
<g id="node3" class="node">
<title>HSKHSEQL</title>
<ellipse fill="none" stroke="black" cx="261" cy="-165" rx="18" ry="18"/>
</g>
<!-- PPKFVNOT&#45;&gt;HSKHSEQL -->
<g id="edge2" class="edge">
<title>PPKFVNOT&#45;&gt;HSKHSEQL</title>
<path fill="none" stroke="black" d="M1140.08,-234.6C1028.29,-225.87 426.84,-178.94 289.11,-168.19"/>
<polygon fill="black" stroke="black" points="289.2,-164.69 278.96,-167.4 288.66,-171.67 289.2,-164.69"/>
</g>
<!-- YTGCVYPS -->
<g id="node12" class="node">
<title>YTGCVYPS</title>
<ellipse fill="none" stroke="black" cx="669" cy="-165" rx="18" ry="18"/>
</g>
<!-- PPKFVNOT&#45;&gt;YTGCVYPS -->
<g id="edge11" class="edge">
<title>PPKFVNOT&#45;&gt;YTGCVYPS</title>
<path fill="none" stroke="black" d="M1140.31,-233.46C1066.92,-222.96 786.16,-182.77 696.61,-169.95"/>
<polygon fill="black" stroke="black" points="697.06,-166.48 686.67,-168.53 696.07,-173.41 697.06,-166.48"/>
</g>
<!-- ARQBIWCW -->
<g id="node29" class="node">
<title>ARQBIWCW</title>
<ellipse fill="none" stroke="black" cx="1158" cy="-165" rx="18" ry="18"/>
</g>
<!-- PPKFVNOT&#45;&gt;ARQBIWCW -->
<g id="edge28" class="edge">
<title>PPKFVNOT&#45;&gt;ARQBIWCW</title>
<path fill="none" stroke="black" d="M1158,-218.69C1158,-210.98 1158,-201.71 1158,-193.11"/>
<polygon fill="black" stroke="black" points="1161.5,-193.1 1158,-183.1 1154.5,-193.1 1161.5,-193.1"/>
</g>
<!-- EOAWAQMN -->
<g id="node38" class="node">
<title>EOAWAQMN</title>
<ellipse fill="none" stroke="black" cx="1463" cy="-165" rx="18" ry="18"/>
</g>
<!-- PPKFVNOT&#45;&gt;EOAWAQMN -->
<g id="edge37" class="edge">
<title>PPKFVNOT&#45;&gt;EOAWAQMN</title>
<path fill="none" stroke="black" d="M1175.72,-231.93C1226.69,-220.23 1373.99,-186.42 1435.5,-172.31"/>
<polygon fill="black" stroke="black" points="1436.65,-175.63 1445.61,-169.99 1435.09,-168.81 1436.65,-175.63"/>
</g>
<!-- OLQHRCDM -->
<g id="node4" class="node">
<title>OLQHRCDM</title>
<ellipse fill="none" stroke="black" cx="126" cy="-93" rx="18" ry="18"/>
</g>
<!-- HSKHSEQL&#45;&gt;OLQHRCDM -->
<g id="edge3" class="edge">
<title>HSKHSEQL&#45;&gt;OLQHRCDM</title>
<path fill="none" stroke="black" d="M245.25,-155.83C221.98,-143.76 178.2,-121.07 150.66,-106.78"/>
<polygon fill="black" stroke="black" points="152.14,-103.61 141.65,-102.11 148.92,-109.82 152.14,-103.61"/>
</g>
<!-- IGKKUMOJ -->
<g id="node9" class="node">
<title>IGKKUMOJ</title>
<ellipse fill="none" stroke="black" cx="261" cy="-93" rx="18" ry="18"/>
</g>
<!-- HSKHSEQL&#45;&gt;IGKKUMOJ -->
<g id="edge8" class="edge">
<title>HSKHSEQL&#45;&gt;IGKKUMOJ</title>
<path fill="none" stroke="black" d="M261,-146.69C261,-138.98 261,-129.71 261,-121.11"/>
<polygon fill="black" stroke="black" points="264.5,-121.1 261,-111.1 257.5,-121.1 264.5,-121.1"/>
</g>
<!-- ELYNKEYQ -->
<g id="node5" class="node">
<title>ELYNKEYQ</title>
<ellipse fill="none" stroke="black" cx="18" cy="-19.5" rx="18" ry="18"/>
<text text-anchor="middle" x="18" y="-15.8" font-family="Times,serif" font-size="14.00">6</text>
</g>
<!-- OLQHRCDM&#45;&gt;ELYNKEYQ -->
<g id="edge4" class="edge">
<title>OLQHRCDM&#45;&gt;ELYNKEYQ</title>
<path fill="none" stroke="black" d="M111.31,-82.52C95.03,-71.98 68.04,-54.42 45,-39 43.73,-38.15 42.43,-37.27 41.12,-36.39"/>
<polygon fill="black" stroke="black" points="42.77,-33.27 32.53,-30.54 38.83,-39.06 42.77,-33.27"/>
</g>
<!-- BCVWYPZN -->
<g id="node6" class="node">
<title>BCVWYPZN</title>
<ellipse fill="none" stroke="black" cx="72" cy="-19.5" rx="18" ry="18"/>
<text text-anchor="middle" x="72" y="-15.8" font-family="Times,serif" font-size="14.00">0</text>
</g>
<!-- OLQHRCDM&#45;&gt;BCVWYPZN -->
<g id="edge5" class="edge">
<title>OLQHRCDM&#45;&gt;BCVWYPZN</title>
<path fill="none" stroke="black" d="M115.59,-78.21C107.89,-68.02 97.26,-53.95 88.43,-42.25"/>
<polygon fill="black" stroke="black" points="91.2,-40.11 82.38,-34.24 85.61,-44.33 91.2,-40.11"/>
</g>
<!-- DXTWHDOH -->
<g id="node7" class="node">
<title>DXTWHDOH</title>
<ellipse fill="none" stroke="black" cx="126" cy="-19.5" rx="18" ry="18"/>
<text text-anchor="middle" x="126" y="-15.8" font-family="Times,serif" font-size="14.00">6</text>
</g>
<!-- OLQHRCDM&#45;&gt;DXTWHDOH -->
<g id="edge6" class="edge">
<title>OLQHRCDM&#45;&gt;DXTWHDOH</title>
<path fill="none" stroke="black" d="M126,-74.69C126,-66.61 126,-56.8 126,-47.76"/>
<polygon fill="black" stroke="black" points="129.5,-47.65 126,-37.65 122.5,-47.65 129.5,-47.65"/>
</g>
<!-- EULGUWRO -->
<g id="node8" class="node">
<title>EULGUWRO</title>
<ellipse fill="none" stroke="black" cx="180" cy="-19.5" rx="18" ry="18"/>
<text text-anchor="middle" x="180" y="-15.8" font-family="Times,serif" font-size="14.00">5</text>
</g>
<!-- OLQHRCDM&#45;&gt;EULGUWRO -->
<g id="edge7" class="edge">
<title>OLQHRCDM&#45;&gt;EULGUWRO</title>
<path fill="none" stroke="black" d="M136.41,-78.21C144.11,-68.02 154.74,-53.95 163.57,-42.25"/>
<polygon fill="black" stroke="black" points="166.39,-44.33 169.62,-34.24 160.8,-40.11 166.39,-44.33"/>
</g>
<!-- QDOYIBKB -->
<g id="node10" class="node">
<title>QDOYIBKB</title>
<ellipse fill="none" stroke="black" cx="234" cy="-19.5" rx="18" ry="18"/>
<text text-anchor="middle" x="234" y="-15.8" font-family="Times,serif" font-size="14.00">8</text>
</g>
<!-- IGKKUMOJ&#45;&gt;QDOYIBKB -->
<g id="edge9" class="edge">
<title>IGKKUMOJ&#45;&gt;QDOYIBKB</title>
<path fill="none" stroke="black" d="M254.87,-75.77C251.56,-67 247.39,-55.96 243.65,-46.05"/>
<polygon fill="black" stroke="black" points="246.91,-44.78 240.1,-36.66 240.36,-47.25 246.91,-44.78"/>
</g>
<!-- HWYSCKJL -->
<g id="node11" class="node">
<title>HWYSCKJL</title>
<ellipse fill="none" stroke="black" cx="288" cy="-19.5" rx="18" ry="18"/>
<text text-anchor="middle" x="288" y="-15.8" font-family="Times,serif" font-size="14.00">1</text>
</g>
<!-- IGKKUMOJ&#45;&gt;HWYSCKJL -->
<g id="edge10" class="edge">
<title>IGKKUMOJ&#45;&gt;HWYSCKJL</title>
<path fill="none" stroke="black" d="M267.13,-75.77C270.44,-67 274.61,-55.96 278.35,-46.05"/>
<polygon fill="black" stroke="black" points="281.64,-47.25 281.9,-36.66 275.09,-44.78 281.64,-47.25"/>
</g>
<!-- HPSLMVWB -->
<g id="node13" class="node">
<title>HPSLMVWB</title>
<ellipse fill="none" stroke="black" cx="397" cy="-93" rx="18" ry="18"/>
</g>
<!-- YTGCVYPS&#45;&gt;HPSLMVWB -->
<g id="edge12" class="edge">
<title>YTGCVYPS&#45;&gt;HPSLMVWB</title>
<path fill="none" stroke="black" d="M651.57,-159.51C605.42,-147.63 479.76,-115.3 424.13,-100.98"/>
<polygon fill="black" stroke="black" points="424.84,-97.55 414.28,-98.44 423.1,-104.33 424.84,-97.55"/>
</g>
<!-- VNFQVEUU -->
<g id="node16" class="node">
<title>VNFQVEUU</title>
<ellipse fill="none" stroke="black" cx="533" cy="-93" rx="18" ry="18"/>
</g>
<!-- YTGCVYPS&#45;&gt;VNFQVEUU -->
<g id="edge15" class="edge">
<title>YTGCVYPS&#45;&gt;VNFQVEUU</title>
<path fill="none" stroke="black" d="M653.4,-155.97C630.06,-143.95 585.81,-121.18 557.95,-106.84"/>
<polygon fill="black" stroke="black" points="559.33,-103.61 548.84,-102.15 556.13,-109.84 559.33,-103.61"/>
</g>
<!-- LFTXIWTA -->
<g id="node20" class="node">
<title>LFTXIWTA</title>
<ellipse fill="none" stroke="black" cx="669" cy="-93" rx="18" ry="18"/>
</g>
<!-- YTGCVYPS&#45;&gt;LFTXIWTA -->
<g id="edge19" class="edge">
<title>YTGCVYPS&#45;&gt;LFTXIWTA</title>
<path fill="none" stroke="black" d="M669,-146.69C669,-138.98 669,-129.71 669,-121.11"/>
<polygon fill="black" stroke="black" points="672.5,-121.1 669,-111.1 665.5,-121.1 672.5,-121.1"/>
</g>
<!-- TDNIZMKE -->
<g id="node24" class="node">
<title>TDNIZMKE</title>
<ellipse fill="none" stroke="black" cx="832" cy="-93" rx="18" ry="18"/>
</g>
<!-- YTGCVYPS&#45;&gt;TDNIZMKE -->
<g id="edge23" class="edge">
<title>YTGCVYPS&#45;&gt;TDNIZMKE</title>
<path fill="none" stroke="black" d="M685.22,-157.03C713.66,-144.82 772.7,-119.46 806.59,-104.91"/>
<polygon fill="black" stroke="black" points="808.03,-108.1 815.84,-100.94 805.27,-101.67 808.03,-108.1"/>
</g>
<!-- VQGFJVSS -->
<g id="node14" class="node">
<title>VQGFJVSS</title>
<ellipse fill="none" stroke="black" cx="342" cy="-19.5" rx="18" ry="18"/>
<text text-anchor="middle" x="342" y="-15.8" font-family="Times,serif" font-size="14.00">6</text>
</g>
<!-- HPSLMVWB&#45;&gt;VQGFJVSS -->
<g id="edge13" class="edge">
<title>HPSLMVWB&#45;&gt;VQGFJVSS</title>
<path fill="none" stroke="black" d="M386.4,-78.21C378.56,-68.02 367.73,-53.95 358.73,-42.25"/>
<polygon fill="black" stroke="black" points="361.44,-40.03 352.57,-34.24 355.9,-44.3 361.44,-40.03"/>
</g>
<!-- NMSIWXYA -->
<g id="node15" class="node">
<title>NMSIWXYA</title>
<ellipse fill="none" stroke="black" cx="397" cy="-19.5" rx="19.5" ry="19.5"/>
<text text-anchor="middle" x="397" y="-15.8" font-family="Times,serif" font-size="14.00">11</text>
</g>
<!-- HPSLMVWB&#45;&gt;NMSIWXYA -->
<g id="edge14" class="edge">
<title>HPSLMVWB&#45;&gt;NMSIWXYA</title>
<path fill="none" stroke="black" d="M397,-74.69C397,-67.05 397,-57.86 397,-49.24"/>
<polygon fill="black" stroke="black" points="400.5,-49.15 397,-39.15 393.5,-49.15 400.5,-49.15"/>
</g>
<!-- IFRWMCHK -->
<g id="node17" class="node">
<title>IFRWMCHK</title>
<ellipse fill="none" stroke="black" cx="452" cy="-19.5" rx="18" ry="18"/>
<text text-anchor="middle" x="452" y="-15.8" font-family="Times,serif" font-size="14.00">7</text>
</g>
<!-- VNFQVEUU&#45;&gt;IFRWMCHK -->
<g id="edge16" class="edge">
<title>VNFQVEUU&#45;&gt;IFRWMCHK</title>
<path fill="none" stroke="black" d="M519.99,-80.51C507.31,-69.32 487.83,-52.12 472.96,-39"/>
<polygon fill="black" stroke="black" points="475.06,-36.19 465.25,-32.19 470.43,-41.44 475.06,-36.19"/>
</g>
<!-- QJGACKIY -->
<g id="node18" class="node">
<title>QJGACKIY</title>
<ellipse fill="none" stroke="black" cx="506" cy="-19.5" rx="18" ry="18"/>
<text text-anchor="middle" x="506" y="-15.8" font-family="Times,serif" font-size="14.00">1</text>
</g>
<!-- VNFQVEUU&#45;&gt;QJGACKIY -->
<g id="edge17" class="edge">
<title>VNFQVEUU&#45;&gt;QJGACKIY</title>
<path fill="none" stroke="black" d="M526.87,-75.77C523.56,-67 519.39,-55.96 515.65,-46.05"/>
<polygon fill="black" stroke="black" points="518.91,-44.78 512.1,-36.66 512.36,-47.25 518.91,-44.78"/>
</g>
<!-- EBKACCHF -->
<g id="node19" class="node">
<title>EBKACCHF</title>
<ellipse fill="none" stroke="black" cx="560" cy="-19.5" rx="18" ry="18"/>
<text text-anchor="middle" x="560" y="-15.8" font-family="Times,serif" font-size="14.00">8</text>
</g>
<!-- VNFQVEUU&#45;&gt;EBKACCHF -->
<g id="edge18" class="edge">
<title>VNFQVEUU&#45;&gt;EBKACCHF</title>
<path fill="none" stroke="black" d="M539.13,-75.77C542.44,-67 546.61,-55.96 550.35,-46.05"/>
<polygon fill="black" stroke="black" points="553.64,-47.25 553.9,-36.66 547.09,-44.78 553.64,-47.25"/>
</g>
<!-- GQBBYFMH -->
<g id="node21" class="node">
<title>GQBBYFMH</title>
<ellipse fill="none" stroke="black" cx="614" cy="-19.5" rx="18" ry="18"/>
<text text-anchor="middle" x="614" y="-15.8" font-family="Times,serif" font-size="14.00">2</text>
</g>
<!-- LFTXIWTA&#45;&gt;GQBBYFMH -->
<g id="edge20" class="edge">
<title>LFTXIWTA&#45;&gt;GQBBYFMH</title>
<path fill="none" stroke="black" d="M658.4,-78.21C650.56,-68.02 639.73,-53.95 630.73,-42.25"/>
<polygon fill="black" stroke="black" points="633.44,-40.03 624.57,-34.24 627.9,-44.3 633.44,-40.03"/>
</g>
<!-- TFMHGFFI -->
<g id="node22" class="node">
<title>TFMHGFFI</title>
<ellipse fill="none" stroke="black" cx="669" cy="-19.5" rx="19.5" ry="19.5"/>
<text text-anchor="middle" x="669" y="-15.8" font-family="Times,serif" font-size="14.00">12</text>
</g>
<!-- LFTXIWTA&#45;&gt;TFMHGFFI -->
<g id="edge21" class="edge">
<title>LFTXIWTA&#45;&gt;TFMHGFFI</title>
<path fill="none" stroke="black" d="M669,-74.69C669,-67.05 669,-57.86 669,-49.24"/>
<polygon fill="black" stroke="black" points="672.5,-49.15 669,-39.15 665.5,-49.15 672.5,-49.15"/>
</g>
<!-- LXDUARUU -->
<g id="node23" class="node">
<title>LXDUARUU</title>
<ellipse fill="none" stroke="black" cx="724" cy="-19.5" rx="18" ry="18"/>
<text text-anchor="middle" x="724" y="-15.8" font-family="Times,serif" font-size="14.00">4</text>
</g>
<!-- LFTXIWTA&#45;&gt;LXDUARUU -->
<g id="edge22" class="edge">
<title>LFTXIWTA&#45;&gt;LXDUARUU</title>
<path fill="none" stroke="black" d="M679.6,-78.21C687.44,-68.02 698.27,-53.95 707.27,-42.25"/>
<polygon fill="black" stroke="black" points="710.1,-44.3 713.43,-34.24 704.56,-40.03 710.1,-44.3"/>
</g>
<!-- VBQZOCDF -->
<g id="node25" class="node">
<title>VBQZOCDF</title>
<ellipse fill="none" stroke="black" cx="778" cy="-19.5" rx="18" ry="18"/>
<text text-anchor="middle" x="778" y="-15.8" font-family="Times,serif" font-size="14.00">2</text>
</g>
<!-- TDNIZMKE&#45;&gt;VBQZOCDF -->
<g id="edge24" class="edge">
<title>TDNIZMKE&#45;&gt;VBQZOCDF</title>
<path fill="none" stroke="black" d="M821.59,-78.21C813.89,-68.02 803.26,-53.95 794.43,-42.25"/>
<polygon fill="black" stroke="black" points="797.2,-40.11 788.38,-34.24 791.61,-44.33 797.2,-40.11"/>
</g>
<!-- OWQQEWMG -->
<g id="node26" class="node">
<title>OWQQEWMG</title>
<ellipse fill="none" stroke="black" cx="832" cy="-19.5" rx="18" ry="18"/>
<text text-anchor="middle" x="832" y="-15.8" font-family="Times,serif" font-size="14.00">8</text>
</g>
<!-- TDNIZMKE&#45;&gt;OWQQEWMG -->
<g id="edge25" class="edge">
<title>TDNIZMKE&#45;&gt;OWQQEWMG</title>
<path fill="none" stroke="black" d="M832,-74.69C832,-66.61 832,-56.8 832,-47.76"/>
<polygon fill="black" stroke="black" points="835.5,-47.65 832,-37.65 828.5,-47.65 835.5,-47.65"/>
</g>
<!-- FXSQJLVJ -->
<g id="node27" class="node">
<title>FXSQJLVJ</title>
<ellipse fill="none" stroke="black" cx="886" cy="-19.5" rx="18" ry="18"/>
<text text-anchor="middle" x="886" y="-15.8" font-family="Times,serif" font-size="14.00">5</text>
</g>
<!-- TDNIZMKE&#45;&gt;FXSQJLVJ -->
<g id="edge26" class="edge">
<title>TDNIZMKE&#45;&gt;FXSQJLVJ</title>
<path fill="none" stroke="black" d="M842.41,-78.21C850.11,-68.02 860.74,-53.95 869.57,-42.25"/>
<polygon fill="black" stroke="black" points="872.39,-44.33 875.62,-34.24 866.8,-40.11 872.39,-44.33"/>
</g>
<!-- RJMTBQOX -->
<g id="node28" class="node">
<title>RJMTBQOX</title>
<ellipse fill="none" stroke="black" cx="940" cy="-19.5" rx="18" ry="18"/>
<text text-anchor="middle" x="940" y="-15.8" font-family="Times,serif" font-size="14.00">5</text>
</g>
<!-- TDNIZMKE&#45;&gt;RJMTBQOX -->
<g id="edge27" class="edge">
<title>TDNIZMKE&#45;&gt;RJMTBQOX</title>
<path fill="none" stroke="black" d="M846.69,-82.52C862.97,-71.98 889.96,-54.42 913,-39 914.27,-38.15 915.57,-37.27 916.88,-36.39"/>
<polygon fill="black" stroke="black" points="919.17,-39.06 925.47,-30.54 915.23,-33.27 919.17,-39.06"/>
</g>
<!-- TISYIJXQ -->
<g id="node30" class="node">
<title>TISYIJXQ</title>
<ellipse fill="none" stroke="black" cx="1103" cy="-93" rx="18" ry="18"/>
</g>
<!-- ARQBIWCW&#45;&gt;TISYIJXQ -->
<g id="edge29" class="edge">
<title>ARQBIWCW&#45;&gt;TISYIJXQ</title>
<path fill="none" stroke="black" d="M1147.13,-150.17C1139.45,-140.39 1128.99,-127.08 1120.18,-115.87"/>
<polygon fill="black" stroke="black" points="1122.77,-113.5 1113.84,-107.8 1117.27,-117.82 1122.77,-113.5"/>
</g>
<!-- GWYTOBWB -->
<g id="node35" class="node">
<title>GWYTOBWB</title>
<ellipse fill="none" stroke="black" cx="1213" cy="-93" rx="18" ry="18"/>
</g>
<!-- ARQBIWCW&#45;&gt;GWYTOBWB -->
<g id="edge34" class="edge">
<title>ARQBIWCW&#45;&gt;GWYTOBWB</title>
<path fill="none" stroke="black" d="M1168.87,-150.17C1176.55,-140.39 1187.01,-127.08 1195.82,-115.87"/>
<polygon fill="black" stroke="black" points="1198.73,-117.82 1202.16,-107.8 1193.23,-113.5 1198.73,-117.82"/>
</g>
<!-- KRHNXRQU -->
<g id="node31" class="node">
<title>KRHNXRQU</title>
<ellipse fill="none" stroke="black" cx="994" cy="-19.5" rx="18" ry="18"/>
<text text-anchor="middle" x="994" y="-15.8" font-family="Times,serif" font-size="14.00">0</text>
</g>
<!-- TISYIJXQ&#45;&gt;KRHNXRQU -->
<g id="edge30" class="edge">
<title>TISYIJXQ&#45;&gt;KRHNXRQU</title>
<path fill="none" stroke="black" d="M1088.11,-82.54C1071.62,-72.03 1044.28,-54.49 1021,-39 1019.73,-38.15 1018.43,-37.28 1017.11,-36.39"/>
<polygon fill="black" stroke="black" points="1018.76,-33.28 1008.52,-30.55 1014.83,-39.07 1018.76,-33.28"/>
</g>
<!-- KSQEUDUZ -->
<g id="node32" class="node">
<title>KSQEUDUZ</title>
<ellipse fill="none" stroke="black" cx="1048" cy="-19.5" rx="18" ry="18"/>
<text text-anchor="middle" x="1048" y="-15.8" font-family="Times,serif" font-size="14.00">0</text>
</g>
<!-- TISYIJXQ&#45;&gt;KSQEUDUZ -->
<g id="edge31" class="edge">
<title>TISYIJXQ&#45;&gt;KSQEUDUZ</title>
<path fill="none" stroke="black" d="M1092.4,-78.21C1084.56,-68.02 1073.73,-53.95 1064.73,-42.25"/>
<polygon fill="black" stroke="black" points="1067.44,-40.03 1058.57,-34.24 1061.9,-44.3 1067.44,-40.03"/>
</g>
<!-- XVOPOGRS -->
<g id="node33" class="node">
<title>XVOPOGRS</title>
<ellipse fill="none" stroke="black" cx="1103" cy="-19.5" rx="19.5" ry="19.5"/>
<text text-anchor="middle" x="1103" y="-15.8" font-family="Times,serif" font-size="14.00">12</text>
</g>
<!-- TISYIJXQ&#45;&gt;XVOPOGRS -->
<g id="edge32" class="edge">
<title>TISYIJXQ&#45;&gt;XVOPOGRS</title>
<path fill="none" stroke="black" d="M1103,-74.69C1103,-67.05 1103,-57.86 1103,-49.24"/>
<polygon fill="black" stroke="black" points="1106.5,-49.15 1103,-39.15 1099.5,-49.15 1106.5,-49.15"/>
</g>
<!-- UWCNKVNP -->
<g id="node34" class="node">
<title>UWCNKVNP</title>
<ellipse fill="none" stroke="black" cx="1158" cy="-19.5" rx="18" ry="18"/>
<text text-anchor="middle" x="1158" y="-15.8" font-family="Times,serif" font-size="14.00">6</text>
</g>
<!-- TISYIJXQ&#45;&gt;UWCNKVNP -->
<g id="edge33" class="edge">
<title>TISYIJXQ&#45;&gt;UWCNKVNP</title>
<path fill="none" stroke="black" d="M1113.6,-78.21C1121.44,-68.02 1132.27,-53.95 1141.27,-42.25"/>
<polygon fill="black" stroke="black" points="1144.1,-44.3 1147.43,-34.24 1138.56,-40.03 1144.1,-44.3"/>
</g>
<!-- LQRDRZTE -->
<g id="node36" class="node">
<title>LQRDRZTE</title>
<ellipse fill="none" stroke="black" cx="1213" cy="-19.5" rx="19.5" ry="19.5"/>
<text text-anchor="middle" x="1213" y="-15.8" font-family="Times,serif" font-size="14.00">10</text>
</g>
<!-- GWYTOBWB&#45;&gt;LQRDRZTE -->
<g id="edge35" class="edge">
<title>GWYTOBWB&#45;&gt;LQRDRZTE</title>
<path fill="none" stroke="black" d="M1213,-74.69C1213,-67.05 1213,-57.86 1213,-49.24"/>
<polygon fill="black" stroke="black" points="1216.5,-49.15 1213,-39.15 1209.5,-49.15 1216.5,-49.15"/>
</g>
<!-- GPXDDWLJ -->
<g id="node37" class="node">
<title>GPXDDWLJ</title>
<ellipse fill="none" stroke="black" cx="1268" cy="-19.5" rx="18" ry="18"/>
<text text-anchor="middle" x="1268" y="-15.8" font-family="Times,serif" font-size="14.00">5</text>
</g>
<!-- GWYTOBWB&#45;&gt;GPXDDWLJ -->
<g id="edge36" class="edge">
<title>GWYTOBWB&#45;&gt;GPXDDWLJ</title>
<path fill="none" stroke="black" d="M1223.6,-78.21C1231.44,-68.02 1242.27,-53.95 1251.27,-42.25"/>
<polygon fill="black" stroke="black" points="1254.1,-44.3 1257.43,-34.24 1248.56,-40.03 1254.1,-44.3"/>
</g>
<!-- PZGQOJPJ -->
<g id="node39" class="node">
<title>PZGQOJPJ</title>
<ellipse fill="none" stroke="black" cx="1408" cy="-93" rx="18" ry="18"/>
</g>
<!-- EOAWAQMN&#45;&gt;PZGQOJPJ -->
<g id="edge38" class="edge">
<title>EOAWAQMN&#45;&gt;PZGQOJPJ</title>
<path fill="none" stroke="black" d="M1452.13,-150.17C1444.45,-140.39 1433.99,-127.08 1425.18,-115.87"/>
<polygon fill="black" stroke="black" points="1427.77,-113.5 1418.84,-107.8 1422.27,-117.82 1427.77,-113.5"/>
</g>
<!-- RTPOBJVF -->
<g id="node43" class="node">
<title>RTPOBJVF</title>
<ellipse fill="none" stroke="black" cx="1546" cy="-93" rx="18" ry="18"/>
</g>
<!-- EOAWAQMN&#45;&gt;RTPOBJVF -->
<g id="edge42" class="edge">
<title>EOAWAQMN&#45;&gt;RTPOBJVF</title>
<path fill="none" stroke="black" d="M1476.34,-152.75C1489.4,-141.73 1509.53,-124.76 1524.79,-111.88"/>
<polygon fill="black" stroke="black" points="1527.31,-114.34 1532.7,-105.22 1522.8,-108.99 1527.31,-114.34"/>
</g>
<!-- UFLZDPFH -->
<g id="node48" class="node">
<title>UFLZDPFH</title>
<ellipse fill="none" stroke="black" cx="1737" cy="-93" rx="18" ry="18"/>
</g>
<!-- EOAWAQMN&#45;&gt;UFLZDPFH -->
<g id="edge47" class="edge">
<title>EOAWAQMN&#45;&gt;UFLZDPFH</title>
<path fill="none" stroke="black" d="M1480.56,-159.51C1527.05,-147.63 1653.63,-115.3 1709.67,-100.98"/>
<polygon fill="black" stroke="black" points="1710.77,-104.31 1719.59,-98.44 1709.03,-97.53 1710.77,-104.31"/>
</g>
<!-- HMAINVES -->
<g id="node40" class="node">
<title>HMAINVES</title>
<ellipse fill="none" stroke="black" cx="1323" cy="-19.5" rx="19.5" ry="19.5"/>
<text text-anchor="middle" x="1323" y="-15.8" font-family="Times,serif" font-size="14.00">15</text>
</g>
<!-- PZGQOJPJ&#45;&gt;HMAINVES -->
<g id="edge39" class="edge">
<title>PZGQOJPJ&#45;&gt;HMAINVES</title>
<path fill="none" stroke="black" d="M1394.72,-80.82C1381.52,-69.72 1361.03,-52.49 1345.32,-39.28"/>
<polygon fill="black" stroke="black" points="1347.52,-36.55 1337.61,-32.79 1343.01,-41.9 1347.52,-36.55"/>
</g>
<!-- NMOMPQTZ -->
<g id="node41" class="node">
<title>NMOMPQTZ</title>
<ellipse fill="none" stroke="black" cx="1380" cy="-19.5" rx="19.5" ry="19.5"/>
<text text-anchor="middle" x="1380" y="-15.8" font-family="Times,serif" font-size="14.00">15</text>
</g>
<!-- PZGQOJPJ&#45;&gt;NMOMPQTZ -->
<g id="edge40" class="edge">
<title>PZGQOJPJ&#45;&gt;NMOMPQTZ</title>
<path fill="none" stroke="black" d="M1401.65,-75.77C1398.37,-67.39 1394.28,-56.95 1390.54,-47.41"/>
<polygon fill="black" stroke="black" points="1393.72,-45.94 1386.82,-37.91 1387.21,-48.5 1393.72,-45.94"/>
</g>
<!-- XVESLVRI -->
<g id="node42" class="node">
<title>XVESLVRI</title>
<ellipse fill="none" stroke="black" cx="1437" cy="-19.5" rx="19.5" ry="19.5"/>
<text text-anchor="middle" x="1437" y="-15.8" font-family="Times,serif" font-size="14.00">11</text>
</g>
<!-- PZGQOJPJ&#45;&gt;XVESLVRI -->
<g id="edge41" class="edge">
<title>PZGQOJPJ&#45;&gt;XVESLVRI</title>
<path fill="none" stroke="black" d="M1414.44,-76.13C1417.89,-67.61 1422.24,-56.89 1426.2,-47.14"/>
<polygon fill="black" stroke="black" points="1429.46,-48.41 1429.97,-37.82 1422.97,-45.77 1429.46,-48.41"/>
</g>
<!-- HGRKYOTX -->
<g id="node44" class="node">
<title>HGRKYOTX</title>
<ellipse fill="none" stroke="black" cx="1492" cy="-19.5" rx="18" ry="18"/>
<text text-anchor="middle" x="1492" y="-15.8" font-family="Times,serif" font-size="14.00">1</text>
</g>
<!-- RTPOBJVF&#45;&gt;HGRKYOTX -->
<g id="edge43" class="edge">
<title>RTPOBJVF&#45;&gt;HGRKYOTX</title>
<path fill="none" stroke="black" d="M1535.59,-78.21C1527.89,-68.02 1517.26,-53.95 1508.43,-42.25"/>
<polygon fill="black" stroke="black" points="1511.2,-40.11 1502.38,-34.24 1505.61,-44.33 1511.2,-40.11"/>
</g>
<!-- ASDPWNAZ -->
<g id="node45" class="node">
<title>ASDPWNAZ</title>
<ellipse fill="none" stroke="black" cx="1546" cy="-19.5" rx="18" ry="18"/>
<text text-anchor="middle" x="1546" y="-15.8" font-family="Times,serif" font-size="14.00">0</text>
</g>
<!-- RTPOBJVF&#45;&gt;ASDPWNAZ -->
<g id="edge44" class="edge">
<title>RTPOBJVF&#45;&gt;ASDPWNAZ</title>
<path fill="none" stroke="black" d="M1546,-74.69C1546,-66.61 1546,-56.8 1546,-47.76"/>
<polygon fill="black" stroke="black" points="1549.5,-47.65 1546,-37.65 1542.5,-47.65 1549.5,-47.65"/>
</g>
<!-- LGICOZVB -->
<g id="node46" class="node">
<title>LGICOZVB</title>
<ellipse fill="none" stroke="black" cx="1601" cy="-19.5" rx="19.5" ry="19.5"/>
<text text-anchor="middle" x="1601" y="-15.8" font-family="Times,serif" font-size="14.00">15</text>
</g>
<!-- RTPOBJVF&#45;&gt;LGICOZVB -->
<g id="edge45" class="edge">
<title>RTPOBJVF&#45;&gt;LGICOZVB</title>
<path fill="none" stroke="black" d="M1556.6,-78.21C1564.12,-68.45 1574.38,-55.11 1583.14,-43.72"/>
<polygon fill="black" stroke="black" points="1586.16,-45.54 1589.48,-35.48 1580.61,-41.27 1586.16,-45.54"/>
</g>
<!-- VFDAVVLM -->
<g id="node47" class="node">
<title>VFDAVVLM</title>
<ellipse fill="none" stroke="black" cx="1656" cy="-19.5" rx="18" ry="18"/>
<text text-anchor="middle" x="1656" y="-15.8" font-family="Times,serif" font-size="14.00">1</text>
</g>
<!-- RTPOBJVF&#45;&gt;VFDAVVLM -->
<g id="edge46" class="edge">
<title>RTPOBJVF&#45;&gt;VFDAVVLM</title>
<path fill="none" stroke="black" d="M1561.09,-82.57C1577.79,-72.08 1605.47,-54.56 1629,-39 1630.27,-38.15 1631.58,-37.28 1632.89,-36.4"/>
<polygon fill="black" stroke="black" points="1635.18,-39.08 1641.49,-30.57 1631.25,-33.29 1635.18,-39.08"/>
</g>
<!-- HGEFDSKW -->
<g id="node49" class="node">
<title>HGEFDSKW</title>
<ellipse fill="none" stroke="black" cx="1710" cy="-19.5" rx="18" ry="18"/>
<text text-anchor="middle" x="1710" y="-15.8" font-family="Times,serif" font-size="14.00">3</text>
</g>
<!-- UFLZDPFH&#45;&gt;HGEFDSKW -->
<g id="edge48" class="edge">
<title>UFLZDPFH&#45;&gt;HGEFDSKW</title>
<path fill="none" stroke="black" d="M1730.87,-75.77C1727.56,-67 1723.39,-55.96 1719.65,-46.05"/>
<polygon fill="black" stroke="black" points="1722.91,-44.78 1716.1,-36.66 1716.36,-47.25 1722.91,-44.78"/>
</g>
<!-- OCYOCBIY -->
<g id="node50" class="node">
<title>OCYOCBIY</title>
<ellipse fill="none" stroke="black" cx="1764" cy="-19.5" rx="18" ry="18"/>
<text text-anchor="middle" x="1764" y="-15.8" font-family="Times,serif" font-size="14.00">4</text>
</g>
<!-- UFLZDPFH&#45;&gt;OCYOCBIY -->
<g id="edge49" class="edge">
<title>UFLZDPFH&#45;&gt;OCYOCBIY</title>
<path fill="none" stroke="black" d="M1743.13,-75.77C1746.44,-67 1750.61,-55.96 1754.35,-46.05"/>
<polygon fill="black" stroke="black" points="1757.64,-47.25 1757.9,-36.66 1751.09,-44.78 1757.64,-47.25"/>
</g>
<!-- TKNLBYTI -->
<g id="node51" class="node">
<title>TKNLBYTI</title>
<ellipse fill="none" stroke="black" cx="1818" cy="-19.5" rx="18" ry="18"/>
<text text-anchor="middle" x="1818" y="-15.8" font-family="Times,serif" font-size="14.00">6</text>
</g>
<!-- UFLZDPFH&#45;&gt;TKNLBYTI -->
<g id="edge50" class="edge">
<title>UFLZDPFH&#45;&gt;TKNLBYTI</title>
<path fill="none" stroke="black" d="M1750.01,-80.51C1762.69,-69.32 1782.17,-52.12 1797.04,-39"/>
<polygon fill="black" stroke="black" points="1799.57,-41.44 1804.75,-32.19 1794.94,-36.19 1799.57,-41.44"/>
</g>
<!-- XDOMLXJW -->
<g id="node53" class="node">
<title>XDOMLXJW</title>
<ellipse fill="none" stroke="black" cx="2146" cy="-165" rx="18" ry="18"/>
</g>
<!-- GIJZIDLN&#45;&gt;XDOMLXJW -->
<g id="edge52" class="edge">
<title>GIJZIDLN&#45;&gt;XDOMLXJW</title>
<path fill="none" stroke="black" d="M2403.8,-231.62C2357.4,-219.81 2229.41,-187.23 2173.14,-172.91"/>
<polygon fill="black" stroke="black" points="2173.75,-169.45 2163.2,-170.37 2172.02,-176.23 2173.75,-169.45"/>
</g>
<!-- QVKRFXYE -->
<g id="node63" class="node">
<title>QVKRFXYE</title>
<ellipse fill="none" stroke="black" cx="2421" cy="-165" rx="18" ry="18"/>
</g>
<!-- GIJZIDLN&#45;&gt;QVKRFXYE -->
<g id="edge62" class="edge">
<title>GIJZIDLN&#45;&gt;QVKRFXYE</title>
<path fill="none" stroke="black" d="M2421,-218.69C2421,-210.98 2421,-201.71 2421,-193.11"/>
<polygon fill="black" stroke="black" points="2424.5,-193.1 2421,-183.1 2417.5,-193.1 2424.5,-193.1"/>
</g>
<!-- CQBYZOMZ -->
<g id="node72" class="node">
<title>CQBYZOMZ</title>
<ellipse fill="none" stroke="black" cx="2720" cy="-165" rx="18" ry="18"/>
</g>
<!-- GIJZIDLN&#45;&gt;CQBYZOMZ -->
<g id="edge71" class="edge">
<title>GIJZIDLN&#45;&gt;CQBYZOMZ</title>
<path fill="none" stroke="black" d="M2438.37,-231.93C2488.22,-220.26 2632.06,-186.58 2692.62,-172.41"/>
<polygon fill="black" stroke="black" points="2693.65,-175.76 2702.58,-170.07 2692.05,-168.95 2693.65,-175.76"/>
</g>
<!-- FDUSEZEY -->
<g id="node86" class="node">
<title>FDUSEZEY</title>
<ellipse fill="none" stroke="black" cx="3159" cy="-165" rx="18" ry="18"/>
</g>
<!-- GIJZIDLN&#45;&gt;FDUSEZEY -->
<g id="edge85" class="edge">
<title>GIJZIDLN&#45;&gt;FDUSEZEY</title>
<path fill="none" stroke="black" d="M2438.88,-234.3C2536.96,-225 3009.75,-180.15 3130.75,-168.68"/>
<polygon fill="black" stroke="black" points="3131.4,-172.13 3141.03,-167.7 3130.74,-165.16 3131.4,-172.13"/>
</g>
<!-- LOVKNPOB -->
<g id="node54" class="node">
<title>LOVKNPOB</title>
<ellipse fill="none" stroke="black" cx="1982" cy="-93" rx="18" ry="18"/>
</g>
<!-- XDOMLXJW&#45;&gt;LOVKNPOB -->
<g id="edge53" class="edge">
<title>XDOMLXJW&#45;&gt;LOVKNPOB</title>
<path fill="none" stroke="black" d="M2129.68,-157.03C2101.06,-144.82 2041.67,-119.46 2007.56,-104.91"/>
<polygon fill="black" stroke="black" points="2008.83,-101.64 1998.26,-100.94 2006.08,-108.08 2008.83,-101.64"/>
</g>
<!-- NUVTTQCT -->
<g id="node59" class="node">
<title>NUVTTQCT</title>
<ellipse fill="none" stroke="black" cx="2146" cy="-93" rx="18" ry="18"/>
</g>
<!-- XDOMLXJW&#45;&gt;NUVTTQCT -->
<g id="edge58" class="edge">
<title>XDOMLXJW&#45;&gt;NUVTTQCT</title>
<path fill="none" stroke="black" d="M2146,-146.69C2146,-138.98 2146,-129.71 2146,-121.11"/>
<polygon fill="black" stroke="black" points="2149.5,-121.1 2146,-111.1 2142.5,-121.1 2149.5,-121.1"/>
</g>
<!-- RAZJYHPQ -->
<g id="node55" class="node">
<title>RAZJYHPQ</title>
<ellipse fill="none" stroke="black" cx="1873" cy="-19.5" rx="19.5" ry="19.5"/>
<text text-anchor="middle" x="1873" y="-15.8" font-family="Times,serif" font-size="14.00">15</text>
</g>
<!-- LOVKNPOB&#45;&gt;RAZJYHPQ -->
<g id="edge54" class="edge">
<title>LOVKNPOB&#45;&gt;RAZJYHPQ</title>
<path fill="none" stroke="black" d="M1967.35,-82.44C1951.12,-71.84 1924.17,-54.23 1901,-39 1899.9,-38.28 1898.79,-37.54 1897.66,-36.8"/>
<polygon fill="black" stroke="black" points="1899.26,-33.66 1888.98,-31.08 1895.4,-39.5 1899.26,-33.66"/>
</g>
<!-- OKBOHYRQ -->
<g id="node56" class="node">
<title>OKBOHYRQ</title>
<ellipse fill="none" stroke="black" cx="1928" cy="-19.5" rx="18" ry="18"/>
<text text-anchor="middle" x="1928" y="-15.8" font-family="Times,serif" font-size="14.00">2</text>
</g>
<!-- LOVKNPOB&#45;&gt;OKBOHYRQ -->
<g id="edge55" class="edge">
<title>LOVKNPOB&#45;&gt;OKBOHYRQ</title>
<path fill="none" stroke="black" d="M1971.59,-78.21C1963.89,-68.02 1953.26,-53.95 1944.43,-42.25"/>
<polygon fill="black" stroke="black" points="1947.2,-40.11 1938.38,-34.24 1941.61,-44.33 1947.2,-40.11"/>
</g>
<!-- DAQEFZIU -->
<g id="node57" class="node">
<title>DAQEFZIU</title>
<ellipse fill="none" stroke="black" cx="1982" cy="-19.5" rx="18" ry="18"/>
<text text-anchor="middle" x="1982" y="-15.8" font-family="Times,serif" font-size="14.00">6</text>
</g>
<!-- LOVKNPOB&#45;&gt;DAQEFZIU -->
<g id="edge56" class="edge">
<title>LOVKNPOB&#45;&gt;DAQEFZIU</title>
<path fill="none" stroke="black" d="M1982,-74.69C1982,-66.61 1982,-56.8 1982,-47.76"/>
<polygon fill="black" stroke="black" points="1985.5,-47.65 1982,-37.65 1978.5,-47.65 1985.5,-47.65"/>
</g>
<!-- FLBPBDLY -->
<g id="node58" class="node">
<title>FLBPBDLY</title>
<ellipse fill="none" stroke="black" cx="2036" cy="-19.5" rx="18" ry="18"/>
<text text-anchor="middle" x="2036" y="-15.8" font-family="Times,serif" font-size="14.00">6</text>
</g>
<!-- LOVKNPOB&#45;&gt;FLBPBDLY -->
<g id="edge57" class="edge">
<title>LOVKNPOB&#45;&gt;FLBPBDLY</title>
<path fill="none" stroke="black" d="M1992.41,-78.21C2000.11,-68.02 2010.74,-53.95 2019.57,-42.25"/>
<polygon fill="black" stroke="black" points="2022.39,-44.33 2025.62,-34.24 2016.8,-40.11 2022.39,-44.33"/>
</g>
<!-- ARWTMXOJ -->
<g id="node60" class="node">
<title>ARWTMXOJ</title>
<ellipse fill="none" stroke="black" cx="2091" cy="-19.5" rx="19.5" ry="19.5"/>
<text text-anchor="middle" x="2091" y="-15.8" font-family="Times,serif" font-size="14.00">10</text>
</g>
<!-- NUVTTQCT&#45;&gt;ARWTMXOJ -->
<g id="edge59" class="edge">
<title>NUVTTQCT&#45;&gt;ARWTMXOJ</title>
<path fill="none" stroke="black" d="M2135.4,-78.21C2127.88,-68.45 2117.62,-55.11 2108.86,-43.72"/>
<polygon fill="black" stroke="black" points="2111.39,-41.27 2102.52,-35.48 2105.84,-45.54 2111.39,-41.27"/>
</g>
<!-- ZNCOXEVJ -->
<g id="node61" class="node">
<title>ZNCOXEVJ</title>
<ellipse fill="none" stroke="black" cx="2146" cy="-19.5" rx="18" ry="18"/>
<text text-anchor="middle" x="2146" y="-15.8" font-family="Times,serif" font-size="14.00">8</text>
</g>
<!-- NUVTTQCT&#45;&gt;ZNCOXEVJ -->
<g id="edge60" class="edge">
<title>NUVTTQCT&#45;&gt;ZNCOXEVJ</title>
<path fill="none" stroke="black" d="M2146,-74.69C2146,-66.61 2146,-56.8 2146,-47.76"/>
<polygon fill="black" stroke="black" points="2149.5,-47.65 2146,-37.65 2142.5,-47.65 2149.5,-47.65"/>
</g>
<!-- IJSVOJJM -->
<g id="node62" class="node">
<title>IJSVOJJM</title>
<ellipse fill="none" stroke="black" cx="2201" cy="-19.5" rx="19.5" ry="19.5"/>
<text text-anchor="middle" x="2201" y="-15.8" font-family="Times,serif" font-size="14.00">12</text>
</g>
<!-- NUVTTQCT&#45;&gt;IJSVOJJM -->
<g id="edge61" class="edge">
<title>NUVTTQCT&#45;&gt;IJSVOJJM</title>
<path fill="none" stroke="black" d="M2156.6,-78.21C2164.12,-68.45 2174.38,-55.11 2183.14,-43.72"/>
<polygon fill="black" stroke="black" points="2186.16,-45.54 2189.48,-35.48 2180.61,-41.27 2186.16,-45.54"/>
</g>
<!-- NMOYMQOS -->
<g id="node64" class="node">
<title>NMOYMQOS</title>
<ellipse fill="none" stroke="black" cx="2367" cy="-93" rx="18" ry="18"/>
</g>
<!-- QVKRFXYE&#45;&gt;NMOYMQOS -->
<g id="edge63" class="edge">
<title>QVKRFXYE&#45;&gt;NMOYMQOS</title>
<path fill="none" stroke="black" d="M2410.33,-150.17C2402.79,-140.39 2392.52,-127.08 2383.87,-115.87"/>
<polygon fill="black" stroke="black" points="2386.53,-113.58 2377.65,-107.8 2380.98,-117.85 2386.53,-113.58"/>
</g>
<!-- EOOKPSQX -->
<g id="node69" class="node">
<title>EOOKPSQX</title>
<ellipse fill="none" stroke="black" cx="2475" cy="-93" rx="18" ry="18"/>
</g>
<!-- QVKRFXYE&#45;&gt;EOOKPSQX -->
<g id="edge68" class="edge">
<title>QVKRFXYE&#45;&gt;EOOKPSQX</title>
<path fill="none" stroke="black" d="M2431.67,-150.17C2439.21,-140.39 2449.48,-127.08 2458.13,-115.87"/>
<polygon fill="black" stroke="black" points="2461.02,-117.85 2464.35,-107.8 2455.47,-113.58 2461.02,-117.85"/>
</g>
<!-- NDBYMGQN -->
<g id="node65" class="node">
<title>NDBYMGQN</title>
<ellipse fill="none" stroke="black" cx="2258" cy="-19.5" rx="19.5" ry="19.5"/>
<text text-anchor="middle" x="2258" y="-15.8" font-family="Times,serif" font-size="14.00">12</text>
</g>
<!-- NMOYMQOS&#45;&gt;NDBYMGQN -->
<g id="edge64" class="edge">
<title>NMOYMQOS&#45;&gt;NDBYMGQN</title>
<path fill="none" stroke="black" d="M2352.35,-82.44C2336.12,-71.84 2309.17,-54.23 2286,-39 2284.9,-38.28 2283.79,-37.54 2282.66,-36.8"/>
<polygon fill="black" stroke="black" points="2284.26,-33.66 2273.98,-31.08 2280.4,-39.5 2284.26,-33.66"/>
</g>
<!-- FTEMWNWX -->
<g id="node66" class="node">
<title>FTEMWNWX</title>
<ellipse fill="none" stroke="black" cx="2313" cy="-19.5" rx="18" ry="18"/>
<text text-anchor="middle" x="2313" y="-15.8" font-family="Times,serif" font-size="14.00">6</text>
</g>
<!-- NMOYMQOS&#45;&gt;FTEMWNWX -->
<g id="edge65" class="edge">
<title>NMOYMQOS&#45;&gt;FTEMWNWX</title>
<path fill="none" stroke="black" d="M2356.59,-78.21C2348.89,-68.02 2338.26,-53.95 2329.43,-42.25"/>
<polygon fill="black" stroke="black" points="2332.2,-40.11 2323.38,-34.24 2326.61,-44.33 2332.2,-40.11"/>
</g>
<!-- WQXUXHEF -->
<g id="node67" class="node">
<title>WQXUXHEF</title>
<ellipse fill="none" stroke="black" cx="2367" cy="-19.5" rx="18" ry="18"/>
<text text-anchor="middle" x="2367" y="-15.8" font-family="Times,serif" font-size="14.00">7</text>
</g>
<!-- NMOYMQOS&#45;&gt;WQXUXHEF -->
<g id="edge66" class="edge">
<title>NMOYMQOS&#45;&gt;WQXUXHEF</title>
<path fill="none" stroke="black" d="M2367,-74.69C2367,-66.61 2367,-56.8 2367,-47.76"/>
<polygon fill="black" stroke="black" points="2370.5,-47.65 2367,-37.65 2363.5,-47.65 2370.5,-47.65"/>
</g>
<!-- LNBWVYFU -->
<g id="node68" class="node">
<title>LNBWVYFU</title>
<ellipse fill="none" stroke="black" cx="2421" cy="-19.5" rx="18" ry="18"/>
<text text-anchor="middle" x="2421" y="-15.8" font-family="Times,serif" font-size="14.00">4</text>
</g>
<!-- NMOYMQOS&#45;&gt;LNBWVYFU -->
<g id="edge67" class="edge">
<title>NMOYMQOS&#45;&gt;LNBWVYFU</title>
<path fill="none" stroke="black" d="M2377.41,-78.21C2385.11,-68.02 2395.74,-53.95 2404.57,-42.25"/>
<polygon fill="black" stroke="black" points="2407.39,-44.33 2410.62,-34.24 2401.8,-40.11 2407.39,-44.33"/>
</g>
<!-- QOTCDDZI -->
<g id="node70" class="node">
<title>QOTCDDZI</title>
<ellipse fill="none" stroke="black" cx="2475" cy="-19.5" rx="18" ry="18"/>
<text text-anchor="middle" x="2475" y="-15.8" font-family="Times,serif" font-size="14.00">4</text>
</g>
<!-- EOOKPSQX&#45;&gt;QOTCDDZI -->
<g id="edge69" class="edge">
<title>EOOKPSQX&#45;&gt;QOTCDDZI</title>
<path fill="none" stroke="black" d="M2475,-74.69C2475,-66.61 2475,-56.8 2475,-47.76"/>
<polygon fill="black" stroke="black" points="2478.5,-47.65 2475,-37.65 2471.5,-47.65 2478.5,-47.65"/>
</g>
<!-- KTYBMUVK -->
<g id="node71" class="node">
<title>KTYBMUVK</title>
<ellipse fill="none" stroke="black" cx="2529" cy="-19.5" rx="18" ry="18"/>
<text text-anchor="middle" x="2529" y="-15.8" font-family="Times,serif" font-size="14.00">3</text>
</g>
<!-- EOOKPSQX&#45;&gt;KTYBMUVK -->
<g id="edge70" class="edge">
<title>EOOKPSQX&#45;&gt;KTYBMUVK</title>
<path fill="none" stroke="black" d="M2485.41,-78.21C2493.11,-68.02 2503.74,-53.95 2512.57,-42.25"/>
<polygon fill="black" stroke="black" points="2515.39,-44.33 2518.62,-34.24 2509.8,-40.11 2515.39,-44.33"/>
</g>
<!-- TPYZIRMJ -->
<g id="node73" class="node">
<title>TPYZIRMJ</title>
<ellipse fill="none" stroke="black" cx="2637" cy="-93" rx="18" ry="18"/>
</g>
<!-- CQBYZOMZ&#45;&gt;TPYZIRMJ -->
<g id="edge72" class="edge">
<title>CQBYZOMZ&#45;&gt;TPYZIRMJ</title>
<path fill="none" stroke="black" d="M2706.66,-152.75C2693.6,-141.73 2673.47,-124.76 2658.21,-111.88"/>
<polygon fill="black" stroke="black" points="2660.2,-108.99 2650.3,-105.22 2655.69,-114.34 2660.2,-108.99"/>
</g>
<!-- XWTYTTFO -->
<g id="node76" class="node">
<title>XWTYTTFO</title>
<ellipse fill="none" stroke="black" cx="2720" cy="-93" rx="18" ry="18"/>
</g>
<!-- CQBYZOMZ&#45;&gt;XWTYTTFO -->
<g id="edge75" class="edge">
<title>CQBYZOMZ&#45;&gt;XWTYTTFO</title>
<path fill="none" stroke="black" d="M2720,-146.69C2720,-138.98 2720,-129.71 2720,-121.11"/>
<polygon fill="black" stroke="black" points="2723.5,-121.1 2720,-111.1 2716.5,-121.1 2723.5,-121.1"/>
</g>
<!-- SKIMCLVO -->
<g id="node79" class="node">
<title>SKIMCLVO</title>
<ellipse fill="none" stroke="black" cx="2830" cy="-93" rx="18" ry="18"/>
</g>
<!-- CQBYZOMZ&#45;&gt;SKIMCLVO -->
<g id="edge78" class="edge">
<title>CQBYZOMZ&#45;&gt;SKIMCLVO</title>
<path fill="none" stroke="black" d="M2734.84,-154.56C2753.21,-142.87 2784.72,-122.81 2806.42,-109"/>
<polygon fill="black" stroke="black" points="2808.49,-111.83 2815.05,-103.51 2804.73,-105.93 2808.49,-111.83"/>
</g>
<!-- PVUVTGOD -->
<g id="node83" class="node">
<title>PVUVTGOD</title>
<ellipse fill="none" stroke="black" cx="2968" cy="-93" rx="18" ry="18"/>
</g>
<!-- CQBYZOMZ&#45;&gt;PVUVTGOD -->
<g id="edge82" class="edge">
<title>CQBYZOMZ&#45;&gt;PVUVTGOD</title>
<path fill="none" stroke="black" d="M2737.05,-159.19C2779.43,-147.22 2889.86,-116.05 2941.12,-101.58"/>
<polygon fill="black" stroke="black" points="2942.16,-104.93 2950.83,-98.84 2940.26,-98.19 2942.16,-104.93"/>
</g>
<!-- TGVDHMDQ -->
<g id="node74" class="node">
<title>TGVDHMDQ</title>
<ellipse fill="none" stroke="black" cx="2583" cy="-19.5" rx="18" ry="18"/>
<text text-anchor="middle" x="2583" y="-15.8" font-family="Times,serif" font-size="14.00">5</text>
</g>
<!-- TPYZIRMJ&#45;&gt;TGVDHMDQ -->
<g id="edge73" class="edge">
<title>TPYZIRMJ&#45;&gt;TGVDHMDQ</title>
<path fill="none" stroke="black" d="M2626.59,-78.21C2618.89,-68.02 2608.26,-53.95 2599.43,-42.25"/>
<polygon fill="black" stroke="black" points="2602.2,-40.11 2593.38,-34.24 2596.61,-44.33 2602.2,-40.11"/>
</g>
<!-- JKFWPXLQ -->
<g id="node75" class="node">
<title>JKFWPXLQ</title>
<ellipse fill="none" stroke="black" cx="2637" cy="-19.5" rx="18" ry="18"/>
<text text-anchor="middle" x="2637" y="-15.8" font-family="Times,serif" font-size="14.00">2</text>
</g>
<!-- TPYZIRMJ&#45;&gt;JKFWPXLQ -->
<g id="edge74" class="edge">
<title>TPYZIRMJ&#45;&gt;JKFWPXLQ</title>
<path fill="none" stroke="black" d="M2637,-74.69C2637,-66.61 2637,-56.8 2637,-47.76"/>
<polygon fill="black" stroke="black" points="2640.5,-47.65 2637,-37.65 2633.5,-47.65 2640.5,-47.65"/>
</g>
<!-- QLBWUMMW -->
<g id="node77" class="node">
<title>QLBWUMMW</title>
<ellipse fill="none" stroke="black" cx="2692" cy="-19.5" rx="19.5" ry="19.5"/>
<text text-anchor="middle" x="2692" y="-15.8" font-family="Times,serif" font-size="14.00">11</text>
</g>
<!-- XWTYTTFO&#45;&gt;QLBWUMMW -->
<g id="edge76" class="edge">
<title>XWTYTTFO&#45;&gt;QLBWUMMW</title>
<path fill="none" stroke="black" d="M2713.65,-75.77C2710.37,-67.39 2706.28,-56.95 2702.54,-47.41"/>
<polygon fill="black" stroke="black" points="2705.72,-45.94 2698.82,-37.91 2699.21,-48.5 2705.72,-45.94"/>
</g>
<!-- RMRPEDOG -->
<g id="node78" class="node">
<title>RMRPEDOG</title>
<ellipse fill="none" stroke="black" cx="2747" cy="-19.5" rx="18" ry="18"/>
<text text-anchor="middle" x="2747" y="-15.8" font-family="Times,serif" font-size="14.00">7</text>
</g>
<!-- XWTYTTFO&#45;&gt;RMRPEDOG -->
<g id="edge77" class="edge">
<title>XWTYTTFO&#45;&gt;RMRPEDOG</title>
<path fill="none" stroke="black" d="M2726.13,-75.77C2729.44,-67 2733.61,-55.96 2737.35,-46.05"/>
<polygon fill="black" stroke="black" points="2740.64,-47.25 2740.9,-36.66 2734.09,-44.78 2740.64,-47.25"/>
</g>
<!-- GALOJCLT -->
<g id="node80" class="node">
<title>GALOJCLT</title>
<ellipse fill="none" stroke="black" cx="2802" cy="-19.5" rx="19.5" ry="19.5"/>
<text text-anchor="middle" x="2802" y="-15.8" font-family="Times,serif" font-size="14.00">13</text>
</g>
<!-- SKIMCLVO&#45;&gt;GALOJCLT -->
<g id="edge79" class="edge">
<title>SKIMCLVO&#45;&gt;GALOJCLT</title>
<path fill="none" stroke="black" d="M2823.65,-75.77C2820.37,-67.39 2816.28,-56.95 2812.54,-47.41"/>
<polygon fill="black" stroke="black" points="2815.72,-45.94 2808.82,-37.91 2809.21,-48.5 2815.72,-45.94"/>
</g>
<!-- FYUZMWWW -->
<g id="node81" class="node">
<title>FYUZMWWW</title>
<ellipse fill="none" stroke="black" cx="2859" cy="-19.5" rx="19.5" ry="19.5"/>
<text text-anchor="middle" x="2859" y="-15.8" font-family="Times,serif" font-size="14.00">14</text>
</g>
<!-- SKIMCLVO&#45;&gt;FYUZMWWW -->
<g id="edge80" class="edge">
<title>SKIMCLVO&#45;&gt;FYUZMWWW</title>
<path fill="none" stroke="black" d="M2836.44,-76.13C2839.89,-67.61 2844.24,-56.89 2848.2,-47.14"/>
<polygon fill="black" stroke="black" points="2851.46,-48.41 2851.97,-37.82 2844.97,-45.77 2851.46,-48.41"/>
</g>
<!-- LLUGLRGX -->
<g id="node82" class="node">
<title>LLUGLRGX</title>
<ellipse fill="none" stroke="black" cx="2914" cy="-19.5" rx="18" ry="18"/>
<text text-anchor="middle" x="2914" y="-15.8" font-family="Times,serif" font-size="14.00">5</text>
</g>
<!-- SKIMCLVO&#45;&gt;LLUGLRGX -->
<g id="edge81" class="edge">
<title>SKIMCLVO&#45;&gt;LLUGLRGX</title>
<path fill="none" stroke="black" d="M2843.5,-80.51C2856.72,-69.25 2877.09,-51.92 2892.54,-38.77"/>
<polygon fill="black" stroke="black" points="2895.19,-41.1 2900.54,-31.96 2890.65,-35.77 2895.19,-41.1"/>
</g>
<!-- HTSRCVCK -->
<g id="node84" class="node">
<title>HTSRCVCK</title>
<ellipse fill="none" stroke="black" cx="2968" cy="-19.5" rx="18" ry="18"/>
<text text-anchor="middle" x="2968" y="-15.8" font-family="Times,serif" font-size="14.00">5</text>
</g>
<!-- PVUVTGOD&#45;&gt;HTSRCVCK -->
<g id="edge83" class="edge">
<title>PVUVTGOD&#45;&gt;HTSRCVCK</title>
<path fill="none" stroke="black" d="M2968,-74.69C2968,-66.61 2968,-56.8 2968,-47.76"/>
<polygon fill="black" stroke="black" points="2971.5,-47.65 2968,-37.65 2964.5,-47.65 2971.5,-47.65"/>
</g>
<!-- RSROKGWJ -->
<g id="node85" class="node">
<title>RSROKGWJ</title>
<ellipse fill="none" stroke="black" cx="3022" cy="-19.5" rx="18" ry="18"/>
<text text-anchor="middle" x="3022" y="-15.8" font-family="Times,serif" font-size="14.00">0</text>
</g>
<!-- PVUVTGOD&#45;&gt;RSROKGWJ -->
<g id="edge84" class="edge">
<title>PVUVTGOD&#45;&gt;RSROKGWJ</title>
<path fill="none" stroke="black" d="M2978.41,-78.21C2986.11,-68.02 2996.74,-53.95 3005.57,-42.25"/>
<polygon fill="black" stroke="black" points="3008.39,-44.33 3011.62,-34.24 3002.8,-40.11 3008.39,-44.33"/>
</g>
<!-- BJTFUGEG -->
<g id="node87" class="node">
<title>BJTFUGEG</title>
<ellipse fill="none" stroke="black" cx="3159" cy="-93" rx="18" ry="18"/>
</g>
<!-- FDUSEZEY&#45;&gt;BJTFUGEG -->
<g id="edge86" class="edge">
<title>FDUSEZEY&#45;&gt;BJTFUGEG</title>
<path fill="none" stroke="black" d="M3159,-146.69C3159,-138.98 3159,-129.71 3159,-121.11"/>
<polygon fill="black" stroke="black" points="3162.5,-121.1 3159,-111.1 3155.5,-121.1 3162.5,-121.1"/>
</g>
<!-- SWSLODYS -->
<g id="node92" class="node">
<title>SWSLODYS</title>
<ellipse fill="none" stroke="black" cx="3300" cy="-93" rx="18" ry="18"/>
</g>
<!-- FDUSEZEY&#45;&gt;SWSLODYS -->
<g id="edge91" class="edge">
<title>FDUSEZEY&#45;&gt;SWSLODYS</title>
<path fill="none" stroke="black" d="M3174.9,-156.1C3199.23,-144.02 3245.91,-120.85 3274.86,-106.48"/>
<polygon fill="black" stroke="black" points="3276.54,-109.55 3283.94,-101.97 3273.43,-103.28 3276.54,-109.55"/>
</g>
<!-- HFJOSASO -->
<g id="node88" class="node">
<title>HFJOSASO</title>
<ellipse fill="none" stroke="black" cx="3076" cy="-19.5" rx="18" ry="18"/>
<text text-anchor="middle" x="3076" y="-15.8" font-family="Times,serif" font-size="14.00">7</text>
</g>
<!-- BJTFUGEG&#45;&gt;HFJOSASO -->
<g id="edge87" class="edge">
<title>BJTFUGEG&#45;&gt;HFJOSASO</title>
<path fill="none" stroke="black" d="M3145.66,-80.51C3132.6,-69.25 3112.47,-51.92 3097.21,-38.77"/>
<polygon fill="black" stroke="black" points="3099.16,-35.83 3089.3,-31.96 3094.59,-41.14 3099.16,-35.83"/>
</g>
<!-- MLQXRNYR -->
<g id="node89" class="node">
<title>MLQXRNYR</title>
<ellipse fill="none" stroke="black" cx="3131" cy="-19.5" rx="19.5" ry="19.5"/>
<text text-anchor="middle" x="3131" y="-15.8" font-family="Times,serif" font-size="14.00">15</text>
</g>
<!-- BJTFUGEG&#45;&gt;MLQXRNYR -->
<g id="edge88" class="edge">
<title>BJTFUGEG&#45;&gt;MLQXRNYR</title>
<path fill="none" stroke="black" d="M3152.65,-75.77C3149.37,-67.39 3145.28,-56.95 3141.54,-47.41"/>
<polygon fill="black" stroke="black" points="3144.72,-45.94 3137.82,-37.91 3138.21,-48.5 3144.72,-45.94"/>
</g>
<!-- ZODMFTZH -->
<g id="node90" class="node">
<title>ZODMFTZH</title>
<ellipse fill="none" stroke="black" cx="3188" cy="-19.5" rx="19.5" ry="19.5"/>
<text text-anchor="middle" x="3188" y="-15.8" font-family="Times,serif" font-size="14.00">12</text>
</g>
<!-- BJTFUGEG&#45;&gt;ZODMFTZH -->
<g id="edge89" class="edge">
<title>BJTFUGEG&#45;&gt;ZODMFTZH</title>
<path fill="none" stroke="black" d="M3165.44,-76.13C3168.89,-67.61 3173.24,-56.89 3177.2,-47.14"/>
<polygon fill="black" stroke="black" points="3180.46,-48.41 3180.97,-37.82 3173.97,-45.77 3180.46,-48.41"/>
</g>
<!-- XFQKTVJR -->
<g id="node91" class="node">
<title>XFQKTVJR</title>
<ellipse fill="none" stroke="black" cx="3245" cy="-19.5" rx="19.5" ry="19.5"/>
<text text-anchor="middle" x="3245" y="-15.8" font-family="Times,serif" font-size="14.00">10</text>
</g>
<!-- BJTFUGEG&#45;&gt;XFQKTVJR -->
<g id="edge90" class="edge">
<title>BJTFUGEG&#45;&gt;XFQKTVJR</title>
<path fill="none" stroke="black" d="M3172.44,-80.82C3185.87,-69.65 3206.77,-52.28 3222.7,-39.04"/>
<polygon fill="black" stroke="black" points="3225.06,-41.63 3230.51,-32.55 3220.58,-36.25 3225.06,-41.63"/>
</g>
<!-- NECSTDPJ -->
<g id="node93" class="node">
<title>NECSTDPJ</title>
<ellipse fill="none" stroke="black" cx="3300" cy="-19.5" rx="18" ry="18"/>
<text text-anchor="middle" x="3300" y="-15.8" font-family="Times,serif" font-size="14.00">3</text>
</g>
<!-- SWSLODYS&#45;&gt;NECSTDPJ -->
<g id="edge92" class="edge">
<title>SWSLODYS&#45;&gt;NECSTDPJ</title>
<path fill="none" stroke="black" d="M3300,-74.69C3300,-66.61 3300,-56.8 3300,-47.76"/>
<polygon fill="black" stroke="black" points="3303.5,-47.65 3300,-37.65 3296.5,-47.65 3303.5,-47.65"/>
</g>
<!-- GMXVKDTM -->
<g id="node94" class="node">
<title>GMXVKDTM</title>
<ellipse fill="none" stroke="black" cx="3354" cy="-19.5" rx="18" ry="18"/>
<text text-anchor="middle" x="3354" y="-15.8" font-family="Times,serif" font-size="14.00">0</text>
</g>
<!-- SWSLODYS&#45;&gt;GMXVKDTM -->
<g id="edge93" class="edge">
<title>SWSLODYS&#45;&gt;GMXVKDTM</title>
<path fill="none" stroke="black" d="M3310.41,-78.21C3318.11,-68.02 3328.74,-53.95 3337.57,-42.25"/>
<polygon fill="black" stroke="black" points="3340.39,-44.33 3343.62,-34.24 3334.8,-40.11 3340.39,-44.33"/>
</g>
</g>
</svg>
