<?xml version="1.0" encoding="UTF-8" standalone="no"?>
<!DOCTYPE svg PUBLIC "-//W3C//DTD SVG 1.1//EN"
 "http://www.w3.org/Graphics/SVG/1.1/DTD/svg11.dtd">
<!-- Generated by graphviz version 2.46.1 (20210213.1702)
 -->
<!-- Title: D Pages: 1 -->
<svg width="3888pt" height="335pt"
 viewBox="0.00 0.00 3888.50 335.00" xmlns="http://www.w3.org/2000/svg" xmlns:xlink="http://www.w3.org/1999/xlink">
<g id="graph0" class="graph" transform="scale(1 1) rotate(0) translate(4 331)">
<title>D</title>
<polygon fill="white" stroke="transparent" points="-4,4 -4,-331 3884.5,-331 3884.5,4 -4,4"/>
<!-- DTMDFFEQ -->
<g id="node1" class="node">
<title>DTMDFFEQ</title>
<ellipse fill="none" stroke="black" cx="2018.5" cy="-309" rx="18" ry="18"/>
</g>
<!-- YETDYIHZ -->
<g id="node2" class="node">
<title>YETDYIHZ</title>
<ellipse fill="none" stroke="black" cx="1474.5" cy="-237" rx="18" ry="18"/>
</g>
<!-- DTMDFFEQ&#45;&gt;YETDYIHZ -->
<g id="edge1" class="edge">
<title>DTMDFFEQ&#45;&gt;YETDYIHZ</title>
<path fill="none" stroke="black" d="M2000.71,-305.71C1921.37,-295.5 1599.5,-254.08 1502.38,-241.58"/>
<polygon fill="black" stroke="black" points="1502.79,-238.11 1492.43,-240.3 1501.9,-245.05 1502.79,-238.11"/>
</g>
<!-- MOOMBMIG -->
<g id="node58" class="node">
<title>MOOMBMIG</title>
<ellipse fill="none" stroke="black" cx="2947.5" cy="-237" rx="18" ry="18"/>
</g>
<!-- DTMDFFEQ&#45;&gt;MOOMBMIG -->
<g id="edge57" class="edge">
<title>DTMDFFEQ&#45;&gt;MOOMBMIG</title>
<path fill="none" stroke="black" d="M2036.64,-306.63C2151.56,-297.97 2778.08,-250.76 2919.24,-240.13"/>
<polygon fill="black" stroke="black" points="2919.91,-243.59 2929.62,-239.34 2919.39,-236.6 2919.91,-243.59"/>
</g>
<!-- WSEOJCOP -->
<g id="node3" class="node">
<title>WSEOJCOP</title>
<ellipse fill="none" stroke="black" cx="351.5" cy="-165" rx="18" ry="18"/>
</g>
<!-- YETDYIHZ&#45;&gt;WSEOJCOP -->
<g id="edge2" class="edge">
<title>YETDYIHZ&#45;&gt;WSEOJCOP</title>
<path fill="none" stroke="black" d="M1456.4,-234.87C1326.78,-226.79 539.98,-177.75 379.91,-167.77"/>
<polygon fill="black" stroke="black" points="379.68,-164.25 369.48,-167.12 379.25,-171.23 379.68,-164.25"/>
</g>
<!-- TXVXBCVM -->
<g id="node17" class="node">
<title>TXVXBCVM</title>
<ellipse fill="none" stroke="black" cx="959.5" cy="-165" rx="18" ry="18"/>
</g>
<!-- YETDYIHZ&#45;&gt;TXVXBCVM -->
<g id="edge16" class="edge">
<title>YETDYIHZ&#45;&gt;TXVXBCVM</title>
<path fill="none" stroke="black" d="M1456.77,-233.59C1380.64,-223.24 1081.03,-182.52 987.53,-169.81"/>
<polygon fill="black" stroke="black" points="987.8,-166.31 977.42,-168.43 986.85,-173.25 987.8,-166.31"/>
</g>
<!-- XKMOMNPB -->
<g id="node35" class="node">
<title>XKMOMNPB</title>
<ellipse fill="none" stroke="black" cx="1474.5" cy="-165" rx="18" ry="18"/>
</g>
<!-- YETDYIHZ&#45;&gt;XKMOMNPB -->
<g id="edge34" class="edge">
<title>YETDYIHZ&#45;&gt;XKMOMNPB</title>
<path fill="none" stroke="black" d="M1474.5,-218.69C1474.5,-210.98 1474.5,-201.71 1474.5,-193.11"/>
<polygon fill="black" stroke="black" points="1478,-193.1 1474.5,-183.1 1471,-193.1 1478,-193.1"/>
</g>
<!-- HSTVINSK -->
<g id="node46" class="node">
<title>HSTVINSK</title>
<ellipse fill="none" stroke="black" cx="1744.5" cy="-165" rx="18" ry="18"/>
</g>
<!-- YETDYIHZ&#45;&gt;HSTVINSK -->
<g id="edge45" class="edge">
<title>YETDYIHZ&#45;&gt;HSTVINSK</title>
<path fill="none" stroke="black" d="M1491.8,-231.51C1537.61,-219.63 1662.35,-187.3 1717.57,-172.98"/>
<polygon fill="black" stroke="black" points="1718.54,-176.34 1727.34,-170.44 1716.78,-169.57 1718.54,-176.34"/>
</g>
<!-- OHOFTHRT -->
<g id="node4" class="node">
<title>OHOFTHRT</title>
<ellipse fill="none" stroke="black" cx="102.5" cy="-93" rx="18" ry="18"/>
</g>
<!-- WSEOJCOP&#45;&gt;OHOFTHRT -->
<g id="edge3" class="edge">
<title>WSEOJCOP&#45;&gt;OHOFTHRT</title>
<path fill="none" stroke="black" d="M334.38,-159.19C291.83,-147.22 180.96,-116.05 129.48,-101.58"/>
<polygon fill="black" stroke="black" points="130.31,-98.18 119.73,-98.84 128.41,-104.92 130.31,-98.18"/>
</g>
<!-- WDYVVMSK -->
<g id="node8" class="node">
<title>WDYVVMSK</title>
<ellipse fill="none" stroke="black" cx="296.5" cy="-93" rx="18" ry="18"/>
</g>
<!-- WSEOJCOP&#45;&gt;WDYVVMSK -->
<g id="edge7" class="edge">
<title>WSEOJCOP&#45;&gt;WDYVVMSK</title>
<path fill="none" stroke="black" d="M340.63,-150.17C332.95,-140.39 322.49,-127.08 313.68,-115.87"/>
<polygon fill="black" stroke="black" points="316.27,-113.5 307.34,-107.8 310.77,-117.82 316.27,-113.5"/>
</g>
<!-- JFDAECXN -->
<g id="node13" class="node">
<title>JFDAECXN</title>
<ellipse fill="none" stroke="black" cx="433.5" cy="-93" rx="18" ry="18"/>
</g>
<!-- WSEOJCOP&#45;&gt;JFDAECXN -->
<g id="edge12" class="edge">
<title>WSEOJCOP&#45;&gt;JFDAECXN</title>
<path fill="none" stroke="black" d="M365.04,-152.44C377.93,-141.43 397.54,-124.69 412.47,-111.95"/>
<polygon fill="black" stroke="black" points="414.88,-114.5 420.21,-105.34 410.33,-109.17 414.88,-114.5"/>
</g>
<!-- EPKCEAQT -->
<g id="node5" class="node">
<title>EPKCEAQT</title>
<ellipse fill="none" stroke="black" cx="19.5" cy="-19.5" rx="19.5" ry="19.5"/>
<text text-anchor="middle" x="19.5" y="-15.8" font-family="Times,serif" font-size="14.00">12</text>
</g>
<!-- OHOFTHRT&#45;&gt;EPKCEAQT -->
<g id="edge4" class="edge">
<title>OHOFTHRT&#45;&gt;EPKCEAQT</title>
<path fill="none" stroke="black" d="M89.16,-80.51C76.4,-69.52 56.92,-52.73 41.8,-39.71"/>
<polygon fill="black" stroke="black" points="43.78,-36.79 33.92,-32.92 39.21,-42.1 43.78,-36.79"/>
</g>
<!-- SPHIEFDE -->
<g id="node6" class="node">
<title>SPHIEFDE</title>
<ellipse fill="none" stroke="black" cx="74.5" cy="-19.5" rx="18" ry="18"/>
<text text-anchor="middle" x="74.5" y="-15.8" font-family="Times,serif" font-size="14.00">7</text>
</g>
<!-- OHOFTHRT&#45;&gt;SPHIEFDE -->
<g id="edge5" class="edge">
<title>OHOFTHRT&#45;&gt;SPHIEFDE</title>
<path fill="none" stroke="black" d="M96.14,-75.77C92.71,-67 88.38,-55.96 84.51,-46.05"/>
<polygon fill="black" stroke="black" points="87.73,-44.69 80.83,-36.66 81.21,-47.25 87.73,-44.69"/>
</g>
<!-- SYVYPMDJ -->
<g id="node7" class="node">
<title>SYVYPMDJ</title>
<ellipse fill="none" stroke="black" cx="129.5" cy="-19.5" rx="19.5" ry="19.5"/>
<text text-anchor="middle" x="129.5" y="-15.8" font-family="Times,serif" font-size="14.00">11</text>
</g>
<!-- OHOFTHRT&#45;&gt;SYVYPMDJ -->
<g id="edge6" class="edge">
<title>OHOFTHRT&#45;&gt;SYVYPMDJ</title>
<path fill="none" stroke="black" d="M108.62,-75.77C111.79,-67.39 115.73,-56.95 119.34,-47.41"/>
<polygon fill="black" stroke="black" points="122.67,-48.5 122.92,-37.91 116.12,-46.03 122.67,-48.5"/>
</g>
<!-- FDTGFODQ -->
<g id="node9" class="node">
<title>FDTGFODQ</title>
<ellipse fill="none" stroke="black" cx="186.5" cy="-19.5" rx="19.5" ry="19.5"/>
<text text-anchor="middle" x="186.5" y="-15.8" font-family="Times,serif" font-size="14.00">11</text>
</g>
<!-- WDYVVMSK&#45;&gt;FDTGFODQ -->
<g id="edge8" class="edge">
<title>WDYVVMSK&#45;&gt;FDTGFODQ</title>
<path fill="none" stroke="black" d="M281.66,-82.47C265.21,-71.89 237.91,-54.3 214.5,-39 213.4,-38.28 212.28,-37.55 211.15,-36.8"/>
<polygon fill="black" stroke="black" points="212.75,-33.67 202.47,-31.09 208.9,-39.51 212.75,-33.67"/>
</g>
<!-- CVFYZIIC -->
<g id="node10" class="node">
<title>CVFYZIIC</title>
<ellipse fill="none" stroke="black" cx="241.5" cy="-19.5" rx="18" ry="18"/>
<text text-anchor="middle" x="241.5" y="-15.8" font-family="Times,serif" font-size="14.00">5</text>
</g>
<!-- WDYVVMSK&#45;&gt;CVFYZIIC -->
<g id="edge9" class="edge">
<title>WDYVVMSK&#45;&gt;CVFYZIIC</title>
<path fill="none" stroke="black" d="M285.89,-78.21C278.06,-68.02 267.23,-53.95 258.23,-42.25"/>
<polygon fill="black" stroke="black" points="260.94,-40.03 252.07,-34.24 255.39,-44.3 260.94,-40.03"/>
</g>
<!-- XQUVMJPE -->
<g id="node11" class="node">
<title>XQUVMJPE</title>
<ellipse fill="none" stroke="black" cx="296.5" cy="-19.5" rx="19.5" ry="19.5"/>
<text text-anchor="middle" x="296.5" y="-15.8" font-family="Times,serif" font-size="14.00">13</text>
</g>
<!-- WDYVVMSK&#45;&gt;XQUVMJPE -->
<g id="edge10" class="edge">
<title>WDYVVMSK&#45;&gt;XQUVMJPE</title>
<path fill="none" stroke="black" d="M296.5,-74.69C296.5,-67.05 296.5,-57.86 296.5,-49.24"/>
<polygon fill="black" stroke="black" points="300,-49.15 296.5,-39.15 293,-49.15 300,-49.15"/>
</g>
<!-- NZHYHPSP -->
<g id="node12" class="node">
<title>NZHYHPSP</title>
<ellipse fill="none" stroke="black" cx="351.5" cy="-19.5" rx="18" ry="18"/>
<text text-anchor="middle" x="351.5" y="-15.8" font-family="Times,serif" font-size="14.00">9</text>
</g>
<!-- WDYVVMSK&#45;&gt;NZHYHPSP -->
<g id="edge11" class="edge">
<title>WDYVVMSK&#45;&gt;NZHYHPSP</title>
<path fill="none" stroke="black" d="M307.1,-78.21C314.94,-68.02 325.77,-53.95 334.77,-42.25"/>
<polygon fill="black" stroke="black" points="337.6,-44.3 340.93,-34.24 332.05,-40.03 337.6,-44.3"/>
</g>
<!-- EDFRPGZJ -->
<g id="node14" class="node">
<title>EDFRPGZJ</title>
<ellipse fill="none" stroke="black" cx="405.5" cy="-19.5" rx="18" ry="18"/>
<text text-anchor="middle" x="405.5" y="-15.8" font-family="Times,serif" font-size="14.00">2</text>
</g>
<!-- JFDAECXN&#45;&gt;EDFRPGZJ -->
<g id="edge13" class="edge">
<title>JFDAECXN&#45;&gt;EDFRPGZJ</title>
<path fill="none" stroke="black" d="M427.14,-75.77C423.71,-67 419.38,-55.96 415.51,-46.05"/>
<polygon fill="black" stroke="black" points="418.73,-44.69 411.83,-36.66 412.21,-47.25 418.73,-44.69"/>
</g>
<!-- GFADDIAW -->
<g id="node15" class="node">
<title>GFADDIAW</title>
<ellipse fill="none" stroke="black" cx="460.5" cy="-19.5" rx="19.5" ry="19.5"/>
<text text-anchor="middle" x="460.5" y="-15.8" font-family="Times,serif" font-size="14.00">15</text>
</g>
<!-- JFDAECXN&#45;&gt;GFADDIAW -->
<g id="edge14" class="edge">
<title>JFDAECXN&#45;&gt;GFADDIAW</title>
<path fill="none" stroke="black" d="M439.62,-75.77C442.79,-67.39 446.73,-56.95 450.34,-47.41"/>
<polygon fill="black" stroke="black" points="453.67,-48.5 453.92,-37.91 447.12,-46.03 453.67,-48.5"/>
</g>
<!-- FTETVKZM -->
<g id="node16" class="node">
<title>FTETVKZM</title>
<ellipse fill="none" stroke="black" cx="515.5" cy="-19.5" rx="18" ry="18"/>
<text text-anchor="middle" x="515.5" y="-15.8" font-family="Times,serif" font-size="14.00">8</text>
</g>
<!-- JFDAECXN&#45;&gt;FTETVKZM -->
<g id="edge15" class="edge">
<title>JFDAECXN&#45;&gt;FTETVKZM</title>
<path fill="none" stroke="black" d="M446.67,-80.51C459.58,-69.25 479.47,-51.92 494.55,-38.77"/>
<polygon fill="black" stroke="black" points="497.12,-41.17 502.36,-31.96 492.52,-35.89 497.12,-41.17"/>
</g>
<!-- UDNXKQKO -->
<g id="node18" class="node">
<title>UDNXKQKO</title>
<ellipse fill="none" stroke="black" cx="625.5" cy="-93" rx="18" ry="18"/>
</g>
<!-- TXVXBCVM&#45;&gt;UDNXKQKO -->
<g id="edge17" class="edge">
<title>TXVXBCVM&#45;&gt;UDNXKQKO</title>
<path fill="none" stroke="black" d="M942.01,-160.33C887.47,-148.9 720.11,-113.83 653.39,-99.84"/>
<polygon fill="black" stroke="black" points="653.72,-96.34 643.22,-97.71 652.28,-103.19 653.72,-96.34"/>
</g>
<!-- RLIWFUDK -->
<g id="node21" class="node">
<title>RLIWFUDK</title>
<ellipse fill="none" stroke="black" cx="790.5" cy="-93" rx="18" ry="18"/>
</g>
<!-- TXVXBCVM&#45;&gt;RLIWFUDK -->
<g id="edge20" class="edge">
<title>TXVXBCVM&#45;&gt;RLIWFUDK</title>
<path fill="none" stroke="black" d="M942.99,-157.16C913.5,-144.95 851.61,-119.31 816.41,-104.73"/>
<polygon fill="black" stroke="black" points="817.41,-101.35 806.83,-100.76 814.73,-107.82 817.41,-101.35"/>
</g>
<!-- TMVRWIHP -->
<g id="node26" class="node">
<title>TMVRWIHP</title>
<ellipse fill="none" stroke="black" cx="959.5" cy="-93" rx="18" ry="18"/>
</g>
<!-- TXVXBCVM&#45;&gt;TMVRWIHP -->
<g id="edge25" class="edge">
<title>TXVXBCVM&#45;&gt;TMVRWIHP</title>
<path fill="none" stroke="black" d="M959.5,-146.69C959.5,-138.98 959.5,-129.71 959.5,-121.11"/>
<polygon fill="black" stroke="black" points="963,-121.1 959.5,-111.1 956,-121.1 963,-121.1"/>
</g>
<!-- GPNWQUXG -->
<g id="node30" class="node">
<title>GPNWQUXG</title>
<ellipse fill="none" stroke="black" cx="1122.5" cy="-93" rx="18" ry="18"/>
</g>
<!-- TXVXBCVM&#45;&gt;GPNWQUXG -->
<g id="edge29" class="edge">
<title>TXVXBCVM&#45;&gt;GPNWQUXG</title>
<path fill="none" stroke="black" d="M975.72,-157.03C1004.16,-144.82 1063.19,-119.46 1097.09,-104.91"/>
<polygon fill="black" stroke="black" points="1098.53,-108.1 1106.34,-100.94 1095.77,-101.67 1098.53,-108.1"/>
</g>
<!-- KNQQBHXW -->
<g id="node19" class="node">
<title>KNQQBHXW</title>
<ellipse fill="none" stroke="black" cx="570.5" cy="-19.5" rx="19.5" ry="19.5"/>
<text text-anchor="middle" x="570.5" y="-15.8" font-family="Times,serif" font-size="14.00">12</text>
</g>
<!-- UDNXKQKO&#45;&gt;KNQQBHXW -->
<g id="edge18" class="edge">
<title>UDNXKQKO&#45;&gt;KNQQBHXW</title>
<path fill="none" stroke="black" d="M614.89,-78.21C607.38,-68.45 597.12,-55.11 588.36,-43.72"/>
<polygon fill="black" stroke="black" points="590.89,-41.27 582.02,-35.48 585.34,-45.54 590.89,-41.27"/>
</g>
<!-- ETVKPTRI -->
<g id="node20" class="node">
<title>ETVKPTRI</title>
<ellipse fill="none" stroke="black" cx="625.5" cy="-19.5" rx="18" ry="18"/>
<text text-anchor="middle" x="625.5" y="-15.8" font-family="Times,serif" font-size="14.00">2</text>
</g>
<!-- UDNXKQKO&#45;&gt;ETVKPTRI -->
<g id="edge19" class="edge">
<title>UDNXKQKO&#45;&gt;ETVKPTRI</title>
<path fill="none" stroke="black" d="M625.5,-74.69C625.5,-66.61 625.5,-56.8 625.5,-47.76"/>
<polygon fill="black" stroke="black" points="629,-47.65 625.5,-37.65 622,-47.65 629,-47.65"/>
</g>
<!-- MVOJNWRM -->
<g id="node22" class="node">
<title>MVOJNWRM</title>
<ellipse fill="none" stroke="black" cx="680.5" cy="-19.5" rx="19.5" ry="19.5"/>
<text text-anchor="middle" x="680.5" y="-15.8" font-family="Times,serif" font-size="14.00">11</text>
</g>
<!-- RLIWFUDK&#45;&gt;MVOJNWRM -->
<g id="edge21" class="edge">
<title>RLIWFUDK&#45;&gt;MVOJNWRM</title>
<path fill="none" stroke="black" d="M775.66,-82.47C759.21,-71.89 731.91,-54.3 708.5,-39 707.4,-38.28 706.28,-37.55 705.15,-36.8"/>
<polygon fill="black" stroke="black" points="706.75,-33.67 696.47,-31.09 702.9,-39.51 706.75,-33.67"/>
</g>
<!-- BZQYKINU -->
<g id="node23" class="node">
<title>BZQYKINU</title>
<ellipse fill="none" stroke="black" cx="735.5" cy="-19.5" rx="18" ry="18"/>
<text text-anchor="middle" x="735.5" y="-15.8" font-family="Times,serif" font-size="14.00">1</text>
</g>
<!-- RLIWFUDK&#45;&gt;BZQYKINU -->
<g id="edge22" class="edge">
<title>RLIWFUDK&#45;&gt;BZQYKINU</title>
<path fill="none" stroke="black" d="M779.89,-78.21C772.06,-68.02 761.23,-53.95 752.23,-42.25"/>
<polygon fill="black" stroke="black" points="754.94,-40.03 746.07,-34.24 749.39,-44.3 754.94,-40.03"/>
</g>
<!-- JXLMEIBM -->
<g id="node24" class="node">
<title>JXLMEIBM</title>
<ellipse fill="none" stroke="black" cx="790.5" cy="-19.5" rx="19.5" ry="19.5"/>
<text text-anchor="middle" x="790.5" y="-15.8" font-family="Times,serif" font-size="14.00">14</text>
</g>
<!-- RLIWFUDK&#45;&gt;JXLMEIBM -->
<g id="edge23" class="edge">
<title>RLIWFUDK&#45;&gt;JXLMEIBM</title>
<path fill="none" stroke="black" d="M790.5,-74.69C790.5,-67.05 790.5,-57.86 790.5,-49.24"/>
<polygon fill="black" stroke="black" points="794,-49.15 790.5,-39.15 787,-49.15 794,-49.15"/>
</g>
<!-- IVFZUOAS -->
<g id="node25" class="node">
<title>IVFZUOAS</title>
<ellipse fill="none" stroke="black" cx="847.5" cy="-19.5" rx="19.5" ry="19.5"/>
<text text-anchor="middle" x="847.5" y="-15.8" font-family="Times,serif" font-size="14.00">13</text>
</g>
<!-- RLIWFUDK&#45;&gt;IVFZUOAS -->
<g id="edge24" class="edge">
<title>RLIWFUDK&#45;&gt;IVFZUOAS</title>
<path fill="none" stroke="black" d="M801.49,-78.21C809.4,-68.28 820.26,-54.67 829.44,-43.16"/>
<polygon fill="black" stroke="black" points="832.26,-45.23 835.76,-35.23 826.79,-40.86 832.26,-45.23"/>
</g>
<!-- EQZNOHCR -->
<g id="node27" class="node">
<title>EQZNOHCR</title>
<ellipse fill="none" stroke="black" cx="904.5" cy="-19.5" rx="19.5" ry="19.5"/>
<text text-anchor="middle" x="904.5" y="-15.8" font-family="Times,serif" font-size="14.00">10</text>
</g>
<!-- TMVRWIHP&#45;&gt;EQZNOHCR -->
<g id="edge26" class="edge">
<title>TMVRWIHP&#45;&gt;EQZNOHCR</title>
<path fill="none" stroke="black" d="M948.89,-78.21C941.38,-68.45 931.12,-55.11 922.36,-43.72"/>
<polygon fill="black" stroke="black" points="924.89,-41.27 916.02,-35.48 919.34,-45.54 924.89,-41.27"/>
</g>
<!-- XLEMQNES -->
<g id="node28" class="node">
<title>XLEMQNES</title>
<ellipse fill="none" stroke="black" cx="959.5" cy="-19.5" rx="18" ry="18"/>
<text text-anchor="middle" x="959.5" y="-15.8" font-family="Times,serif" font-size="14.00">7</text>
</g>
<!-- TMVRWIHP&#45;&gt;XLEMQNES -->
<g id="edge27" class="edge">
<title>TMVRWIHP&#45;&gt;XLEMQNES</title>
<path fill="none" stroke="black" d="M959.5,-74.69C959.5,-66.61 959.5,-56.8 959.5,-47.76"/>
<polygon fill="black" stroke="black" points="963,-47.65 959.5,-37.65 956,-47.65 963,-47.65"/>
</g>
<!-- RODYRZSP -->
<g id="node29" class="node">
<title>RODYRZSP</title>
<ellipse fill="none" stroke="black" cx="1013.5" cy="-19.5" rx="18" ry="18"/>
<text text-anchor="middle" x="1013.5" y="-15.8" font-family="Times,serif" font-size="14.00">0</text>
</g>
<!-- TMVRWIHP&#45;&gt;RODYRZSP -->
<g id="edge28" class="edge">
<title>TMVRWIHP&#45;&gt;RODYRZSP</title>
<path fill="none" stroke="black" d="M969.91,-78.21C977.6,-68.02 988.23,-53.95 997.07,-42.25"/>
<polygon fill="black" stroke="black" points="999.88,-44.33 1003.12,-34.24 994.3,-40.11 999.88,-44.33"/>
</g>
<!-- UEMZAHUH -->
<g id="node31" class="node">
<title>UEMZAHUH</title>
<ellipse fill="none" stroke="black" cx="1067.5" cy="-19.5" rx="18" ry="18"/>
<text text-anchor="middle" x="1067.5" y="-15.8" font-family="Times,serif" font-size="14.00">7</text>
</g>
<!-- GPNWQUXG&#45;&gt;UEMZAHUH -->
<g id="edge30" class="edge">
<title>GPNWQUXG&#45;&gt;UEMZAHUH</title>
<path fill="none" stroke="black" d="M1111.89,-78.21C1104.06,-68.02 1093.23,-53.95 1084.23,-42.25"/>
<polygon fill="black" stroke="black" points="1086.94,-40.03 1078.07,-34.24 1081.39,-44.3 1086.94,-40.03"/>
</g>
<!-- YQZXGBMN -->
<g id="node32" class="node">
<title>YQZXGBMN</title>
<ellipse fill="none" stroke="black" cx="1122.5" cy="-19.5" rx="19.5" ry="19.5"/>
<text text-anchor="middle" x="1122.5" y="-15.8" font-family="Times,serif" font-size="14.00">13</text>
</g>
<!-- GPNWQUXG&#45;&gt;YQZXGBMN -->
<g id="edge31" class="edge">
<title>GPNWQUXG&#45;&gt;YQZXGBMN</title>
<path fill="none" stroke="black" d="M1122.5,-74.69C1122.5,-67.05 1122.5,-57.86 1122.5,-49.24"/>
<polygon fill="black" stroke="black" points="1126,-49.15 1122.5,-39.15 1119,-49.15 1126,-49.15"/>
</g>
<!-- FTUZSGMR -->
<g id="node33" class="node">
<title>FTUZSGMR</title>
<ellipse fill="none" stroke="black" cx="1177.5" cy="-19.5" rx="18" ry="18"/>
<text text-anchor="middle" x="1177.5" y="-15.8" font-family="Times,serif" font-size="14.00">9</text>
</g>
<!-- GPNWQUXG&#45;&gt;FTUZSGMR -->
<g id="edge32" class="edge">
<title>GPNWQUXG&#45;&gt;FTUZSGMR</title>
<path fill="none" stroke="black" d="M1133.1,-78.21C1140.94,-68.02 1151.77,-53.95 1160.77,-42.25"/>
<polygon fill="black" stroke="black" points="1163.6,-44.3 1166.93,-34.24 1158.05,-40.03 1163.6,-44.3"/>
</g>
<!-- URCFHTQR -->
<g id="node34" class="node">
<title>URCFHTQR</title>
<ellipse fill="none" stroke="black" cx="1231.5" cy="-19.5" rx="18" ry="18"/>
<text text-anchor="middle" x="1231.5" y="-15.8" font-family="Times,serif" font-size="14.00">5</text>
</g>
<!-- GPNWQUXG&#45;&gt;URCFHTQR -->
<g id="edge33" class="edge">
<title>GPNWQUXG&#45;&gt;URCFHTQR</title>
<path fill="none" stroke="black" d="M1137.39,-82.54C1153.88,-72.03 1181.21,-54.49 1204.5,-39 1205.77,-38.15 1207.07,-37.28 1208.38,-36.39"/>
<polygon fill="black" stroke="black" points="1210.67,-39.07 1216.97,-30.55 1206.74,-33.28 1210.67,-39.07"/>
</g>
<!-- RKGKALMI -->
<g id="node36" class="node">
<title>RKGKALMI</title>
<ellipse fill="none" stroke="black" cx="1366.5" cy="-93" rx="18" ry="18"/>
</g>
<!-- XKMOMNPB&#45;&gt;RKGKALMI -->
<g id="edge35" class="edge">
<title>XKMOMNPB&#45;&gt;RKGKALMI</title>
<path fill="none" stroke="black" d="M1459.48,-154.26C1441.43,-142.56 1410.92,-122.79 1389.8,-109.1"/>
<polygon fill="black" stroke="black" points="1391.68,-106.15 1381.39,-103.65 1387.88,-112.02 1391.68,-106.15"/>
</g>
<!-- FCTBOIYY -->
<g id="node40" class="node">
<title>FCTBOIYY</title>
<ellipse fill="none" stroke="black" cx="1474.5" cy="-93" rx="18" ry="18"/>
</g>
<!-- XKMOMNPB&#45;&gt;FCTBOIYY -->
<g id="edge39" class="edge">
<title>XKMOMNPB&#45;&gt;FCTBOIYY</title>
<path fill="none" stroke="black" d="M1474.5,-146.69C1474.5,-138.98 1474.5,-129.71 1474.5,-121.11"/>
<polygon fill="black" stroke="black" points="1478,-121.1 1474.5,-111.1 1471,-121.1 1478,-121.1"/>
</g>
<!-- ZONNOAHY -->
<g id="node43" class="node">
<title>ZONNOAHY</title>
<ellipse fill="none" stroke="black" cx="1555.5" cy="-93" rx="18" ry="18"/>
</g>
<!-- XKMOMNPB&#45;&gt;ZONNOAHY -->
<g id="edge42" class="edge">
<title>XKMOMNPB&#45;&gt;ZONNOAHY</title>
<path fill="none" stroke="black" d="M1487.87,-152.44C1500.61,-141.43 1519.98,-124.69 1534.73,-111.95"/>
<polygon fill="black" stroke="black" points="1537.09,-114.53 1542.37,-105.34 1532.52,-109.23 1537.09,-114.53"/>
</g>
<!-- ZJDOAZMN -->
<g id="node37" class="node">
<title>ZJDOAZMN</title>
<ellipse fill="none" stroke="black" cx="1285.5" cy="-19.5" rx="18" ry="18"/>
<text text-anchor="middle" x="1285.5" y="-15.8" font-family="Times,serif" font-size="14.00">4</text>
</g>
<!-- RKGKALMI&#45;&gt;ZJDOAZMN -->
<g id="edge36" class="edge">
<title>RKGKALMI&#45;&gt;ZJDOAZMN</title>
<path fill="none" stroke="black" d="M1353.48,-80.51C1340.81,-69.32 1321.32,-52.12 1306.46,-39"/>
<polygon fill="black" stroke="black" points="1308.56,-36.19 1298.75,-32.19 1303.93,-41.44 1308.56,-36.19"/>
</g>
<!-- XDZKPFAU -->
<g id="node38" class="node">
<title>XDZKPFAU</title>
<ellipse fill="none" stroke="black" cx="1339.5" cy="-19.5" rx="18" ry="18"/>
<text text-anchor="middle" x="1339.5" y="-15.8" font-family="Times,serif" font-size="14.00">5</text>
</g>
<!-- RKGKALMI&#45;&gt;XDZKPFAU -->
<g id="edge37" class="edge">
<title>RKGKALMI&#45;&gt;XDZKPFAU</title>
<path fill="none" stroke="black" d="M1360.37,-75.77C1357.06,-67 1352.89,-55.96 1349.15,-46.05"/>
<polygon fill="black" stroke="black" points="1352.41,-44.78 1345.6,-36.66 1345.86,-47.25 1352.41,-44.78"/>
</g>
<!-- SQQPLZOE -->
<g id="node39" class="node">
<title>SQQPLZOE</title>
<ellipse fill="none" stroke="black" cx="1393.5" cy="-19.5" rx="18" ry="18"/>
<text text-anchor="middle" x="1393.5" y="-15.8" font-family="Times,serif" font-size="14.00">5</text>
</g>
<!-- RKGKALMI&#45;&gt;SQQPLZOE -->
<g id="edge38" class="edge">
<title>RKGKALMI&#45;&gt;SQQPLZOE</title>
<path fill="none" stroke="black" d="M1372.62,-75.77C1375.94,-67 1380.11,-55.96 1383.85,-46.05"/>
<polygon fill="black" stroke="black" points="1387.14,-47.25 1387.4,-36.66 1380.59,-44.78 1387.14,-47.25"/>
</g>
<!-- KUBBPOEJ -->
<g id="node41" class="node">
<title>KUBBPOEJ</title>
<ellipse fill="none" stroke="black" cx="1447.5" cy="-19.5" rx="18" ry="18"/>
<text text-anchor="middle" x="1447.5" y="-15.8" font-family="Times,serif" font-size="14.00">0</text>
</g>
<!-- FCTBOIYY&#45;&gt;KUBBPOEJ -->
<g id="edge40" class="edge">
<title>FCTBOIYY&#45;&gt;KUBBPOEJ</title>
<path fill="none" stroke="black" d="M1468.37,-75.77C1465.06,-67 1460.89,-55.96 1457.15,-46.05"/>
<polygon fill="black" stroke="black" points="1460.41,-44.78 1453.6,-36.66 1453.86,-47.25 1460.41,-44.78"/>
</g>
<!-- BFNEKROA -->
<g id="node42" class="node">
<title>BFNEKROA</title>
<ellipse fill="none" stroke="black" cx="1501.5" cy="-19.5" rx="18" ry="18"/>
<text text-anchor="middle" x="1501.5" y="-15.8" font-family="Times,serif" font-size="14.00">1</text>
</g>
<!-- FCTBOIYY&#45;&gt;BFNEKROA -->
<g id="edge41" class="edge">
<title>FCTBOIYY&#45;&gt;BFNEKROA</title>
<path fill="none" stroke="black" d="M1480.62,-75.77C1483.94,-67 1488.11,-55.96 1491.85,-46.05"/>
<polygon fill="black" stroke="black" points="1495.14,-47.25 1495.4,-36.66 1488.59,-44.78 1495.14,-47.25"/>
</g>
<!-- JKHURKUS -->
<g id="node44" class="node">
<title>JKHURKUS</title>
<ellipse fill="none" stroke="black" cx="1555.5" cy="-19.5" rx="18" ry="18"/>
<text text-anchor="middle" x="1555.5" y="-15.8" font-family="Times,serif" font-size="14.00">4</text>
</g>
<!-- ZONNOAHY&#45;&gt;JKHURKUS -->
<g id="edge43" class="edge">
<title>ZONNOAHY&#45;&gt;JKHURKUS</title>
<path fill="none" stroke="black" d="M1555.5,-74.69C1555.5,-66.61 1555.5,-56.8 1555.5,-47.76"/>
<polygon fill="black" stroke="black" points="1559,-47.65 1555.5,-37.65 1552,-47.65 1559,-47.65"/>
</g>
<!-- EVGMPKCQ -->
<g id="node45" class="node">
<title>EVGMPKCQ</title>
<ellipse fill="none" stroke="black" cx="1609.5" cy="-19.5" rx="18" ry="18"/>
<text text-anchor="middle" x="1609.5" y="-15.8" font-family="Times,serif" font-size="14.00">1</text>
</g>
<!-- ZONNOAHY&#45;&gt;EVGMPKCQ -->
<g id="edge44" class="edge">
<title>ZONNOAHY&#45;&gt;EVGMPKCQ</title>
<path fill="none" stroke="black" d="M1565.91,-78.21C1573.6,-68.02 1584.23,-53.95 1593.07,-42.25"/>
<polygon fill="black" stroke="black" points="1595.88,-44.33 1599.12,-34.24 1590.3,-40.11 1595.88,-44.33"/>
</g>
<!-- UGUCGQKQ -->
<g id="node47" class="node">
<title>UGUCGQKQ</title>
<ellipse fill="none" stroke="black" cx="1717.5" cy="-93" rx="18" ry="18"/>
</g>
<!-- HSTVINSK&#45;&gt;UGUCGQKQ -->
<g id="edge46" class="edge">
<title>HSTVINSK&#45;&gt;UGUCGQKQ</title>
<path fill="none" stroke="black" d="M1738.24,-147.76C1735,-139.37 1730.97,-128.93 1727.33,-119.49"/>
<polygon fill="black" stroke="black" points="1730.59,-118.21 1723.73,-110.14 1724.06,-120.73 1730.59,-118.21"/>
</g>
<!-- VRTSYGVN -->
<g id="node50" class="node">
<title>VRTSYGVN</title>
<ellipse fill="none" stroke="black" cx="1771.5" cy="-93" rx="18" ry="18"/>
</g>
<!-- HSTVINSK&#45;&gt;VRTSYGVN -->
<g id="edge49" class="edge">
<title>HSTVINSK&#45;&gt;VRTSYGVN</title>
<path fill="none" stroke="black" d="M1750.76,-147.76C1754,-139.37 1758.02,-128.93 1761.66,-119.49"/>
<polygon fill="black" stroke="black" points="1764.94,-120.73 1765.27,-110.14 1758.41,-118.21 1764.94,-120.73"/>
</g>
<!-- HUQPTGGB -->
<g id="node53" class="node">
<title>HUQPTGGB</title>
<ellipse fill="none" stroke="black" cx="1938.5" cy="-93" rx="18" ry="18"/>
</g>
<!-- HSTVINSK&#45;&gt;HUQPTGGB -->
<g id="edge52" class="edge">
<title>HSTVINSK&#45;&gt;HUQPTGGB</title>
<path fill="none" stroke="black" d="M1761.38,-157.91C1795.28,-145.67 1871.89,-118.03 1912.34,-103.43"/>
<polygon fill="black" stroke="black" points="1913.58,-106.71 1921.8,-100.02 1911.2,-100.12 1913.58,-106.71"/>
</g>
<!-- BGNVPHSE -->
<g id="node48" class="node">
<title>BGNVPHSE</title>
<ellipse fill="none" stroke="black" cx="1663.5" cy="-19.5" rx="18" ry="18"/>
<text text-anchor="middle" x="1663.5" y="-15.8" font-family="Times,serif" font-size="14.00">9</text>
</g>
<!-- UGUCGQKQ&#45;&gt;BGNVPHSE -->
<g id="edge47" class="edge">
<title>UGUCGQKQ&#45;&gt;BGNVPHSE</title>
<path fill="none" stroke="black" d="M1707.09,-78.21C1699.39,-68.02 1688.76,-53.95 1679.93,-42.25"/>
<polygon fill="black" stroke="black" points="1682.7,-40.11 1673.88,-34.24 1677.11,-44.33 1682.7,-40.11"/>
</g>
<!-- OJXVAKDG -->
<g id="node49" class="node">
<title>OJXVAKDG</title>
<ellipse fill="none" stroke="black" cx="1717.5" cy="-19.5" rx="18" ry="18"/>
<text text-anchor="middle" x="1717.5" y="-15.8" font-family="Times,serif" font-size="14.00">7</text>
</g>
<!-- UGUCGQKQ&#45;&gt;OJXVAKDG -->
<g id="edge48" class="edge">
<title>UGUCGQKQ&#45;&gt;OJXVAKDG</title>
<path fill="none" stroke="black" d="M1717.5,-74.69C1717.5,-66.61 1717.5,-56.8 1717.5,-47.76"/>
<polygon fill="black" stroke="black" points="1721,-47.65 1717.5,-37.65 1714,-47.65 1721,-47.65"/>
</g>
<!-- FDHYCRDG -->
<g id="node51" class="node">
<title>FDHYCRDG</title>
<ellipse fill="none" stroke="black" cx="1771.5" cy="-19.5" rx="18" ry="18"/>
<text text-anchor="middle" x="1771.5" y="-15.8" font-family="Times,serif" font-size="14.00">2</text>
</g>
<!-- VRTSYGVN&#45;&gt;FDHYCRDG -->
<g id="edge50" class="edge">
<title>VRTSYGVN&#45;&gt;FDHYCRDG</title>
<path fill="none" stroke="black" d="M1771.5,-74.69C1771.5,-66.61 1771.5,-56.8 1771.5,-47.76"/>
<polygon fill="black" stroke="black" points="1775,-47.65 1771.5,-37.65 1768,-47.65 1775,-47.65"/>
</g>
<!-- JTADAVWZ -->
<g id="node52" class="node">
<title>JTADAVWZ</title>
<ellipse fill="none" stroke="black" cx="1826.5" cy="-19.5" rx="19.5" ry="19.5"/>
<text text-anchor="middle" x="1826.5" y="-15.8" font-family="Times,serif" font-size="14.00">10</text>
</g>
<!-- VRTSYGVN&#45;&gt;JTADAVWZ -->
<g id="edge51" class="edge">
<title>VRTSYGVN&#45;&gt;JTADAVWZ</title>
<path fill="none" stroke="black" d="M1782.1,-78.21C1789.62,-68.45 1799.87,-55.11 1808.64,-43.72"/>
<polygon fill="black" stroke="black" points="1811.65,-45.54 1814.98,-35.48 1806.11,-41.27 1811.65,-45.54"/>
</g>
<!-- KNGFJSRN -->
<g id="node54" class="node">
<title>KNGFJSRN</title>
<ellipse fill="none" stroke="black" cx="1883.5" cy="-19.5" rx="19.5" ry="19.5"/>
<text text-anchor="middle" x="1883.5" y="-15.8" font-family="Times,serif" font-size="14.00">12</text>
</g>
<!-- HUQPTGGB&#45;&gt;KNGFJSRN -->
<g id="edge53" class="edge">
<title>HUQPTGGB&#45;&gt;KNGFJSRN</title>
<path fill="none" stroke="black" d="M1927.89,-78.21C1920.38,-68.45 1910.12,-55.11 1901.36,-43.72"/>
<polygon fill="black" stroke="black" points="1903.89,-41.27 1895.02,-35.48 1898.34,-45.54 1903.89,-41.27"/>
</g>
<!-- QGVBHMMX -->
<g id="node55" class="node">
<title>QGVBHMMX</title>
<ellipse fill="none" stroke="black" cx="1938.5" cy="-19.5" rx="18" ry="18"/>
<text text-anchor="middle" x="1938.5" y="-15.8" font-family="Times,serif" font-size="14.00">7</text>
</g>
<!-- HUQPTGGB&#45;&gt;QGVBHMMX -->
<g id="edge54" class="edge">
<title>HUQPTGGB&#45;&gt;QGVBHMMX</title>
<path fill="none" stroke="black" d="M1938.5,-74.69C1938.5,-66.61 1938.5,-56.8 1938.5,-47.76"/>
<polygon fill="black" stroke="black" points="1942,-47.65 1938.5,-37.65 1935,-47.65 1942,-47.65"/>
</g>
<!-- BESFGQHY -->
<g id="node56" class="node">
<title>BESFGQHY</title>
<ellipse fill="none" stroke="black" cx="1992.5" cy="-19.5" rx="18" ry="18"/>
<text text-anchor="middle" x="1992.5" y="-15.8" font-family="Times,serif" font-size="14.00">7</text>
</g>
<!-- HUQPTGGB&#45;&gt;BESFGQHY -->
<g id="edge55" class="edge">
<title>HUQPTGGB&#45;&gt;BESFGQHY</title>
<path fill="none" stroke="black" d="M1948.91,-78.21C1956.6,-68.02 1967.23,-53.95 1976.07,-42.25"/>
<polygon fill="black" stroke="black" points="1978.88,-44.33 1982.12,-34.24 1973.3,-40.11 1978.88,-44.33"/>
</g>
<!-- XMVCNMDW -->
<g id="node57" class="node">
<title>XMVCNMDW</title>
<ellipse fill="none" stroke="black" cx="2046.5" cy="-19.5" rx="18" ry="18"/>
<text text-anchor="middle" x="2046.5" y="-15.8" font-family="Times,serif" font-size="14.00">9</text>
</g>
<!-- HUQPTGGB&#45;&gt;XMVCNMDW -->
<g id="edge56" class="edge">
<title>HUQPTGGB&#45;&gt;XMVCNMDW</title>
<path fill="none" stroke="black" d="M1953.19,-82.52C1969.47,-71.98 1996.46,-54.42 2019.5,-39 2020.77,-38.15 2022.07,-37.27 2023.38,-36.39"/>
<polygon fill="black" stroke="black" points="2025.67,-39.06 2031.96,-30.54 2021.73,-33.27 2025.67,-39.06"/>
</g>
<!-- DKLEEKNP -->
<g id="node59" class="node">
<title>DKLEEKNP</title>
<ellipse fill="none" stroke="black" cx="2617.5" cy="-165" rx="18" ry="18"/>
</g>
<!-- MOOMBMIG&#45;&gt;DKLEEKNP -->
<g id="edge58" class="edge">
<title>MOOMBMIG&#45;&gt;DKLEEKNP</title>
<path fill="none" stroke="black" d="M2929.76,-232.23C2875.35,-220.69 2710.6,-185.74 2644.94,-171.82"/>
<polygon fill="black" stroke="black" points="2645.44,-168.34 2634.93,-169.69 2643.98,-175.19 2645.44,-168.34"/>
</g>
<!-- XVLTFLNP -->
<g id="node80" class="node">
<title>XVLTFLNP</title>
<ellipse fill="none" stroke="black" cx="3168.5" cy="-165" rx="18" ry="18"/>
</g>
<!-- MOOMBMIG&#45;&gt;XVLTFLNP -->
<g id="edge79" class="edge">
<title>MOOMBMIG&#45;&gt;XVLTFLNP</title>
<path fill="none" stroke="black" d="M2964.47,-230.62C3002.72,-218.51 3095.87,-189 3141.88,-174.43"/>
<polygon fill="black" stroke="black" points="3142.99,-177.75 3151.47,-171.39 3140.88,-171.07 3142.99,-177.75"/>
</g>
<!-- DIZJQWDL -->
<g id="node95" class="node">
<title>DIZJQWDL</title>
<ellipse fill="none" stroke="black" cx="3664.5" cy="-165" rx="18" ry="18"/>
</g>
<!-- MOOMBMIG&#45;&gt;DIZJQWDL -->
<g id="edge94" class="edge">
<title>MOOMBMIG&#45;&gt;DIZJQWDL</title>
<path fill="none" stroke="black" d="M2965.58,-234.23C3062.25,-224.79 3518.09,-180.29 3636.39,-168.74"/>
<polygon fill="black" stroke="black" points="3636.85,-172.21 3646.46,-167.76 3636.17,-165.25 3636.85,-172.21"/>
</g>
<!-- YZHIIBBN -->
<g id="node60" class="node">
<title>YZHIIBBN</title>
<ellipse fill="none" stroke="black" cx="2209.5" cy="-93" rx="18" ry="18"/>
</g>
<!-- DKLEEKNP&#45;&gt;YZHIIBBN -->
<g id="edge59" class="edge">
<title>DKLEEKNP&#45;&gt;YZHIIBBN</title>
<path fill="none" stroke="black" d="M2599.7,-160.94C2535.54,-149.94 2315.74,-112.22 2237.46,-98.79"/>
<polygon fill="black" stroke="black" points="2237.83,-95.31 2227.39,-97.07 2236.65,-102.21 2237.83,-95.31"/>
</g>
<!-- QCKBGLCP -->
<g id="node65" class="node">
<title>QCKBGLCP</title>
<ellipse fill="none" stroke="black" cx="2426.5" cy="-93" rx="18" ry="18"/>
</g>
<!-- DKLEEKNP&#45;&gt;QCKBGLCP -->
<g id="edge64" class="edge">
<title>DKLEEKNP&#45;&gt;QCKBGLCP</title>
<path fill="none" stroke="black" d="M2600.88,-157.91C2567.65,-145.73 2492.77,-118.29 2452.81,-103.64"/>
<polygon fill="black" stroke="black" points="2453.81,-100.28 2443.21,-100.12 2451.4,-106.85 2453.81,-100.28"/>
</g>
<!-- YHGPFAQO -->
<g id="node70" class="node">
<title>YHGPFAQO</title>
<ellipse fill="none" stroke="black" cx="2617.5" cy="-93" rx="18" ry="18"/>
</g>
<!-- DKLEEKNP&#45;&gt;YHGPFAQO -->
<g id="edge69" class="edge">
<title>DKLEEKNP&#45;&gt;YHGPFAQO</title>
<path fill="none" stroke="black" d="M2617.5,-146.69C2617.5,-138.98 2617.5,-129.71 2617.5,-121.11"/>
<polygon fill="black" stroke="black" points="2621,-121.1 2617.5,-111.1 2614,-121.1 2621,-121.1"/>
</g>
<!-- KGKVOLPN -->
<g id="node75" class="node">
<title>KGKVOLPN</title>
<ellipse fill="none" stroke="black" cx="2807.5" cy="-93" rx="18" ry="18"/>
</g>
<!-- DKLEEKNP&#45;&gt;KGKVOLPN -->
<g id="edge74" class="edge">
<title>DKLEEKNP&#45;&gt;KGKVOLPN</title>
<path fill="none" stroke="black" d="M2634.36,-157.78C2667.61,-145.53 2741.84,-118.19 2781.44,-103.6"/>
<polygon fill="black" stroke="black" points="2782.77,-106.84 2790.95,-100.09 2780.35,-100.27 2782.77,-106.84"/>
</g>
<!-- LOQJIEAY -->
<g id="node61" class="node">
<title>LOQJIEAY</title>
<ellipse fill="none" stroke="black" cx="2100.5" cy="-19.5" rx="18" ry="18"/>
<text text-anchor="middle" x="2100.5" y="-15.8" font-family="Times,serif" font-size="14.00">7</text>
</g>
<!-- YZHIIBBN&#45;&gt;LOQJIEAY -->
<g id="edge60" class="edge">
<title>YZHIIBBN&#45;&gt;LOQJIEAY</title>
<path fill="none" stroke="black" d="M2194.61,-82.54C2178.12,-72.03 2150.78,-54.49 2127.5,-39 2126.23,-38.15 2124.93,-37.28 2123.61,-36.39"/>
<polygon fill="black" stroke="black" points="2125.26,-33.28 2115.02,-30.55 2121.32,-39.07 2125.26,-33.28"/>
</g>
<!-- SCBICABO -->
<g id="node62" class="node">
<title>SCBICABO</title>
<ellipse fill="none" stroke="black" cx="2154.5" cy="-19.5" rx="18" ry="18"/>
<text text-anchor="middle" x="2154.5" y="-15.8" font-family="Times,serif" font-size="14.00">4</text>
</g>
<!-- YZHIIBBN&#45;&gt;SCBICABO -->
<g id="edge61" class="edge">
<title>YZHIIBBN&#45;&gt;SCBICABO</title>
<path fill="none" stroke="black" d="M2198.89,-78.21C2191.06,-68.02 2180.23,-53.95 2171.23,-42.25"/>
<polygon fill="black" stroke="black" points="2173.94,-40.03 2165.07,-34.24 2168.39,-44.3 2173.94,-40.03"/>
</g>
<!-- RTOMCIHT -->
<g id="node63" class="node">
<title>RTOMCIHT</title>
<ellipse fill="none" stroke="black" cx="2209.5" cy="-19.5" rx="19.5" ry="19.5"/>
<text text-anchor="middle" x="2209.5" y="-15.8" font-family="Times,serif" font-size="14.00">10</text>
</g>
<!-- YZHIIBBN&#45;&gt;RTOMCIHT -->
<g id="edge62" class="edge">
<title>YZHIIBBN&#45;&gt;RTOMCIHT</title>
<path fill="none" stroke="black" d="M2209.5,-74.69C2209.5,-67.05 2209.5,-57.86 2209.5,-49.24"/>
<polygon fill="black" stroke="black" points="2213,-49.15 2209.5,-39.15 2206,-49.15 2213,-49.15"/>
</g>
<!-- AVIJRADJ -->
<g id="node64" class="node">
<title>AVIJRADJ</title>
<ellipse fill="none" stroke="black" cx="2264.5" cy="-19.5" rx="18" ry="18"/>
<text text-anchor="middle" x="2264.5" y="-15.8" font-family="Times,serif" font-size="14.00">3</text>
</g>
<!-- YZHIIBBN&#45;&gt;AVIJRADJ -->
<g id="edge63" class="edge">
<title>YZHIIBBN&#45;&gt;AVIJRADJ</title>
<path fill="none" stroke="black" d="M2220.1,-78.21C2227.94,-68.02 2238.77,-53.95 2247.77,-42.25"/>
<polygon fill="black" stroke="black" points="2250.6,-44.3 2253.93,-34.24 2245.05,-40.03 2250.6,-44.3"/>
</g>
<!-- IJSQBZXL -->
<g id="node66" class="node">
<title>IJSQBZXL</title>
<ellipse fill="none" stroke="black" cx="2318.5" cy="-19.5" rx="18" ry="18"/>
<text text-anchor="middle" x="2318.5" y="-15.8" font-family="Times,serif" font-size="14.00">2</text>
</g>
<!-- QCKBGLCP&#45;&gt;IJSQBZXL -->
<g id="edge65" class="edge">
<title>QCKBGLCP&#45;&gt;IJSQBZXL</title>
<path fill="none" stroke="black" d="M2411.8,-82.52C2395.53,-71.98 2368.54,-54.42 2345.5,-39 2344.23,-38.15 2342.93,-37.27 2341.62,-36.39"/>
<polygon fill="black" stroke="black" points="2343.27,-33.27 2333.03,-30.54 2339.33,-39.06 2343.27,-33.27"/>
</g>
<!-- ZODRXJYK -->
<g id="node67" class="node">
<title>ZODRXJYK</title>
<ellipse fill="none" stroke="black" cx="2372.5" cy="-19.5" rx="18" ry="18"/>
<text text-anchor="middle" x="2372.5" y="-15.8" font-family="Times,serif" font-size="14.00">1</text>
</g>
<!-- QCKBGLCP&#45;&gt;ZODRXJYK -->
<g id="edge66" class="edge">
<title>QCKBGLCP&#45;&gt;ZODRXJYK</title>
<path fill="none" stroke="black" d="M2416.09,-78.21C2408.39,-68.02 2397.76,-53.95 2388.93,-42.25"/>
<polygon fill="black" stroke="black" points="2391.7,-40.11 2382.88,-34.24 2386.11,-44.33 2391.7,-40.11"/>
</g>
<!-- IJKOOYLZ -->
<g id="node68" class="node">
<title>IJKOOYLZ</title>
<ellipse fill="none" stroke="black" cx="2426.5" cy="-19.5" rx="18" ry="18"/>
<text text-anchor="middle" x="2426.5" y="-15.8" font-family="Times,serif" font-size="14.00">1</text>
</g>
<!-- QCKBGLCP&#45;&gt;IJKOOYLZ -->
<g id="edge67" class="edge">
<title>QCKBGLCP&#45;&gt;IJKOOYLZ</title>
<path fill="none" stroke="black" d="M2426.5,-74.69C2426.5,-66.61 2426.5,-56.8 2426.5,-47.76"/>
<polygon fill="black" stroke="black" points="2430,-47.65 2426.5,-37.65 2423,-47.65 2430,-47.65"/>
</g>
<!-- OJVCVJTD -->
<g id="node69" class="node">
<title>OJVCVJTD</title>
<ellipse fill="none" stroke="black" cx="2481.5" cy="-19.5" rx="19.5" ry="19.5"/>
<text text-anchor="middle" x="2481.5" y="-15.8" font-family="Times,serif" font-size="14.00">13</text>
</g>
<!-- QCKBGLCP&#45;&gt;OJVCVJTD -->
<g id="edge68" class="edge">
<title>QCKBGLCP&#45;&gt;OJVCVJTD</title>
<path fill="none" stroke="black" d="M2437.1,-78.21C2444.62,-68.45 2454.87,-55.11 2463.64,-43.72"/>
<polygon fill="black" stroke="black" points="2466.65,-45.54 2469.98,-35.48 2461.11,-41.27 2466.65,-45.54"/>
</g>
<!-- PLBLMSZU -->
<g id="node71" class="node">
<title>PLBLMSZU</title>
<ellipse fill="none" stroke="black" cx="2536.5" cy="-19.5" rx="18" ry="18"/>
<text text-anchor="middle" x="2536.5" y="-15.8" font-family="Times,serif" font-size="14.00">2</text>
</g>
<!-- YHGPFAQO&#45;&gt;PLBLMSZU -->
<g id="edge70" class="edge">
<title>YHGPFAQO&#45;&gt;PLBLMSZU</title>
<path fill="none" stroke="black" d="M2604.48,-80.51C2591.81,-69.32 2572.32,-52.12 2557.46,-39"/>
<polygon fill="black" stroke="black" points="2559.56,-36.19 2549.75,-32.19 2554.93,-41.44 2559.56,-36.19"/>
</g>
<!-- HCZHQOBP -->
<g id="node72" class="node">
<title>HCZHQOBP</title>
<ellipse fill="none" stroke="black" cx="2590.5" cy="-19.5" rx="18" ry="18"/>
<text text-anchor="middle" x="2590.5" y="-15.8" font-family="Times,serif" font-size="14.00">2</text>
</g>
<!-- YHGPFAQO&#45;&gt;HCZHQOBP -->
<g id="edge71" class="edge">
<title>YHGPFAQO&#45;&gt;HCZHQOBP</title>
<path fill="none" stroke="black" d="M2611.37,-75.77C2608.06,-67 2603.89,-55.96 2600.15,-46.05"/>
<polygon fill="black" stroke="black" points="2603.41,-44.78 2596.6,-36.66 2596.86,-47.25 2603.41,-44.78"/>
</g>
<!-- CIDQIENX -->
<g id="node73" class="node">
<title>CIDQIENX</title>
<ellipse fill="none" stroke="black" cx="2644.5" cy="-19.5" rx="18" ry="18"/>
<text text-anchor="middle" x="2644.5" y="-15.8" font-family="Times,serif" font-size="14.00">0</text>
</g>
<!-- YHGPFAQO&#45;&gt;CIDQIENX -->
<g id="edge72" class="edge">
<title>YHGPFAQO&#45;&gt;CIDQIENX</title>
<path fill="none" stroke="black" d="M2623.62,-75.77C2626.94,-67 2631.11,-55.96 2634.85,-46.05"/>
<polygon fill="black" stroke="black" points="2638.14,-47.25 2638.4,-36.66 2631.59,-44.78 2638.14,-47.25"/>
</g>
<!-- FRPAXUPD -->
<g id="node74" class="node">
<title>FRPAXUPD</title>
<ellipse fill="none" stroke="black" cx="2698.5" cy="-19.5" rx="18" ry="18"/>
<text text-anchor="middle" x="2698.5" y="-15.8" font-family="Times,serif" font-size="14.00">0</text>
</g>
<!-- YHGPFAQO&#45;&gt;FRPAXUPD -->
<g id="edge73" class="edge">
<title>YHGPFAQO&#45;&gt;FRPAXUPD</title>
<path fill="none" stroke="black" d="M2630.51,-80.51C2643.19,-69.32 2662.67,-52.12 2677.54,-39"/>
<polygon fill="black" stroke="black" points="2680.07,-41.44 2685.25,-32.19 2675.43,-36.19 2680.07,-41.44"/>
</g>
<!-- PIOZDKUS -->
<g id="node76" class="node">
<title>PIOZDKUS</title>
<ellipse fill="none" stroke="black" cx="2752.5" cy="-19.5" rx="18" ry="18"/>
<text text-anchor="middle" x="2752.5" y="-15.8" font-family="Times,serif" font-size="14.00">4</text>
</g>
<!-- KGKVOLPN&#45;&gt;PIOZDKUS -->
<g id="edge75" class="edge">
<title>KGKVOLPN&#45;&gt;PIOZDKUS</title>
<path fill="none" stroke="black" d="M2796.89,-78.21C2789.06,-68.02 2778.23,-53.95 2769.23,-42.25"/>
<polygon fill="black" stroke="black" points="2771.94,-40.03 2763.07,-34.24 2766.39,-44.3 2771.94,-40.03"/>
</g>
<!-- KHJZOTFU -->
<g id="node77" class="node">
<title>KHJZOTFU</title>
<ellipse fill="none" stroke="black" cx="2807.5" cy="-19.5" rx="19.5" ry="19.5"/>
<text text-anchor="middle" x="2807.5" y="-15.8" font-family="Times,serif" font-size="14.00">11</text>
</g>
<!-- KGKVOLPN&#45;&gt;KHJZOTFU -->
<g id="edge76" class="edge">
<title>KGKVOLPN&#45;&gt;KHJZOTFU</title>
<path fill="none" stroke="black" d="M2807.5,-74.69C2807.5,-67.05 2807.5,-57.86 2807.5,-49.24"/>
<polygon fill="black" stroke="black" points="2811,-49.15 2807.5,-39.15 2804,-49.15 2811,-49.15"/>
</g>
<!-- ZJNLHVKP -->
<g id="node78" class="node">
<title>ZJNLHVKP</title>
<ellipse fill="none" stroke="black" cx="2862.5" cy="-19.5" rx="18" ry="18"/>
<text text-anchor="middle" x="2862.5" y="-15.8" font-family="Times,serif" font-size="14.00">3</text>
</g>
<!-- KGKVOLPN&#45;&gt;ZJNLHVKP -->
<g id="edge77" class="edge">
<title>KGKVOLPN&#45;&gt;ZJNLHVKP</title>
<path fill="none" stroke="black" d="M2818.1,-78.21C2825.94,-68.02 2836.77,-53.95 2845.77,-42.25"/>
<polygon fill="black" stroke="black" points="2848.6,-44.3 2851.93,-34.24 2843.05,-40.03 2848.6,-44.3"/>
</g>
<!-- OXFBNHIX -->
<g id="node79" class="node">
<title>OXFBNHIX</title>
<ellipse fill="none" stroke="black" cx="2917.5" cy="-19.5" rx="19.5" ry="19.5"/>
<text text-anchor="middle" x="2917.5" y="-15.8" font-family="Times,serif" font-size="14.00">12</text>
</g>
<!-- KGKVOLPN&#45;&gt;OXFBNHIX -->
<g id="edge78" class="edge">
<title>KGKVOLPN&#45;&gt;OXFBNHIX</title>
<path fill="none" stroke="black" d="M2822.34,-82.47C2838.79,-71.89 2866.09,-54.3 2889.5,-39 2890.6,-38.28 2891.72,-37.55 2892.85,-36.8"/>
<polygon fill="black" stroke="black" points="2895.1,-39.51 2901.52,-31.09 2891.25,-33.67 2895.1,-39.51"/>
</g>
<!-- OMDTDSSI -->
<g id="node81" class="node">
<title>OMDTDSSI</title>
<ellipse fill="none" stroke="black" cx="3084.5" cy="-93" rx="18" ry="18"/>
</g>
<!-- XVLTFLNP&#45;&gt;OMDTDSSI -->
<g id="edge80" class="edge">
<title>XVLTFLNP&#45;&gt;OMDTDSSI</title>
<path fill="none" stroke="black" d="M3155,-152.75C3141.78,-141.73 3121.41,-124.76 3105.96,-111.88"/>
<polygon fill="black" stroke="black" points="3107.88,-108.93 3097.96,-105.22 3103.4,-114.31 3107.88,-108.93"/>
</g>
<!-- RMNERCOS -->
<g id="node86" class="node">
<title>RMNERCOS</title>
<ellipse fill="none" stroke="black" cx="3251.5" cy="-93" rx="18" ry="18"/>
</g>
<!-- XVLTFLNP&#45;&gt;RMNERCOS -->
<g id="edge85" class="edge">
<title>XVLTFLNP&#45;&gt;RMNERCOS</title>
<path fill="none" stroke="black" d="M3181.83,-152.75C3194.9,-141.73 3215.03,-124.76 3230.29,-111.88"/>
<polygon fill="black" stroke="black" points="3232.81,-114.34 3238.2,-105.22 3228.3,-108.99 3232.81,-114.34"/>
</g>
<!-- GNDXQQEA -->
<g id="node91" class="node">
<title>GNDXQQEA</title>
<ellipse fill="none" stroke="black" cx="3445.5" cy="-93" rx="18" ry="18"/>
</g>
<!-- XVLTFLNP&#45;&gt;GNDXQQEA -->
<g id="edge90" class="edge">
<title>XVLTFLNP&#45;&gt;GNDXQQEA</title>
<path fill="none" stroke="black" d="M3185.83,-159.62C3232.56,-147.81 3361.48,-115.23 3418.16,-100.91"/>
<polygon fill="black" stroke="black" points="3419.34,-104.22 3428.18,-98.37 3417.62,-97.43 3419.34,-104.22"/>
</g>
<!-- XKCDCHSI -->
<g id="node82" class="node">
<title>XKCDCHSI</title>
<ellipse fill="none" stroke="black" cx="2974.5" cy="-19.5" rx="19.5" ry="19.5"/>
<text text-anchor="middle" x="2974.5" y="-15.8" font-family="Times,serif" font-size="14.00">12</text>
</g>
<!-- OMDTDSSI&#45;&gt;XKCDCHSI -->
<g id="edge81" class="edge">
<title>OMDTDSSI&#45;&gt;XKCDCHSI</title>
<path fill="none" stroke="black" d="M3069.66,-82.47C3053.21,-71.89 3025.91,-54.3 3002.5,-39 3001.4,-38.28 3000.28,-37.55 2999.15,-36.8"/>
<polygon fill="black" stroke="black" points="3000.75,-33.67 2990.47,-31.09 2996.9,-39.51 3000.75,-33.67"/>
</g>
<!-- LUDBZQJU -->
<g id="node83" class="node">
<title>LUDBZQJU</title>
<ellipse fill="none" stroke="black" cx="3029.5" cy="-19.5" rx="18" ry="18"/>
<text text-anchor="middle" x="3029.5" y="-15.8" font-family="Times,serif" font-size="14.00">3</text>
</g>
<!-- OMDTDSSI&#45;&gt;LUDBZQJU -->
<g id="edge82" class="edge">
<title>OMDTDSSI&#45;&gt;LUDBZQJU</title>
<path fill="none" stroke="black" d="M3073.89,-78.21C3066.06,-68.02 3055.23,-53.95 3046.23,-42.25"/>
<polygon fill="black" stroke="black" points="3048.94,-40.03 3040.07,-34.24 3043.39,-44.3 3048.94,-40.03"/>
</g>
<!-- GAQNRCCM -->
<g id="node84" class="node">
<title>GAQNRCCM</title>
<ellipse fill="none" stroke="black" cx="3084.5" cy="-19.5" rx="19.5" ry="19.5"/>
<text text-anchor="middle" x="3084.5" y="-15.8" font-family="Times,serif" font-size="14.00">13</text>
</g>
<!-- OMDTDSSI&#45;&gt;GAQNRCCM -->
<g id="edge83" class="edge">
<title>OMDTDSSI&#45;&gt;GAQNRCCM</title>
<path fill="none" stroke="black" d="M3084.5,-74.69C3084.5,-67.05 3084.5,-57.86 3084.5,-49.24"/>
<polygon fill="black" stroke="black" points="3088,-49.15 3084.5,-39.15 3081,-49.15 3088,-49.15"/>
</g>
<!-- ZQAWZAMM -->
<g id="node85" class="node">
<title>ZQAWZAMM</title>
<ellipse fill="none" stroke="black" cx="3141.5" cy="-19.5" rx="19.5" ry="19.5"/>
<text text-anchor="middle" x="3141.5" y="-15.8" font-family="Times,serif" font-size="14.00">11</text>
</g>
<!-- OMDTDSSI&#45;&gt;ZQAWZAMM -->
<g id="edge84" class="edge">
<title>OMDTDSSI&#45;&gt;ZQAWZAMM</title>
<path fill="none" stroke="black" d="M3095.49,-78.21C3103.4,-68.28 3114.26,-54.67 3123.44,-43.16"/>
<polygon fill="black" stroke="black" points="3126.26,-45.23 3129.76,-35.23 3120.79,-40.86 3126.26,-45.23"/>
</g>
<!-- UOPZJCKD -->
<g id="node87" class="node">
<title>UOPZJCKD</title>
<ellipse fill="none" stroke="black" cx="3196.5" cy="-19.5" rx="18" ry="18"/>
<text text-anchor="middle" x="3196.5" y="-15.8" font-family="Times,serif" font-size="14.00">6</text>
</g>
<!-- RMNERCOS&#45;&gt;UOPZJCKD -->
<g id="edge86" class="edge">
<title>RMNERCOS&#45;&gt;UOPZJCKD</title>
<path fill="none" stroke="black" d="M3240.89,-78.21C3233.06,-68.02 3222.23,-53.95 3213.23,-42.25"/>
<polygon fill="black" stroke="black" points="3215.94,-40.03 3207.07,-34.24 3210.39,-44.3 3215.94,-40.03"/>
</g>
<!-- MMAMRBOC -->
<g id="node88" class="node">
<title>MMAMRBOC</title>
<ellipse fill="none" stroke="black" cx="3251.5" cy="-19.5" rx="19.5" ry="19.5"/>
<text text-anchor="middle" x="3251.5" y="-15.8" font-family="Times,serif" font-size="14.00">14</text>
</g>
<!-- RMNERCOS&#45;&gt;MMAMRBOC -->
<g id="edge87" class="edge">
<title>RMNERCOS&#45;&gt;MMAMRBOC</title>
<path fill="none" stroke="black" d="M3251.5,-74.69C3251.5,-67.05 3251.5,-57.86 3251.5,-49.24"/>
<polygon fill="black" stroke="black" points="3255,-49.15 3251.5,-39.15 3248,-49.15 3255,-49.15"/>
</g>
<!-- LLIQENPB -->
<g id="node89" class="node">
<title>LLIQENPB</title>
<ellipse fill="none" stroke="black" cx="3306.5" cy="-19.5" rx="18" ry="18"/>
<text text-anchor="middle" x="3306.5" y="-15.8" font-family="Times,serif" font-size="14.00">3</text>
</g>
<!-- RMNERCOS&#45;&gt;LLIQENPB -->
<g id="edge88" class="edge">
<title>RMNERCOS&#45;&gt;LLIQENPB</title>
<path fill="none" stroke="black" d="M3262.1,-78.21C3269.94,-68.02 3280.77,-53.95 3289.77,-42.25"/>
<polygon fill="black" stroke="black" points="3292.6,-44.3 3295.93,-34.24 3287.05,-40.03 3292.6,-44.3"/>
</g>
<!-- DEGBPCUX -->
<g id="node90" class="node">
<title>DEGBPCUX</title>
<ellipse fill="none" stroke="black" cx="3361.5" cy="-19.5" rx="19.5" ry="19.5"/>
<text text-anchor="middle" x="3361.5" y="-15.8" font-family="Times,serif" font-size="14.00">11</text>
</g>
<!-- RMNERCOS&#45;&gt;DEGBPCUX -->
<g id="edge89" class="edge">
<title>RMNERCOS&#45;&gt;DEGBPCUX</title>
<path fill="none" stroke="black" d="M3266.34,-82.47C3282.79,-71.89 3310.09,-54.3 3333.5,-39 3334.6,-38.28 3335.72,-37.55 3336.85,-36.8"/>
<polygon fill="black" stroke="black" points="3339.1,-39.51 3345.52,-31.09 3335.25,-33.67 3339.1,-39.51"/>
</g>
<!-- ELZCQONC -->
<g id="node92" class="node">
<title>ELZCQONC</title>
<ellipse fill="none" stroke="black" cx="3418.5" cy="-19.5" rx="19.5" ry="19.5"/>
<text text-anchor="middle" x="3418.5" y="-15.8" font-family="Times,serif" font-size="14.00">10</text>
</g>
<!-- GNDXQQEA&#45;&gt;ELZCQONC -->
<g id="edge91" class="edge">
<title>GNDXQQEA&#45;&gt;ELZCQONC</title>
<path fill="none" stroke="black" d="M3439.37,-75.77C3436.21,-67.39 3432.26,-56.95 3428.66,-47.41"/>
<polygon fill="black" stroke="black" points="3431.88,-46.03 3425.07,-37.91 3425.33,-48.5 3431.88,-46.03"/>
</g>
<!-- KBPLIMKE -->
<g id="node93" class="node">
<title>KBPLIMKE</title>
<ellipse fill="none" stroke="black" cx="3473.5" cy="-19.5" rx="18" ry="18"/>
<text text-anchor="middle" x="3473.5" y="-15.8" font-family="Times,serif" font-size="14.00">4</text>
</g>
<!-- GNDXQQEA&#45;&gt;KBPLIMKE -->
<g id="edge92" class="edge">
<title>GNDXQQEA&#45;&gt;KBPLIMKE</title>
<path fill="none" stroke="black" d="M3451.85,-75.77C3455.29,-67 3459.61,-55.96 3463.49,-46.05"/>
<polygon fill="black" stroke="black" points="3466.78,-47.25 3467.17,-36.66 3460.26,-44.69 3466.78,-47.25"/>
</g>
<!-- EOXRQDTT -->
<g id="node94" class="node">
<title>EOXRQDTT</title>
<ellipse fill="none" stroke="black" cx="3527.5" cy="-19.5" rx="18" ry="18"/>
<text text-anchor="middle" x="3527.5" y="-15.8" font-family="Times,serif" font-size="14.00">1</text>
</g>
<!-- GNDXQQEA&#45;&gt;EOXRQDTT -->
<g id="edge93" class="edge">
<title>GNDXQQEA&#45;&gt;EOXRQDTT</title>
<path fill="none" stroke="black" d="M3458.67,-80.51C3471.58,-69.25 3491.47,-51.92 3506.55,-38.77"/>
<polygon fill="black" stroke="black" points="3509.12,-41.17 3514.36,-31.96 3504.52,-35.89 3509.12,-41.17"/>
</g>
<!-- WYWVRZCS -->
<g id="node96" class="node">
<title>WYWVRZCS</title>
<ellipse fill="none" stroke="black" cx="3664.5" cy="-93" rx="18" ry="18"/>
</g>
<!-- DIZJQWDL&#45;&gt;WYWVRZCS -->
<g id="edge95" class="edge">
<title>DIZJQWDL&#45;&gt;WYWVRZCS</title>
<path fill="none" stroke="black" d="M3664.5,-146.69C3664.5,-138.98 3664.5,-129.71 3664.5,-121.11"/>
<polygon fill="black" stroke="black" points="3668,-121.1 3664.5,-111.1 3661,-121.1 3668,-121.1"/>
</g>
<!-- RIHAITZG -->
<g id="node101" class="node">
<title>RIHAITZG</title>
<ellipse fill="none" stroke="black" cx="3807.5" cy="-93" rx="18" ry="18"/>
</g>
<!-- DIZJQWDL&#45;&gt;RIHAITZG -->
<g id="edge100" class="edge">
<title>DIZJQWDL&#45;&gt;RIHAITZG</title>
<path fill="none" stroke="black" d="M3680.35,-156.24C3705.04,-144.15 3752.92,-120.71 3782.36,-106.3"/>
<polygon fill="black" stroke="black" points="3784.13,-109.33 3791.58,-101.79 3781.06,-103.04 3784.13,-109.33"/>
</g>
<!-- FNDBOEBK -->
<g id="node97" class="node">
<title>FNDBOEBK</title>
<ellipse fill="none" stroke="black" cx="3581.5" cy="-19.5" rx="18" ry="18"/>
<text text-anchor="middle" x="3581.5" y="-15.8" font-family="Times,serif" font-size="14.00">3</text>
</g>
<!-- WYWVRZCS&#45;&gt;FNDBOEBK -->
<g id="edge96" class="edge">
<title>WYWVRZCS&#45;&gt;FNDBOEBK</title>
<path fill="none" stroke="black" d="M3651.16,-80.51C3638.09,-69.25 3617.97,-51.92 3602.71,-38.77"/>
<polygon fill="black" stroke="black" points="3604.66,-35.83 3594.8,-31.96 3600.09,-41.14 3604.66,-35.83"/>
</g>
<!-- BTEJRVEX -->
<g id="node98" class="node">
<title>BTEJRVEX</title>
<ellipse fill="none" stroke="black" cx="3636.5" cy="-19.5" rx="19.5" ry="19.5"/>
<text text-anchor="middle" x="3636.5" y="-15.8" font-family="Times,serif" font-size="14.00">15</text>
</g>
<!-- WYWVRZCS&#45;&gt;BTEJRVEX -->
<g id="edge97" class="edge">
<title>WYWVRZCS&#45;&gt;BTEJRVEX</title>
<path fill="none" stroke="black" d="M3658.14,-75.77C3654.86,-67.39 3650.77,-56.95 3647.04,-47.41"/>
<polygon fill="black" stroke="black" points="3650.22,-45.94 3643.32,-37.91 3643.7,-48.5 3650.22,-45.94"/>
</g>
<!-- NQFETKTY -->
<g id="node99" class="node">
<title>NQFETKTY</title>
<ellipse fill="none" stroke="black" cx="3693.5" cy="-19.5" rx="19.5" ry="19.5"/>
<text text-anchor="middle" x="3693.5" y="-15.8" font-family="Times,serif" font-size="14.00">11</text>
</g>
<!-- WYWVRZCS&#45;&gt;NQFETKTY -->
<g id="edge98" class="edge">
<title>WYWVRZCS&#45;&gt;NQFETKTY</title>
<path fill="none" stroke="black" d="M3670.93,-76.13C3674.39,-67.61 3678.74,-56.89 3682.69,-47.14"/>
<polygon fill="black" stroke="black" points="3685.96,-48.41 3686.47,-37.82 3679.47,-45.77 3685.96,-48.41"/>
</g>
<!-- DLUVCKBM -->
<g id="node100" class="node">
<title>DLUVCKBM</title>
<ellipse fill="none" stroke="black" cx="3750.5" cy="-19.5" rx="19.5" ry="19.5"/>
<text text-anchor="middle" x="3750.5" y="-15.8" font-family="Times,serif" font-size="14.00">10</text>
</g>
<!-- WYWVRZCS&#45;&gt;DLUVCKBM -->
<g id="edge99" class="edge">
<title>WYWVRZCS&#45;&gt;DLUVCKBM</title>
<path fill="none" stroke="black" d="M3677.94,-80.82C3691.37,-69.65 3712.27,-52.28 3728.2,-39.04"/>
<polygon fill="black" stroke="black" points="3730.55,-41.63 3736.01,-32.55 3726.08,-36.25 3730.55,-41.63"/>
</g>
<!-- JNCJJFIP -->
<g id="node102" class="node">
<title>JNCJJFIP</title>
<ellipse fill="none" stroke="black" cx="3807.5" cy="-19.5" rx="19.5" ry="19.5"/>
<text text-anchor="middle" x="3807.5" y="-15.8" font-family="Times,serif" font-size="14.00">10</text>
</g>
<!-- RIHAITZG&#45;&gt;JNCJJFIP -->
<g id="edge101" class="edge">
<title>RIHAITZG&#45;&gt;JNCJJFIP</title>
<path fill="none" stroke="black" d="M3807.5,-74.69C3807.5,-67.05 3807.5,-57.86 3807.5,-49.24"/>
<polygon fill="black" stroke="black" points="3811,-49.15 3807.5,-39.15 3804,-49.15 3811,-49.15"/>
</g>
<!-- TZHCAZHW -->
<g id="node103" class="node">
<title>TZHCAZHW</title>
<ellipse fill="none" stroke="black" cx="3862.5" cy="-19.5" rx="18" ry="18"/>
<text text-anchor="middle" x="3862.5" y="-15.8" font-family="Times,serif" font-size="14.00">5</text>
</g>
<!-- RIHAITZG&#45;&gt;TZHCAZHW -->
<g id="edge102" class="edge">
<title>RIHAITZG&#45;&gt;TZHCAZHW</title>
<path fill="none" stroke="black" d="M3818.1,-78.21C3825.94,-68.02 3836.77,-53.95 3845.77,-42.25"/>
<polygon fill="black" stroke="black" points="3848.6,-44.3 3851.93,-34.24 3843.05,-40.03 3848.6,-44.3"/>
</g>
</g>
</svg>
