digraph D {
DTMDFFEQ [shape=circle, label=""]
YETDYIHZ [shape=circle, label=""]
WSEOJCOP [shape=circle, label=""]
OHOFTHRT [shape=circle, label=""]
EPKCEAQT [shape=circle, label="12"]
SPHIEFDE [shape=circle, label="7"]
SYVYPMDJ [shape=circle, label="11"]
WDYVVMSK [shape=circle, label=""]
FDTGFODQ [shape=circle, label="11"]
CVFYZIIC [shape=circle, label="5"]
XQUVMJPE [shape=circle, label="13"]
NZHYHPSP [shape=circle, label="9"]
JFDAECXN [shape=circle, label=""]
EDFRPGZJ [shape=circle, label="2"]
GFADDIAW [shape=circle, label="15"]
FTETVKZM [shape=circle, label="8"]
TXVXBCVM [shape=circle, label=""]
UDNXKQKO [shape=circle, label=""]
KNQQBHXW [shape=circle, label="12"]
ETVKPTRI [shape=circle, label="2"]
RLIWFUDK [shape=circle, label=""]
MVOJNWRM [shape=circle, label="11"]
BZQYKINU [shape=circle, label="1"]
JXLMEIBM [shape=circle, label="14"]
IVFZUOAS [shape=circle, label="13"]
TMVRWIHP [shape=circle, label=""]
EQZNOHCR [shape=circle, label="10"]
XLEMQNES [shape=circle, label="7"]
RODYRZSP [shape=circle, label="0"]
GPNWQUXG [shape=circle, label=""]
UEMZAHUH [shape=circle, label="7"]
YQZXGBMN [shape=circle, label="13"]
FTUZSGMR [shape=circle, label="9"]
URCFHTQR [shape=circle, label="5"]
XKMOMNPB [shape=circle, label=""]
RKGKALMI [shape=circle, label=""]
ZJDOAZMN [shape=circle, label="4"]
XDZKPFAU [shape=circle, label="5"]
SQQPLZOE [shape=circle, label="5"]
FCTBOIYY [shape=circle, label=""]
KUBBPOEJ [shape=circle, label="0"]
BFNEKROA [shape=circle, label="1"]
ZONNOAHY [shape=circle, label=""]
JKHURKUS [shape=circle, label="4"]
EVGMPKCQ [shape=circle, label="1"]
HSTVINSK [shape=circle, label=""]
UGUCGQKQ [shape=circle, label=""]
BGNVPHSE [shape=circle, label="9"]
OJXVAKDG [shape=circle, label="7"]
VRTSYGVN [shape=circle, label=""]
FDHYCRDG [shape=circle, label="2"]
JTADAVWZ [shape=circle, label="10"]
HUQPTGGB [shape=circle, label=""]
KNGFJSRN [shape=circle, label="12"]
QGVBHMMX [shape=circle, label="7"]
BESFGQHY [shape=circle, label="7"]
XMVCNMDW [shape=circle, label="9"]
MOOMBMIG [shape=circle, label=""]
DKLEEKNP [shape=circle, label=""]
YZHIIBBN [shape=circle, label=""]
LOQJIEAY [shape=circle, label="7"]
SCBICABO [shape=circle, label="4"]
RTOMCIHT [shape=circle, label="10"]
AVIJRADJ [shape=circle, label="3"]
QCKBGLCP [shape=circle, label=""]
IJSQBZXL [shape=circle, label="2"]
ZODRXJYK [shape=circle, label="1"]
IJKOOYLZ [shape=circle, label="1"]
OJVCVJTD [shape=circle, label="13"]
YHGPFAQO [shape=circle, label=""]
PLBLMSZU [shape=circle, label="2"]
HCZHQOBP [shape=circle, label="2"]
CIDQIENX [shape=circle, label="0"]
FRPAXUPD [shape=circle, label="0"]
KGKVOLPN [shape=circle, label=""]
PIOZDKUS [shape=circle, label="4"]
KHJZOTFU [shape=circle, label="11"]
ZJNLHVKP [shape=circle, label="3"]
OXFBNHIX [shape=circle, label="12"]
XVLTFLNP [shape=circle, label=""]
OMDTDSSI [shape=circle, label=""]
XKCDCHSI [shape=circle, label="12"]
LUDBZQJU [shape=circle, label="3"]
GAQNRCCM [shape=circle, label="13"]
ZQAWZAMM [shape=circle, label="11"]
RMNERCOS [shape=circle, label=""]
UOPZJCKD [shape=circle, label="6"]
MMAMRBOC [shape=circle, label="14"]
LLIQENPB [shape=circle, label="3"]
DEGBPCUX [shape=circle, label="11"]
GNDXQQEA [shape=circle, label=""]
ELZCQONC [shape=circle, label="10"]
KBPLIMKE [shape=circle, label="4"]
EOXRQDTT [shape=circle, label="1"]
DIZJQWDL [shape=circle, label=""]
WYWVRZCS [shape=circle, label=""]
FNDBOEBK [shape=circle, label="3"]
BTEJRVEX [shape=circle, label="15"]
NQFETKTY [shape=circle, label="11"]
DLUVCKBM [shape=circle, label="10"]
RIHAITZG [shape=circle, label=""]
JNCJJFIP [shape=circle, label="10"]
TZHCAZHW [shape=circle, label="5"]

DTMDFFEQ -> YETDYIHZ
YETDYIHZ -> WSEOJCOP
WSEOJCOP -> OHOFTHRT
OHOFTHRT -> EPKCEAQT
OHOFTHRT -> SPHIEFDE
OHOFTHRT -> SYVYPMDJ
WSEOJCOP -> WDYVVMSK
WDYVVMSK -> FDTGFODQ
WDYVVMSK -> CVFYZIIC
WDYVVMSK -> XQUVMJPE
WDYVVMSK -> NZHYHPSP
WSEOJCOP -> JFDAECXN
JFDAECXN -> EDFRPGZJ
JFDAECXN -> GFADDIAW
JFDAECXN -> FTETVKZM
YETDYIHZ -> TXVXBCVM
TXVXBCVM -> UDNXKQKO
UDNXKQKO -> KNQQBHXW
UDNXKQKO -> ETVKPTRI
TXVXBCVM -> RLIWFUDK
RLIWFUDK -> MVOJNWRM
RLIWFUDK -> BZQYKINU
RLIWFUDK -> JXLMEIBM
RLIWFUDK -> IVFZUOAS
TXVXBCVM -> TMVRWIHP
TMVRWIHP -> EQZNOHCR
TMVRWIHP -> XLEMQNES
TMVRWIHP -> RODYRZSP
TXVXBCVM -> GPNWQUXG
GPNWQUXG -> UEMZAHUH
GPNWQUXG -> YQZXGBMN
GPNWQUXG -> FTUZSGMR
GPNWQUXG -> URCFHTQR
YETDYIHZ -> XKMOMNPB
XKMOMNPB -> RKGKALMI
RKGKALMI -> ZJDOAZMN
RKGKALMI -> XDZKPFAU
RKGKALMI -> SQQPLZOE
XKMOMNPB -> FCTBOIYY
FCTBOIYY -> KUBBPOEJ
FCTBOIYY -> BFNEKROA
XKMOMNPB -> ZONNOAHY
ZONNOAHY -> JKHURKUS
ZONNOAHY -> EVGMPKCQ
YETDYIHZ -> HSTVINSK
HSTVINSK -> UGUCGQKQ
UGUCGQKQ -> BGNVPHSE
UGUCGQKQ -> OJXVAKDG
HSTVINSK -> VRTSYGVN
VRTSYGVN -> FDHYCRDG
VRTSYGVN -> JTADAVWZ
HSTVINSK -> HUQPTGGB
HUQPTGGB -> KNGFJSRN
HUQPTGGB -> QGVBHMMX
HUQPTGGB -> BESFGQHY
HUQPTGGB -> XMVCNMDW
DTMDFFEQ -> MOOMBMIG
MOOMBMIG -> DKLEEKNP
DKLEEKNP -> YZHIIBBN
YZHIIBBN -> LOQJIEAY
YZHIIBBN -> SCBICABO
YZHIIBBN -> RTOMCIHT
YZHIIBBN -> AVIJRADJ
DKLEEKNP -> QCKBGLCP
QCKBGLCP -> IJSQBZXL
QCKBGLCP -> ZODRXJYK
QCKBGLCP -> IJKOOYLZ
QCKBGLCP -> OJVCVJTD
DKLEEKNP -> YHGPFAQO
YHGPFAQO -> PLBLMSZU
YHGPFAQO -> HCZHQOBP
YHGPFAQO -> CIDQIENX
YHGPFAQO -> FRPAXUPD
DKLEEKNP -> KGKVOLPN
KGKVOLPN -> PIOZDKUS
KGKVOLPN -> KHJZOTFU
KGKVOLPN -> ZJNLHVKP
KGKVOLPN -> OXFBNHIX
MOOMBMIG -> XVLTFLNP
XVLTFLNP -> OMDTDSSI
OMDTDSSI -> XKCDCHSI
OMDTDSSI -> LUDBZQJU
OMDTDSSI -> GAQNRCCM
OMDTDSSI -> ZQAWZAMM
XVLTFLNP -> RMNERCOS
RMNERCOS -> UOPZJCKD
RMNERCOS -> MMAMRBOC
RMNERCOS -> LLIQENPB
RMNERCOS -> DEGBPCUX
XVLTFLNP -> GNDXQQEA
GNDXQQEA -> ELZCQONC
GNDXQQEA -> KBPLIMKE
GNDXQQEA -> EOXRQDTT
MOOMBMIG -> DIZJQWDL
DIZJQWDL -> WYWVRZCS
WYWVRZCS -> FNDBOEBK
WYWVRZCS -> BTEJRVEX
WYWVRZCS -> NQFETKTY
WYWVRZCS -> DLUVCKBM
DIZJQWDL -> RIHAITZG
RIHAITZG -> JNCJJFIP
RIHAITZG -> TZHCAZHW

}