digraph D {
JNHWAJNH [shape=circle, label=""]
ZTMQQJWH [shape=circle, label=""]
WNVXCEZJ [shape=circle, label=""]
PWFOBEYL [shape=circle, label=""]
JITNXWHG [shape=circle, label="9"]
NCITQZNC [shape=circle, label="11"]
ZACKNAVI [shape=circle, label="7"]
ARRNQHYR [shape=circle, label="11"]
VMMSVSBS [shape=circle, label=""]
QGCJCQXN [shape=circle, label="9"]
UNJKJLGB [shape=circle, label="4"]
AAGKPCJH [shape=circle, label="13"]
SSDFQMJP [shape=circle, label="2"]
FNKEAXPJ [shape=circle, label=""]
LVFDNUYI [shape=circle, label=""]
ONJKYHTC [shape=circle, label="0"]
APOAOWLN [shape=circle, label="10"]
EOFSJGHC [shape=circle, label=""]
JOTDDMPP [shape=circle, label="11"]
UCCPMCXT [shape=circle, label="10"]
NJLQCQON [shape=circle, label=""]
AXHNNSDE [shape=circle, label="7"]
QYUHJVUU [shape=circle, label="6"]
AIHORTMK [shape=circle, label=""]
OFSXNAYM [shape=circle, label=""]
UCVPJJOR [shape=circle, label=""]
SEBLGAYX [shape=circle, label="15"]
IJDBEJPN [shape=circle, label="1"]
RIYQIBKY [shape=circle, label="1"]
FUQKQVHG [shape=circle, label="14"]
JEPIDXXF [shape=circle, label=""]
OHJIYKHH [shape=circle, label="1"]
GCLNHKUK [shape=circle, label="7"]
MCUREMRH [shape=circle, label="3"]
VAUOCTZX [shape=circle, label=""]
FOPCFABA [shape=circle, label="10"]
UDULYFYB [shape=circle, label="3"]
XLOMFAOL [shape=circle, label="0"]
GLAGWLIL [shape=circle, label=""]
VXAARUSF [shape=circle, label="8"]
JNAJOJWU [shape=circle, label="9"]
LZTGDMQQ [shape=circle, label="11"]
GYGJIWZF [shape=circle, label="12"]
GXHXSFMX [shape=circle, label=""]
GZBOLJCN [shape=circle, label=""]
UWMRXLLO [shape=circle, label="9"]
QWKDWJKQ [shape=circle, label="7"]
PAFVWBXH [shape=circle, label="2"]
WFFJPUZL [shape=circle, label="6"]
HTFNCBCM [shape=circle, label=""]
RGRLAOPI [shape=circle, label="12"]
SZJAFURE [shape=circle, label="9"]
NXHIVSMS [shape=circle, label="0"]
BVZJMZDU [shape=circle, label="2"]
GKADGHRN [shape=circle, label=""]
MCQFEHSU [shape=circle, label="10"]
UVIOCVPY [shape=circle, label="10"]
VQIIIAGG [shape=circle, label=""]
RIIOVUDH [shape=circle, label="9"]
RXOIWQGG [shape=circle, label="7"]
GCXIJLIG [shape=circle, label=""]
ZEZSOIQQ [shape=circle, label=""]
KHWJHNTE [shape=circle, label="9"]
FNOIXSAD [shape=circle, label="14"]
VJHESZWZ [shape=circle, label=""]
WFSIGVEA [shape=circle, label="3"]
UPHYYFEF [shape=circle, label="9"]

JNHWAJNH -> ZTMQQJWH
ZTMQQJWH -> WNVXCEZJ
WNVXCEZJ -> PWFOBEYL
PWFOBEYL -> JITNXWHG
PWFOBEYL -> NCITQZNC
PWFOBEYL -> ZACKNAVI
PWFOBEYL -> ARRNQHYR
WNVXCEZJ -> VMMSVSBS
VMMSVSBS -> QGCJCQXN
VMMSVSBS -> UNJKJLGB
VMMSVSBS -> AAGKPCJH
VMMSVSBS -> SSDFQMJP
ZTMQQJWH -> FNKEAXPJ
FNKEAXPJ -> LVFDNUYI
LVFDNUYI -> ONJKYHTC
LVFDNUYI -> APOAOWLN
FNKEAXPJ -> EOFSJGHC
EOFSJGHC -> JOTDDMPP
EOFSJGHC -> UCCPMCXT
FNKEAXPJ -> NJLQCQON
NJLQCQON -> AXHNNSDE
NJLQCQON -> QYUHJVUU
JNHWAJNH -> AIHORTMK
AIHORTMK -> OFSXNAYM
OFSXNAYM -> UCVPJJOR
UCVPJJOR -> SEBLGAYX
UCVPJJOR -> IJDBEJPN
UCVPJJOR -> RIYQIBKY
UCVPJJOR -> FUQKQVHG
OFSXNAYM -> JEPIDXXF
JEPIDXXF -> OHJIYKHH
JEPIDXXF -> GCLNHKUK
JEPIDXXF -> MCUREMRH
OFSXNAYM -> VAUOCTZX
VAUOCTZX -> FOPCFABA
VAUOCTZX -> UDULYFYB
VAUOCTZX -> XLOMFAOL
OFSXNAYM -> GLAGWLIL
GLAGWLIL -> VXAARUSF
GLAGWLIL -> JNAJOJWU
GLAGWLIL -> LZTGDMQQ
GLAGWLIL -> GYGJIWZF
AIHORTMK -> GXHXSFMX
GXHXSFMX -> GZBOLJCN
GZBOLJCN -> UWMRXLLO
GZBOLJCN -> QWKDWJKQ
GZBOLJCN -> PAFVWBXH
GZBOLJCN -> WFFJPUZL
GXHXSFMX -> HTFNCBCM
HTFNCBCM -> RGRLAOPI
HTFNCBCM -> SZJAFURE
HTFNCBCM -> NXHIVSMS
HTFNCBCM -> BVZJMZDU
GXHXSFMX -> GKADGHRN
GKADGHRN -> MCQFEHSU
GKADGHRN -> UVIOCVPY
GXHXSFMX -> VQIIIAGG
VQIIIAGG -> RIIOVUDH
VQIIIAGG -> RXOIWQGG
AIHORTMK -> GCXIJLIG
GCXIJLIG -> ZEZSOIQQ
ZEZSOIQQ -> KHWJHNTE
ZEZSOIQQ -> FNOIXSAD
GCXIJLIG -> VJHESZWZ
VJHESZWZ -> WFSIGVEA
VJHESZWZ -> UPHYYFEF

}