digraph D {
IHROJDAQ [shape=circle, label=""]
PMQLIYYN [shape=circle, label=""]
NDPEXKGQ [shape=circle, label=""]
YWKFVPIT [shape=circle, label=""]
NXOZIIUQ [shape=circle, label="9"]
VAETHPPY [shape=circle, label="11"]
NTXKORQE [shape=circle, label=""]
GQHYJNPQ [shape=circle, label="15"]
DQTPZRIA [shape=circle, label="5"]
OQVWQFMB [shape=circle, label="3"]
XGOKNETR [shape=circle, label="10"]
BONKVRYL [shape=circle, label=""]
FOVOYAZY [shape=circle, label="9"]
DEIZAYET [shape=circle, label="14"]
OAGQCONI [shape=circle, label="1"]
TLGOCHMZ [shape=circle, label="10"]
HYKTEXWG [shape=circle, label=""]
MQMGCQTM [shape=circle, label="3"]
ZPDGRLWO [shape=circle, label="9"]
GMCSWSHR [shape=circle, label=""]
RKKJWEWQ [shape=circle, label=""]
DHMQQMKU [shape=circle, label="11"]
PEGWGMEG [shape=circle, label="2"]
KASIABWO [shape=circle, label="11"]
JGTYNXOR [shape=circle, label=""]
SFZEJMIG [shape=circle, label="6"]
CZWPXOAT [shape=circle, label="8"]
EZRDONCP [shape=circle, label=""]
SIANNSAN [shape=circle, label="8"]
ERNZSJZW [shape=circle, label="3"]
VITUEZEK [shape=circle, label="9"]
RTVIVDIQ [shape=circle, label="11"]
OKVNUNVW [shape=circle, label=""]
ICHWZZZX [shape=circle, label="11"]
LLKDKXBF [shape=circle, label="9"]
JUKAQRPB [shape=circle, label=""]
VYOITXBW [shape=circle, label=""]
BKAKSISD [shape=circle, label="6"]
AUPIPHJC [shape=circle, label="8"]
QSYAQEAL [shape=circle, label="4"]
OOYZWCJP [shape=circle, label="2"]
FKLQRIBK [shape=circle, label=""]
SJWVZJGP [shape=circle, label="9"]
HAXQNBWJ [shape=circle, label="15"]
ETWZADAL [shape=circle, label="8"]
ZZLLBXQI [shape=circle, label=""]
GWTWNXGJ [shape=circle, label="13"]
SCQCFTVE [shape=circle, label="2"]
NEJUPPXT [shape=circle, label="0"]
IRFKISEP [shape=circle, label="11"]
WXGCKPON [shape=circle, label=""]
HXVJCTWL [shape=circle, label="13"]
VOLZYVVC [shape=circle, label="6"]
DMRZLUTN [shape=circle, label="11"]
KRYGNVHH [shape=circle, label="12"]
FRWTLBQE [shape=circle, label=""]
DFOPCYWR [shape=circle, label=""]
AKTERXCL [shape=circle, label="7"]
LRKUXUVI [shape=circle, label="13"]
GPXEROFG [shape=circle, label="6"]
ZMHDMRWN [shape=circle, label=""]
KMXJPZFG [shape=circle, label="14"]
KZOMCILP [shape=circle, label="7"]
YKTMZLOK [shape=circle, label="14"]
ZCLIEHOS [shape=circle, label=""]
LRPQVVMM [shape=circle, label="1"]
DDDOLWGD [shape=circle, label="1"]
JNGVHFOO [shape=circle, label=""]
HYVEWRKC [shape=circle, label=""]
ZRYYNJZK [shape=circle, label=""]
UTNAUECY [shape=circle, label="2"]
BFJSRHHY [shape=circle, label="6"]
DAMNZGQW [shape=circle, label=""]
FNJIVRPX [shape=circle, label="1"]
MXPLSTWA [shape=circle, label="5"]
YAVFZZQG [shape=circle, label="10"]
YCNVKRRW [shape=circle, label="2"]
LKYPZFJL [shape=circle, label=""]
RGVVEQUE [shape=circle, label="1"]
MMFPNTXH [shape=circle, label="11"]
ZLOMMDAO [shape=circle, label=""]
BGMUQWOD [shape=circle, label="15"]
STZUIRAP [shape=circle, label="15"]
AXKYGBGR [shape=circle, label="7"]
KHXFKDAP [shape=circle, label=""]
KGMORAJH [shape=circle, label=""]
FJBMZZMR [shape=circle, label="13"]
EGGKMDDU [shape=circle, label="12"]
BCJPSOQC [shape=circle, label="9"]
QIYHLPGK [shape=circle, label="7"]
OSLQDPFE [shape=circle, label=""]
KHAQDQHB [shape=circle, label="11"]
VIOTBSIK [shape=circle, label="3"]
EGYIEAGR [shape=circle, label="1"]
HCMPKBRO [shape=circle, label=""]
KAGITPTI [shape=circle, label="13"]
NCGLEVTK [shape=circle, label="15"]
QIHACCVG [shape=circle, label="12"]
UNSASPSS [shape=circle, label=""]
KVHBGEMY [shape=circle, label="8"]
JSEGBUKD [shape=circle, label="5"]
NJYGUMHI [shape=circle, label="3"]
VFRCDLRM [shape=circle, label="14"]
ZNAUQVLQ [shape=circle, label=""]
JTUZYLVR [shape=circle, label=""]
IUJAZHMV [shape=circle, label="5"]
CYLDYYJU [shape=circle, label="5"]
TEMSVWTR [shape=circle, label="7"]
OOGYWSIM [shape=circle, label="4"]
GOCJDDHD [shape=circle, label=""]
VTZXBSGL [shape=circle, label="1"]
WQLMFOSJ [shape=circle, label="12"]
OBMIVMBN [shape=circle, label="10"]
ZYESQMII [shape=circle, label="13"]
IIQQYKKI [shape=circle, label=""]
MBJIMZHQ [shape=circle, label="5"]
VZSLSJTZ [shape=circle, label="9"]
TZSZIUVB [shape=circle, label="14"]
GFROUHLU [shape=circle, label=""]
EBVAHFLK [shape=circle, label="11"]
ZQQBVHZD [shape=circle, label="3"]
PPJJMIUM [shape=circle, label="14"]
MAWZLHUK [shape=circle, label="2"]

IHROJDAQ -> PMQLIYYN
PMQLIYYN -> NDPEXKGQ
NDPEXKGQ -> YWKFVPIT
YWKFVPIT -> NXOZIIUQ
YWKFVPIT -> VAETHPPY
NDPEXKGQ -> NTXKORQE
NTXKORQE -> GQHYJNPQ
NTXKORQE -> DQTPZRIA
NTXKORQE -> OQVWQFMB
NTXKORQE -> XGOKNETR
NDPEXKGQ -> BONKVRYL
BONKVRYL -> FOVOYAZY
BONKVRYL -> DEIZAYET
BONKVRYL -> OAGQCONI
BONKVRYL -> TLGOCHMZ
NDPEXKGQ -> HYKTEXWG
HYKTEXWG -> MQMGCQTM
HYKTEXWG -> ZPDGRLWO
PMQLIYYN -> GMCSWSHR
GMCSWSHR -> RKKJWEWQ
RKKJWEWQ -> DHMQQMKU
RKKJWEWQ -> PEGWGMEG
RKKJWEWQ -> KASIABWO
GMCSWSHR -> JGTYNXOR
JGTYNXOR -> SFZEJMIG
JGTYNXOR -> CZWPXOAT
GMCSWSHR -> EZRDONCP
EZRDONCP -> SIANNSAN
EZRDONCP -> ERNZSJZW
EZRDONCP -> VITUEZEK
EZRDONCP -> RTVIVDIQ
GMCSWSHR -> OKVNUNVW
OKVNUNVW -> ICHWZZZX
OKVNUNVW -> LLKDKXBF
PMQLIYYN -> JUKAQRPB
JUKAQRPB -> VYOITXBW
VYOITXBW -> BKAKSISD
VYOITXBW -> AUPIPHJC
VYOITXBW -> QSYAQEAL
VYOITXBW -> OOYZWCJP
JUKAQRPB -> FKLQRIBK
FKLQRIBK -> SJWVZJGP
FKLQRIBK -> HAXQNBWJ
FKLQRIBK -> ETWZADAL
JUKAQRPB -> ZZLLBXQI
ZZLLBXQI -> GWTWNXGJ
ZZLLBXQI -> SCQCFTVE
ZZLLBXQI -> NEJUPPXT
ZZLLBXQI -> IRFKISEP
JUKAQRPB -> WXGCKPON
WXGCKPON -> HXVJCTWL
WXGCKPON -> VOLZYVVC
WXGCKPON -> DMRZLUTN
WXGCKPON -> KRYGNVHH
PMQLIYYN -> FRWTLBQE
FRWTLBQE -> DFOPCYWR
DFOPCYWR -> AKTERXCL
DFOPCYWR -> LRKUXUVI
DFOPCYWR -> GPXEROFG
FRWTLBQE -> ZMHDMRWN
ZMHDMRWN -> KMXJPZFG
ZMHDMRWN -> KZOMCILP
ZMHDMRWN -> YKTMZLOK
FRWTLBQE -> ZCLIEHOS
ZCLIEHOS -> LRPQVVMM
ZCLIEHOS -> DDDOLWGD
IHROJDAQ -> JNGVHFOO
JNGVHFOO -> HYVEWRKC
HYVEWRKC -> ZRYYNJZK
ZRYYNJZK -> UTNAUECY
ZRYYNJZK -> BFJSRHHY
HYVEWRKC -> DAMNZGQW
DAMNZGQW -> FNJIVRPX
DAMNZGQW -> MXPLSTWA
DAMNZGQW -> YAVFZZQG
DAMNZGQW -> YCNVKRRW
HYVEWRKC -> LKYPZFJL
LKYPZFJL -> RGVVEQUE
LKYPZFJL -> MMFPNTXH
HYVEWRKC -> ZLOMMDAO
ZLOMMDAO -> BGMUQWOD
ZLOMMDAO -> STZUIRAP
ZLOMMDAO -> AXKYGBGR
JNGVHFOO -> KHXFKDAP
KHXFKDAP -> KGMORAJH
KGMORAJH -> FJBMZZMR
KGMORAJH -> EGGKMDDU
KGMORAJH -> BCJPSOQC
KGMORAJH -> QIYHLPGK
KHXFKDAP -> OSLQDPFE
OSLQDPFE -> KHAQDQHB
OSLQDPFE -> VIOTBSIK
OSLQDPFE -> EGYIEAGR
KHXFKDAP -> HCMPKBRO
HCMPKBRO -> KAGITPTI
HCMPKBRO -> NCGLEVTK
HCMPKBRO -> QIHACCVG
KHXFKDAP -> UNSASPSS
UNSASPSS -> KVHBGEMY
UNSASPSS -> JSEGBUKD
UNSASPSS -> NJYGUMHI
UNSASPSS -> VFRCDLRM
JNGVHFOO -> ZNAUQVLQ
ZNAUQVLQ -> JTUZYLVR
JTUZYLVR -> IUJAZHMV
JTUZYLVR -> CYLDYYJU
JTUZYLVR -> TEMSVWTR
JTUZYLVR -> OOGYWSIM
ZNAUQVLQ -> GOCJDDHD
GOCJDDHD -> VTZXBSGL
GOCJDDHD -> WQLMFOSJ
GOCJDDHD -> OBMIVMBN
GOCJDDHD -> ZYESQMII
ZNAUQVLQ -> IIQQYKKI
IIQQYKKI -> MBJIMZHQ
IIQQYKKI -> VZSLSJTZ
IIQQYKKI -> TZSZIUVB
ZNAUQVLQ -> GFROUHLU
GFROUHLU -> EBVAHFLK
GFROUHLU -> ZQQBVHZD
GFROUHLU -> PPJJMIUM
GFROUHLU -> MAWZLHUK

}